EESchema Schematic File Version 5
EELAYER 33 0
EELAYER END
$Descr A4 11693 8268
encoding utf-8
Sheet 10 22
Title ""
Date "2019-11-23"
Rev ""
Comp ""
Comment1 "Licence: CC-BY"
Comment2 "Author: Loïc *WydD* Petit"
Comment3 ""
Comment4 ""
Comment5 ""
Comment6 ""
Comment7 ""
Comment8 ""
Comment9 ""
$EndDescr
Connection ~ 5200 3650
Connection ~ 4600 3450
Connection ~ 4600 3750
Connection ~ 6100 2350
Connection ~ 5750 2950
Connection ~ 6500 3550
Connection ~ 7000 2950
Connection ~ 7000 3550
Connection ~ 7000 4150
Connection ~ 6100 4750
Connection ~ 5650 6900
Connection ~ 5650 7200
Connection ~ 6700 3550
Connection ~ 7400 4150
Connection ~ 7400 2950
Wire Wire Line
	3400 3450 3650 3450
Wire Wire Line
	4250 3450 4600 3450
Wire Wire Line
	4600 3450 5200 3450
Wire Wire Line
	4600 3750 5200 3750
Wire Wire Line
	5000 2750 5300 2750
Wire Wire Line
	5000 3200 5200 3200
Wire Wire Line
	5200 3550 5200 3650
Wire Wire Line
	5200 3650 5200 3750
Wire Wire Line
	5200 7200 5650 7200
Wire Wire Line
	5600 2750 5600 2950
Wire Wire Line
	5650 4350 5650 4100
Wire Wire Line
	5650 6900 5200 6900
Wire Wire Line
	5650 7200 6100 7200
Wire Wire Line
	5750 2600 5750 2950
Wire Wire Line
	5750 4100 5750 5100
Wire Wire Line
	5750 5100 5600 5100
Wire Wire Line
	5950 2950 5750 2950
Wire Wire Line
	6100 2650 6100 2950
Wire Wire Line
	6100 4400 6100 4750
Wire Wire Line
	6100 6900 5650 6900
Wire Wire Line
	6500 2650 6500 3250
Wire Wire Line
	6500 2650 7000 2650
Wire Wire Line
	6500 3500 6500 3550
Wire Wire Line
	6500 3550 6500 3600
Wire Wire Line
	6500 3550 6700 3550
Wire Wire Line
	6500 3850 6500 4450
Wire Wire Line
	6500 4450 7000 4450
Wire Wire Line
	6550 2350 6100 2350
Wire Wire Line
	6550 4750 6100 4750
Wire Wire Line
	6700 2950 6700 3350
Wire Wire Line
	6700 3350 6500 3350
Wire Wire Line
	6700 3550 7000 3550
Wire Wire Line
	6700 3750 6500 3750
Wire Wire Line
	6700 4150 6700 3750
Wire Wire Line
	6850 2350 7400 2350
Wire Wire Line
	6850 4750 7400 4750
Wire Wire Line
	7000 2950 6700 2950
Wire Wire Line
	7000 2950 7400 2950
Wire Wire Line
	7000 4150 6700 4150
Wire Wire Line
	7000 4150 7400 4150
Wire Wire Line
	7400 2350 7400 2950
Wire Wire Line
	7400 2950 7400 3400
Wire Wire Line
	7400 3700 7400 4150
Wire Wire Line
	7400 4150 7400 4750
Wire Wire Line
	7650 2950 7400 2950
Wire Wire Line
	7650 4150 7400 4150
Text HLabel 3400 3450 0    50   Input ~ 0
MONO
Text HLabel 5600 5100 0    50   Output ~ 0
SHORT-DET
Text HLabel 7650 2950 2    50   Output ~ 0
SPEAKER+
Text HLabel 7650 4150 2    50   Output ~ 0
SPEAKER-
$Comp
L power:+12V #PWR0266
U 1 1 5F1D5623
P 5000 3200
F 0 "#PWR0266" H 5000 3050 50  0001 C CNN
F 1 "+12V" H 5015 3373 50  0000 C CNN
F 2 "" H 5000 3200 50  0001 C CNN
F 3 "" H 5000 3200 50  0001 C CNN
	1    5000 3200
	1    0    0    -1  
$EndComp
$Comp
L power:+12V #PWR?
U 1 1 5F24E06B
P 5650 6900
AR Path="/5F24E06B" Ref="#PWR?"  Part="1" 
AR Path="/5F18B8F1/5F24E06B" Ref="#PWR0267"  Part="1" 
F 0 "#PWR0267" H 5650 6750 50  0001 C CNN
F 1 "+12V" H 5665 7073 50  0000 C CNN
F 2 "" H 5650 6900 50  0001 C CNN
F 3 "" H 5650 6900 50  0001 C CNN
	1    5650 6900
	1    0    0    -1  
$EndComp
$Comp
L power:+12V #PWR0265
U 1 1 5F1D29E0
P 5750 2600
F 0 "#PWR0265" H 5750 2450 50  0001 C CNN
F 1 "+12V" H 5765 2773 50  0000 C CNN
F 2 "" H 5750 2600 50  0001 C CNN
F 3 "" H 5750 2600 50  0001 C CNN
	1    5750 2600
	1    0    0    -1  
$EndComp
$Comp
L power:GND #PWR?
U 1 1 5F1D0C9C
P 4600 3750
AR Path="/5DDD7054/5F1D0C9C" Ref="#PWR?"  Part="1" 
AR Path="/5F18B8F1/5F1D0C9C" Ref="#PWR0264"  Part="1" 
F 0 "#PWR0264" H 4600 3500 50  0001 C CNN
F 1 "GND" H 4605 3577 50  0001 C CNN
F 2 "" H 4600 3750 50  0001 C CNN
F 3 "" H 4600 3750 50  0001 C CNN
	1    4600 3750
	1    0    0    -1  
$EndComp
$Comp
L power:GND #PWR0263
U 1 1 5F192D25
P 5000 2750
F 0 "#PWR0263" H 5000 2500 50  0001 C CNN
F 1 "GND" H 5005 2577 50  0001 C CNN
F 2 "" H 5000 2750 50  0001 C CNN
F 3 "" H 5000 2750 50  0001 C CNN
	1    5000 2750
	1    0    0    -1  
$EndComp
$Comp
L power:GND #PWR?
U 1 1 5F250D8A
P 5250 4350
AR Path="/5DDD7054/5F250D8A" Ref="#PWR?"  Part="1" 
AR Path="/5F18B8F1/5F250D8A" Ref="#PWR0269"  Part="1" 
F 0 "#PWR0269" H 5250 4100 50  0001 C CNN
F 1 "GND" H 5255 4177 50  0001 C CNN
F 2 "" H 5250 4350 50  0001 C CNN
F 3 "" H 5250 4350 50  0001 C CNN
	1    5250 4350
	1    0    0    -1  
$EndComp
$Comp
L power:GND #PWR?
U 1 1 5F24E077
P 5650 7200
AR Path="/5F24E077" Ref="#PWR?"  Part="1" 
AR Path="/5F18B8F1/5F24E077" Ref="#PWR0268"  Part="1" 
F 0 "#PWR0268" H 5650 6950 50  0001 C CNN
F 1 "GND" H 5655 7027 50  0001 C CNN
F 2 "" H 5650 7200 50  0001 C CNN
F 3 "" H 5650 7200 50  0001 C CNN
	1    5650 7200
	1    0    0    -1  
$EndComp
$Comp
L power:GND #PWR?
U 1 1 5F26318C
P 6100 2050
AR Path="/5DDD7054/5F26318C" Ref="#PWR?"  Part="1" 
AR Path="/5F18B8F1/5F26318C" Ref="#PWR0271"  Part="1" 
F 0 "#PWR0271" H 6100 1800 50  0001 C CNN
F 1 "GND" H 6105 1877 50  0001 C CNN
F 2 "" H 6100 2050 50  0001 C CNN
F 3 "" H 6100 2050 50  0001 C CNN
	1    6100 2050
	-1   0    0    1   
$EndComp
$Comp
L power:GND #PWR?
U 1 1 5F257157
P 6100 5050
AR Path="/5DDD7054/5F257157" Ref="#PWR?"  Part="1" 
AR Path="/5F18B8F1/5F257157" Ref="#PWR0270"  Part="1" 
F 0 "#PWR0270" H 6100 4800 50  0001 C CNN
F 1 "GND" H 6105 4877 50  0001 C CNN
F 2 "" H 6100 5050 50  0001 C CNN
F 3 "" H 6100 5050 50  0001 C CNN
	1    6100 5050
	1    0    0    -1  
$EndComp
$Comp
L power:GND #PWR?
U 1 1 5F26B4AE
P 6700 3550
AR Path="/5DDD7054/5F26B4AE" Ref="#PWR?"  Part="1" 
AR Path="/5F18B8F1/5F26B4AE" Ref="#PWR0272"  Part="1" 
F 0 "#PWR0272" H 6700 3300 50  0001 C CNN
F 1 "GND" H 6705 3377 50  0001 C CNN
F 2 "" H 6700 3550 50  0001 C CNN
F 3 "" H 6700 3550 50  0001 C CNN
	1    6700 3550
	1    0    0    -1  
$EndComp
$Comp
L Device:R R?
U 1 1 5F1D0CA3
P 4100 3450
AR Path="/5DDD7054/5F1D0CA3" Ref="R?"  Part="1" 
AR Path="/5F18B8F1/5F1D0CA3" Ref="R15"  Part="1" 
F 0 "R15" V 3893 3450 50  0000 C CNN
F 1 "1k" V 3984 3450 50  0000 C CNN
F 2 "" V 4030 3450 50  0001 C CNN
F 3 "~" H 4100 3450 50  0001 C CNN
	1    4100 3450
	0    -1   1    0   
$EndComp
$Comp
L Device:R R?
U 1 1 5F1D0C95
P 4600 3600
AR Path="/5DDD7054/5F1D0C95" Ref="R?"  Part="1" 
AR Path="/5F18B8F1/5F1D0C95" Ref="R16"  Part="1" 
F 0 "R16" H 4530 3554 50  0000 R CNN
F 1 "750" H 4530 3645 50  0000 R CNN
F 2 "" V 4530 3600 50  0001 C CNN
F 3 "~" H 4600 3600 50  0001 C CNN
	1    4600 3600
	1    0    0    1   
$EndComp
$Comp
L Device:R R?
U 1 1 5F25EAF4
P 6100 2200
AR Path="/5DDD7054/5F25EAF4" Ref="R?"  Part="1" 
AR Path="/5F18B8F1/5F25EAF4" Ref="R10"  Part="1" 
F 0 "R10" H 6030 2154 50  0000 R CNN
F 1 "62" H 6030 2245 50  0000 R CNN
F 2 "" V 6030 2200 50  0001 C CNN
F 3 "~" H 6100 2200 50  0001 C CNN
	1    6100 2200
	-1   0    0    -1  
$EndComp
$Comp
L Device:R R?
U 1 1 5F256DBB
P 6100 4900
AR Path="/5DDD7054/5F256DBB" Ref="R?"  Part="1" 
AR Path="/5F18B8F1/5F256DBB" Ref="R14"  Part="1" 
F 0 "R14" H 6030 4854 50  0000 R CNN
F 1 "62" H 6030 4945 50  0000 R CNN
F 2 "" V 6030 4900 50  0001 C CNN
F 3 "~" H 6100 4900 50  0001 C CNN
	1    6100 4900
	1    0    0    1   
$EndComp
$Comp
L Device:R R?
U 1 1 5F25EAFA
P 6700 2350
AR Path="/5DDD7054/5F25EAFA" Ref="R?"  Part="1" 
AR Path="/5F18B8F1/5F25EAFA" Ref="R9"  Part="1" 
F 0 "R9" V 6493 2350 50  0000 C CNN
F 1 "2.2k" V 6584 2350 50  0000 C CNN
F 2 "" V 6630 2350 50  0001 C CNN
F 3 "~" H 6700 2350 50  0001 C CNN
	1    6700 2350
	0    -1   -1   0   
$EndComp
$Comp
L Device:R R?
U 1 1 5F25801B
P 6700 4750
AR Path="/5DDD7054/5F25801B" Ref="R?"  Part="1" 
AR Path="/5F18B8F1/5F25801B" Ref="R6"  Part="1" 
F 0 "R6" V 6493 4750 50  0000 C CNN
F 1 "2.2k" V 6584 4750 50  0000 C CNN
F 2 "" V 6630 4750 50  0001 C CNN
F 3 "~" H 6700 4750 50  0001 C CNN
	1    6700 4750
	0    -1   1    0   
$EndComp
$Comp
L Device:R R?
U 1 1 5F26F4E8
P 7000 3100
AR Path="/5DDD7054/5F26F4E8" Ref="R?"  Part="1" 
AR Path="/5F18B8F1/5F26F4E8" Ref="R8"  Part="1" 
F 0 "R8" H 6930 3054 50  0000 R CNN
F 1 "1.2" H 6930 3145 50  0000 R CNN
F 2 "" V 6930 3100 50  0001 C CNN
F 3 "~" H 7000 3100 50  0001 C CNN
	1    7000 3100
	1    0    0    1   
$EndComp
$Comp
L Device:R R?
U 1 1 5F26FCA9
P 7000 4000
AR Path="/5DDD7054/5F26FCA9" Ref="R?"  Part="1" 
AR Path="/5F18B8F1/5F26FCA9" Ref="R4"  Part="1" 
F 0 "R4" H 6930 3954 50  0000 R CNN
F 1 "1.2" H 6930 4045 50  0000 R CNN
F 2 "" V 6930 4000 50  0001 C CNN
F 3 "~" H 7000 4000 50  0001 C CNN
	1    7000 4000
	1    0    0    1   
$EndComp
$Comp
L Jumper:Jumper_2_Open TP1
U 1 1 5F24FF05
P 5450 4350
F 0 "TP1" H 5450 4493 50  0000 C CNN
F 1 "Jumper_2_Open" H 5450 4494 50  0001 C CNN
F 2 "" H 5450 4350 50  0001 C CNN
F 3 "~" H 5450 4350 50  0001 C CNN
	1    5450 4350
	1    0    0    -1  
$EndComp
$Comp
L Device:C C3
U 1 1 5F28CF24
P 5200 7050
F 0 "C3" H 5085 7004 50  0000 R CNN
F 1 "0.1u" H 5085 7095 50  0000 R CNN
F 2 "" H 5238 6900 50  0001 C CNN
F 3 "~" H 5200 7050 50  0001 C CNN
	1    5200 7050
	-1   0    0    1   
$EndComp
$Comp
L Device:C C5
U 1 1 5F25A5B5
P 7000 3400
F 0 "C5" H 6885 3354 50  0000 R CNN
F 1 "47n" H 6885 3445 50  0000 R CNN
F 2 "" H 7038 3250 50  0001 C CNN
F 3 "~" H 7000 3400 50  0001 C CNN
	1    7000 3400
	-1   0    0    1   
$EndComp
$Comp
L Device:C C2
U 1 1 5F25A4B3
P 7000 3700
F 0 "C2" H 7115 3746 50  0000 L CNN
F 1 "47n" H 7115 3655 50  0000 L CNN
F 2 "" H 7038 3550 50  0001 C CNN
F 3 "~" H 7000 3700 50  0001 C CNN
	1    7000 3700
	1    0    0    -1  
$EndComp
$Comp
L Device:C C1
U 1 1 5F259BE9
P 7400 3550
F 0 "C1" H 7285 3504 50  0000 R CNN
F 1 "1n" H 7285 3595 50  0000 R CNN
F 2 "" H 7438 3400 50  0001 C CNN
F 3 "~" H 7400 3550 50  0001 C CNN
	1    7400 3550
	-1   0    0    1   
$EndComp
$Comp
L Device:CP CC?
U 1 1 5F1D0C8F
P 3800 3450
AR Path="/5DDD7054/5F1D0C8F" Ref="CC?"  Part="1" 
AR Path="/5F18B8F1/5F1D0C8F" Ref="CC14"  Part="1" 
F 0 "CC14" V 3545 3450 50  0000 C CNN
F 1 "47u" V 3636 3450 50  0000 C CNN
F 2 "" H 3838 3300 50  0001 C CNN
F 3 "~" H 3800 3450 50  0001 C CNN
	1    3800 3450
	0    -1   1    0   
$EndComp
$Comp
L Device:CP CC12
U 1 1 5F1960DB
P 5450 2750
F 0 "CC12" V 5195 2750 50  0000 C CNN
F 1 "47u" V 5286 2750 50  0000 C CNN
F 2 "" H 5488 2600 50  0001 C CNN
F 3 "~" H 5450 2750 50  0001 C CNN
	1    5450 2750
	0    1    1    0   
$EndComp
$Comp
L Device:CP CC3
U 1 1 5F28D473
P 5650 7050
F 0 "CC3" H 5768 7096 50  0000 L CNN
F 1 "10u" H 5768 7005 50  0000 L CNN
F 2 "" H 5688 6900 50  0001 C CNN
F 3 "~" H 5650 7050 50  0001 C CNN
	1    5650 7050
	1    0    0    -1  
$EndComp
$Comp
L Device:CP CC11
U 1 1 5F25EAEE
P 6100 2500
F 0 "CC11" H 5982 2454 50  0000 R CNN
F 1 "100u" H 5982 2545 50  0000 R CNN
F 2 "" H 6138 2350 50  0001 C CNN
F 3 "~" H 6100 2500 50  0001 C CNN
	1    6100 2500
	-1   0    0    1   
$EndComp
$Comp
L Device:CP CC15
U 1 1 5F254367
P 6100 4250
F 0 "CC15" H 6218 4296 50  0000 L CNN
F 1 "100u" H 6218 4205 50  0000 L CNN
F 2 "" H 6138 4100 50  0001 C CNN
F 3 "~" H 6100 4250 50  0001 C CNN
	1    6100 4250
	1    0    0    -1  
$EndComp
$Comp
L Device:CP C?
U 1 1 5F24E071
P 6100 7050
AR Path="/5F24E071" Ref="C?"  Part="1" 
AR Path="/5F18B8F1/5F24E071" Ref="CC1"  Part="1" 
F 0 "CC1" H 6218 7096 50  0000 L CNN
F 1 "1000u" H 6218 7005 50  0000 L CNN
F 2 "" H 6138 6900 50  0001 C CNN
F 3 "~" H 6100 7050 50  0001 C CNN
	1    6100 7050
	1    0    0    -1  
$EndComp
$Comp
L Device:CP CC7
U 1 1 5F26BE3B
P 7000 2800
F 0 "CC7" H 7118 2846 50  0000 L CNN
F 1 "220u" H 7118 2755 50  0000 L CNN
F 2 "" H 7038 2650 50  0001 C CNN
F 3 "~" H 7000 2800 50  0001 C CNN
	1    7000 2800
	1    0    0    -1  
$EndComp
$Comp
L Device:CP CC5
U 1 1 5F26B942
P 7000 4300
F 0 "CC5" H 6882 4254 50  0000 R CNN
F 1 "220u" H 6882 4345 50  0000 R CNN
F 2 "" H 7038 4150 50  0001 C CNN
F 3 "~" H 7000 4300 50  0001 C CNN
	1    7000 4300
	-1   0    0    1   
$EndComp
$Comp
L CPS2-Custom:TA8225H UA14
U 1 1 5F191DAF
P 5850 3550
F 0 "UA14" H 5400 4100 50  0000 C CNN
F 1 "TA8225H" H 6300 3050 50  0000 C CNN
F 2 "" H 5850 3550 50  0001 C CNN
F 3 "" H 5850 3550 50  0001 C CNN
	1    5850 3550
	1    0    0    -1  
$EndComp
$EndSCHEMATC
