EESchema Schematic File Version 5
EELAYER 33 0
EELAYER END
$Descr A4 11693 8268
encoding utf-8
Sheet 10 22
Title ""
Date "2019-11-23"
Rev ""
Comp ""
Comment1 "Licence: CC-BY"
Comment2 "Author: Loïc *WydD* Petit"
Comment3 ""
Comment4 ""
Comment5 ""
Comment6 ""
Comment7 ""
Comment8 ""
Comment9 ""
$EndDescr
Connection ~ 4150 2650
Connection ~ 4150 2750
Connection ~ 4150 2850
Connection ~ 4150 2950
Connection ~ 4150 3050
Connection ~ 4150 3150
Connection ~ 4150 3250
Connection ~ 4150 3350
Connection ~ 4150 3450
Connection ~ 4150 3550
Connection ~ 4150 3650
Connection ~ 4150 3750
Connection ~ 4150 3850
Connection ~ 4150 3950
Connection ~ 4150 4050
Connection ~ 4150 4150
Connection ~ 4150 4250
Connection ~ 4150 4350
Connection ~ 4150 4450
Connection ~ 4150 4550
Connection ~ 4150 4650
Connection ~ 4150 4750
Connection ~ 4150 4850
Connection ~ 4150 4950
Connection ~ 4150 5250
Connection ~ 4150 5350
Connection ~ 4150 5450
Connection ~ 4150 5550
Connection ~ 5200 4300
Connection ~ 5200 4400
Connection ~ 5200 4500
Connection ~ 5200 4600
Connection ~ 5200 4700
Connection ~ 5200 4800
Connection ~ 5200 5100
Connection ~ 5200 5200
Connection ~ 5200 5300
Connection ~ 5200 5400
Connection ~ 5200 5500
Connection ~ 5200 5600
NoConn ~ 5200 3700
NoConn ~ 5200 3800
NoConn ~ 5200 3900
NoConn ~ 5200 4000
Entry Wire Line
	5750 5800 5850 5700
Entry Wire Line
	5750 5900 5850 5800
Entry Wire Line
	5750 6000 5850 5900
Entry Wire Line
	5750 6100 5850 6000
Entry Wire Line
	5750 6200 5850 6100
Entry Wire Line
	5750 6300 5850 6200
Entry Wire Line
	5750 6400 5850 6300
Entry Wire Line
	5750 6500 5850 6400
Entry Wire Line
	5750 6600 5850 6500
Entry Wire Line
	5750 6700 5850 6600
Entry Wire Line
	5750 6800 5850 6700
Entry Wire Line
	5750 6900 5850 6800
Entry Wire Line
	5750 7000 5850 6900
Entry Wire Line
	5750 7100 5850 7000
Entry Wire Line
	5750 7200 5850 7100
Entry Wire Line
	5750 7300 5850 7200
Entry Wire Line
	5800 1700 5900 1800
Entry Wire Line
	5800 1800 5900 1900
Entry Wire Line
	5800 1900 5900 2000
Entry Wire Line
	5800 2000 5900 2100
Entry Wire Line
	5800 2100 5900 2200
Entry Wire Line
	5800 2200 5900 2300
Entry Wire Line
	5800 2300 5900 2400
Entry Wire Line
	5800 2400 5900 2500
Entry Wire Line
	5800 2500 5900 2600
Entry Wire Line
	5800 2600 5900 2700
Entry Wire Line
	5800 2700 5900 2800
Entry Wire Line
	5800 2800 5900 2900
Entry Wire Line
	5800 2900 5900 3000
Entry Wire Line
	5800 3000 5900 3100
Entry Wire Line
	5800 3100 5900 3200
Entry Wire Line
	5800 3200 5900 3300
Entry Wire Line
	5800 3300 5900 3400
Entry Wire Line
	5800 3400 5900 3500
Entry Wire Line
	5800 3500 5900 3600
Entry Wire Line
	5800 3600 5900 3700
Wire Wire Line
	4000 2650 4150 2650
Wire Wire Line
	4000 5550 4150 5550
Wire Wire Line
	4150 2550 4150 2650
Wire Wire Line
	4150 2650 4150 2750
Wire Wire Line
	4150 2750 4150 2850
Wire Wire Line
	4150 2850 4150 2950
Wire Wire Line
	4150 2950 4150 3050
Wire Wire Line
	4150 3050 4150 3150
Wire Wire Line
	4150 3150 4150 3250
Wire Wire Line
	4150 3250 4150 3350
Wire Wire Line
	4150 3350 4150 3450
Wire Wire Line
	4150 3450 4150 3550
Wire Wire Line
	4150 3550 4150 3650
Wire Wire Line
	4150 3650 4150 3750
Wire Wire Line
	4150 3750 4150 3850
Wire Wire Line
	4150 3850 4150 3950
Wire Wire Line
	4150 3950 4150 4050
Wire Wire Line
	4150 4050 4150 4150
Wire Wire Line
	4150 4150 4150 4250
Wire Wire Line
	4150 4250 4150 4350
Wire Wire Line
	4150 4350 4150 4450
Wire Wire Line
	4150 4450 4150 4550
Wire Wire Line
	4150 4550 4150 4650
Wire Wire Line
	4150 4650 4150 4750
Wire Wire Line
	4150 4750 4150 4850
Wire Wire Line
	4150 4850 4150 4950
Wire Wire Line
	4150 4950 4150 5050
Wire Wire Line
	4150 5150 4150 5250
Wire Wire Line
	4150 5250 4150 5350
Wire Wire Line
	4150 5350 4150 5450
Wire Wire Line
	4150 5450 4150 5550
Wire Wire Line
	4150 5550 4150 5650
Wire Wire Line
	5200 4300 5200 4200
Wire Wire Line
	5200 4400 5200 4300
Wire Wire Line
	5200 4500 5200 4400
Wire Wire Line
	5200 4500 5500 4500
Wire Wire Line
	5200 4600 5200 4500
Wire Wire Line
	5200 4700 5200 4600
Wire Wire Line
	5200 4800 5200 4700
Wire Wire Line
	5200 4900 5200 4800
Wire Wire Line
	5200 5000 5200 5100
Wire Wire Line
	5200 5100 5200 5200
Wire Wire Line
	5200 5200 5200 5300
Wire Wire Line
	5200 5300 5200 5400
Wire Wire Line
	5200 5400 5200 5500
Wire Wire Line
	5200 5500 5200 5600
Wire Wire Line
	5200 5500 5500 5500
Wire Wire Line
	5200 5600 5200 5700
Wire Wire Line
	5200 5800 5750 5800
Wire Wire Line
	5200 5900 5750 5900
Wire Wire Line
	5200 6000 5750 6000
Wire Wire Line
	5200 6100 5750 6100
Wire Wire Line
	5200 6200 5750 6200
Wire Wire Line
	5200 6300 5750 6300
Wire Wire Line
	5200 6400 5750 6400
Wire Wire Line
	5200 6500 5750 6500
Wire Wire Line
	5200 6600 5750 6600
Wire Wire Line
	5200 6700 5750 6700
Wire Wire Line
	5200 6800 5750 6800
Wire Wire Line
	5200 6900 5750 6900
Wire Wire Line
	5200 7000 5750 7000
Wire Wire Line
	5200 7100 5750 7100
Wire Wire Line
	5200 7200 5750 7200
Wire Wire Line
	5200 7300 5750 7300
Wire Wire Line
	5500 1500 5200 1500
Wire Wire Line
	5750 900  5200 900 
Wire Wire Line
	5750 1000 5200 1000
Wire Wire Line
	5750 1100 5200 1100
Wire Wire Line
	5750 1200 5200 1200
Wire Wire Line
	5750 1300 5200 1300
Wire Wire Line
	5750 1400 5200 1400
Wire Wire Line
	5750 1600 5200 1600
Wire Wire Line
	5800 1700 5200 1700
Wire Wire Line
	5800 1800 5200 1800
Wire Wire Line
	5800 1900 5200 1900
Wire Wire Line
	5800 2000 5200 2000
Wire Wire Line
	5800 2100 5200 2100
Wire Wire Line
	5800 2200 5200 2200
Wire Wire Line
	5800 2300 5200 2300
Wire Wire Line
	5800 2400 5200 2400
Wire Wire Line
	5800 2500 5200 2500
Wire Wire Line
	5800 2600 5200 2600
Wire Wire Line
	5800 2700 5200 2700
Wire Wire Line
	5800 2800 5200 2800
Wire Wire Line
	5800 2900 5200 2900
Wire Wire Line
	5800 3000 5200 3000
Wire Wire Line
	5800 3100 5200 3100
Wire Wire Line
	5800 3200 5200 3200
Wire Wire Line
	5800 3300 5200 3300
Wire Wire Line
	5800 3400 5200 3400
Wire Wire Line
	5800 3500 5200 3500
Wire Wire Line
	5800 3600 5200 3600
Wire Bus Line
	5850 5550 5850 5700
Wire Bus Line
	5850 5550 6200 5550
Wire Bus Line
	5850 5700 5850 5900
Wire Bus Line
	5850 5900 5850 6100
Wire Bus Line
	5850 6100 5850 6300
Wire Bus Line
	5850 6300 5850 6500
Wire Bus Line
	5850 6500 5850 6600
Wire Bus Line
	5850 6600 5850 6800
Wire Bus Line
	5850 6800 5850 7000
Wire Bus Line
	5850 7000 5850 7200
Wire Bus Line
	5900 1800 5900 2000
Wire Bus Line
	5900 2000 5900 2200
Wire Bus Line
	5900 2200 5900 2300
Wire Bus Line
	5900 2300 5900 2500
Wire Bus Line
	5900 2500 5900 2700
Wire Bus Line
	5900 2700 5900 2900
Wire Bus Line
	5900 2900 5900 3100
Wire Bus Line
	5900 3100 5900 3300
Wire Bus Line
	5900 3300 5900 3500
Wire Bus Line
	5900 3500 5900 3700
Wire Bus Line
	5900 3700 5900 3800
Wire Bus Line
	5900 3800 6250 3800
Text Label 5250 1700 0    50   ~ 0
GFX-ADDR19
Text Label 5250 1800 0    50   ~ 0
GFX-ADDR18
Text Label 5250 1900 0    50   ~ 0
GFX-ADDR17
Text Label 5250 2000 0    50   ~ 0
GFX-ADDR16
Text Label 5250 2100 0    50   ~ 0
GFX-ADDR15
Text Label 5250 2200 0    50   ~ 0
GFX-ADDR14
Text Label 5250 2300 0    50   ~ 0
GFX-ADDR13
Text Label 5250 2400 0    50   ~ 0
GFX-ADDR12
Text Label 5250 2500 0    50   ~ 0
GFX-ADDR11
Text Label 5250 2600 0    50   ~ 0
GFX-ADDR10
Text Label 5250 2700 0    50   ~ 0
GFX-ADDR9
Text Label 5250 2800 0    50   ~ 0
GFX-ADDR8
Text Label 5250 2900 0    50   ~ 0
GFX-ADDR7
Text Label 5250 3000 0    50   ~ 0
GFX-ADDR6
Text Label 5250 3100 0    50   ~ 0
GFX-ADDR5
Text Label 5250 3200 0    50   ~ 0
GFX-ADDR4
Text Label 5250 3300 0    50   ~ 0
GFX-ADDR3
Text Label 5250 3400 0    50   ~ 0
GFX-ADDR2
Text Label 5250 3500 0    50   ~ 0
GFX-ADDR1
Text Label 5250 3600 0    50   ~ 0
GFX-ADDR0
Text Label 5250 5800 0    50   ~ 0
GFX-OUT0
Text Label 5250 5900 0    50   ~ 0
GFX-OUT2
Text Label 5250 6000 0    50   ~ 0
GFX-OUT4
Text Label 5250 6100 0    50   ~ 0
GFX-OUT6
Text Label 5250 6200 0    50   ~ 0
GFX-OUT8
Text Label 5250 6300 0    50   ~ 0
GFX-OUT9
Text Label 5250 6400 0    50   ~ 0
GFX-OUT10
Text Label 5250 6500 0    50   ~ 0
GFX-OUT11
Text Label 5250 6600 0    50   ~ 0
GFX-OUT12
Text Label 5250 6700 0    50   ~ 0
GFX-OUT13
Text Label 5250 6800 0    50   ~ 0
GFX-OUT14
Text Label 5250 6900 0    50   ~ 0
GFX-OUT15
Text Label 5250 7000 0    50   ~ 0
GFX-OUT7
Text Label 5250 7100 0    50   ~ 0
GFX-OUT5
Text Label 5250 7200 0    50   ~ 0
GFX-OUT3
Text Label 5250 7300 0    50   ~ 0
GFX-OUT1
Text HLabel 5750 900  2    50   Input ~ 0
CLK16M
Text HLabel 5750 1000 2    50   Input ~ 0
CLK2M
Text HLabel 5750 1100 2    50   Input ~ 0
CLK4M
Text HLabel 5750 1200 2    50   Input ~ 0
CLK8M
Text HLabel 5750 1300 2    50   Input ~ 0
~VBLANK
Text HLabel 5750 1400 2    50   Input ~ 0
~REFRESH
Text HLabel 5750 1600 2    50   Input ~ 0
~RESETI
Text HLabel 6200 5550 2    50   Output ~ 0
GFX-OUT[0..15]
Text HLabel 6250 3800 2    50   Output ~ 0
GFX-ADDR[0..19]
$Comp
L power:VCC #PWR0414
U 1 1 5E472DB7
P 4000 2650
F 0 "#PWR0414" H 4000 2500 50  0001 C CNN
F 1 "VCC" H 4017 2823 50  0000 C CNN
F 2 "" H 4000 2650 50  0001 C CNN
F 3 "" H 4000 2650 50  0001 C CNN
	1    4000 2650
	1    0    0    -1  
$EndComp
$Comp
L power:VCC #PWR0417
U 1 1 5E481074
P 5500 5500
F 0 "#PWR0417" H 5500 5350 50  0001 C CNN
F 1 "VCC" H 5517 5673 50  0000 C CNN
F 2 "" H 5500 5500 50  0001 C CNN
F 3 "" H 5500 5500 50  0001 C CNN
	1    5500 5500
	1    0    0    -1  
$EndComp
$Comp
L power:GND #PWR0415
U 1 1 5E4732E7
P 4000 5550
F 0 "#PWR0415" H 4000 5300 50  0001 C CNN
F 1 "GND" H 4005 5377 50  0001 C CNN
F 2 "" H 4000 5550 50  0001 C CNN
F 3 "" H 4000 5550 50  0001 C CNN
	1    4000 5550
	1    0    0    -1  
$EndComp
$Comp
L power:GND #PWR0416
U 1 1 5E47D985
P 5500 1500
F 0 "#PWR0416" H 5500 1250 50  0001 C CNN
F 1 "GND" H 5505 1327 50  0001 C CNN
F 2 "" H 5500 1500 50  0001 C CNN
F 3 "" H 5500 1500 50  0001 C CNN
	1    5500 1500
	1    0    0    -1  
$EndComp
$Comp
L power:GND #PWR0418
U 1 1 5E48AEE4
P 5500 4500
F 0 "#PWR0418" H 5500 4250 50  0001 C CNN
F 1 "GND" H 5505 4327 50  0001 C CNN
F 2 "" H 5500 4500 50  0001 C CNN
F 3 "" H 5500 4500 50  0001 C CNN
	1    5500 4500
	1    0    0    -1  
$EndComp
$Comp
L CPS2-Custom:96PIN_Sep CN2
U 1 1 5FAED9E3
P 4700 4100
F 0 "CN2" V 1327 4075 50  0000 C CNN
F 1 "96PIN_Sep" V 1326 4075 50  0001 C CNN
F 2 "" H 3500 4400 50  0001 C CNN
F 3 "" H 3500 4400 50  0001 C CNN
	1    4700 4100
	0    1    1    0   
$EndComp
$EndSCHEMATC
