EESchema Schematic File Version 5
EELAYER 33 0
EELAYER END
$Descr A4 11693 8268
encoding utf-8
Sheet 21 22
Title ""
Date "2019-11-23"
Rev ""
Comp ""
Comment1 "Licence: CC-BY"
Comment2 "Author: Loïc *WydD* Petit"
Comment3 ""
Comment4 ""
Comment5 ""
Comment6 ""
Comment7 ""
Comment8 ""
Comment9 ""
$EndDescr
Connection ~ 2200 4900
Connection ~ 4200 7600
Connection ~ 3950 7600
Connection ~ 5050 3750
Connection ~ 6100 2100
Connection ~ 6100 5400
Connection ~ 1500 7600
Connection ~ 3250 3250
Connection ~ 3250 6550
NoConn ~ 6100 900 
NoConn ~ 6100 1000
NoConn ~ 6100 1100
NoConn ~ 6100 1200
NoConn ~ 6100 1300
NoConn ~ 6100 1400
NoConn ~ 6100 1500
NoConn ~ 6100 1600
NoConn ~ 6100 1700
NoConn ~ 6100 1800
NoConn ~ 6100 1900
NoConn ~ 6100 2000
NoConn ~ 6100 2300
NoConn ~ 6100 2400
NoConn ~ 6100 2500
NoConn ~ 6100 2600
NoConn ~ 6100 2700
NoConn ~ 6100 2800
NoConn ~ 6100 2900
NoConn ~ 6100 3000
NoConn ~ 6100 3100
NoConn ~ 6100 3200
NoConn ~ 6100 3300
NoConn ~ 6100 3400
NoConn ~ 6100 3500
NoConn ~ 6100 3600
NoConn ~ 6100 3700
NoConn ~ 6100 3800
NoConn ~ 6100 3900
NoConn ~ 6100 4000
NoConn ~ 3250 3350
NoConn ~ 3250 3450
NoConn ~ 3250 3550
NoConn ~ 3250 3650
NoConn ~ 3250 3750
NoConn ~ 3250 3850
NoConn ~ 3250 3950
NoConn ~ 2200 3500
NoConn ~ 2200 5100
NoConn ~ 2200 5200
NoConn ~ 3250 5150
NoConn ~ 3250 5350
NoConn ~ 3250 6750
NoConn ~ 3250 6850
NoConn ~ 3250 1950
NoConn ~ 5050 3950
NoConn ~ 5050 4050
NoConn ~ 6100 5600
NoConn ~ 6100 5700
NoConn ~ 8850 1950
Entry Wire Line
	1350 3600 1450 3700
Entry Wire Line
	1350 3700 1450 3800
Entry Wire Line
	1350 3800 1450 3900
Entry Wire Line
	1350 3900 1450 4000
Entry Wire Line
	1350 4000 1450 4100
Entry Wire Line
	1350 4100 1450 4200
Entry Wire Line
	1350 4200 1450 4300
Entry Wire Line
	1350 4300 1450 4400
Entry Wire Line
	1350 4400 1450 4500
Entry Wire Line
	1350 4500 1450 4600
Entry Wire Line
	1350 4600 1450 4700
Entry Wire Line
	1400 2500 1500 2600
Entry Wire Line
	1400 2600 1500 2700
Entry Wire Line
	1400 2700 1500 2800
Entry Wire Line
	1400 2800 1500 2900
Entry Wire Line
	1400 2900 1500 3000
Entry Wire Line
	1400 3000 1500 3100
Entry Wire Line
	1400 3100 1500 3200
Entry Wire Line
	1400 3200 1500 3300
Entry Wire Line
	1400 3300 1500 3400
Entry Wire Line
	1600 5300 1500 5400
Entry Wire Line
	1600 5400 1500 5500
Entry Wire Line
	1600 5500 1500 5600
Entry Wire Line
	1600 5600 1500 5700
Entry Wire Line
	3850 6950 3950 7050
Entry Wire Line
	3850 7050 3950 7150
Entry Wire Line
	3850 7150 3950 7250
Entry Wire Line
	3850 7250 3950 7350
Entry Wire Line
	3950 1050 4050 950 
Entry Wire Line
	3950 1150 4050 1050
Entry Wire Line
	3950 1250 4050 1150
Entry Wire Line
	3950 1350 4050 1250
Entry Wire Line
	3950 1450 4050 1350
Entry Wire Line
	3950 1550 4050 1450
Entry Wire Line
	3950 1650 4050 1550
Entry Wire Line
	3950 1750 4050 1650
Entry Wire Line
	3950 4350 4050 4250
Entry Wire Line
	3950 4450 4050 4350
Entry Wire Line
	3950 4550 4050 4450
Entry Wire Line
	3950 4650 4050 4550
Entry Wire Line
	3950 4750 4050 4650
Entry Wire Line
	3950 4850 4050 4750
Entry Wire Line
	3950 4950 4050 4850
Entry Wire Line
	3950 5050 4050 4950
Entry Wire Line
	4000 2150 4100 2050
Entry Wire Line
	4000 2250 4100 2150
Entry Wire Line
	4000 2350 4100 2250
Entry Wire Line
	4000 2450 4100 2350
Entry Wire Line
	4000 2550 4100 2450
Entry Wire Line
	4000 2650 4100 2550
Entry Wire Line
	4000 2750 4100 2650
Entry Wire Line
	4000 2850 4100 2750
Entry Wire Line
	4000 2950 4100 2850
Entry Wire Line
	4000 3050 4100 2950
Entry Wire Line
	4000 5450 4100 5550
Entry Wire Line
	4000 5550 4100 5650
Entry Wire Line
	4000 5650 4100 5750
Entry Wire Line
	4000 5750 4100 5850
Entry Wire Line
	4000 5850 4100 5950
Entry Wire Line
	4000 5950 4100 6050
Entry Wire Line
	4000 6050 4100 6150
Entry Wire Line
	4000 6150 4100 6250
Entry Wire Line
	4000 6250 4100 6350
Entry Wire Line
	4000 6350 4100 6450
Entry Wire Line
	4200 2650 4300 2550
Entry Wire Line
	4200 2750 4300 2650
Entry Wire Line
	4200 2850 4300 2750
Entry Wire Line
	4200 2950 4300 2850
Entry Wire Line
	4200 3050 4300 2950
Entry Wire Line
	4200 3150 4300 3050
Entry Wire Line
	4200 3250 4300 3150
Entry Wire Line
	4200 3350 4300 3250
Entry Wire Line
	4200 3450 4300 3350
Entry Wire Line
	4200 3550 4300 3450
Entry Wire Line
	4200 3650 4300 3550
Entry Wire Line
	4200 3750 4300 3650
Entry Wire Line
	4300 4250 4400 4150
Entry Wire Line
	4300 4350 4400 4250
Entry Wire Line
	4300 4450 4400 4350
Entry Wire Line
	4300 4550 4400 4450
Entry Wire Line
	4300 4650 4400 4550
Entry Wire Line
	4300 4750 4400 4650
Entry Wire Line
	4300 4850 4400 4750
Entry Wire Line
	4300 4950 4400 4850
Entry Wire Line
	4300 5050 4400 4950
Entry Wire Line
	4300 5150 4400 5050
Entry Wire Line
	4300 5250 4400 5150
Entry Wire Line
	4300 5350 4400 5250
Entry Wire Line
	4300 5450 4400 5350
Entry Wire Line
	4300 5550 4400 5450
Entry Wire Line
	4300 5650 4400 5550
Entry Wire Line
	4300 5750 4400 5650
Entry Wire Line
	6750 5800 6850 5900
Entry Wire Line
	6750 5900 6850 6000
Entry Wire Line
	6750 6000 6850 6100
Entry Wire Line
	6750 6100 6850 6200
Entry Wire Line
	6750 6200 6850 6300
Entry Wire Line
	6750 6300 6850 6400
Entry Wire Line
	6750 6400 6850 6500
Entry Wire Line
	6750 6500 6850 6600
Entry Wire Line
	6750 6600 6850 6700
Entry Wire Line
	6750 6700 6850 6800
Entry Wire Line
	6750 6800 6850 6900
Entry Wire Line
	6750 6900 6850 7000
Entry Wire Line
	6750 7000 6850 7100
Entry Wire Line
	6750 7100 6850 7200
Entry Wire Line
	6750 7200 6850 7300
Entry Wire Line
	6750 7300 6850 7400
Entry Wire Line
	6850 4200 6950 4300
Entry Wire Line
	6850 4300 6950 4400
Entry Wire Line
	6850 4400 6950 4500
Entry Wire Line
	6850 4500 6950 4600
Entry Wire Line
	6850 4600 6950 4700
Entry Wire Line
	6850 4700 6950 4800
Entry Wire Line
	6850 4800 6950 4900
Entry Wire Line
	6850 4900 6950 5000
Entry Wire Line
	6850 5000 6950 5100
Entry Wire Line
	6850 5100 6950 5200
Entry Wire Line
	6850 5200 6950 5300
Entry Wire Line
	6850 5300 6950 5400
Wire Wire Line
	1400 5000 2200 5000
Wire Wire Line
	1450 3700 2200 3700
Wire Wire Line
	1450 3800 2200 3800
Wire Wire Line
	1450 3900 2200 3900
Wire Wire Line
	1450 4000 2200 4000
Wire Wire Line
	1450 4100 2200 4100
Wire Wire Line
	1450 4200 2200 4200
Wire Wire Line
	1450 4300 2200 4300
Wire Wire Line
	1450 4400 2200 4400
Wire Wire Line
	1450 4500 2200 4500
Wire Wire Line
	1450 4600 2200 4600
Wire Wire Line
	1450 4700 2200 4700
Wire Wire Line
	1500 2600 2200 2600
Wire Wire Line
	1500 2700 2200 2700
Wire Wire Line
	1500 2800 2200 2800
Wire Wire Line
	1500 2900 2200 2900
Wire Wire Line
	1500 3000 2200 3000
Wire Wire Line
	1500 3100 2200 3100
Wire Wire Line
	1500 3200 2200 3200
Wire Wire Line
	1500 3300 2200 3300
Wire Wire Line
	1500 3400 2200 3400
Wire Wire Line
	1550 3600 2200 3600
Wire Wire Line
	2050 2500 2200 2500
Wire Wire Line
	2200 4800 2200 4900
Wire Wire Line
	2200 4900 1700 4900
Wire Wire Line
	2200 5300 1600 5300
Wire Wire Line
	2200 5400 1600 5400
Wire Wire Line
	2200 5500 1600 5500
Wire Wire Line
	2200 5600 1600 5600
Wire Wire Line
	3250 1050 3950 1050
Wire Wire Line
	3250 1150 3950 1150
Wire Wire Line
	3250 1250 3950 1250
Wire Wire Line
	3250 1350 3950 1350
Wire Wire Line
	3250 1450 3950 1450
Wire Wire Line
	3250 1550 3950 1550
Wire Wire Line
	3250 1650 3950 1650
Wire Wire Line
	3250 1750 3950 1750
Wire Wire Line
	3250 2050 3900 2050
Wire Wire Line
	3250 2150 4000 2150
Wire Wire Line
	3250 2250 4000 2250
Wire Wire Line
	3250 2350 4000 2350
Wire Wire Line
	3250 2450 4000 2450
Wire Wire Line
	3250 2550 4000 2550
Wire Wire Line
	3250 2650 4000 2650
Wire Wire Line
	3250 2750 4000 2750
Wire Wire Line
	3250 2850 4000 2850
Wire Wire Line
	3250 2950 4000 2950
Wire Wire Line
	3250 3050 4000 3050
Wire Wire Line
	3250 3250 3250 3150
Wire Wire Line
	3250 4350 3950 4350
Wire Wire Line
	3250 4450 3950 4450
Wire Wire Line
	3250 4550 3950 4550
Wire Wire Line
	3250 4650 3950 4650
Wire Wire Line
	3250 4750 3950 4750
Wire Wire Line
	3250 4850 3950 4850
Wire Wire Line
	3250 4950 3950 4950
Wire Wire Line
	3250 5050 3950 5050
Wire Wire Line
	3250 5250 3900 5250
Wire Wire Line
	3250 5450 4000 5450
Wire Wire Line
	3250 5550 4000 5550
Wire Wire Line
	3250 5650 4000 5650
Wire Wire Line
	3250 5750 4000 5750
Wire Wire Line
	3250 5850 4000 5850
Wire Wire Line
	3250 5950 4000 5950
Wire Wire Line
	3250 6050 4000 6050
Wire Wire Line
	3250 6150 4000 6150
Wire Wire Line
	3250 6250 4000 6250
Wire Wire Line
	3250 6350 4000 6350
Wire Wire Line
	3250 6550 3250 6450
Wire Wire Line
	3250 6950 3850 6950
Wire Wire Line
	3250 7050 3850 7050
Wire Wire Line
	3250 7150 3850 7150
Wire Wire Line
	3250 7250 3850 7250
Wire Wire Line
	3350 4200 3350 4250
Wire Wire Line
	3350 4200 3450 4200
Wire Wire Line
	3350 4250 3250 4250
Wire Wire Line
	3400 850  3250 850 
Wire Wire Line
	3400 900  3400 950 
Wire Wire Line
	3400 950  3250 950 
Wire Wire Line
	3400 3250 3250 3250
Wire Wire Line
	3400 6550 3250 6550
Wire Wire Line
	3500 900  3400 900 
Wire Wire Line
	3600 1850 3250 1850
Wire Wire Line
	3600 6650 3250 6650
Wire Wire Line
	4300 2550 5050 2550
Wire Wire Line
	4300 2650 5050 2650
Wire Wire Line
	4300 2750 5050 2750
Wire Wire Line
	4300 2850 5050 2850
Wire Wire Line
	4300 2950 5050 2950
Wire Wire Line
	4300 3050 5050 3050
Wire Wire Line
	4300 3150 5050 3150
Wire Wire Line
	4300 3250 5050 3250
Wire Wire Line
	4300 3350 5050 3350
Wire Wire Line
	4300 3450 5050 3450
Wire Wire Line
	4300 3550 5050 3550
Wire Wire Line
	4300 3650 5050 3650
Wire Wire Line
	4400 4150 5050 4150
Wire Wire Line
	4400 4250 5050 4250
Wire Wire Line
	4400 4350 5050 4350
Wire Wire Line
	4400 4450 5050 4450
Wire Wire Line
	4400 4550 5050 4550
Wire Wire Line
	4400 4650 5050 4650
Wire Wire Line
	4400 4750 5050 4750
Wire Wire Line
	4400 4850 5050 4850
Wire Wire Line
	4400 4950 5050 4950
Wire Wire Line
	4400 5050 5050 5050
Wire Wire Line
	4400 5150 5050 5150
Wire Wire Line
	4400 5250 5050 5250
Wire Wire Line
	4400 5350 5050 5350
Wire Wire Line
	4400 5450 5050 5450
Wire Wire Line
	4400 5550 5050 5550
Wire Wire Line
	4400 5650 5050 5650
Wire Wire Line
	4900 3750 5050 3750
Wire Wire Line
	5050 3750 5050 3850
Wire Wire Line
	6100 2100 6100 2200
Wire Wire Line
	6100 2100 6250 2100
Wire Wire Line
	6100 4200 6850 4200
Wire Wire Line
	6100 4300 6850 4300
Wire Wire Line
	6100 4400 6850 4400
Wire Wire Line
	6100 4500 6850 4500
Wire Wire Line
	6100 4600 6850 4600
Wire Wire Line
	6100 4700 6850 4700
Wire Wire Line
	6100 4800 6850 4800
Wire Wire Line
	6100 4900 6850 4900
Wire Wire Line
	6100 5000 6850 5000
Wire Wire Line
	6100 5100 6850 5100
Wire Wire Line
	6100 5200 6850 5200
Wire Wire Line
	6100 5300 6850 5300
Wire Wire Line
	6100 5400 6100 5500
Wire Wire Line
	6100 5400 6250 5400
Wire Wire Line
	6100 5800 6750 5800
Wire Wire Line
	6100 5900 6750 5900
Wire Wire Line
	6100 6000 6750 6000
Wire Wire Line
	6100 6100 6750 6100
Wire Wire Line
	6100 6200 6750 6200
Wire Wire Line
	6100 6300 6750 6300
Wire Wire Line
	6100 6400 6750 6400
Wire Wire Line
	6100 6500 6750 6500
Wire Wire Line
	6100 6600 6750 6600
Wire Wire Line
	6100 6700 6750 6700
Wire Wire Line
	6100 6800 6750 6800
Wire Wire Line
	6100 6900 6750 6900
Wire Wire Line
	6100 7000 6750 7000
Wire Wire Line
	6100 7100 6750 7100
Wire Wire Line
	6100 7200 6750 7200
Wire Wire Line
	6100 7300 6750 7300
Wire Wire Line
	8200 1800 8850 1800
Wire Wire Line
	8700 2050 8850 2050
Wire Wire Line
	9650 1800 10300 1800
Wire Wire Line
	9650 2050 10300 2050
Wire Bus Line
	1300 3900 1350 3900
Wire Bus Line
	1350 2500 1400 2500
Wire Bus Line
	1350 3550 1350 3700
Wire Bus Line
	1350 3700 1350 3800
Wire Bus Line
	1350 3900 1350 4100
Wire Bus Line
	1350 4100 1350 4300
Wire Bus Line
	1350 4300 1350 4500
Wire Bus Line
	1350 4500 1350 4600
Wire Bus Line
	1350 7600 1500 7600
Wire Bus Line
	1400 2600 1350 2600
Wire Bus Line
	1400 2600 1400 2800
Wire Bus Line
	1400 2800 1400 3000
Wire Bus Line
	1400 3000 1400 3200
Wire Bus Line
	1400 3200 1400 3300
Wire Bus Line
	1500 5400 1500 5600
Wire Bus Line
	1500 5600 1500 7600
Wire Bus Line
	1500 7600 3950 7600
Wire Bus Line
	3950 7050 3950 7150
Wire Bus Line
	3950 7150 3950 7350
Wire Bus Line
	3950 7350 3950 7600
Wire Bus Line
	3950 7700 4100 7700
Wire Bus Line
	4050 850  4050 1050
Wire Bus Line
	4050 850  4150 850 
Wire Bus Line
	4050 1050 4050 1250
Wire Bus Line
	4050 1250 4050 1450
Wire Bus Line
	4050 1450 4050 1650
Wire Bus Line
	4050 3900 4050 4350
Wire Bus Line
	4050 4350 4050 4450
Wire Bus Line
	4050 4450 4050 4650
Wire Bus Line
	4050 4650 4050 4850
Wire Bus Line
	4050 4850 4050 4950
Wire Bus Line
	4100 1950 4100 2150
Wire Bus Line
	4100 1950 4200 1950
Wire Bus Line
	4100 2150 4100 2250
Wire Bus Line
	4100 2250 4100 2450
Wire Bus Line
	4100 2450 4100 2650
Wire Bus Line
	4100 2650 4100 2850
Wire Bus Line
	4100 2850 4100 2950
Wire Bus Line
	4100 5550 4100 5650
Wire Bus Line
	4100 5650 4100 5850
Wire Bus Line
	4100 5850 4100 6050
Wire Bus Line
	4100 6050 4100 6150
Wire Bus Line
	4100 6150 4100 6350
Wire Bus Line
	4100 6350 4100 7700
Wire Bus Line
	4200 2650 4200 2850
Wire Bus Line
	4200 2850 4200 2950
Wire Bus Line
	4200 2950 4200 3150
Wire Bus Line
	4200 3150 4200 3350
Wire Bus Line
	4200 3350 4200 3550
Wire Bus Line
	4200 3550 4200 3750
Wire Bus Line
	4200 3750 4200 7600
Wire Bus Line
	4200 7600 3950 7600
Wire Bus Line
	4200 7600 6950 7600
Wire Bus Line
	4300 4250 4300 4450
Wire Bus Line
	4300 4450 4300 4650
Wire Bus Line
	4300 4650 4300 4850
Wire Bus Line
	4300 4850 4300 4950
Wire Bus Line
	4300 4950 4300 5150
Wire Bus Line
	4300 5150 4300 5350
Wire Bus Line
	4300 5350 4300 5550
Wire Bus Line
	4300 5550 4300 5750
Wire Bus Line
	4300 5750 4300 7500
Wire Bus Line
	4300 7500 6850 7500
Wire Bus Line
	4450 6500 4300 6500
Wire Bus Line
	6850 5900 6850 6000
Wire Bus Line
	6850 6000 6850 6200
Wire Bus Line
	6850 6200 6850 6400
Wire Bus Line
	6850 6400 6850 6600
Wire Bus Line
	6850 6600 6850 6700
Wire Bus Line
	6850 6700 6850 6900
Wire Bus Line
	6850 6900 6850 7100
Wire Bus Line
	6850 7100 6850 7300
Wire Bus Line
	6850 7300 6850 7500
Wire Bus Line
	6950 4300 6950 4400
Wire Bus Line
	6950 4400 6950 4600
Wire Bus Line
	6950 4600 6950 4800
Wire Bus Line
	6950 4800 6950 4900
Wire Bus Line
	6950 4900 6950 5100
Wire Bus Line
	6950 5100 6950 5300
Wire Bus Line
	6950 5300 6950 7600
Text Label 1500 3700 0    50   ~ 0
QSOUND-ADDR22
Text Label 1500 3800 0    50   ~ 0
QSOUND-ADDR19
Text Label 1500 3900 0    50   ~ 0
QSOUND-ADDR16
Text Label 1500 4000 0    50   ~ 0
QSOUND-DATA7
Text Label 1500 4100 0    50   ~ 0
QSOUND-DATA6
Text Label 1500 4200 0    50   ~ 0
QSOUND-DATA5
Text Label 1500 4300 0    50   ~ 0
QSOUND-DATA4
Text Label 1500 4400 0    50   ~ 0
QSOUND-DATA3
Text Label 1500 4500 0    50   ~ 0
QSOUND-DATA2
Text Label 1500 4600 0    50   ~ 0
QSOUND-DATA1
Text Label 1500 4700 0    50   ~ 0
QSOUND-DATA0
Text Label 1550 2600 0    50   ~ 0
SOUND-ADDR16
Text Label 1550 2700 0    50   ~ 0
SOUND-DATA7
Text Label 1550 2800 0    50   ~ 0
SOUND-DATA6
Text Label 1550 2900 0    50   ~ 0
SOUND-DATA5
Text Label 1550 3000 0    50   ~ 0
SOUND-DATA4
Text Label 1550 3100 0    50   ~ 0
SOUND-DATA3
Text Label 1550 3200 0    50   ~ 0
SOUND-DATA2
Text Label 1550 3300 0    50   ~ 0
SOUND-DATA1
Text Label 1550 3400 0    50   ~ 0
SOUND-DATA0
Text Label 1600 3600 0    50   ~ 0
EEPROM-DI
Text Label 2150 5300 2    50   ~ 0
GFXA-DATA15
Text Label 2150 5400 2    50   ~ 0
GFXA-DATA14
Text Label 2150 5500 2    50   ~ 0
GFXA-DATA13
Text Label 2150 5600 2    50   ~ 0
GFXA-DATA12
Text Label 3300 1050 0    50   ~ 0
SOUND-ADDR15
Text Label 3300 1150 0    50   ~ 0
SOUND-ADDR14
Text Label 3300 1250 0    50   ~ 0
SOUND-ADDR13
Text Label 3300 1350 0    50   ~ 0
SOUND-ADDR12
Text Label 3300 1450 0    50   ~ 0
SOUND-ADDR11
Text Label 3300 1550 0    50   ~ 0
SOUND-ADDR10
Text Label 3300 1650 0    50   ~ 0
SOUND-ADDR9
Text Label 3300 1750 0    50   ~ 0
SOUND-ADDR8
Text Label 3300 2050 0    50   ~ 0
EEPROM-DO
Text Label 3300 2150 0    50   ~ 0
QSOUND-ADDR21
Text Label 3300 2250 0    50   ~ 0
QSOUND-ADDR18
Text Label 3300 2350 0    50   ~ 0
QSOUND-ADDR15
Text Label 3300 2450 0    50   ~ 0
QSOUND-ADDR14
Text Label 3300 2550 0    50   ~ 0
QSOUND-ADDR13
Text Label 3300 2650 0    50   ~ 0
QSOUND-ADDR12
Text Label 3300 2750 0    50   ~ 0
QSOUND-ADDR11
Text Label 3300 2850 0    50   ~ 0
QSOUND-ADDR10
Text Label 3300 2950 0    50   ~ 0
QSOUND-ADDR9
Text Label 3300 3050 0    50   ~ 0
QSOUND-ADDR8
Text Label 3300 4350 0    50   ~ 0
SOUND-ADDR7
Text Label 3300 4450 0    50   ~ 0
SOUND-ADDR6
Text Label 3300 4550 0    50   ~ 0
SOUND-ADDR5
Text Label 3300 4650 0    50   ~ 0
SOUND-ADDR4
Text Label 3300 4750 0    50   ~ 0
SOUND-ADDR3
Text Label 3300 4850 0    50   ~ 0
SOUND-ADDR2
Text Label 3300 4950 0    50   ~ 0
SOUND-ADDR1
Text Label 3300 5050 0    50   ~ 0
SOUND-ADDR0
Text Label 3300 5250 0    50   ~ 0
EEPROM-CLK
Text Label 3300 5450 0    50   ~ 0
QSOUND-ADDR20
Text Label 3300 5550 0    50   ~ 0
QSOUND-ADDR17
Text Label 3300 5650 0    50   ~ 0
QSOUND-ADDR7
Text Label 3300 5750 0    50   ~ 0
QSOUND-ADDR6
Text Label 3300 5850 0    50   ~ 0
QSOUND-ADDR5
Text Label 3300 5950 0    50   ~ 0
QSOUND-ADDR4
Text Label 3300 6050 0    50   ~ 0
QSOUND-ADDR3
Text Label 3300 6150 0    50   ~ 0
QSOUND-ADDR2
Text Label 3300 6250 0    50   ~ 0
QSOUND-ADDR1
Text Label 3300 6350 0    50   ~ 0
QSOUND-ADDR0
Text Label 3300 6950 0    50   ~ 0
GFXA-DATA31
Text Label 3300 7050 0    50   ~ 0
GFXA-DATA30
Text Label 3300 7150 0    50   ~ 0
GFXA-DATA29
Text Label 3300 7250 0    50   ~ 0
GFXA-DATA28
Text Label 4350 2550 0    50   ~ 0
GFXA-DATA11
Text Label 4350 2650 0    50   ~ 0
GFXA-DATA10
Text Label 4350 2750 0    50   ~ 0
GFXA-DATA9
Text Label 4350 2850 0    50   ~ 0
GFXA-DATA8
Text Label 4350 2950 0    50   ~ 0
GFXA-DATA7
Text Label 4350 3050 0    50   ~ 0
GFXA-DATA6
Text Label 4350 3150 0    50   ~ 0
GFXA-DATA5
Text Label 4350 3250 0    50   ~ 0
GFXA-DATA4
Text Label 4350 3350 0    50   ~ 0
GFXA-DATA3
Text Label 4350 3450 0    50   ~ 0
GFXA-DATA2
Text Label 4350 3550 0    50   ~ 0
GFXA-DATA1
Text Label 4350 3650 0    50   ~ 0
GFXA-DATA0
Text Label 4450 4150 0    50   ~ 0
GFXB-DATA15
Text Label 4450 4250 0    50   ~ 0
GFXB-DATA14
Text Label 4450 4350 0    50   ~ 0
GFXB-DATA13
Text Label 4450 4450 0    50   ~ 0
GFXB-DATA12
Text Label 4450 4550 0    50   ~ 0
GFXB-DATA11
Text Label 4450 4650 0    50   ~ 0
GFXB-DATA10
Text Label 4450 4750 0    50   ~ 0
GFXB-DATA9
Text Label 4450 4850 0    50   ~ 0
GFXB-DATA8
Text Label 4450 4950 0    50   ~ 0
GFXB-DATA7
Text Label 4450 5050 0    50   ~ 0
GFXB-DATA6
Text Label 4450 5150 0    50   ~ 0
GFXB-DATA5
Text Label 4450 5250 0    50   ~ 0
GFXB-DATA4
Text Label 4450 5350 0    50   ~ 0
GFXB-DATA3
Text Label 4450 5450 0    50   ~ 0
GFXB-DATA2
Text Label 4450 5550 0    50   ~ 0
GFXB-DATA1
Text Label 4450 5650 0    50   ~ 0
GFXB-DATA0
Text Label 6150 5800 0    50   ~ 0
GFXB-DATA31
Text Label 6150 5900 0    50   ~ 0
GFXB-DATA30
Text Label 6150 6000 0    50   ~ 0
GFXB-DATA29
Text Label 6150 6100 0    50   ~ 0
GFXB-DATA28
Text Label 6150 6200 0    50   ~ 0
GFXB-DATA27
Text Label 6150 6300 0    50   ~ 0
GFXB-DATA26
Text Label 6150 6400 0    50   ~ 0
GFXB-DATA25
Text Label 6150 6500 0    50   ~ 0
GFXB-DATA24
Text Label 6150 6600 0    50   ~ 0
GFXB-DATA23
Text Label 6150 6700 0    50   ~ 0
GFXB-DATA22
Text Label 6150 6800 0    50   ~ 0
GFXB-DATA21
Text Label 6150 6900 0    50   ~ 0
GFXB-DATA20
Text Label 6150 7000 0    50   ~ 0
GFXB-DATA19
Text Label 6150 7100 0    50   ~ 0
GFXB-DATA18
Text Label 6150 7200 0    50   ~ 0
GFXB-DATA17
Text Label 6150 7300 0    50   ~ 0
GFXB-DATA16
Text Label 6250 4200 0    50   ~ 0
GFXA-DATA27
Text Label 6250 4300 0    50   ~ 0
GFXA-DATA26
Text Label 6250 4400 0    50   ~ 0
GFXA-DATA25
Text Label 6250 4500 0    50   ~ 0
GFXA-DATA24
Text Label 6250 4600 0    50   ~ 0
GFXA-DATA23
Text Label 6250 4700 0    50   ~ 0
GFXA-DATA22
Text Label 6250 4800 0    50   ~ 0
GFXA-DATA21
Text Label 6250 4900 0    50   ~ 0
GFXA-DATA20
Text Label 6250 5000 0    50   ~ 0
GFXA-DATA19
Text Label 6250 5100 0    50   ~ 0
GFXA-DATA18
Text Label 6250 5200 0    50   ~ 0
GFXA-DATA17
Text Label 6250 5300 0    50   ~ 0
GFXA-DATA16
Text Label 8250 1800 0    50   ~ 0
EEPROM-DI
Text Label 9700 1800 0    50   ~ 0
EEPROM-DO
Text Label 9700 2050 0    50   ~ 0
EEPROM-CLK
Text HLabel 1300 3900 0    50   Output ~ 0
QSOUND-DATA[0..7]
Text HLabel 1350 2500 0    50   Input ~ 0
SOUND-ADDR[0..16]
Text HLabel 1350 2600 0    50   Output ~ 0
SOUND-DATA[0..7]
Text HLabel 1350 3550 0    50   Input ~ 0
QSOUND-ADDR[0..22]
Text HLabel 1350 7600 0    50   Output ~ 0
GFXA-DATA[0..31]
Text HLabel 3450 4200 2    50   Input ~ 0
~SOUND-E1
Text HLabel 3500 900  2    50   Input ~ 0
~SOUND-E2
Text HLabel 3950 7700 0    50   Input ~ 0
QSOUND-ADDR[0..22]
Text HLabel 4050 3900 0    50   Input ~ 0
SOUND-ADDR[0..16]
Text HLabel 4150 850  2    50   Input ~ 0
SOUND-ADDR[0..16]
Text HLabel 4200 1950 2    50   Input ~ 0
QSOUND-ADDR[0..22]
Text HLabel 4450 6500 2    50   Output ~ 0
GFXB-DATA[0..31]
Text HLabel 8700 2050 0    50   Input ~ 0
~EEPROM-E
$Comp
L power:VCC #PWR0378
U 1 1 5FEE1B20
P 1700 4900
F 0 "#PWR0378" H 1700 4750 50  0001 C CNN
F 1 "VCC" H 1550 4950 50  0000 C CNN
F 2 "" H 1700 4900 50  0001 C CNN
F 3 "" H 1700 4900 50  0001 C CNN
	1    1700 4900
	1    0    0    -1  
$EndComp
$Comp
L power:VCC #PWR0385
U 1 1 605F5D49
P 2050 2500
F 0 "#PWR0385" H 2050 2350 50  0001 C CNN
F 1 "VCC" H 1900 2550 50  0000 C CNN
F 2 "" H 2050 2500 50  0001 C CNN
F 3 "" H 2050 2500 50  0001 C CNN
	1    2050 2500
	1    0    0    -1  
$EndComp
$Comp
L power:VCC #PWR0387
U 1 1 6064E620
P 3250 4150
F 0 "#PWR0387" H 3250 4000 50  0001 C CNN
F 1 "VCC" H 3100 4200 50  0000 C CNN
F 2 "" H 3250 4150 50  0001 C CNN
F 3 "" H 3250 4150 50  0001 C CNN
	1    3250 4150
	-1   0    0    -1  
$EndComp
$Comp
L power:VCC #PWR0386
U 1 1 60600D0F
P 3400 850
F 0 "#PWR0386" H 3400 700 50  0001 C CNN
F 1 "VCC" H 3250 900 50  0000 C CNN
F 2 "" H 3400 850 50  0001 C CNN
F 3 "" H 3400 850 50  0001 C CNN
	1    3400 850 
	-1   0    0    -1  
$EndComp
$Comp
L power:VCC #PWR0388
U 1 1 606592D8
P 3400 3250
F 0 "#PWR0388" H 3400 3100 50  0001 C CNN
F 1 "VCC" H 3250 3300 50  0000 C CNN
F 2 "" H 3400 3250 50  0001 C CNN
F 3 "" H 3400 3250 50  0001 C CNN
	1    3400 3250
	-1   0    0    -1  
$EndComp
$Comp
L power:VCC #PWR0390
U 1 1 6069217A
P 3400 6550
F 0 "#PWR0390" H 3400 6400 50  0001 C CNN
F 1 "VCC" H 3250 6600 50  0000 C CNN
F 2 "" H 3400 6550 50  0001 C CNN
F 3 "" H 3400 6550 50  0001 C CNN
	1    3400 6550
	-1   0    0    -1  
$EndComp
$Comp
L power:VCC #PWR0384
U 1 1 6058D745
P 9250 1600
F 0 "#PWR0384" H 9250 1450 50  0001 C CNN
F 1 "VCC" H 9250 1800 50  0000 C CNN
F 2 "" H 9250 1600 50  0001 C CNN
F 3 "" H 9250 1600 50  0001 C CNN
	1    9250 1600
	1    0    0    -1  
$EndComp
$Comp
L power:GND #PWR0379
U 1 1 5FEE2229
P 1400 5000
F 0 "#PWR0379" H 1400 4750 50  0001 C CNN
F 1 "GND" H 1405 4827 50  0001 C CNN
F 2 "" H 1400 5000 50  0001 C CNN
F 3 "" H 1400 5000 50  0001 C CNN
	1    1400 5000
	1    0    0    -1  
$EndComp
$Comp
L power:GND #PWR0389
U 1 1 606655DA
P 3600 1850
F 0 "#PWR0389" H 3600 1600 50  0001 C CNN
F 1 "GND" H 3605 1677 50  0001 C CNN
F 2 "" H 3600 1850 50  0001 C CNN
F 3 "" H 3600 1850 50  0001 C CNN
	1    3600 1850
	-1   0    0    -1  
$EndComp
$Comp
L power:GND #PWR0391
U 1 1 606ABA19
P 3600 6650
F 0 "#PWR0391" H 3600 6400 50  0001 C CNN
F 1 "GND" H 3605 6477 50  0001 C CNN
F 2 "" H 3600 6650 50  0001 C CNN
F 3 "" H 3600 6650 50  0001 C CNN
	1    3600 6650
	1    0    0    -1  
$EndComp
$Comp
L power:GND #PWR0380
U 1 1 604F2405
P 4900 3750
F 0 "#PWR0380" H 4900 3500 50  0001 C CNN
F 1 "GND" H 4905 3577 50  0001 C CNN
F 2 "" H 4900 3750 50  0001 C CNN
F 3 "" H 4900 3750 50  0001 C CNN
	1    4900 3750
	1    0    0    -1  
$EndComp
$Comp
L power:GND #PWR0381
U 1 1 6050E4C5
P 6250 2100
F 0 "#PWR0381" H 6250 1850 50  0001 C CNN
F 1 "GND" H 6255 1927 50  0001 C CNN
F 2 "" H 6250 2100 50  0001 C CNN
F 3 "" H 6250 2100 50  0001 C CNN
	1    6250 2100
	1    0    0    -1  
$EndComp
$Comp
L power:GND #PWR0382
U 1 1 6050EFFD
P 6250 5400
F 0 "#PWR0382" H 6250 5150 50  0001 C CNN
F 1 "GND" H 6255 5227 50  0001 C CNN
F 2 "" H 6250 5400 50  0001 C CNN
F 3 "" H 6250 5400 50  0001 C CNN
	1    6250 5400
	1    0    0    -1  
$EndComp
$Comp
L power:GND #PWR0383
U 1 1 6058D1EE
P 9250 2250
F 0 "#PWR0383" H 9250 2000 50  0001 C CNN
F 1 "GND" H 9255 2077 50  0001 C CNN
F 2 "" H 9250 2250 50  0001 C CNN
F 3 "" H 9250 2250 50  0001 C CNN
	1    9250 2250
	1    0    0    -1  
$EndComp
$Comp
L CPS2-Custom:MSM16811 UL2
U 1 1 6058C00C
P 9250 1900
F 0 "UL2" H 9000 2200 50  0000 C CNN
F 1 "MSM16811" H 9500 1550 50  0000 C CNN
F 2 "" H 9750 1850 50  0001 C CNN
F 3 "" H 9750 1850 50  0001 C CNN
	1    9250 1900
	1    0    0    -1  
$EndComp
$Comp
L CPS2-Custom:96PIN_Sep CN3
U 1 1 5FD09E58
P 2750 4050
F 0 "CN3" V -623 4025 50  0000 C CNN
F 1 "96PIN_Sep" V -624 4025 50  0001 C CNN
F 2 "" H 1550 4350 50  0001 C CNN
F 3 "" H 1550 4350 50  0001 C CNN
	1    2750 4050
	0    1    1    0   
$EndComp
$Comp
L CPS2-Custom:96PIN_Sep CN4
U 1 1 5FF3C671
P 5600 4100
F 0 "CN4" V 2200 4100 50  0000 C CNN
F 1 "96PIN_Sep" V 2226 4075 50  0001 C CNN
F 2 "" H 4400 4400 50  0001 C CNN
F 3 "" H 4400 4400 50  0001 C CNN
	1    5600 4100
	0    1    1    0   
$EndComp
$EndSCHEMATC
