EESchema Schematic File Version 5
EELAYER 33 0
EELAYER END
$Descr A4 11693 8268
encoding utf-8
Sheet 17 22
Title ""
Date "2019-11-23"
Rev ""
Comp ""
Comment1 "Licence: CC-BY"
Comment2 "Author: Loïc *WydD* Petit"
Comment3 ""
Comment4 ""
Comment5 ""
Comment6 ""
Comment7 ""
Comment8 ""
Comment9 ""
$EndDescr
NoConn ~ 2650 3500
NoConn ~ 8950 1400
NoConn ~ 8950 1500
NoConn ~ 8950 1600
NoConn ~ 8950 1700
Entry Wire Line
	2000 1300 2100 1400
Entry Wire Line
	2000 1400 2100 1500
Entry Wire Line
	2000 1500 2100 1600
Entry Wire Line
	2000 1600 2100 1700
Entry Wire Line
	2000 1700 2100 1800
Entry Wire Line
	2000 1800 2100 1900
Entry Wire Line
	2000 1900 2100 2000
Entry Wire Line
	2000 2000 2100 2100
Entry Wire Line
	2000 2100 2100 2200
Entry Wire Line
	2000 2200 2100 2300
Entry Wire Line
	2000 2300 2100 2400
Entry Wire Line
	2000 3300 2100 3400
Entry Wire Line
	2000 3400 2100 3500
Entry Wire Line
	2000 3500 2100 3600
Entry Wire Line
	2000 3600 2100 3700
Entry Wire Line
	2000 3700 2100 3800
Entry Wire Line
	2000 3800 2100 3900
Entry Wire Line
	2000 3900 2100 4000
Entry Wire Line
	2000 4000 2100 4100
Entry Wire Line
	2000 4100 2100 4200
Entry Wire Line
	2000 4200 2100 4300
Entry Wire Line
	2000 4300 2100 4400
Entry Wire Line
	2000 4400 2100 4500
Entry Wire Line
	2000 5350 2100 5450
Entry Wire Line
	2000 5450 2100 5550
Entry Wire Line
	2000 5550 2100 5650
Entry Wire Line
	2000 5650 2100 5750
Entry Wire Line
	2000 5750 2100 5850
Entry Wire Line
	2000 5850 2100 5950
Entry Wire Line
	2000 5950 2100 6050
Entry Wire Line
	2000 6050 2100 6150
Entry Wire Line
	2000 6150 2100 6250
Entry Wire Line
	2000 6250 2100 6350
Entry Wire Line
	2000 6500 2100 6600
Entry Wire Line
	2000 6600 2100 6700
Entry Wire Line
	2000 6700 2100 6800
Entry Wire Line
	2000 6800 2100 6900
Entry Wire Line
	2000 6900 2100 7000
Entry Wire Line
	2000 7000 2100 7100
Entry Wire Line
	2000 7100 2100 7200
Entry Wire Line
	2000 7200 2100 7300
Entry Wire Line
	2000 7300 2100 7400
Entry Wire Line
	2000 7400 2100 7500
Entry Wire Line
	4400 1200 4500 1100
Entry Wire Line
	4400 1400 4500 1300
Entry Wire Line
	4400 1600 4500 1500
Entry Wire Line
	4400 1800 4500 1700
Entry Wire Line
	4400 2700 4500 2600
Entry Wire Line
	4400 2900 4500 2800
Entry Wire Line
	4400 3100 4500 3000
Entry Wire Line
	4400 3300 4500 3200
Entry Wire Line
	4400 4200 4500 4100
Entry Wire Line
	4400 4400 4500 4300
Entry Wire Line
	4400 4600 4500 4500
Entry Wire Line
	4400 4800 4500 4700
Entry Wire Line
	4400 5700 4500 5600
Entry Wire Line
	4400 5900 4500 5800
Entry Wire Line
	4400 6100 4500 6000
Entry Wire Line
	4400 6300 4500 6200
Entry Wire Line
	6400 1200 6500 1100
Entry Wire Line
	6400 1400 6500 1300
Entry Wire Line
	6400 1600 6500 1500
Entry Wire Line
	6400 1800 6500 1700
Entry Wire Line
	6400 2700 6500 2600
Entry Wire Line
	6400 2900 6500 2800
Entry Wire Line
	6400 3100 6500 3000
Entry Wire Line
	6400 3300 6500 3200
Entry Wire Line
	6400 4200 6500 4100
Entry Wire Line
	6400 4400 6500 4300
Entry Wire Line
	6400 4600 6500 4500
Entry Wire Line
	6400 4800 6500 4700
Entry Wire Line
	6400 5700 6500 5600
Entry Wire Line
	6400 5900 6500 5800
Entry Wire Line
	6400 6100 6500 6000
Entry Wire Line
	6400 6300 6500 6200
Entry Wire Line
	8500 1100 8400 1200
Entry Wire Line
	8500 1300 8400 1400
Entry Wire Line
	8500 2600 8400 2700
Entry Wire Line
	8500 2800 8400 2900
Entry Wire Line
	8500 3000 8400 3100
Entry Wire Line
	8500 3200 8400 3300
Entry Wire Line
	8500 4100 8400 4200
Entry Wire Line
	8500 4300 8400 4400
Entry Wire Line
	8500 4500 8400 4600
Entry Wire Line
	8500 4700 8400 4800
Wire Wire Line
	2100 1400 3150 1400
Wire Wire Line
	2100 1500 3150 1500
Wire Wire Line
	2100 1600 3150 1600
Wire Wire Line
	2100 1700 3150 1700
Wire Wire Line
	2100 1800 3150 1800
Wire Wire Line
	2100 1900 3150 1900
Wire Wire Line
	2100 2000 3150 2000
Wire Wire Line
	2100 2100 3150 2100
Wire Wire Line
	2100 2200 3150 2200
Wire Wire Line
	2100 2300 3150 2300
Wire Wire Line
	2100 2400 3150 2400
Wire Wire Line
	2100 3400 3150 3400
Wire Wire Line
	2100 3500 2650 3500
Wire Wire Line
	2100 3600 3150 3600
Wire Wire Line
	2100 3700 3150 3700
Wire Wire Line
	2100 3800 3150 3800
Wire Wire Line
	2100 3900 3150 3900
Wire Wire Line
	2100 4000 3150 4000
Wire Wire Line
	2100 4100 3150 4100
Wire Wire Line
	2100 4200 3150 4200
Wire Wire Line
	2100 4300 3150 4300
Wire Wire Line
	2100 4400 3150 4400
Wire Wire Line
	2100 4500 3150 4500
Wire Wire Line
	2100 5450 2950 5450
Wire Wire Line
	2100 5550 2950 5550
Wire Wire Line
	2100 5650 2950 5650
Wire Wire Line
	2100 5750 2950 5750
Wire Wire Line
	2100 5850 2950 5850
Wire Wire Line
	2100 5950 2950 5950
Wire Wire Line
	2100 6050 2950 6050
Wire Wire Line
	2100 6150 2950 6150
Wire Wire Line
	2100 6250 2950 6250
Wire Wire Line
	2100 6350 2950 6350
Wire Wire Line
	2100 6600 2950 6600
Wire Wire Line
	2100 6700 2950 6700
Wire Wire Line
	2100 6800 2950 6800
Wire Wire Line
	2100 6900 2950 6900
Wire Wire Line
	2100 7000 2950 7000
Wire Wire Line
	2100 7100 2950 7100
Wire Wire Line
	2100 7200 2950 7200
Wire Wire Line
	2100 7300 2950 7300
Wire Wire Line
	2100 7400 2950 7400
Wire Wire Line
	2100 7500 2950 7500
Wire Wire Line
	4500 1000 4950 1000
Wire Wire Line
	4500 1100 4950 1100
Wire Wire Line
	4500 1200 4950 1200
Wire Wire Line
	4500 1300 4950 1300
Wire Wire Line
	4500 1400 4950 1400
Wire Wire Line
	4500 1500 4950 1500
Wire Wire Line
	4500 1600 4950 1600
Wire Wire Line
	4500 1700 4950 1700
Wire Wire Line
	4500 2500 4950 2500
Wire Wire Line
	4500 2600 4950 2600
Wire Wire Line
	4500 2700 4950 2700
Wire Wire Line
	4500 2800 4950 2800
Wire Wire Line
	4500 2900 4950 2900
Wire Wire Line
	4500 3000 4950 3000
Wire Wire Line
	4500 3100 4950 3100
Wire Wire Line
	4500 3200 4950 3200
Wire Wire Line
	4500 4000 4950 4000
Wire Wire Line
	4500 4100 4950 4100
Wire Wire Line
	4500 4200 4950 4200
Wire Wire Line
	4500 4300 4950 4300
Wire Wire Line
	4500 4400 4950 4400
Wire Wire Line
	4500 4500 4950 4500
Wire Wire Line
	4500 4600 4950 4600
Wire Wire Line
	4500 4700 4950 4700
Wire Wire Line
	4500 5500 4950 5500
Wire Wire Line
	4500 5600 4950 5600
Wire Wire Line
	4500 5700 4950 5700
Wire Wire Line
	4500 5800 4950 5800
Wire Wire Line
	4500 5900 4950 5900
Wire Wire Line
	4500 6000 4950 6000
Wire Wire Line
	4500 6100 4950 6100
Wire Wire Line
	4500 6200 4950 6200
Wire Wire Line
	6500 1000 6950 1000
Wire Wire Line
	6500 1100 6950 1100
Wire Wire Line
	6500 1200 6950 1200
Wire Wire Line
	6500 1300 6950 1300
Wire Wire Line
	6500 1400 6950 1400
Wire Wire Line
	6500 1500 6950 1500
Wire Wire Line
	6500 1600 6950 1600
Wire Wire Line
	6500 1700 6950 1700
Wire Wire Line
	6500 2500 6950 2500
Wire Wire Line
	6500 2600 6950 2600
Wire Wire Line
	6500 2700 6950 2700
Wire Wire Line
	6500 2800 6950 2800
Wire Wire Line
	6500 2900 6950 2900
Wire Wire Line
	6500 3000 6950 3000
Wire Wire Line
	6500 3100 6950 3100
Wire Wire Line
	6500 3200 6950 3200
Wire Wire Line
	6500 4000 6950 4000
Wire Wire Line
	6500 4100 6950 4100
Wire Wire Line
	6500 4200 6950 4200
Wire Wire Line
	6500 4300 6950 4300
Wire Wire Line
	6500 4400 6950 4400
Wire Wire Line
	6500 4500 6950 4500
Wire Wire Line
	6500 4600 6950 4600
Wire Wire Line
	6500 4700 6950 4700
Wire Wire Line
	6500 5500 6950 5500
Wire Wire Line
	6500 5600 6950 5600
Wire Wire Line
	6500 5700 6950 5700
Wire Wire Line
	6500 5800 6950 5800
Wire Wire Line
	6500 5900 6950 5900
Wire Wire Line
	6500 6000 6950 6000
Wire Wire Line
	6500 6100 6950 6100
Wire Wire Line
	6500 6200 6950 6200
Wire Wire Line
	8500 1000 8950 1000
Wire Wire Line
	8500 1100 8950 1100
Wire Wire Line
	8500 1200 8950 1200
Wire Wire Line
	8500 1300 8950 1300
Wire Wire Line
	8500 2500 8950 2500
Wire Wire Line
	8500 2600 8950 2600
Wire Wire Line
	8500 2700 8950 2700
Wire Wire Line
	8500 2800 8950 2800
Wire Wire Line
	8500 2900 8950 2900
Wire Wire Line
	8500 3000 8950 3000
Wire Wire Line
	8500 3100 8950 3100
Wire Wire Line
	8500 3200 8950 3200
Wire Wire Line
	8500 4000 8950 4000
Wire Wire Line
	8500 4100 8950 4100
Wire Wire Line
	8500 4200 8950 4200
Wire Wire Line
	8500 4300 8950 4300
Wire Wire Line
	8500 4400 8950 4400
Wire Wire Line
	8500 4500 8950 4500
Wire Wire Line
	8500 4600 8950 4600
Wire Wire Line
	8500 4700 8950 4700
Wire Bus Line
	2000 900  1650 900 
Wire Bus Line
	2000 900  2000 1400
Wire Bus Line
	2000 1400 2000 1500
Wire Bus Line
	2000 1500 2000 1700
Wire Bus Line
	2000 1700 2000 1900
Wire Bus Line
	2000 1900 2000 2100
Wire Bus Line
	2000 2100 2000 2300
Wire Bus Line
	2000 2900 1650 2900
Wire Bus Line
	2000 2900 2000 3400
Wire Bus Line
	2000 3400 2000 3600
Wire Bus Line
	2000 3600 2000 3700
Wire Bus Line
	2000 3700 2000 3900
Wire Bus Line
	2000 3900 2000 4000
Wire Bus Line
	2000 4000 2000 4200
Wire Bus Line
	2000 4200 2000 4400
Wire Bus Line
	2000 5000 1650 5000
Wire Bus Line
	2000 5000 2000 5450
Wire Bus Line
	2000 5450 2000 5650
Wire Bus Line
	2000 5650 2000 5750
Wire Bus Line
	2000 5750 2000 5950
Wire Bus Line
	2000 5950 2000 6150
Wire Bus Line
	2000 6150 2000 6500
Wire Bus Line
	2000 6500 2000 6600
Wire Bus Line
	2000 6600 2000 6800
Wire Bus Line
	2000 6800 2000 7000
Wire Bus Line
	2000 7000 2000 7100
Wire Bus Line
	2000 7100 2000 7300
Wire Bus Line
	2000 7300 2000 7400
Wire Bus Line
	4400 1200 4400 1600
Wire Bus Line
	4400 1600 4400 2700
Wire Bus Line
	4400 2700 4400 3100
Wire Bus Line
	4400 3100 4400 4200
Wire Bus Line
	4400 4200 4400 4400
Wire Bus Line
	4400 4400 4400 4800
Wire Bus Line
	4400 4800 4400 5900
Wire Bus Line
	4400 5900 4400 6300
Wire Bus Line
	4400 6300 4400 7000
Wire Bus Line
	4400 7000 4000 7000
Wire Bus Line
	6400 1200 6400 1600
Wire Bus Line
	6400 1600 6400 1800
Wire Bus Line
	6400 1800 6400 2900
Wire Bus Line
	6400 2900 6400 3300
Wire Bus Line
	6400 3300 6400 4400
Wire Bus Line
	6400 4400 6400 4800
Wire Bus Line
	6400 4800 6400 5700
Wire Bus Line
	6400 5700 6400 6100
Wire Bus Line
	6400 6100 6400 7000
Wire Bus Line
	6400 7000 6000 7000
Wire Bus Line
	8400 1200 8400 2700
Wire Bus Line
	8400 2700 8400 3100
Wire Bus Line
	8400 3100 8400 4200
Wire Bus Line
	8400 4200 8400 4600
Wire Bus Line
	8400 4600 8400 5500
Wire Bus Line
	8800 5500 8400 5500
Text Label 2150 1400 0    50   ~ 0
JAMMA-C15
Text Label 2150 1500 0    50   ~ 0
JAMMA-C16
Text Label 2150 1600 0    50   ~ 0
JAMMA-C17
Text Label 2150 1700 0    50   ~ 0
JAMMA-C18
Text Label 2150 1800 0    50   ~ 0
JAMMA-C19
Text Label 2150 1900 0    50   ~ 0
JAMMA-C20
Text Label 2150 2000 0    50   ~ 0
JAMMA-C21
Text Label 2150 2100 0    50   ~ 0
JAMMA-C22
Text Label 2150 2200 0    50   ~ 0
JAMMA-C23
Text Label 2150 2300 0    50   ~ 0
JAMMA-C24
Text Label 2150 2400 0    50   ~ 0
JAMMA-C25
Text Label 2150 3400 0    50   ~ 0
JAMMA-S14
Text Label 2150 3500 0    50   ~ 0
JAMMA-S15
Text Label 2150 3600 0    50   ~ 0
JAMMA-S16
Text Label 2150 3700 0    50   ~ 0
JAMMA-S17
Text Label 2150 3800 0    50   ~ 0
JAMMA-S18
Text Label 2150 3900 0    50   ~ 0
JAMMA-S19
Text Label 2150 4000 0    50   ~ 0
JAMMA-S20
Text Label 2150 4100 0    50   ~ 0
JAMMA-S21
Text Label 2150 4200 0    50   ~ 0
JAMMA-S22
Text Label 2150 4300 0    50   ~ 0
JAMMA-S23
Text Label 2150 4400 0    50   ~ 0
JAMMA-S24
Text Label 2150 4500 0    50   ~ 0
JAMMA-S25
Text Label 2150 5450 0    50   ~ 0
KICK9
Text Label 2150 5550 0    50   ~ 0
KICK11
Text Label 2150 5650 0    50   ~ 0
KICK13
Text Label 2150 5750 0    50   ~ 0
KICK15
Text Label 2150 5850 0    50   ~ 0
KICK17
Text Label 2150 5950 0    50   ~ 0
KICK19
Text Label 2150 6050 0    50   ~ 0
KICK21
Text Label 2150 6150 0    50   ~ 0
KICK23
Text Label 2150 6250 0    50   ~ 0
KICK25
Text Label 2150 6350 0    50   ~ 0
KICK27
Text Label 2150 6600 0    50   ~ 0
KICK10
Text Label 2150 6700 0    50   ~ 0
KICK12
Text Label 2150 6800 0    50   ~ 0
KICK14
Text Label 2150 6900 0    50   ~ 0
KICK16
Text Label 2150 7000 0    50   ~ 0
KICK18
Text Label 2150 7100 0    50   ~ 0
KICK20
Text Label 2150 7200 0    50   ~ 0
KICK22
Text Label 2150 7300 0    50   ~ 0
KICK24
Text Label 2150 7400 0    50   ~ 0
KICK26
Text Label 2150 7500 0    50   ~ 0
KICK28
Text Label 2500 5450 0    50   ~ 0
P3-COIN
Text Label 2500 5550 0    50   ~ 0
P3-START
Text Label 2500 5650 0    50   ~ 0
P3-RIGHT
Text Label 2500 5750 0    50   ~ 0
P3-LEFT
Text Label 2500 5850 0    50   ~ 0
P3-DOWN
Text Label 2500 5950 0    50   ~ 0
P3-UP
Text Label 2500 6050 0    50   ~ 0
P3-B1
Text Label 2500 6150 0    50   ~ 0
P3-B2
Text Label 2500 6250 0    50   ~ 0
P3-B3
Text Label 2500 6350 0    50   ~ 0
P3-B4
Text Label 2500 6600 0    50   ~ 0
P4-COIN
Text Label 2500 6700 0    50   ~ 0
P4-START
Text Label 2500 6800 0    50   ~ 0
P4-UP
Text Label 2500 6900 0    50   ~ 0
P4-DOWN
Text Label 2500 7000 0    50   ~ 0
P4-LEFT
Text Label 2500 7100 0    50   ~ 0
P4-RIGHT
Text Label 2500 7200 0    50   ~ 0
P4-B1
Text Label 2500 7300 0    50   ~ 0
P4-B2
Text Label 2500 7400 0    50   ~ 0
P4-B3
Text Label 2500 7500 0    50   ~ 0
P4-B4
Text Label 2700 1400 0    50   ~ 0
TEST
Text Label 2700 1500 0    50   ~ 0
P1-COIN
Text Label 2700 1600 0    50   ~ 0
P1-START
Text Label 2700 1700 0    50   ~ 0
P1-RIGHT
Text Label 2700 1800 0    50   ~ 0
P1-LEFT
Text Label 2700 1900 0    50   ~ 0
P1-DOWN
Text Label 2700 2000 0    50   ~ 0
P1-UP
Text Label 2700 2100 0    50   ~ 0
P1-B1
Text Label 2700 2200 0    50   ~ 0
P1-B2
Text Label 2700 2300 0    50   ~ 0
P1-B3
Text Label 2700 2400 0    50   ~ 0
P1-B4
Text Label 2700 3400 0    50   ~ 0
SERVICE
Text Label 2700 3600 0    50   ~ 0
P2-COIN
Text Label 2700 3700 0    50   ~ 0
P2-START
Text Label 2700 3800 0    50   ~ 0
P2-RIGHT
Text Label 2700 3900 0    50   ~ 0
P2-LEFT
Text Label 2700 4000 0    50   ~ 0
P2-DOWN
Text Label 2700 4100 0    50   ~ 0
P2-UP
Text Label 2700 4200 0    50   ~ 0
P2-B1
Text Label 2700 4300 0    50   ~ 0
P2-B2
Text Label 2700 4400 0    50   ~ 0
P2-B3
Text Label 2700 4500 0    50   ~ 0
P2-B4
Text Label 4400 6750 2    50   ~ 0
IN0-[0..15]
Text Label 4500 1000 0    50   ~ 0
P1-RIGHT
Text Label 4500 1100 0    50   ~ 0
IN0-0
Text Label 4500 1200 0    50   ~ 0
P1-LEFT
Text Label 4500 1300 0    50   ~ 0
IN0-1
Text Label 4500 1400 0    50   ~ 0
P1-DOWN
Text Label 4500 1500 0    50   ~ 0
IN0-2
Text Label 4500 1600 0    50   ~ 0
P1-UP
Text Label 4500 1700 0    50   ~ 0
IN0-3
Text Label 4500 2500 0    50   ~ 0
P1-B1
Text Label 4500 2600 0    50   ~ 0
IN0-4
Text Label 4500 2700 0    50   ~ 0
P1-B2
Text Label 4500 2800 0    50   ~ 0
IN0-5
Text Label 4500 2900 0    50   ~ 0
P1-B3
Text Label 4500 3000 0    50   ~ 0
IN0-6
Text Label 4500 3100 0    50   ~ 0
P1-B4
Text Label 4500 3200 0    50   ~ 0
IN0-7
Text Label 4500 4000 0    50   ~ 0
P2-RIGHT
Text Label 4500 4100 0    50   ~ 0
IN0-8
Text Label 4500 4200 0    50   ~ 0
P2-LEFT
Text Label 4500 4300 0    50   ~ 0
IN0-9
Text Label 4500 4400 0    50   ~ 0
P2-DOWN
Text Label 4500 4500 0    50   ~ 0
IN0-10
Text Label 4500 4600 0    50   ~ 0
P2-UP
Text Label 4500 4700 0    50   ~ 0
IN0-11
Text Label 4500 5500 0    50   ~ 0
P2-B1
Text Label 4500 5600 0    50   ~ 0
IN0-12
Text Label 4500 5700 0    50   ~ 0
P2-B2
Text Label 4500 5800 0    50   ~ 0
IN0-13
Text Label 4500 5900 0    50   ~ 0
P2-B3
Text Label 4500 6000 0    50   ~ 0
IN0-14
Text Label 4500 6100 0    50   ~ 0
P2-B4
Text Label 4500 6200 0    50   ~ 0
IN0-15
Text Label 6400 6800 2    50   ~ 0
IN1-[0..15]
Text Label 6500 1000 0    50   ~ 0
P3-RIGHT
Text Label 6500 1100 0    50   ~ 0
IN1-0
Text Label 6500 1200 0    50   ~ 0
P3-LEFT
Text Label 6500 1300 0    50   ~ 0
IN1-1
Text Label 6500 1400 0    50   ~ 0
P3-DOWN
Text Label 6500 1500 0    50   ~ 0
IN1-2
Text Label 6500 1600 0    50   ~ 0
P3-UP
Text Label 6500 1700 0    50   ~ 0
IN1-3
Text Label 6500 2500 0    50   ~ 0
P3-B1
Text Label 6500 2600 0    50   ~ 0
IN1-4
Text Label 6500 2700 0    50   ~ 0
P3-B2
Text Label 6500 2800 0    50   ~ 0
IN1-5
Text Label 6500 2900 0    50   ~ 0
P3-B3
Text Label 6500 3000 0    50   ~ 0
IN1-6
Text Label 6500 3100 0    50   ~ 0
P3-B4
Text Label 6500 3200 0    50   ~ 0
IN1-7
Text Label 6500 4000 0    50   ~ 0
P4-RIGHT
Text Label 6500 4100 0    50   ~ 0
IN1-8
Text Label 6500 4200 0    50   ~ 0
P4-LEFT
Text Label 6500 4300 0    50   ~ 0
IN1-9
Text Label 6500 4400 0    50   ~ 0
P4-DOWN
Text Label 6500 4500 0    50   ~ 0
IN1-10
Text Label 6500 4600 0    50   ~ 0
P4-UP
Text Label 6500 4700 0    50   ~ 0
IN1-11
Text Label 6500 5500 0    50   ~ 0
P4-B1
Text Label 6500 5600 0    50   ~ 0
IN1-12
Text Label 6500 5700 0    50   ~ 0
P4-B2
Text Label 6500 5800 0    50   ~ 0
IN1-13
Text Label 6500 5900 0    50   ~ 0
P4-B3
Text Label 6500 6000 0    50   ~ 0
IN1-14
Text Label 6500 6100 0    50   ~ 0
P4-B4
Text Label 6500 6200 0    50   ~ 0
IN1-15
Text Label 8400 5300 0    50   ~ 0
IN2-[1..15]
Text Label 8500 1000 0    50   ~ 0
TEST
Text Label 8500 1100 0    50   ~ 0
IN2-1
Text Label 8500 1200 0    50   ~ 0
SERVICE
Text Label 8500 1300 0    50   ~ 0
IN2-2
Text Label 8500 2500 0    50   ~ 0
P1-START
Text Label 8500 2600 0    50   ~ 0
IN2-8
Text Label 8500 2700 0    50   ~ 0
P2-START
Text Label 8500 2800 0    50   ~ 0
IN2-9
Text Label 8500 2900 0    50   ~ 0
P3-START
Text Label 8500 3000 0    50   ~ 0
IN2-10
Text Label 8500 3100 0    50   ~ 0
P4-START
Text Label 8500 3200 0    50   ~ 0
IN2-11
Text Label 8500 4000 0    50   ~ 0
P1-COIN
Text Label 8500 4100 0    50   ~ 0
IN2-12
Text Label 8500 4200 0    50   ~ 0
P2-COIN
Text Label 8500 4300 0    50   ~ 0
IN2-13
Text Label 8500 4400 0    50   ~ 0
P3-COIN
Text Label 8500 4500 0    50   ~ 0
IN2-14
Text Label 8500 4600 0    50   ~ 0
P4-COIN
Text Label 8500 4700 0    50   ~ 0
IN2-15
Text HLabel 1650 900  0    50   Input ~ 0
JAMMA-C[15..25]
Text HLabel 1650 2900 0    50   Input ~ 0
JAMMA-S[14..25]
Text HLabel 1650 5000 0    50   Input ~ 0
KICK[9..28]
Text HLabel 4000 7000 0    50   Output ~ 0
IN0[0..15]
Text HLabel 6000 7000 0    50   Output ~ 0
IN1[0..15]
Text HLabel 8800 5500 2    50   Output ~ 0
IN2[1..15]
$Comp
L power:VCC #PWR0318
U 1 1 5DE55E40
P 5500 750
F 0 "#PWR0318" H 5500 600 50  0001 C CNN
F 1 "VCC" H 5517 923 50  0000 C CNN
F 2 "" H 5500 750 50  0001 C CNN
F 3 "" H 5500 750 50  0001 C CNN
	1    5500 750 
	1    0    0    -1  
$EndComp
$Comp
L power:VCC #PWR0320
U 1 1 5DE4ECCC
P 5500 2250
F 0 "#PWR0320" H 5500 2100 50  0001 C CNN
F 1 "VCC" H 5517 2423 50  0000 C CNN
F 2 "" H 5500 2250 50  0001 C CNN
F 3 "" H 5500 2250 50  0001 C CNN
	1    5500 2250
	1    0    0    -1  
$EndComp
$Comp
L power:VCC #PWR0322
U 1 1 5DE4A1AD
P 5500 3750
F 0 "#PWR0322" H 5500 3600 50  0001 C CNN
F 1 "VCC" H 5517 3923 50  0000 C CNN
F 2 "" H 5500 3750 50  0001 C CNN
F 3 "" H 5500 3750 50  0001 C CNN
	1    5500 3750
	1    0    0    -1  
$EndComp
$Comp
L power:VCC #PWR0324
U 1 1 5DE3D05C
P 5500 5250
F 0 "#PWR0324" H 5500 5100 50  0001 C CNN
F 1 "VCC" H 5517 5423 50  0000 C CNN
F 2 "" H 5500 5250 50  0001 C CNN
F 3 "" H 5500 5250 50  0001 C CNN
	1    5500 5250
	1    0    0    -1  
$EndComp
$Comp
L power:VCC #PWR0326
U 1 1 5DE70E77
P 7500 750
F 0 "#PWR0326" H 7500 600 50  0001 C CNN
F 1 "VCC" H 7517 923 50  0000 C CNN
F 2 "" H 7500 750 50  0001 C CNN
F 3 "" H 7500 750 50  0001 C CNN
	1    7500 750 
	1    0    0    -1  
$EndComp
$Comp
L power:VCC #PWR0328
U 1 1 5DE6E77D
P 7500 2250
F 0 "#PWR0328" H 7500 2100 50  0001 C CNN
F 1 "VCC" H 7517 2423 50  0000 C CNN
F 2 "" H 7500 2250 50  0001 C CNN
F 3 "" H 7500 2250 50  0001 C CNN
	1    7500 2250
	1    0    0    -1  
$EndComp
$Comp
L power:VCC #PWR0330
U 1 1 5DE621C7
P 7500 3750
F 0 "#PWR0330" H 7500 3600 50  0001 C CNN
F 1 "VCC" H 7517 3923 50  0000 C CNN
F 2 "" H 7500 3750 50  0001 C CNN
F 3 "" H 7500 3750 50  0001 C CNN
	1    7500 3750
	1    0    0    -1  
$EndComp
$Comp
L power:VCC #PWR0332
U 1 1 5DE5BD88
P 7500 5250
F 0 "#PWR0332" H 7500 5100 50  0001 C CNN
F 1 "VCC" H 7517 5423 50  0000 C CNN
F 2 "" H 7500 5250 50  0001 C CNN
F 3 "" H 7500 5250 50  0001 C CNN
	1    7500 5250
	1    0    0    -1  
$EndComp
$Comp
L power:VCC #PWR0334
U 1 1 5DE3AB41
P 9500 750
F 0 "#PWR0334" H 9500 600 50  0001 C CNN
F 1 "VCC" H 9517 923 50  0000 C CNN
F 2 "" H 9500 750 50  0001 C CNN
F 3 "" H 9500 750 50  0001 C CNN
	1    9500 750 
	1    0    0    -1  
$EndComp
$Comp
L power:VCC #PWR0338
U 1 1 5DE2E6CE
P 9500 2250
F 0 "#PWR0338" H 9500 2100 50  0001 C CNN
F 1 "VCC" H 9517 2423 50  0000 C CNN
F 2 "" H 9500 2250 50  0001 C CNN
F 3 "" H 9500 2250 50  0001 C CNN
	1    9500 2250
	1    0    0    -1  
$EndComp
$Comp
L power:VCC #PWR0336
U 1 1 5DE3832F
P 9500 3750
F 0 "#PWR0336" H 9500 3600 50  0001 C CNN
F 1 "VCC" H 9517 3923 50  0000 C CNN
F 2 "" H 9500 3750 50  0001 C CNN
F 3 "" H 9500 3750 50  0001 C CNN
	1    9500 3750
	1    0    0    -1  
$EndComp
$Comp
L power:GND #PWR0317
U 1 1 5DE55E4E
P 5500 1900
F 0 "#PWR0317" H 5500 1650 50  0001 C CNN
F 1 "GND" H 5505 1727 50  0001 C CNN
F 2 "" H 5500 1900 50  0001 C CNN
F 3 "" H 5500 1900 50  0001 C CNN
	1    5500 1900
	1    0    0    -1  
$EndComp
$Comp
L power:GND #PWR0319
U 1 1 5DE4ECD2
P 5500 3400
F 0 "#PWR0319" H 5500 3150 50  0001 C CNN
F 1 "GND" H 5505 3227 50  0001 C CNN
F 2 "" H 5500 3400 50  0001 C CNN
F 3 "" H 5500 3400 50  0001 C CNN
	1    5500 3400
	1    0    0    -1  
$EndComp
$Comp
L power:GND #PWR0321
U 1 1 5DE4A1BB
P 5500 4900
F 0 "#PWR0321" H 5500 4650 50  0001 C CNN
F 1 "GND" H 5505 4727 50  0001 C CNN
F 2 "" H 5500 4900 50  0001 C CNN
F 3 "" H 5500 4900 50  0001 C CNN
	1    5500 4900
	1    0    0    -1  
$EndComp
$Comp
L power:GND #PWR0323
U 1 1 5DE3D062
P 5500 6400
F 0 "#PWR0323" H 5500 6150 50  0001 C CNN
F 1 "GND" H 5505 6227 50  0001 C CNN
F 2 "" H 5500 6400 50  0001 C CNN
F 3 "" H 5500 6400 50  0001 C CNN
	1    5500 6400
	1    0    0    -1  
$EndComp
$Comp
L power:GND #PWR0325
U 1 1 5DE70E85
P 7500 1900
F 0 "#PWR0325" H 7500 1650 50  0001 C CNN
F 1 "GND" H 7505 1727 50  0001 C CNN
F 2 "" H 7500 1900 50  0001 C CNN
F 3 "" H 7500 1900 50  0001 C CNN
	1    7500 1900
	1    0    0    -1  
$EndComp
$Comp
L power:GND #PWR0327
U 1 1 5DE6E785
P 7500 3400
F 0 "#PWR0327" H 7500 3150 50  0001 C CNN
F 1 "GND" H 7505 3227 50  0001 C CNN
F 2 "" H 7500 3400 50  0001 C CNN
F 3 "" H 7500 3400 50  0001 C CNN
	1    7500 3400
	1    0    0    -1  
$EndComp
$Comp
L power:GND #PWR0329
U 1 1 5DE621D5
P 7500 4900
F 0 "#PWR0329" H 7500 4650 50  0001 C CNN
F 1 "GND" H 7505 4727 50  0001 C CNN
F 2 "" H 7500 4900 50  0001 C CNN
F 3 "" H 7500 4900 50  0001 C CNN
	1    7500 4900
	1    0    0    -1  
$EndComp
$Comp
L power:GND #PWR0331
U 1 1 5DE5BD96
P 7500 6400
F 0 "#PWR0331" H 7500 6150 50  0001 C CNN
F 1 "GND" H 7505 6227 50  0001 C CNN
F 2 "" H 7500 6400 50  0001 C CNN
F 3 "" H 7500 6400 50  0001 C CNN
	1    7500 6400
	1    0    0    -1  
$EndComp
$Comp
L power:GND #PWR0333
U 1 1 5DE3AB47
P 9500 1900
F 0 "#PWR0333" H 9500 1650 50  0001 C CNN
F 1 "GND" H 9505 1727 50  0001 C CNN
F 2 "" H 9500 1900 50  0001 C CNN
F 3 "" H 9500 1900 50  0001 C CNN
	1    9500 1900
	1    0    0    -1  
$EndComp
$Comp
L power:GND #PWR0337
U 1 1 5DE2EC6C
P 9500 3400
F 0 "#PWR0337" H 9500 3150 50  0001 C CNN
F 1 "GND" H 9505 3227 50  0001 C CNN
F 2 "" H 9500 3400 50  0001 C CNN
F 3 "" H 9500 3400 50  0001 C CNN
	1    9500 3400
	1    0    0    -1  
$EndComp
$Comp
L power:GND #PWR0335
U 1 1 5DE38335
P 9500 4900
F 0 "#PWR0335" H 9500 4650 50  0001 C CNN
F 1 "GND" H 9505 4727 50  0001 C CNN
F 2 "" H 9500 4900 50  0001 C CNN
F 3 "" H 9500 4900 50  0001 C CNN
	1    9500 4900
	1    0    0    -1  
$EndComp
$Comp
L CPS2-Custom:CR084 CR7
U 1 1 5DE55E54
P 5200 1750
F 0 "CR7" V 4729 2138 50  0000 L CNN
F 1 "CR084" V 4820 2138 50  0000 L CNN
F 2 "" H 5400 2250 50  0001 C CNN
F 3 "" H 5400 2250 50  0001 C CNN
	1    5200 1750
	0    1    1    0   
$EndComp
$Comp
L CPS2-Custom:CR084 CR6
U 1 1 5DE4ECDC
P 5200 3250
F 0 "CR6" V 4729 3638 50  0000 L CNN
F 1 "CR084" V 4820 3638 50  0000 L CNN
F 2 "" H 5400 3750 50  0001 C CNN
F 3 "" H 5400 3750 50  0001 C CNN
	1    5200 3250
	0    1    1    0   
$EndComp
$Comp
L CPS2-Custom:CR084 CR5
U 1 1 5DE4A1C1
P 5200 4750
F 0 "CR5" V 4729 5138 50  0000 L CNN
F 1 "CR084" V 4820 5138 50  0000 L CNN
F 2 "" H 5400 5250 50  0001 C CNN
F 3 "" H 5400 5250 50  0001 C CNN
	1    5200 4750
	0    1    1    0   
$EndComp
$Comp
L CPS2-Custom:CR084 CR4
U 1 1 5DE3D056
P 5200 6250
F 0 "CR4" V 4729 6638 50  0000 L CNN
F 1 "CR084" V 4820 6638 50  0000 L CNN
F 2 "" H 5400 6750 50  0001 C CNN
F 3 "" H 5400 6750 50  0001 C CNN
	1    5200 6250
	0    1    1    0   
$EndComp
$Comp
L CPS2-Custom:CR084 CR11
U 1 1 5DE70E8B
P 7200 1750
F 0 "CR11" V 6729 2138 50  0000 L CNN
F 1 "CR084" V 6820 2138 50  0000 L CNN
F 2 "" H 7400 2250 50  0001 C CNN
F 3 "" H 7400 2250 50  0001 C CNN
	1    7200 1750
	0    1    1    0   
$EndComp
$Comp
L CPS2-Custom:CR084 CR10
U 1 1 5DE6E78B
P 7200 3250
F 0 "CR10" V 6729 3638 50  0000 L CNN
F 1 "CR084" V 6820 3638 50  0000 L CNN
F 2 "" H 7400 3750 50  0001 C CNN
F 3 "" H 7400 3750 50  0001 C CNN
	1    7200 3250
	0    1    1    0   
$EndComp
$Comp
L CPS2-Custom:CR084 CR9
U 1 1 5DE621DB
P 7200 4750
F 0 "CR9" V 6729 5138 50  0000 L CNN
F 1 "CR084" V 6820 5138 50  0000 L CNN
F 2 "" H 7400 5250 50  0001 C CNN
F 3 "" H 7400 5250 50  0001 C CNN
	1    7200 4750
	0    1    1    0   
$EndComp
$Comp
L CPS2-Custom:CR084 CR8
U 1 1 5DE5BD9C
P 7200 6250
F 0 "CR8" V 6729 6638 50  0000 L CNN
F 1 "CR084" V 6820 6638 50  0000 L CNN
F 2 "" H 7400 6750 50  0001 C CNN
F 3 "" H 7400 6750 50  0001 C CNN
	1    7200 6250
	0    1    1    0   
$EndComp
$Comp
L CPS2-Custom:CR084 CR3
U 1 1 5DE3AB3B
P 9200 1750
F 0 "CR3" V 8729 2138 50  0000 L CNN
F 1 "CR084" V 8820 2138 50  0000 L CNN
F 2 "" H 9400 2250 50  0001 C CNN
F 3 "" H 9400 2250 50  0001 C CNN
	1    9200 1750
	0    1    1    0   
$EndComp
$Comp
L CPS2-Custom:CR084 CR1
U 1 1 5DE26B57
P 9200 3250
F 0 "CR1" V 8729 3638 50  0000 L CNN
F 1 "CR084" V 8820 3638 50  0000 L CNN
F 2 "" H 9400 3750 50  0001 C CNN
F 3 "" H 9400 3750 50  0001 C CNN
	1    9200 3250
	0    1    1    0   
$EndComp
$Comp
L CPS2-Custom:CR084 CR2
U 1 1 5DE38329
P 9200 4750
F 0 "CR2" V 8729 5138 50  0000 L CNN
F 1 "CR084" V 8820 5138 50  0000 L CNN
F 2 "" H 9400 5250 50  0001 C CNN
F 3 "" H 9400 5250 50  0001 C CNN
	1    9200 4750
	0    1    1    0   
$EndComp
$EndSCHEMATC
