EESchema Schematic File Version 5
EELAYER 33 0
EELAYER END
$Descr A4 11693 8268
encoding utf-8
Sheet 16 22
Title ""
Date "2019-11-23"
Rev ""
Comp ""
Comment1 "Licence: CC-BY"
Comment2 "Author: Loïc *WydD* Petit"
Comment3 ""
Comment4 ""
Comment5 ""
Comment6 ""
Comment7 ""
Comment8 ""
Comment9 ""
$EndDescr
Connection ~ 4450 700 
Connection ~ 4550 700 
Connection ~ 4650 700 
Connection ~ 4750 700 
Connection ~ 4850 700 
Connection ~ 3900 6450
Connection ~ 4000 6450
Connection ~ 4100 6450
Connection ~ 4200 6450
Connection ~ 4300 6450
Connection ~ 4400 6450
Connection ~ 4500 6450
Connection ~ 4600 6450
Connection ~ 4700 6450
Connection ~ 4800 6450
Connection ~ 4900 6450
Connection ~ 5000 6450
Connection ~ 5100 6450
Connection ~ 5200 6450
Connection ~ 5300 6450
Connection ~ 5400 6450
Connection ~ 5500 6450
Connection ~ 6800 2500
Connection ~ 6950 3550
Connection ~ 9200 2600
Connection ~ 9400 3250
Connection ~ 9500 3250
Connection ~ 9600 3250
Connection ~ 9500 4650
Connection ~ 9600 4650
Connection ~ 8550 2300
Connection ~ 8900 2300
Connection ~ 9000 2600
Connection ~ 1650 4300
Connection ~ 9900 2850
Connection ~ 9900 4250
Connection ~ 10950 2500
NoConn ~ 3200 5450
NoConn ~ 7700 4300
NoConn ~ 8700 4300
NoConn ~ 9900 2400
NoConn ~ 700  4450
Entry Wire Line
	1500 6000 1600 6100
Entry Wire Line
	1500 6500 1600 6600
Entry Wire Line
	1500 7000 1600 7100
Entry Wire Line
	1500 7500 1600 7600
Entry Wire Line
	2700 900  2800 1000
Entry Wire Line
	2700 1000 2800 1100
Entry Wire Line
	2700 1100 2800 1200
Entry Wire Line
	2700 1200 2800 1300
Entry Wire Line
	2700 1300 2800 1400
Entry Wire Line
	2700 1400 2800 1500
Entry Wire Line
	2700 1500 2800 1600
Entry Wire Line
	2700 1600 2800 1700
Entry Wire Line
	2700 1700 2800 1800
Entry Wire Line
	2700 1800 2800 1900
Entry Wire Line
	2700 1900 2800 2000
Entry Wire Line
	2700 2000 2800 2100
Entry Wire Line
	2700 2100 2800 2200
Entry Wire Line
	2700 2200 2800 2300
Entry Wire Line
	2700 2300 2800 2400
Entry Wire Line
	2700 2400 2800 2500
Entry Wire Line
	2700 2550 2800 2650
Entry Wire Line
	2700 2650 2800 2750
Entry Wire Line
	2700 2750 2800 2850
Entry Wire Line
	2700 2850 2800 2950
Entry Wire Line
	2700 2950 2800 3050
Entry Wire Line
	2700 3050 2800 3150
Entry Wire Line
	2700 3150 2800 3250
Entry Wire Line
	2700 3250 2800 3350
Entry Wire Line
	2700 3350 2800 3450
Entry Wire Line
	2700 3450 2800 3550
Entry Wire Line
	2700 3550 2800 3650
Entry Wire Line
	2700 3650 2800 3750
Entry Wire Line
	2700 3750 2800 3850
Entry Wire Line
	2700 3850 2800 3950
Entry Wire Line
	2700 3950 2800 4050
Entry Wire Line
	2700 4050 2800 4150
Entry Wire Line
	2700 4500 2800 4400
Entry Wire Line
	2700 4600 2800 4500
Entry Wire Line
	2700 4700 2800 4600
Entry Wire Line
	2700 4800 2800 4700
Entry Wire Line
	2700 4900 2800 4800
Entry Wire Line
	2700 5000 2800 4900
Entry Wire Line
	2700 5100 2800 5000
Entry Wire Line
	2700 5200 2800 5100
Entry Wire Line
	2700 5300 2800 5200
Entry Wire Line
	2700 5400 2800 5300
Entry Wire Line
	6650 2950 6750 2850
Entry Wire Line
	6650 3050 6750 2950
Entry Wire Line
	6650 3150 6750 3050
Entry Wire Line
	6650 3250 6750 3150
Entry Wire Line
	6650 3350 6750 3250
Entry Wire Line
	6650 3450 6750 3350
Entry Wire Line
	6650 3800 6750 3700
Entry Wire Line
	6650 3900 6750 3800
Entry Wire Line
	6650 4000 6750 3900
Entry Wire Line
	6650 4100 6750 4000
Entry Wire Line
	6650 4200 6750 4100
Entry Wire Line
	6650 4300 6750 4200
Entry Wire Line
	6650 4400 6750 4300
Entry Wire Line
	6650 4500 6750 4400
Entry Wire Line
	6650 4600 6750 4500
Entry Wire Line
	6650 4700 6750 4600
Entry Wire Line
	6650 4800 6750 4700
Entry Wire Line
	6650 4900 6750 4800
Entry Wire Line
	6650 5000 6750 4900
Entry Wire Line
	6650 5100 6750 5000
Entry Wire Line
	6650 5200 6750 5100
Entry Wire Line
	6650 5300 6750 5200
Entry Wire Line
	7250 3800 7150 3700
Entry Wire Line
	7250 3900 7150 3800
Entry Wire Line
	7250 4000 7150 3900
Entry Wire Line
	7250 4100 7150 4000
Entry Wire Line
	7250 4200 7150 4100
Entry Wire Line
	7250 4400 7150 4300
Entry Wire Line
	7250 4500 7150 4400
Entry Wire Line
	9600 700  9700 800 
Entry Wire Line
	9600 800  9700 900 
Entry Wire Line
	9600 1150 9700 1250
Entry Wire Line
	9600 1250 9700 1350
Entry Wire Line
	9600 1700 9700 1800
Entry Wire Line
	9600 1800 9700 1900
Wire Wire Line
	600  4300 600  5650
Wire Wire Line
	600  5650 3200 5650
Wire Wire Line
	700  4300 600  4300
Wire Wire Line
	700  4550 700  5750
Wire Wire Line
	700  5750 3200 5750
Wire Wire Line
	1500 4300 1650 4300
Wire Wire Line
	1500 4550 1650 4550
Wire Wire Line
	1600 6600 2100 6600
Wire Wire Line
	1600 7100 2100 7100
Wire Wire Line
	1600 7600 2100 7600
Wire Wire Line
	1650 4300 3200 4300
Wire Wire Line
	1650 4550 1650 5550
Wire Wire Line
	1650 5550 3200 5550
Wire Wire Line
	2100 6100 1600 6100
Wire Wire Line
	2700 6100 2800 6100
Wire Wire Line
	2700 6600 2900 6600
Wire Wire Line
	2700 7600 3100 7600
Wire Wire Line
	2800 1000 3200 1000
Wire Wire Line
	2800 1100 3200 1100
Wire Wire Line
	2800 1200 3200 1200
Wire Wire Line
	2800 1300 3200 1300
Wire Wire Line
	2800 1400 3200 1400
Wire Wire Line
	2800 1500 3200 1500
Wire Wire Line
	2800 1600 3200 1600
Wire Wire Line
	2800 1700 3200 1700
Wire Wire Line
	2800 1800 3200 1800
Wire Wire Line
	2800 1900 3200 1900
Wire Wire Line
	2800 2000 3200 2000
Wire Wire Line
	2800 2100 3200 2100
Wire Wire Line
	2800 2200 3200 2200
Wire Wire Line
	2800 2300 3200 2300
Wire Wire Line
	2800 2400 3200 2400
Wire Wire Line
	2800 2500 3200 2500
Wire Wire Line
	2800 2650 3200 2650
Wire Wire Line
	2800 2750 3200 2750
Wire Wire Line
	2800 2850 3200 2850
Wire Wire Line
	2800 2950 3200 2950
Wire Wire Line
	2800 3050 3200 3050
Wire Wire Line
	2800 3150 3200 3150
Wire Wire Line
	2800 3250 3200 3250
Wire Wire Line
	2800 3350 3200 3350
Wire Wire Line
	2800 3450 3200 3450
Wire Wire Line
	2800 3550 3200 3550
Wire Wire Line
	2800 3650 3200 3650
Wire Wire Line
	2800 3750 3200 3750
Wire Wire Line
	2800 3850 3200 3850
Wire Wire Line
	2800 3950 3200 3950
Wire Wire Line
	2800 4050 3200 4050
Wire Wire Line
	2800 4150 3200 4150
Wire Wire Line
	2800 4400 3200 4400
Wire Wire Line
	2800 4500 3200 4500
Wire Wire Line
	2800 4600 3200 4600
Wire Wire Line
	2800 4700 3200 4700
Wire Wire Line
	2800 4800 3200 4800
Wire Wire Line
	2800 4900 3200 4900
Wire Wire Line
	2800 5000 3200 5000
Wire Wire Line
	2800 5100 3200 5100
Wire Wire Line
	2800 5200 3200 5200
Wire Wire Line
	2800 5300 3200 5300
Wire Wire Line
	2800 5850 3200 5850
Wire Wire Line
	2800 6100 2800 5850
Wire Wire Line
	2900 5950 2900 6600
Wire Wire Line
	3000 6050 3000 7100
Wire Wire Line
	3000 7100 2700 7100
Wire Wire Line
	3100 6150 3200 6150
Wire Wire Line
	3100 7600 3100 6150
Wire Wire Line
	3200 5950 2900 5950
Wire Wire Line
	3200 6050 3000 6050
Wire Wire Line
	3800 6450 3900 6450
Wire Wire Line
	3900 6450 4000 6450
Wire Wire Line
	4000 6450 4100 6450
Wire Wire Line
	4100 6450 4200 6450
Wire Wire Line
	4200 6450 4300 6450
Wire Wire Line
	4300 6450 4400 6450
Wire Wire Line
	4400 6450 4500 6450
Wire Wire Line
	4450 700  4550 700 
Wire Wire Line
	4500 6450 4600 6450
Wire Wire Line
	4550 700  4650 700 
Wire Wire Line
	4600 6450 4700 6450
Wire Wire Line
	4650 700  4750 700 
Wire Wire Line
	4700 6450 4800 6450
Wire Wire Line
	4750 700  4850 700 
Wire Wire Line
	4800 6450 4900 6450
Wire Wire Line
	4850 700  4950 700 
Wire Wire Line
	4900 6450 5000 6450
Wire Wire Line
	5000 6450 5100 6450
Wire Wire Line
	5100 6450 5200 6450
Wire Wire Line
	5200 6450 5300 6450
Wire Wire Line
	5300 6450 5400 6450
Wire Wire Line
	5400 6450 5500 6450
Wire Wire Line
	5500 6450 5600 6450
Wire Wire Line
	6200 2500 6400 2500
Wire Wire Line
	6200 2950 6650 2950
Wire Wire Line
	6200 3050 6650 3050
Wire Wire Line
	6200 3150 6650 3150
Wire Wire Line
	6200 3250 6650 3250
Wire Wire Line
	6200 3350 6650 3350
Wire Wire Line
	6200 3450 6650 3450
Wire Wire Line
	6200 3800 6650 3800
Wire Wire Line
	6200 3900 6650 3900
Wire Wire Line
	6200 4000 6650 4000
Wire Wire Line
	6200 4100 6650 4100
Wire Wire Line
	6200 4200 6650 4200
Wire Wire Line
	6200 4300 6650 4300
Wire Wire Line
	6200 4400 6650 4400
Wire Wire Line
	6200 4500 6650 4500
Wire Wire Line
	6200 4600 6650 4600
Wire Wire Line
	6200 4700 6650 4700
Wire Wire Line
	6200 4800 6650 4800
Wire Wire Line
	6200 4900 6650 4900
Wire Wire Line
	6200 5000 6650 5000
Wire Wire Line
	6200 5100 6650 5100
Wire Wire Line
	6200 5200 6650 5200
Wire Wire Line
	6200 5300 6650 5300
Wire Wire Line
	6600 2500 6800 2500
Wire Wire Line
	6800 2500 7000 2500
Wire Wire Line
	7200 2500 7350 2500
Wire Wire Line
	7350 2500 7350 2600
Wire Wire Line
	7350 2600 6200 2600
Wire Wire Line
	7700 3800 7250 3800
Wire Wire Line
	7700 3900 7250 3900
Wire Wire Line
	7700 4000 7250 4000
Wire Wire Line
	7700 4100 7250 4100
Wire Wire Line
	7700 4200 7250 4200
Wire Wire Line
	7700 4400 7250 4400
Wire Wire Line
	7700 4500 7250 4500
Wire Wire Line
	8350 2300 8550 2300
Wire Wire Line
	8550 2300 8550 2600
Wire Wire Line
	8700 3800 9200 3800
Wire Wire Line
	8700 3900 9200 3900
Wire Wire Line
	8700 4000 8800 4000
Wire Wire Line
	8700 4100 8900 4100
Wire Wire Line
	8700 4400 9200 4400
Wire Wire Line
	8700 4500 9100 4500
Wire Wire Line
	8750 2300 8900 2300
Wire Wire Line
	8750 2600 9000 2600
Wire Wire Line
	8800 4000 8800 4850
Wire Wire Line
	8800 4850 8950 4850
Wire Wire Line
	8900 2300 8900 4100
Wire Wire Line
	8900 2300 9200 2300
Wire Wire Line
	9000 2600 9000 4200
Wire Wire Line
	9000 4200 8700 4200
Wire Wire Line
	9100 2400 9100 3250
Wire Wire Line
	9100 3250 9400 3250
Wire Wire Line
	9100 3700 9200 3700
Wire Wire Line
	9100 4500 9100 3700
Wire Wire Line
	9200 2400 9100 2400
Wire Wire Line
	9200 2600 9000 2600
Wire Wire Line
	9200 2600 9200 2500
Wire Wire Line
	9200 4400 9200 4000
Wire Wire Line
	9400 3250 9500 3250
Wire Wire Line
	9500 3250 9600 3250
Wire Wire Line
	9500 4650 9400 4650
Wire Wire Line
	9600 3250 9700 3250
Wire Wire Line
	9600 4650 9500 4650
Wire Wire Line
	9700 800  10750 800 
Wire Wire Line
	9700 900  10750 900 
Wire Wire Line
	9700 1250 10750 1250
Wire Wire Line
	9700 1350 10750 1350
Wire Wire Line
	9700 1800 10550 1800
Wire Wire Line
	9700 1900 10550 1900
Wire Wire Line
	9700 4650 9600 4650
Wire Wire Line
	9900 2300 10600 2300
Wire Wire Line
	9900 2600 10600 2600
Wire Wire Line
	9900 2850 9900 2750
Wire Wire Line
	9900 3700 10500 3700
Wire Wire Line
	9900 3800 10500 3800
Wire Wire Line
	9900 3900 10500 3900
Wire Wire Line
	9900 4000 10500 4000
Wire Wire Line
	9900 4250 9900 4150
Wire Wire Line
	10100 2850 9900 2850
Wire Wire Line
	10100 4250 9900 4250
Wire Wire Line
	10950 2500 9900 2500
Wire Wire Line
	10950 2850 10950 2500
Wire Bus Line
	1500 5900 1200 5900
Wire Bus Line
	1500 5900 1500 6000
Wire Bus Line
	1500 6000 1500 7000
Wire Bus Line
	1500 7000 1500 7500
Wire Bus Line
	2050 850  2700 850 
Wire Bus Line
	2050 2500 2700 2500
Wire Bus Line
	2150 5450 2700 5450
Wire Bus Line
	2700 850  2700 900 
Wire Bus Line
	2700 900  2700 1100
Wire Bus Line
	2700 1100 2700 1300
Wire Bus Line
	2700 1300 2700 1500
Wire Bus Line
	2700 1500 2700 1600
Wire Bus Line
	2700 1600 2700 1800
Wire Bus Line
	2700 1800 2700 1900
Wire Bus Line
	2700 1900 2700 2100
Wire Bus Line
	2700 2100 2700 2200
Wire Bus Line
	2700 2200 2700 2400
Wire Bus Line
	2700 2500 2700 2550
Wire Bus Line
	2700 2550 2700 2750
Wire Bus Line
	2700 2750 2700 2950
Wire Bus Line
	2700 2950 2700 3150
Wire Bus Line
	2700 3150 2700 3250
Wire Bus Line
	2700 3250 2700 3450
Wire Bus Line
	2700 3450 2700 3550
Wire Bus Line
	2700 3550 2700 3750
Wire Bus Line
	2700 3750 2700 3950
Wire Bus Line
	2700 3950 2700 4050
Wire Bus Line
	2700 4500 2700 4700
Wire Bus Line
	2700 4700 2700 4900
Wire Bus Line
	2700 4900 2700 5000
Wire Bus Line
	2700 5000 2700 5200
Wire Bus Line
	2700 5200 2700 5300
Wire Bus Line
	2700 5300 2700 5450
Wire Bus Line
	6750 2750 6750 2950
Wire Bus Line
	6750 2750 7050 2750
Wire Bus Line
	6750 2950 6750 3150
Wire Bus Line
	6750 3150 6750 3350
Wire Bus Line
	6750 3550 6750 3800
Wire Bus Line
	6750 3550 6950 3550
Wire Bus Line
	6750 3800 6750 4000
Wire Bus Line
	6750 4000 6750 4200
Wire Bus Line
	6750 4200 6750 4400
Wire Bus Line
	6750 4400 6750 4600
Wire Bus Line
	6750 4600 6750 4800
Wire Bus Line
	6750 4800 6750 5000
Wire Bus Line
	6750 5000 6750 5200
Wire Bus Line
	6950 3350 6950 3550
Wire Bus Line
	6950 3550 7150 3550
Wire Bus Line
	7050 3350 6950 3350
Wire Bus Line
	7150 3550 7150 3800
Wire Bus Line
	7150 3800 7150 3900
Wire Bus Line
	7150 3900 7150 4100
Wire Bus Line
	7150 4100 7150 4400
Wire Bus Line
	9600 600  9250 600 
Wire Bus Line
	9600 600  9600 800 
Wire Bus Line
	9600 1050 9250 1050
Wire Bus Line
	9600 1050 9600 1250
Wire Bus Line
	9600 1600 9250 1600
Wire Bus Line
	9600 1600 9600 1800
Text Label 1700 6100 0    50   ~ 0
KICK25
Text Label 1700 6600 0    50   ~ 0
KICK26
Text Label 1700 7100 0    50   ~ 0
KICK27
Text Label 1700 7600 0    50   ~ 0
KICK28
Text Label 2150 2500 0    50   ~ 0
IN1-[0..15]
Text Label 2200 850  0    50   ~ 0
IN0-[0..15]
Text Label 2200 5450 0    50   ~ 0
IN2-[1..15]
Text Label 2850 1000 0    50   ~ 0
IN0-0
Text Label 2850 1100 0    50   ~ 0
IN0-1
Text Label 2850 1200 0    50   ~ 0
IN0-2
Text Label 2850 1300 0    50   ~ 0
IN0-3
Text Label 2850 1400 0    50   ~ 0
IN0-4
Text Label 2850 1500 0    50   ~ 0
IN0-5
Text Label 2850 1600 0    50   ~ 0
IN0-6
Text Label 2850 1700 0    50   ~ 0
IN0-7
Text Label 2850 1800 0    50   ~ 0
IN0-8
Text Label 2850 1900 0    50   ~ 0
IN0-9
Text Label 2850 2000 0    50   ~ 0
IN0-10
Text Label 2850 2100 0    50   ~ 0
IN0-11
Text Label 2850 2200 0    50   ~ 0
IN0-12
Text Label 2850 2300 0    50   ~ 0
IN0-13
Text Label 2850 2400 0    50   ~ 0
IN0-14
Text Label 2850 2500 0    50   ~ 0
IN0-15
Text Label 2850 2650 0    50   ~ 0
IN1-0
Text Label 2850 2750 0    50   ~ 0
IN1-1
Text Label 2850 2850 0    50   ~ 0
IN1-2
Text Label 2850 2950 0    50   ~ 0
IN1-3
Text Label 2850 3050 0    50   ~ 0
IN1-4
Text Label 2850 3150 0    50   ~ 0
IN1-5
Text Label 2850 3250 0    50   ~ 0
IN1-6
Text Label 2850 3350 0    50   ~ 0
IN1-7
Text Label 2850 3450 0    50   ~ 0
IN1-8
Text Label 2850 3550 0    50   ~ 0
IN1-9
Text Label 2850 3650 0    50   ~ 0
IN1-10
Text Label 2850 3750 0    50   ~ 0
IN1-11
Text Label 2850 3850 0    50   ~ 0
IN1-12
Text Label 2850 3950 0    50   ~ 0
IN1-13
Text Label 2850 4050 0    50   ~ 0
IN1-14
Text Label 2850 4150 0    50   ~ 0
IN1-15
Text Label 2850 4400 0    50   ~ 0
IN2-1
Text Label 2850 4500 0    50   ~ 0
IN2-2
Text Label 2850 4600 0    50   ~ 0
IN2-8
Text Label 2850 4700 0    50   ~ 0
IN2-9
Text Label 2850 4800 0    50   ~ 0
IN2-10
Text Label 2850 4900 0    50   ~ 0
IN2-11
Text Label 2850 5000 0    50   ~ 0
IN2-12
Text Label 2850 5100 0    50   ~ 0
IN2-13
Text Label 2850 5200 0    50   ~ 0
IN2-14
Text Label 2850 5300 0    50   ~ 0
IN2-15
Text Label 6250 2950 0    50   ~ 0
BUS-A18
Text Label 6250 3050 0    50   ~ 0
BUS-A19
Text Label 6250 3150 0    50   ~ 0
BUS-A20
Text Label 6250 3250 0    50   ~ 0
BUS-A21
Text Label 6250 3350 0    50   ~ 0
BUS-A22
Text Label 6250 3450 0    50   ~ 0
BUS-A23
Text Label 6250 3800 0    50   ~ 0
BUS-D0
Text Label 6250 3900 0    50   ~ 0
BUS-D1
Text Label 6250 4000 0    50   ~ 0
BUS-D2
Text Label 6250 4100 0    50   ~ 0
BUS-D3
Text Label 6250 4200 0    50   ~ 0
BUS-D4
Text Label 6250 4300 0    50   ~ 0
BUS-D5
Text Label 6250 4400 0    50   ~ 0
BUS-D6
Text Label 6250 4500 0    50   ~ 0
BUS-D7
Text Label 6250 4600 0    50   ~ 0
BUS-D8
Text Label 6250 4700 0    50   ~ 0
BUS-D9
Text Label 6250 4800 0    50   ~ 0
BUS-D10
Text Label 6250 4900 0    50   ~ 0
BUS-D11
Text Label 6250 5000 0    50   ~ 0
BUS-D12
Text Label 6250 5100 0    50   ~ 0
BUS-D13
Text Label 6250 5200 0    50   ~ 0
BUS-D14
Text Label 6250 5300 0    50   ~ 0
BUS-D15
Text Label 7650 3800 2    50   ~ 0
BUS-D7
Text Label 7650 3900 2    50   ~ 0
BUS-D5
Text Label 7650 4000 2    50   ~ 0
BUS-D3
Text Label 7650 4100 2    50   ~ 0
BUS-D1
Text Label 7650 4200 2    50   ~ 0
BUS-D0
Text Label 7650 4400 2    50   ~ 0
BUS-D4
Text Label 7650 4500 2    50   ~ 0
BUS-D6
Text Label 9750 800  0    50   ~ 0
JAMMA-C8
Text Label 9750 900  0    50   ~ 0
JAMMA-C9
Text Label 9750 1250 0    50   ~ 0
JAMMA-S8
Text Label 9750 1350 0    50   ~ 0
JAMMA-S9
Text Label 9750 1800 0    50   ~ 0
KICK7
Text Label 9750 1900 0    50   ~ 0
KICK8
Text Label 9950 2300 0    50   ~ 0
COIN-COUNTER2
Text Label 9950 2600 0    50   ~ 0
COIN-COUNTER1
Text Label 9950 3700 0    50   ~ 0
COIN-LOCK3
Text Label 9950 3800 0    50   ~ 0
COIN-LOCK4
Text Label 9950 3900 0    50   ~ 0
COIN-LOCK1
Text Label 9950 4000 0    50   ~ 0
COIN-LOCK2
Text Label 10100 1800 0    50   ~ 0
COIN-LOCK3
Text Label 10100 1900 0    50   ~ 0
COIN-LOCK4
Text Label 10300 800  0    50   ~ 0
COIN-COUNTER1
Text Label 10300 900  0    50   ~ 0
COIN-LOCK1
Text Label 10300 1250 0    50   ~ 0
COIN-COUNTER2
Text Label 10300 1350 0    50   ~ 0
COIN-LOCK2
Text HLabel 1200 5900 0    50   Output ~ 0
KICK[25..28]
Text HLabel 2050 850  0    50   Input ~ 0
IN0[0..15]
Text HLabel 2050 2500 0    50   Input ~ 0
IN1[0..15]
Text HLabel 2150 5450 0    50   Input ~ 0
IN2[1..15]
Text HLabel 6200 1200 2    50   Input ~ 0
~IN0-R
Text HLabel 6200 1300 2    50   Input ~ 0
~IN1-R
Text HLabel 6200 1400 2    50   Input ~ 0
~IN2-R
Text HLabel 6200 1500 2    50   Input ~ 0
~OUT-W
Text HLabel 6200 1650 2    50   Input ~ 0
~RESET
Text HLabel 6200 1950 2    50   Output ~ 0
~REFRESH
Text HLabel 6200 2050 2    50   Input ~ 0
~BUS-E
Text HLabel 6200 2150 2    50   Input ~ 0
CPSA-RD
Text HLabel 6200 2250 2    50   Output ~ 0
UK101
Text HLabel 6200 5800 2    50   Input ~ 0
CLK8M
Text HLabel 6200 5950 2    50   Input ~ 0
CLK4M
Text HLabel 7050 2750 2    50   Input ~ 0
BUS-A[18..23]
Text HLabel 7050 3350 2    50   BiDi ~ 0
BUS-D[0..15]
Text HLabel 7700 4700 0    50   Input ~ 0
~COIN-W
Text HLabel 7700 4800 0    50   Input ~ 0
~RESET
Text HLabel 8950 4850 2    50   Output ~ 0
~Z80-RESET
Text HLabel 9250 600  0    50   Output ~ 0
JAMMA-C[8..9]
Text HLabel 9250 1050 0    50   Output ~ 0
JAMMA-S[8..9]
Text HLabel 9250 1600 0    50   Output ~ 0
KICK[7..8]
Text HLabel 10750 2850 0    50   Output ~ 0
B-COUNTER
$Comp
L power:VCC #PWR0346
U 1 1 5DFAFC02
P 750 6400
F 0 "#PWR0346" H 750 6250 50  0001 C CNN
F 1 "VCC" H 767 6573 50  0000 C CNN
F 2 "" H 750 6400 50  0001 C CNN
F 3 "" H 750 6400 50  0001 C CNN
	1    750  6400
	1    0    0    -1  
$EndComp
$Comp
L power:VCC #PWR0343
U 1 1 5DF8C85D
P 1100 4100
F 0 "#PWR0343" H 1100 3950 50  0001 C CNN
F 1 "VCC" H 1117 4273 50  0000 C CNN
F 2 "" H 1100 4100 50  0001 C CNN
F 3 "" H 1100 4100 50  0001 C CNN
	1    1100 4100
	1    0    0    -1  
$EndComp
$Comp
L power:VCC #PWR0344
U 1 1 5DF8EA75
P 1650 4100
F 0 "#PWR0344" H 1650 3950 50  0001 C CNN
F 1 "VCC" H 1667 4273 50  0000 C CNN
F 2 "" H 1650 4100 50  0001 C CNN
F 3 "" H 1650 4100 50  0001 C CNN
	1    1650 4100
	1    0    0    -1  
$EndComp
$Comp
L power:VCC #PWR0339
U 1 1 5DF4ED8D
P 4450 700
F 0 "#PWR0339" H 4450 550 50  0001 C CNN
F 1 "VCC" H 4467 873 50  0000 C CNN
F 2 "" H 4450 700 50  0001 C CNN
F 3 "" H 4450 700 50  0001 C CNN
	1    4450 700 
	1    0    0    -1  
$EndComp
$Comp
L power:VCC #PWR0341
U 1 1 5DF5AFA5
P 6800 2500
F 0 "#PWR0341" H 6800 2350 50  0001 C CNN
F 1 "VCC" H 6817 2673 50  0000 C CNN
F 2 "" H 6800 2500 50  0001 C CNN
F 3 "" H 6800 2500 50  0001 C CNN
	1    6800 2500
	1    0    0    -1  
$EndComp
$Comp
L power:VCC #PWR0349
U 1 1 5DFD6D44
P 8200 3500
F 0 "#PWR0349" H 8200 3350 50  0001 C CNN
F 1 "VCC" H 8217 3673 50  0000 C CNN
F 2 "" H 8200 3500 50  0001 C CNN
F 3 "" H 8200 3500 50  0001 C CNN
	1    8200 3500
	1    0    0    -1  
$EndComp
$Comp
L power:VCC #PWR0350
U 1 1 5DFF26B8
P 8350 2300
F 0 "#PWR0350" H 8350 2150 50  0001 C CNN
F 1 "VCC" H 8367 2473 50  0000 C CNN
F 2 "" H 8350 2300 50  0001 C CNN
F 3 "" H 8350 2300 50  0001 C CNN
	1    8350 2300
	1    0    0    -1  
$EndComp
$Comp
L power:+12V #PWR?
U 1 1 5E107957
P 10100 2850
AR Path="/5E107957" Ref="#PWR?"  Part="1" 
AR Path="/5F18B8F1/5E107957" Ref="#PWR?"  Part="1" 
AR Path="/5DF46D12/5E107957" Ref="#PWR0351"  Part="1" 
F 0 "#PWR0351" H 10100 2700 50  0001 C CNN
F 1 "+12V" H 10115 3023 50  0000 C CNN
F 2 "" H 10100 2850 50  0001 C CNN
F 3 "" H 10100 2850 50  0001 C CNN
	1    10100 2850
	1    0    0    -1  
$EndComp
$Comp
L power:+12V #PWR?
U 1 1 5E11D84A
P 10100 4250
AR Path="/5E11D84A" Ref="#PWR?"  Part="1" 
AR Path="/5F18B8F1/5E11D84A" Ref="#PWR?"  Part="1" 
AR Path="/5DF46D12/5E11D84A" Ref="#PWR0352"  Part="1" 
F 0 "#PWR0352" H 10100 4100 50  0001 C CNN
F 1 "+12V" H 10115 4423 50  0000 C CNN
F 2 "" H 10100 4250 50  0001 C CNN
F 3 "" H 10100 4250 50  0001 C CNN
	1    10100 4250
	1    0    0    -1  
$EndComp
$Comp
L power:VCC #PWR0354
U 1 1 5E3741A9
P 10950 2300
F 0 "#PWR0354" H 10950 2150 50  0001 C CNN
F 1 "VCC" H 10967 2473 50  0000 C CNN
F 2 "" H 10950 2300 50  0001 C CNN
F 3 "" H 10950 2300 50  0001 C CNN
	1    10950 2300
	1    0    0    -1  
$EndComp
$Comp
L power:GND #PWR0345
U 1 1 5DFAF70D
P 750 7400
F 0 "#PWR0345" H 750 7150 50  0001 C CNN
F 1 "GND" H 755 7227 50  0001 C CNN
F 2 "" H 750 7400 50  0001 C CNN
F 3 "" H 750 7400 50  0001 C CNN
	1    750  7400
	1    0    0    -1  
$EndComp
$Comp
L power:GND #PWR0342
U 1 1 5DF8C4C4
P 1100 4750
F 0 "#PWR0342" H 1100 4500 50  0001 C CNN
F 1 "GND" H 1105 4577 50  0001 C CNN
F 2 "" H 1100 4750 50  0001 C CNN
F 3 "" H 1100 4750 50  0001 C CNN
	1    1100 4750
	1    0    0    -1  
$EndComp
$Comp
L power:GND #PWR0340
U 1 1 5DF4FDB5
P 4700 6450
F 0 "#PWR0340" H 4700 6200 50  0001 C CNN
F 1 "GND" H 4705 6277 50  0001 C CNN
F 2 "" H 4700 6450 50  0001 C CNN
F 3 "" H 4700 6450 50  0001 C CNN
	1    4700 6450
	1    0    0    -1  
$EndComp
$Comp
L power:GND #PWR0353
U 1 1 5E135A9B
P 8200 5100
F 0 "#PWR0353" H 8200 4850 50  0001 C CNN
F 1 "GND" H 8205 4927 50  0001 C CNN
F 2 "" H 8200 5100 50  0001 C CNN
F 3 "" H 8200 5100 50  0001 C CNN
	1    8200 5100
	1    0    0    -1  
$EndComp
$Comp
L power:GND #PWR0348
U 1 1 5DFCA83A
P 9600 3250
F 0 "#PWR0348" H 9600 3000 50  0001 C CNN
F 1 "GND" H 9605 3077 50  0001 C CNN
F 2 "" H 9600 3250 50  0001 C CNN
F 3 "" H 9600 3250 50  0001 C CNN
	1    9600 3250
	1    0    0    -1  
$EndComp
$Comp
L power:GND #PWR0347
U 1 1 5DFCA104
P 9600 4650
F 0 "#PWR0347" H 9600 4400 50  0001 C CNN
F 1 "GND" H 9605 4477 50  0001 C CNN
F 2 "" H 9600 4650 50  0001 C CNN
F 3 "" H 9600 4650 50  0001 C CNN
	1    9600 4650
	1    0    0    -1  
$EndComp
$Comp
L Device:R_Small R34
U 1 1 5DF8D5B2
P 1650 4200
F 0 "R34" H 1709 4246 50  0000 L CNN
F 1 "4.7k" H 1709 4155 50  0000 L CNN
F 2 "" H 1650 4200 50  0001 C CNN
F 3 "~" H 1650 4200 50  0001 C CNN
	1    1650 4200
	1    0    0    -1  
$EndComp
$Comp
L Device:R_Small R39
U 1 1 5DF5B604
P 6500 2500
F 0 "R39" V 6304 2500 50  0000 C CNN
F 1 "4.7k" V 6395 2500 50  0000 C CNN
F 2 "" H 6500 2500 50  0001 C CNN
F 3 "~" H 6500 2500 50  0001 C CNN
	1    6500 2500
	0    1    1    0   
$EndComp
$Comp
L Device:R_Small R38
U 1 1 5DF5BA8D
P 7100 2500
F 0 "R38" V 7296 2500 50  0000 C CNN
F 1 "4.7k" V 7205 2500 50  0000 C CNN
F 2 "" H 7100 2500 50  0001 C CNN
F 3 "~" H 7100 2500 50  0001 C CNN
	1    7100 2500
	0    1    -1   0   
$EndComp
$Comp
L Device:R_Small R35
U 1 1 5DFF29D1
P 8650 2300
F 0 "R35" V 8454 2300 50  0000 C CNN
F 1 "2.2k" V 8545 2300 50  0000 C CNN
F 2 "" H 8650 2300 50  0001 C CNN
F 3 "~" H 8650 2300 50  0001 C CNN
	1    8650 2300
	0    1    1    0   
$EndComp
$Comp
L Device:R_Small R36
U 1 1 5DFF2D8A
P 8650 2600
F 0 "R36" V 8846 2600 50  0000 C CNN
F 1 "2.2k" V 8755 2600 50  0000 C CNN
F 2 "" H 8650 2600 50  0001 C CNN
F 3 "~" H 8650 2600 50  0001 C CNN
	1    8650 2600
	0    -1   -1   0   
$EndComp
$Comp
L Device:D_Small D1
U 1 1 5E373A44
P 10950 2400
F 0 "D1" V 10950 2468 50  0000 L CNN
F 1 "D_Small" V 10995 2468 50  0001 L CNN
F 2 "" V 10950 2400 50  0001 C CNN
F 3 "~" V 10950 2400 50  0001 C CNN
	1    10950 2400
	0    1    1    0   
$EndComp
$Comp
L Device:Ferrite_Bead_Small FB25
U 1 1 5E358810
P 10850 2850
F 0 "FB25" V 10705 2850 50  0000 C CNN
F 1 "Ferrite_Bead_Small" V 10704 2850 50  0001 C CNN
F 2 "" V 10780 2850 50  0001 C CNN
F 3 "~" H 10850 2850 50  0001 C CNN
	1    10850 2850
	0    -1   1    0   
$EndComp
$Comp
L 74xx:74LS07 UB8
U 4 1 5DF9B585
P 2400 6100
F 0 "UB8" H 2400 6417 50  0000 C CNN
F 1 "74LS07" H 2400 6326 50  0000 C CNN
F 2 "" H 2400 6100 50  0001 C CNN
F 3 "www.ti.com/lit/ds/symlink/sn74ls07.pdf" H 2400 6100 50  0001 C CNN
	4    2400 6100
	-1   0    0    -1  
$EndComp
$Comp
L 74xx:74LS07 UB8
U 3 1 5DF9A931
P 2400 6600
F 0 "UB8" H 2400 6917 50  0000 C CNN
F 1 "74LS07" H 2400 6826 50  0000 C CNN
F 2 "" H 2400 6600 50  0001 C CNN
F 3 "www.ti.com/lit/ds/symlink/sn74ls07.pdf" H 2400 6600 50  0001 C CNN
	3    2400 6600
	-1   0    0    -1  
$EndComp
$Comp
L 74xx:74LS07 UB8
U 2 1 5DF9954B
P 2400 7100
F 0 "UB8" H 2400 7417 50  0000 C CNN
F 1 "74LS07" H 2400 7326 50  0000 C CNN
F 2 "" H 2400 7100 50  0001 C CNN
F 3 "www.ti.com/lit/ds/symlink/sn74ls07.pdf" H 2400 7100 50  0001 C CNN
	2    2400 7100
	-1   0    0    -1  
$EndComp
$Comp
L 74xx:74LS07 UB8
U 1 1 5DF98865
P 2400 7600
F 0 "UB8" H 2400 7917 50  0000 C CNN
F 1 "74LS07" H 2400 7826 50  0000 C CNN
F 2 "" H 2400 7600 50  0001 C CNN
F 3 "www.ti.com/lit/ds/symlink/sn74ls07.pdf" H 2400 7600 50  0001 C CNN
	1    2400 7600
	-1   0    0    -1  
$EndComp
$Comp
L 74xx:74LS07 UB8
U 7 1 5DF9C507
P 750 6900
F 0 "UB8" H 980 6946 50  0000 L CNN
F 1 "74LS07" H 980 6855 50  0000 L CNN
F 2 "" H 750 6900 50  0001 C CNN
F 3 "www.ti.com/lit/ds/symlink/sn74ls07.pdf" H 750 6900 50  0001 C CNN
	7    750  6900
	1    0    0    -1  
$EndComp
$Comp
L CPS2-Custom:MSM16811 UB7
U 1 1 5DF8B413
P 1100 4400
F 0 "UB7" H 850 4700 50  0000 C CNN
F 1 "MSM16811" H 1350 4100 50  0000 C CNN
F 2 "" H 1600 4350 50  0001 C CNN
F 3 "" H 1600 4350 50  0001 C CNN
	1    1100 4400
	1    0    0    -1  
$EndComp
$Comp
L CPS2-Custom:M54532 UA7
U 1 1 5DF01B2E
P 9500 2650
F 0 "UA7" H 9550 3265 50  0000 C CNN
F 1 "M54532" H 9550 3174 50  0000 C CNN
F 2 "" H 9150 2900 50  0001 C CNN
F 3 "" H 9150 2900 50  0001 C CNN
	1    9500 2650
	1    0    0    -1  
$EndComp
$Comp
L CPS2-Custom:M54532 UA8
U 1 1 5DEFF561
P 9500 4050
F 0 "UA8" H 9550 4665 50  0000 C CNN
F 1 "M54532" H 9550 4574 50  0000 C CNN
F 2 "" H 9150 4300 50  0001 C CNN
F 3 "" H 9150 4300 50  0001 C CNN
	1    9500 4050
	1    0    0    -1  
$EndComp
$Comp
L 74xx:74LS273 UH7
U 1 1 5E1D5D59
P 8200 4300
F 0 "UH7" H 7950 5000 50  0000 C CNN
F 1 "74LS273" H 8400 3600 50  0000 C CNN
F 2 "" H 8200 4300 50  0001 C CNN
F 3 "http://www.ti.com/lit/gpn/sn74LS273" H 8200 4300 50  0001 C CNN
	1    8200 4300
	1    0    0    -1  
$EndComp
$Comp
L CPS2-Custom:DL-1123 UD6
U 1 1 5DF46EC7
P 4700 3600
F 0 "UD6" H 4700 3800 200 0000 C CNN
F 1 "DL-1123" H 4700 3400 200 0000 C CNN
F 2 "" H 3750 3150 50  0001 C CNN
F 3 "" H 3750 3150 50  0001 C CNN
	1    4700 3600
	1    0    0    -1  
$EndComp
$EndSCHEMATC
