EESchema Schematic File Version 5
EELAYER 33 0
EELAYER END
$Descr A4 11693 8268
encoding utf-8
Sheet 22 22
Title ""
Date "2019-11-23"
Rev ""
Comp ""
Comment1 "Licence: CC-BY"
Comment2 "Author: Loïc *WydD* Petit"
Comment3 ""
Comment4 ""
Comment5 ""
Comment6 ""
Comment7 ""
Comment8 ""
Comment9 ""
$EndDescr
Connection ~ 4850 1300
Connection ~ 4850 1600
Connection ~ 5700 1300
Connection ~ 4550 1300
Connection ~ 6900 1300
Connection ~ 6900 1100
Connection ~ 6900 900 
Connection ~ 3750 800 
Connection ~ 4350 800 
Connection ~ 4350 1000
Connection ~ 5800 900 
Connection ~ 5800 1100
Connection ~ 5800 1300
Connection ~ 5800 1500
Connection ~ 5350 4000
Connection ~ 5100 4150
Connection ~ 4850 4000
Connection ~ 4750 2400
Connection ~ 4500 2500
Connection ~ 4850 4150
Connection ~ 4750 4150
Connection ~ 5350 4150
Connection ~ 5450 4150
Connection ~ 5450 2400
Connection ~ 5700 2500
Connection ~ 6800 4800
Connection ~ 3400 4900
Connection ~ 4650 4900
Connection ~ 4650 5000
Connection ~ 5450 4800
Connection ~ 5450 4900
Connection ~ 4850 6400
Connection ~ 5350 6400
Connection ~ 5100 6550
Connection ~ 4300 2600
Connection ~ 5100 1000
Connection ~ 6650 900 
Connection ~ 3850 1000
Connection ~ 5350 1300
Connection ~ 5350 1600
NoConn ~ 5350 1900
NoConn ~ 4850 1900
NoConn ~ 5350 2300
NoConn ~ 4850 2300
NoConn ~ 3950 2300
NoConn ~ 4850 3800
NoConn ~ 5350 3800
Entry Wire Line
	3300 1900 3400 2000
Entry Wire Line
	3300 2000 3400 2100
Entry Wire Line
	3300 2100 3400 2200
Entry Wire Line
	3300 2200 3400 2300
Entry Wire Line
	3300 2300 3400 2400
Entry Wire Line
	3300 2400 3400 2500
Entry Wire Line
	3300 2500 3400 2600
Entry Wire Line
	3300 2600 3400 2700
Entry Wire Line
	3300 2700 3400 2800
Entry Wire Line
	3300 2800 3400 2900
Entry Wire Line
	3300 2900 3400 3000
Entry Wire Line
	3300 3000 3400 3100
Entry Wire Line
	3300 3100 3400 3200
Entry Wire Line
	3300 3200 3400 3300
Entry Wire Line
	3300 3300 3400 3400
Entry Wire Line
	3300 3400 3400 3500
Entry Wire Line
	3300 3500 3400 3600
Entry Wire Line
	3300 3600 3400 3700
Entry Wire Line
	3900 5200 4000 5100
Entry Wire Line
	3900 5300 4000 5200
Entry Wire Line
	3900 5400 4000 5300
Entry Wire Line
	3900 5500 4000 5400
Entry Wire Line
	3900 5600 4000 5500
Entry Wire Line
	3900 5700 4000 5600
Entry Wire Line
	3900 5800 4000 5700
Entry Wire Line
	3900 5900 4000 5800
Entry Wire Line
	3900 6000 4000 5900
Entry Wire Line
	3900 6100 4000 6000
Entry Wire Line
	3900 6200 4000 6100
Entry Wire Line
	3900 6300 4000 6200
Entry Wire Line
	6250 5200 6150 5100
Entry Wire Line
	6250 5300 6150 5200
Entry Wire Line
	6250 5400 6150 5300
Entry Wire Line
	6250 5500 6150 5400
Entry Wire Line
	6250 5600 6150 5500
Entry Wire Line
	6250 5700 6150 5600
Entry Wire Line
	6250 5800 6150 5700
Entry Wire Line
	6250 5900 6150 5800
Entry Wire Line
	6250 6000 6150 5900
Entry Wire Line
	6250 6100 6150 6000
Entry Wire Line
	6250 6200 6150 6100
Entry Wire Line
	6250 6300 6150 6200
Entry Wire Line
	6900 1900 6800 2000
Entry Wire Line
	6900 2000 6800 2100
Entry Wire Line
	6900 2100 6800 2200
Entry Wire Line
	6900 2200 6800 2300
Entry Wire Line
	6900 2300 6800 2400
Entry Wire Line
	6900 2400 6800 2500
Entry Wire Line
	6900 2500 6800 2600
Entry Wire Line
	6900 2600 6800 2700
Entry Wire Line
	6900 2700 6800 2800
Entry Wire Line
	6900 2800 6800 2900
Entry Wire Line
	6900 2900 6800 3000
Entry Wire Line
	6900 3000 6800 3100
Entry Wire Line
	6900 3100 6800 3200
Entry Wire Line
	6900 3200 6800 3300
Entry Wire Line
	6900 3300 6800 3400
Entry Wire Line
	6900 3400 6800 3500
Entry Wire Line
	6900 3500 6800 3600
Entry Wire Line
	6900 3600 6800 3700
Wire Wire Line
	3400 2000 4450 2000
Wire Wire Line
	3400 2100 4300 2100
Wire Wire Line
	3400 2200 4150 2200
Wire Wire Line
	3400 2300 3950 2300
Wire Wire Line
	3400 2400 4450 2400
Wire Wire Line
	3400 2500 4300 2500
Wire Wire Line
	3400 2600 4300 2600
Wire Wire Line
	3400 2700 4850 2700
Wire Wire Line
	3400 2800 4850 2800
Wire Wire Line
	3400 2900 4850 2900
Wire Wire Line
	3400 3000 4850 3000
Wire Wire Line
	3400 3100 4850 3100
Wire Wire Line
	3400 3200 4850 3200
Wire Wire Line
	3400 3300 4850 3300
Wire Wire Line
	3400 3400 4850 3400
Wire Wire Line
	3400 3500 4850 3500
Wire Wire Line
	3400 3600 4850 3600
Wire Wire Line
	3400 3700 4850 3700
Wire Wire Line
	3400 4900 3400 5000
Wire Wire Line
	3400 4900 3750 4900
Wire Wire Line
	3400 5000 3600 5000
Wire Wire Line
	3750 800  3750 1000
Wire Wire Line
	3850 1000 3750 1000
Wire Wire Line
	3900 800  3750 800 
Wire Wire Line
	4000 1000 3850 1000
Wire Wire Line
	4000 5200 4850 5200
Wire Wire Line
	4000 5300 4850 5300
Wire Wire Line
	4000 5400 4850 5400
Wire Wire Line
	4000 5500 4850 5500
Wire Wire Line
	4000 5600 4850 5600
Wire Wire Line
	4000 5700 4850 5700
Wire Wire Line
	4000 5800 4850 5800
Wire Wire Line
	4000 5900 4850 5900
Wire Wire Line
	4000 6000 4850 6000
Wire Wire Line
	4000 6100 4850 6100
Wire Wire Line
	4000 6200 4850 6200
Wire Wire Line
	4100 800  4350 800 
Wire Wire Line
	4200 1000 4350 1000
Wire Wire Line
	4300 2600 4850 2600
Wire Wire Line
	4350 800  4350 1000
Wire Wire Line
	4350 1000 4350 1800
Wire Wire Line
	4350 1800 4850 1800
Wire Wire Line
	4350 2200 4850 2200
Wire Wire Line
	4400 3950 4500 3950
Wire Wire Line
	4450 900  5800 900 
Wire Wire Line
	4450 1600 4450 900 
Wire Wire Line
	4450 5100 4000 5100
Wire Wire Line
	4500 2100 4850 2100
Wire Wire Line
	4500 2500 4500 3950
Wire Wire Line
	4500 2500 4850 2500
Wire Wire Line
	4550 1000 4550 1300
Wire Wire Line
	4550 1000 5100 1000
Wire Wire Line
	4550 1300 4850 1300
Wire Wire Line
	4650 2000 4850 2000
Wire Wire Line
	4650 2400 4750 2400
Wire Wire Line
	4650 4300 4650 4900
Wire Wire Line
	4650 4900 3950 4900
Wire Wire Line
	4650 4900 4650 5000
Wire Wire Line
	4650 5000 3800 5000
Wire Wire Line
	4650 5000 4850 5000
Wire Wire Line
	4700 1700 4850 1700
Wire Wire Line
	4750 2400 4750 3950
Wire Wire Line
	4750 2400 4850 2400
Wire Wire Line
	4750 4150 4400 4150
Wire Wire Line
	4750 4400 4750 4900
Wire Wire Line
	4750 4900 4850 4900
Wire Wire Line
	4850 1300 4850 1400
Wire Wire Line
	4850 1500 4850 1600
Wire Wire Line
	4850 1600 4450 1600
Wire Wire Line
	4850 3900 4850 4000
Wire Wire Line
	4850 4150 4750 4150
Wire Wire Line
	4850 4150 4850 4000
Wire Wire Line
	4850 4150 4850 4800
Wire Wire Line
	4850 5100 4650 5100
Wire Wire Line
	4850 6300 4850 6400
Wire Wire Line
	4850 6400 4850 6550
Wire Wire Line
	4850 6550 5100 6550
Wire Wire Line
	5100 1000 5700 1000
Wire Wire Line
	5100 4150 4850 4150
Wire Wire Line
	5100 4150 5350 4150
Wire Wire Line
	5100 6550 5350 6550
Wire Wire Line
	5350 1300 5350 1400
Wire Wire Line
	5350 1300 5700 1300
Wire Wire Line
	5350 1500 5350 1600
Wire Wire Line
	5350 1600 5800 1600
Wire Wire Line
	5350 1700 5500 1700
Wire Wire Line
	5350 1800 5900 1800
Wire Wire Line
	5350 3900 5350 4000
Wire Wire Line
	5350 4150 5350 4000
Wire Wire Line
	5350 4150 5350 4800
Wire Wire Line
	5350 4150 5450 4150
Wire Wire Line
	5350 4900 5450 4900
Wire Wire Line
	5350 6400 5350 6300
Wire Wire Line
	5350 6400 5350 6550
Wire Wire Line
	5450 2400 5350 2400
Wire Wire Line
	5450 3950 5450 2400
Wire Wire Line
	5450 4150 5800 4150
Wire Wire Line
	5450 4400 4750 4400
Wire Wire Line
	5450 4400 5450 4800
Wire Wire Line
	5450 4900 5450 4800
Wire Wire Line
	5550 2000 5350 2000
Wire Wire Line
	5550 2400 5450 2400
Wire Wire Line
	5550 4300 4650 4300
Wire Wire Line
	5550 4300 5550 5000
Wire Wire Line
	5550 5000 5350 5000
Wire Wire Line
	5550 5100 5350 5100
Wire Wire Line
	5700 1300 5700 1000
Wire Wire Line
	5700 2100 5350 2100
Wire Wire Line
	5700 2500 5350 2500
Wire Wire Line
	5700 2500 5700 3950
Wire Wire Line
	5700 3950 5800 3950
Wire Wire Line
	5750 2000 6800 2000
Wire Wire Line
	5750 2400 6800 2400
Wire Wire Line
	5800 900  5800 1100
Wire Wire Line
	5800 1100 5800 1300
Wire Wire Line
	5800 1300 5800 1500
Wire Wire Line
	5800 1500 5800 1600
Wire Wire Line
	5850 2200 5350 2200
Wire Wire Line
	5900 800  4350 800 
Wire Wire Line
	5900 1800 5900 800 
Wire Wire Line
	5900 2100 6800 2100
Wire Wire Line
	5900 2500 6800 2500
Wire Wire Line
	6050 2200 6800 2200
Wire Wire Line
	6150 5100 5750 5100
Wire Wire Line
	6150 5200 5350 5200
Wire Wire Line
	6150 5300 5350 5300
Wire Wire Line
	6150 5400 5350 5400
Wire Wire Line
	6150 5500 5350 5500
Wire Wire Line
	6150 5600 5350 5600
Wire Wire Line
	6150 5700 5350 5700
Wire Wire Line
	6150 5800 5350 5800
Wire Wire Line
	6150 5900 5350 5900
Wire Wire Line
	6150 6000 5350 6000
Wire Wire Line
	6150 6100 5350 6100
Wire Wire Line
	6150 6200 5350 6200
Wire Wire Line
	6200 900  5800 900 
Wire Wire Line
	6250 4800 5450 4800
Wire Wire Line
	6300 1100 5800 1100
Wire Wire Line
	6400 900  6650 900 
Wire Wire Line
	6400 1300 5800 1300
Wire Wire Line
	6400 4900 5450 4900
Wire Wire Line
	6500 1500 5800 1500
Wire Wire Line
	6600 1300 6900 1300
Wire Wire Line
	6650 900  6900 900 
Wire Wire Line
	6800 2300 6250 2300
Wire Wire Line
	6800 2600 5350 2600
Wire Wire Line
	6800 2700 5350 2700
Wire Wire Line
	6800 2800 5350 2800
Wire Wire Line
	6800 2900 5350 2900
Wire Wire Line
	6800 3000 5350 3000
Wire Wire Line
	6800 3100 5350 3100
Wire Wire Line
	6800 3200 5350 3200
Wire Wire Line
	6800 3300 5350 3300
Wire Wire Line
	6800 3400 5350 3400
Wire Wire Line
	6800 3500 5350 3500
Wire Wire Line
	6800 3600 5350 3600
Wire Wire Line
	6800 3700 5350 3700
Wire Wire Line
	6800 4800 6450 4800
Wire Wire Line
	6800 4800 6800 4900
Wire Wire Line
	6800 4900 6600 4900
Wire Wire Line
	6900 900  6900 1100
Wire Wire Line
	6900 1100 6500 1100
Wire Wire Line
	6900 1100 6900 1300
Wire Wire Line
	6900 1300 6900 1500
Wire Wire Line
	6900 1500 6700 1500
Wire Bus Line
	3300 1750 3000 1750
Wire Bus Line
	3300 1750 3300 2000
Wire Bus Line
	3300 2000 3300 2200
Wire Bus Line
	3300 2200 3300 2300
Wire Bus Line
	3300 2300 3300 2500
Wire Bus Line
	3300 2500 3300 2600
Wire Bus Line
	3300 2600 3300 2800
Wire Bus Line
	3300 2800 3300 3000
Wire Bus Line
	3300 3000 3300 3200
Wire Bus Line
	3300 3200 3300 3400
Wire Bus Line
	3300 3400 3300 3600
Wire Bus Line
	3900 5200 3900 5400
Wire Bus Line
	3900 5400 3900 5500
Wire Bus Line
	3900 5500 3900 5700
Wire Bus Line
	3900 5700 3900 5900
Wire Bus Line
	3900 5900 3900 6100
Wire Bus Line
	3900 6100 3900 6300
Wire Bus Line
	3900 6300 3900 6750
Wire Bus Line
	3900 6750 3600 6750
Wire Bus Line
	3900 6750 6250 6750
Wire Bus Line
	6250 5200 6250 5400
Wire Bus Line
	6250 5400 6250 5600
Wire Bus Line
	6250 5600 6250 5800
Wire Bus Line
	6250 5800 6250 6000
Wire Bus Line
	6250 6000 6250 6200
Wire Bus Line
	6250 6200 6250 6750
Wire Bus Line
	6900 1750 6900 2000
Wire Bus Line
	6900 1750 7200 1750
Wire Bus Line
	6900 2000 6900 2100
Wire Bus Line
	6900 2100 6900 2300
Wire Bus Line
	6900 2300 6900 2500
Wire Bus Line
	6900 2500 6900 2700
Wire Bus Line
	6900 2700 6900 2900
Wire Bus Line
	6900 2900 6900 3100
Wire Bus Line
	6900 3100 6900 3300
Wire Bus Line
	6900 3300 6900 3400
Wire Bus Line
	6900 3400 6900 3600
Text Notes 3600 1700 0    50   ~ 0
COMPONENT SIDE
Text Notes 5950 1700 0    50   ~ 0
SOLDER SIDE
Text Label 3450 2000 0    50   ~ 0
JAMMA-C8
Text Label 3450 2100 0    50   ~ 0
JAMMA-C9
Text Label 3450 2200 0    50   ~ 0
JAMMA-C10
Text Label 3450 2300 0    50   ~ 0
JAMMA-C11
Text Label 3450 2400 0    50   ~ 0
JAMMA-C12
Text Label 3450 2500 0    50   ~ 0
JAMMA-C13
Text Label 3450 2600 0    50   ~ 0
JAMMA-C14
Text Label 3450 2700 0    50   ~ 0
JAMMA-C15
Text Label 3450 2800 0    50   ~ 0
JAMMA-C16
Text Label 3450 2900 0    50   ~ 0
JAMMA-C17
Text Label 3450 3000 0    50   ~ 0
JAMMA-C18
Text Label 3450 3100 0    50   ~ 0
JAMMA-C19
Text Label 3450 3200 0    50   ~ 0
JAMMA-C20
Text Label 3450 3300 0    50   ~ 0
JAMMA-C21
Text Label 3450 3400 0    50   ~ 0
JAMMA-C22
Text Label 3450 3500 0    50   ~ 0
JAMMA-C23
Text Label 3450 3600 0    50   ~ 0
JAMMA-C24
Text Label 3450 3700 0    50   ~ 0
JAMMA-C25
Text Label 4050 5100 0    50   ~ 0
KICK7
Text Label 4050 5200 0    50   ~ 0
KICK9
Text Label 4050 5300 0    50   ~ 0
KICK11
Text Label 4050 5400 0    50   ~ 0
KICK13
Text Label 4050 5500 0    50   ~ 0
KICK15
Text Label 4050 5600 0    50   ~ 0
KICK17
Text Label 4050 5700 0    50   ~ 0
KICK19
Text Label 4050 5800 0    50   ~ 0
KICK21
Text Label 4050 5900 0    50   ~ 0
KICK23
Text Label 4050 6000 0    50   ~ 0
KICK25
Text Label 4050 6100 0    50   ~ 0
KICK27
Text Label 4050 6200 0    50   ~ 0
KICK29
Text Label 4850 1700 2    50   ~ 0
-5V
Text Label 5350 1700 0    50   ~ 0
-5V
Text Label 6150 5100 2    50   ~ 0
KICK8
Text Label 6150 5200 2    50   ~ 0
KICK10
Text Label 6150 5300 2    50   ~ 0
KICK12
Text Label 6150 5400 2    50   ~ 0
KICK14
Text Label 6150 5500 2    50   ~ 0
KICK16
Text Label 6150 5600 2    50   ~ 0
KICK18
Text Label 6150 5700 2    50   ~ 0
KICK20
Text Label 6150 5800 2    50   ~ 0
KICK22
Text Label 6150 5900 2    50   ~ 0
KICK24
Text Label 6150 6000 2    50   ~ 0
KICK26
Text Label 6150 6100 2    50   ~ 0
KICK28
Text Label 6150 6200 2    50   ~ 0
KICK30
Text Label 6750 2000 2    50   ~ 0
JAMMA-S8
Text Label 6750 2100 2    50   ~ 0
JAMMA-S9
Text Label 6750 2200 2    50   ~ 0
JAMMA-S10
Text Label 6750 2300 2    50   ~ 0
JAMMA-S11
Text Label 6750 2400 2    50   ~ 0
JAMMA-S12
Text Label 6750 2500 2    50   ~ 0
JAMMA-S13
Text Label 6750 2600 2    50   ~ 0
JAMMA-S14
Text Label 6750 2700 2    50   ~ 0
JAMMA-S15
Text Label 6750 2800 2    50   ~ 0
JAMMA-S16
Text Label 6750 2900 2    50   ~ 0
JAMMA-S17
Text Label 6750 3000 2    50   ~ 0
JAMMA-S18
Text Label 6750 3100 2    50   ~ 0
JAMMA-S19
Text Label 6750 3200 2    50   ~ 0
JAMMA-S20
Text Label 6750 3300 2    50   ~ 0
JAMMA-S21
Text Label 6750 3400 2    50   ~ 0
JAMMA-S22
Text Label 6750 3500 2    50   ~ 0
JAMMA-S23
Text Label 6750 3600 2    50   ~ 0
JAMMA-S24
Text Label 6750 3700 2    50   ~ 0
JAMMA-S25
Text HLabel 3000 1750 0    50   Output ~ 0
JAMMA-C[8..25]
Text HLabel 3600 6750 0    50   Output ~ 0
KICK[7..30]
Text HLabel 7200 1750 2    50   Output ~ 0
JAMMA-S[8..25]
$Comp
L power:PWR_FLAG #FLG0102
U 1 1 60B9C67B
P 3850 1000
F 0 "#FLG0102" H 3850 1075 50  0001 C CNN
F 1 "PWR_FLAG" H 3850 1173 50  0001 C CNN
F 2 "" H 3850 1000 50  0001 C CNN
F 3 "~" H 3850 1000 50  0001 C CNN
	1    3850 1000
	1    0    0    -1  
$EndComp
$Comp
L power:PWR_FLAG #FLG0101
U 1 1 60B9BFB0
P 5100 1000
F 0 "#FLG0101" H 5100 1075 50  0001 C CNN
F 1 "PWR_FLAG" H 5100 1173 50  0001 C CNN
F 2 "" H 5100 1000 50  0001 C CNN
F 3 "~" H 5100 1000 50  0001 C CNN
	1    5100 1000
	1    0    0    -1  
$EndComp
$Comp
L power:PWR_FLAG #FLG0103
U 1 1 60B9C8A9
P 6650 900
F 0 "#FLG0103" H 6650 975 50  0001 C CNN
F 1 "PWR_FLAG" H 6650 1073 50  0001 C CNN
F 2 "" H 6650 900 50  0001 C CNN
F 3 "~" H 6650 900 50  0001 C CNN
	1    6650 900 
	1    0    0    -1  
$EndComp
$Comp
L power:+12V #PWR0397
U 1 1 60DE4E61
P 3400 4900
F 0 "#PWR0397" H 3400 4750 50  0001 C CNN
F 1 "+12V" H 3400 5050 50  0000 C CNN
F 2 "" H 3400 4900 50  0001 C CNN
F 3 "" H 3400 4900 50  0001 C CNN
	1    3400 4900
	-1   0    0    -1  
$EndComp
$Comp
L power:+12V #PWR0393
U 1 1 60B97494
P 3750 800
F 0 "#PWR0393" H 3750 650 50  0001 C CNN
F 1 "+12V" H 3750 950 50  0000 C CNN
F 2 "" H 3750 800 50  0001 C CNN
F 3 "" H 3750 800 50  0001 C CNN
	1    3750 800 
	-1   0    0    -1  
$EndComp
$Comp
L power:VCC #PWR0398
U 1 1 60DF5923
P 6800 4800
F 0 "#PWR0398" H 6800 4650 50  0001 C CNN
F 1 "VCC" H 6800 4950 50  0000 C CNN
F 2 "" H 6800 4800 50  0001 C CNN
F 3 "" H 6800 4800 50  0001 C CNN
	1    6800 4800
	1    0    0    -1  
$EndComp
$Comp
L power:VCC #PWR0392
U 1 1 60B95BD8
P 6900 900
F 0 "#PWR0392" H 6900 750 50  0001 C CNN
F 1 "VCC" H 6900 1050 50  0000 C CNN
F 2 "" H 6900 900 50  0001 C CNN
F 3 "" H 6900 900 50  0001 C CNN
	1    6900 900 
	1    0    0    -1  
$EndComp
$Comp
L power:GND #PWR0400
U 1 1 6116394D
P 4300 2600
F 0 "#PWR0400" H 4300 2350 50  0001 C CNN
F 1 "GND" H 4305 2427 50  0001 C CNN
F 2 "" H 4300 2600 50  0001 C CNN
F 3 "" H 4300 2600 50  0001 C CNN
	1    4300 2600
	1    0    0    -1  
$EndComp
$Comp
L power:GND #PWR0395
U 1 1 60B99971
P 4550 1300
F 0 "#PWR0395" H 4550 1050 50  0001 C CNN
F 1 "GND" H 4555 1127 50  0001 C CNN
F 2 "" H 4550 1300 50  0001 C CNN
F 3 "" H 4550 1300 50  0001 C CNN
	1    4550 1300
	1    0    0    -1  
$EndComp
$Comp
L power:GND #PWR0396
U 1 1 60CE2D60
P 5100 4150
F 0 "#PWR0396" H 5100 3900 50  0001 C CNN
F 1 "GND" H 5105 3977 50  0001 C CNN
F 2 "" H 5100 4150 50  0001 C CNN
F 3 "" H 5100 4150 50  0001 C CNN
	1    5100 4150
	1    0    0    -1  
$EndComp
$Comp
L power:GND #PWR0399
U 1 1 6101D3A8
P 5100 6550
F 0 "#PWR0399" H 5100 6300 50  0001 C CNN
F 1 "GND" H 5105 6377 50  0001 C CNN
F 2 "" H 5100 6550 50  0001 C CNN
F 3 "" H 5100 6550 50  0001 C CNN
	1    5100 6550
	1    0    0    -1  
$EndComp
$Comp
L power:GND #PWR0394
U 1 1 60B98B03
P 5700 1300
F 0 "#PWR0394" H 5700 1050 50  0001 C CNN
F 1 "GND" H 5705 1127 50  0001 C CNN
F 2 "" H 5700 1300 50  0001 C CNN
F 3 "" H 5700 1300 50  0001 C CNN
	1    5700 1300
	1    0    0    -1  
$EndComp
$Comp
L Device:C_Small C24
U 1 1 60D4F6F1
P 4400 4050
F 0 "C24" H 4492 4096 50  0000 L CNN
F 1 "0.1u" H 4492 4005 50  0000 L CNN
F 2 "" H 4400 4050 50  0001 C CNN
F 3 "~" H 4400 4050 50  0001 C CNN
	1    4400 4050
	-1   0    0    -1  
$EndComp
$Comp
L Device:C_Small C22
U 1 1 60D4EF6C
P 4750 4050
F 0 "C22" H 4842 4096 50  0000 L CNN
F 1 "0.1u" H 4842 4005 50  0000 L CNN
F 2 "" H 4750 4050 50  0001 C CNN
F 3 "~" H 4750 4050 50  0001 C CNN
	1    4750 4050
	-1   0    0    -1  
$EndComp
$Comp
L Device:C_Small C23
U 1 1 60D5092C
P 5450 4050
F 0 "C23" H 5358 4096 50  0000 R CNN
F 1 "0.1u" H 5358 4005 50  0000 R CNN
F 2 "" H 5450 4050 50  0001 C CNN
F 3 "~" H 5450 4050 50  0001 C CNN
	1    5450 4050
	-1   0    0    -1  
$EndComp
$Comp
L Device:C_Small C21
U 1 1 60D50926
P 5800 4050
F 0 "C21" H 5708 4096 50  0000 R CNN
F 1 "0.1u" H 5708 4005 50  0000 R CNN
F 2 "" H 5800 4050 50  0001 C CNN
F 3 "~" H 5800 4050 50  0001 C CNN
	1    5800 4050
	-1   0    0    -1  
$EndComp
$Comp
L Device:Ferrite_Bead_Small FB20
U 1 1 60E431D1
P 3700 5000
F 0 "FB20" V 3650 4850 50  0000 C CNN
F 1 "Ferrite_Bead_Small" V 3554 5000 50  0001 C CNN
F 2 "" V 3630 5000 50  0001 C CNN
F 3 "~" H 3700 5000 50  0001 C CNN
	1    3700 5000
	0    1    1    0   
$EndComp
$Comp
L Device:Ferrite_Bead_Small FB19
U 1 1 60E431CB
P 3850 4900
F 0 "FB19" V 3800 4750 50  0000 C CNN
F 1 "Ferrite_Bead_Small" V 3704 4900 50  0001 C CNN
F 2 "" V 3780 4900 50  0001 C CNN
F 3 "~" H 3850 4900 50  0001 C CNN
	1    3850 4900
	0    1    1    0   
$EndComp
$Comp
L Device:Ferrite_Bead_Small FB5
U 1 1 60BB52C4
P 4000 800
F 0 "FB5" V 3855 800 50  0000 C CNN
F 1 "Ferrite_Bead_Small" V 3854 800 50  0001 C CNN
F 2 "" V 3930 800 50  0001 C CNN
F 3 "~" H 4000 800 50  0001 C CNN
	1    4000 800 
	0    1    1    0   
$EndComp
$Comp
L Device:Ferrite_Bead_Small FB6
U 1 1 60BB52CA
P 4100 1000
F 0 "FB6" V 3955 1000 50  0000 C CNN
F 1 "Ferrite_Bead_Small" V 3954 1000 50  0001 C CNN
F 2 "" V 4030 1000 50  0001 C CNN
F 3 "~" H 4100 1000 50  0001 C CNN
	1    4100 1000
	0    1    1    0   
$EndComp
$Comp
L Device:Ferrite_Bead_Small FB11
U 1 1 60BD44DB
P 4250 2200
F 0 "FB11" V 4200 2050 50  0000 C CNN
F 1 "Ferrite_Bead_Small" V 4104 2200 50  0001 C CNN
F 2 "" V 4180 2200 50  0001 C CNN
F 3 "~" H 4250 2200 50  0001 C CNN
	1    4250 2200
	0    1    1    0   
$EndComp
$Comp
L Device:Ferrite_Bead_Small FB9
U 1 1 60BD3A4C
P 4400 2100
F 0 "FB9" V 4350 1950 50  0000 C CNN
F 1 "Ferrite_Bead_Small" V 4254 2100 50  0001 C CNN
F 2 "" V 4330 2100 50  0001 C CNN
F 3 "~" H 4400 2100 50  0001 C CNN
	1    4400 2100
	0    1    1    0   
$EndComp
$Comp
L Device:Ferrite_Bead_Small FB15
U 1 1 60C0CB53
P 4400 2500
F 0 "FB15" V 4350 2350 50  0000 C CNN
F 1 "Ferrite_Bead_Small" V 4254 2500 50  0001 C CNN
F 2 "" V 4330 2500 50  0001 C CNN
F 3 "~" H 4400 2500 50  0001 C CNN
	1    4400 2500
	0    1    1    0   
$EndComp
$Comp
L Device:Ferrite_Bead_Small FB7
U 1 1 60BD2947
P 4550 2000
F 0 "FB7" V 4500 1850 50  0000 C CNN
F 1 "Ferrite_Bead_Small" V 4404 2000 50  0001 C CNN
F 2 "" V 4480 2000 50  0001 C CNN
F 3 "~" H 4550 2000 50  0001 C CNN
	1    4550 2000
	0    1    1    0   
$EndComp
$Comp
L Device:Ferrite_Bead_Small FB13
U 1 1 60C0CB4D
P 4550 2400
F 0 "FB13" V 4500 2250 50  0000 C CNN
F 1 "Ferrite_Bead_Small" V 4404 2400 50  0001 C CNN
F 2 "" V 4480 2400 50  0001 C CNN
F 3 "~" H 4550 2400 50  0001 C CNN
	1    4550 2400
	0    1    1    0   
$EndComp
$Comp
L Device:Ferrite_Bead_Small FB21
U 1 1 60E83887
P 4550 5100
F 0 "FB21" V 4500 4950 50  0000 C CNN
F 1 "Ferrite_Bead_Small" V 4404 5100 50  0001 C CNN
F 2 "" V 4480 5100 50  0001 C CNN
F 3 "~" H 4550 5100 50  0001 C CNN
	1    4550 5100
	0    1    1    0   
$EndComp
$Comp
L Device:Ferrite_Bead_Small FB8
U 1 1 60C06D6E
P 5650 2000
F 0 "FB8" V 5600 1850 50  0000 C CNN
F 1 "Ferrite_Bead_Small" V 5504 2000 50  0001 C CNN
F 2 "" V 5580 2000 50  0001 C CNN
F 3 "~" H 5650 2000 50  0001 C CNN
	1    5650 2000
	0    -1   1    0   
$EndComp
$Comp
L Device:Ferrite_Bead_Small FB14
U 1 1 60C102B4
P 5650 2400
F 0 "FB14" V 5600 2250 50  0000 C CNN
F 1 "Ferrite_Bead_Small" V 5504 2400 50  0001 C CNN
F 2 "" V 5580 2400 50  0001 C CNN
F 3 "~" H 5650 2400 50  0001 C CNN
	1    5650 2400
	0    -1   1    0   
$EndComp
$Comp
L Device:Ferrite_Bead_Small FB22
U 1 1 60E83E55
P 5650 5100
F 0 "FB22" V 5600 4950 50  0000 C CNN
F 1 "Ferrite_Bead_Small" V 5504 5100 50  0001 C CNN
F 2 "" V 5580 5100 50  0001 C CNN
F 3 "~" H 5650 5100 50  0001 C CNN
	1    5650 5100
	0    -1   1    0   
$EndComp
$Comp
L Device:Ferrite_Bead_Small FB10
U 1 1 60C06D74
P 5800 2100
F 0 "FB10" V 5750 1950 50  0000 C CNN
F 1 "Ferrite_Bead_Small" V 5654 2100 50  0001 C CNN
F 2 "" V 5730 2100 50  0001 C CNN
F 3 "~" H 5800 2100 50  0001 C CNN
	1    5800 2100
	0    -1   1    0   
$EndComp
$Comp
L Device:Ferrite_Bead_Small FB16
U 1 1 60C102BA
P 5800 2500
F 0 "FB16" V 5750 2350 50  0000 C CNN
F 1 "Ferrite_Bead_Small" V 5654 2500 50  0001 C CNN
F 2 "" V 5730 2500 50  0001 C CNN
F 3 "~" H 5800 2500 50  0001 C CNN
	1    5800 2500
	0    -1   1    0   
$EndComp
$Comp
L Device:Ferrite_Bead_Small FB12
U 1 1 60C06D7A
P 5950 2200
F 0 "FB12" V 5900 2050 50  0000 C CNN
F 1 "Ferrite_Bead_Small" V 5804 2200 50  0001 C CNN
F 2 "" V 5880 2200 50  0001 C CNN
F 3 "~" H 5950 2200 50  0001 C CNN
	1    5950 2200
	0    -1   1    0   
$EndComp
$Comp
L Device:Ferrite_Bead_Small FB1
U 1 1 60B94E96
P 6300 900
F 0 "FB1" V 6155 900 50  0000 C CNN
F 1 "Ferrite_Bead_Small" V 6154 900 50  0001 C CNN
F 2 "" V 6230 900 50  0001 C CNN
F 3 "~" H 6300 900 50  0001 C CNN
	1    6300 900 
	0    1    1    0   
$EndComp
$Comp
L Device:Ferrite_Bead_Small FB17
U 1 1 60DFAD95
P 6350 4800
F 0 "FB17" V 6300 4650 50  0000 C CNN
F 1 "Ferrite_Bead_Small" V 6204 4800 50  0001 C CNN
F 2 "" V 6280 4800 50  0001 C CNN
F 3 "~" H 6350 4800 50  0001 C CNN
	1    6350 4800
	0    -1   1    0   
$EndComp
$Comp
L Device:Ferrite_Bead_Small FB2
U 1 1 60BA5CD0
P 6400 1100
F 0 "FB2" V 6255 1100 50  0000 C CNN
F 1 "Ferrite_Bead_Small" V 6254 1100 50  0001 C CNN
F 2 "" V 6330 1100 50  0001 C CNN
F 3 "~" H 6400 1100 50  0001 C CNN
	1    6400 1100
	0    1    1    0   
$EndComp
$Comp
L Device:Ferrite_Bead_Small FB3
U 1 1 60BA7FA1
P 6500 1300
F 0 "FB3" V 6355 1300 50  0000 C CNN
F 1 "Ferrite_Bead_Small" V 6354 1300 50  0001 C CNN
F 2 "" V 6430 1300 50  0001 C CNN
F 3 "~" H 6500 1300 50  0001 C CNN
	1    6500 1300
	0    1    1    0   
$EndComp
$Comp
L Device:Ferrite_Bead_Small FB18
U 1 1 60E05343
P 6500 4900
F 0 "FB18" V 6450 4750 50  0000 C CNN
F 1 "Ferrite_Bead_Small" V 6354 4900 50  0001 C CNN
F 2 "" V 6430 4900 50  0001 C CNN
F 3 "~" H 6500 4900 50  0001 C CNN
	1    6500 4900
	0    -1   1    0   
$EndComp
$Comp
L Device:Ferrite_Bead_Small FB4
U 1 1 60BAA05A
P 6600 1500
F 0 "FB4" V 6455 1500 50  0000 C CNN
F 1 "Ferrite_Bead_Small" V 6454 1500 50  0001 C CNN
F 2 "" V 6530 1500 50  0001 C CNN
F 3 "~" H 6600 1500 50  0001 C CNN
	1    6600 1500
	0    1    1    0   
$EndComp
$Comp
L Connector_Generic:Conn_02x17_Odd_Even CN5
U 1 1 60B8C56D
P 5050 5600
F 0 "CN5" H 5100 6617 50  0000 C CNN
F 1 "KICK" H 5100 6526 50  0000 C CNN
F 2 "" H 5050 5600 50  0001 C CNN
F 3 "~" H 5050 5600 50  0001 C CNN
	1    5050 5600
	1    0    0    -1  
$EndComp
$Comp
L Connector_Generic:Conn_02x28_Row_Letter_Last CN0
U 1 1 60B894BC
P 5050 2600
F 0 "CN0" H 5100 4117 50  0000 C CNN
F 1 "JAMMA" H 5100 4026 50  0000 C CNN
F 2 "" H 5050 2600 50  0001 C CNN
F 3 "~" H 5050 2600 50  0001 C CNN
	1    5050 2600
	1    0    0    -1  
$EndComp
$EndSCHEMATC
