EESchema Schematic File Version 5
EELAYER 33 0
EELAYER END
$Descr A4 11693 8268
encoding utf-8
Sheet 2 22
Title ""
Date "2019-11-23"
Rev ""
Comp ""
Comment1 "Licence: CC-BY"
Comment2 "Author: Loïc *WydD* Petit"
Comment3 ""
Comment4 ""
Comment5 ""
Comment6 ""
Comment7 ""
Comment8 ""
Comment9 ""
$EndDescr
Connection ~ 3200 2750
Connection ~ 4300 2300
Connection ~ 4000 2450
Connection ~ 4300 2450
Connection ~ 3200 3150
Connection ~ 4300 2550
Connection ~ 4300 3800
Connection ~ 3800 5500
Connection ~ 3800 5400
Connection ~ 3800 5200
Connection ~ 2700 5000
Connection ~ 2700 6000
Connection ~ 5600 3350
Connection ~ 7500 5800
Connection ~ 7550 1900
Connection ~ 8750 4650
Connection ~ 9700 2550
Connection ~ 6200 3950
Connection ~ 7250 4950
Connection ~ 7500 5050
Connection ~ 7750 5250
NoConn ~ 3850 2850
NoConn ~ 4400 5400
NoConn ~ 4400 5600
NoConn ~ 5600 2600
NoConn ~ 5600 2750
NoConn ~ 5600 2850
NoConn ~ 8250 3150
NoConn ~ 8250 3250
NoConn ~ 8250 3350
NoConn ~ 9250 3150
NoConn ~ 9250 3250
NoConn ~ 9250 3350
NoConn ~ 8250 5150
NoConn ~ 8250 5350
NoConn ~ 8250 5450
NoConn ~ 9250 5150
NoConn ~ 9250 5350
NoConn ~ 9250 5450
NoConn ~ 8250 5750
Entry Wire Line
	6100 4100 6200 4000
Entry Wire Line
	6100 4250 6200 4150
Entry Wire Line
	6100 4350 6200 4250
Entry Wire Line
	6100 4450 6200 4350
Entry Wire Line
	6100 4550 6200 4450
Entry Wire Line
	6100 4650 6200 4550
Entry Wire Line
	6100 4750 6200 4650
Entry Wire Line
	6100 4850 6200 4750
Entry Wire Line
	6200 3050 6100 2950
Entry Wire Line
	6200 3150 6100 3050
Entry Wire Line
	6200 3250 6100 3150
Entry Wire Line
	6200 3350 6100 3250
Entry Wire Line
	6200 3450 6100 3350
Entry Wire Line
	7650 1100 7750 1000
Entry Wire Line
	7650 1200 7750 1100
Entry Wire Line
	7650 1300 7750 1200
Entry Wire Line
	7650 1400 7750 1300
Entry Wire Line
	7650 1500 7750 1400
Entry Wire Line
	7650 1600 7750 1500
Entry Wire Line
	7650 1700 7750 1600
Entry Wire Line
	7650 1800 7750 1700
Entry Wire Line
	7650 2850 7750 2950
Entry Wire Line
	7650 2950 7750 3050
Entry Wire Line
	7650 3350 7750 3450
Entry Wire Line
	7650 3450 7750 3550
Entry Wire Line
	7650 3550 7750 3650
Entry Wire Line
	9600 1000 9700 1100
Entry Wire Line
	9600 1100 9700 1200
Entry Wire Line
	9600 1200 9700 1300
Entry Wire Line
	9600 1300 9700 1400
Entry Wire Line
	9600 1400 9700 1500
Entry Wire Line
	9600 1500 9700 1600
Entry Wire Line
	9600 1600 9700 1700
Entry Wire Line
	9600 1700 9700 1800
Entry Wire Line
	9600 2950 9700 3050
Entry Wire Line
	9600 3050 9700 3150
Entry Wire Line
	9600 3450 9700 3550
Entry Wire Line
	9600 3550 9700 3650
Entry Wire Line
	9600 3650 9700 3750
Entry Wire Line
	9600 4950 9700 4850
Entry Wire Line
	9600 5050 9700 4950
Entry Wire Line
	9600 5250 9700 5150
Wire Wire Line
	1600 1900 1900 1900
Wire Wire Line
	1600 3150 1900 3150
Wire Wire Line
	1900 2650 1600 2650
Wire Wire Line
	2300 6000 2700 6000
Wire Wire Line
	2700 5000 2300 5000
Wire Wire Line
	2700 6000 3100 6000
Wire Wire Line
	3100 1900 7550 1900
Wire Wire Line
	3100 2650 3250 2650
Wire Wire Line
	3100 5000 2700 5000
Wire Wire Line
	3100 5100 3100 5000
Wire Wire Line
	3100 6000 3100 5900
Wire Wire Line
	3200 2400 3200 2750
Wire Wire Line
	3200 2750 3200 3150
Wire Wire Line
	3200 2750 3250 2750
Wire Wire Line
	3200 3150 3100 3150
Wire Wire Line
	3200 3150 3200 3900
Wire Wire Line
	3200 3900 4500 3900
Wire Wire Line
	3550 2450 4000 2450
Wire Wire Line
	3800 5200 4100 5200
Wire Wire Line
	3800 5400 3800 5200
Wire Wire Line
	3800 5500 3800 5400
Wire Wire Line
	3800 5800 3800 5500
Wire Wire Line
	4000 2450 4000 3050
Wire Wire Line
	4000 2450 4300 2450
Wire Wire Line
	4000 3050 3550 3050
Wire Wire Line
	4100 5800 3800 5800
Wire Wire Line
	4200 3450 5600 3450
Wire Wire Line
	4200 4150 4200 3450
Wire Wire Line
	4300 2300 4300 2450
Wire Wire Line
	4300 2300 4500 2300
Wire Wire Line
	4300 2450 4300 2550
Wire Wire Line
	4300 2550 4300 3800
Wire Wire Line
	4300 2550 4500 2550
Wire Wire Line
	4300 3800 4300 4050
Wire Wire Line
	4300 3800 4500 3800
Wire Wire Line
	4300 4050 4500 4050
Wire Wire Line
	4500 2400 3200 2400
Wire Wire Line
	4500 2650 3850 2650
Wire Wire Line
	4500 4150 4200 4150
Wire Wire Line
	5600 2950 6100 2950
Wire Wire Line
	5600 3050 6100 3050
Wire Wire Line
	5600 3150 6100 3150
Wire Wire Line
	5600 3250 6100 3250
Wire Wire Line
	5600 3350 6100 3350
Wire Wire Line
	5600 3450 5600 3350
Wire Wire Line
	5600 4100 6100 4100
Wire Wire Line
	5600 4250 6100 4250
Wire Wire Line
	5600 4350 6100 4350
Wire Wire Line
	5600 4450 6100 4450
Wire Wire Line
	5600 4550 6100 4550
Wire Wire Line
	5600 4650 6100 4650
Wire Wire Line
	5600 4750 6100 4750
Wire Wire Line
	5600 4850 6100 4850
Wire Wire Line
	7050 4950 7250 4950
Wire Wire Line
	7050 5050 7500 5050
Wire Wire Line
	7050 5250 7750 5250
Wire Wire Line
	7250 4950 8250 4950
Wire Wire Line
	7250 5600 7250 4950
Wire Wire Line
	7250 5800 7500 5800
Wire Wire Line
	7500 5050 7500 5600
Wire Wire Line
	7500 5050 8250 5050
Wire Wire Line
	7500 5800 7750 5800
Wire Wire Line
	7550 1900 7550 3850
Wire Wire Line
	7550 1900 8250 1900
Wire Wire Line
	7550 3850 8250 3850
Wire Wire Line
	7600 6350 8100 6350
Wire Wire Line
	7750 1000 8250 1000
Wire Wire Line
	7750 1100 8250 1100
Wire Wire Line
	7750 1200 8250 1200
Wire Wire Line
	7750 1300 8250 1300
Wire Wire Line
	7750 1400 8250 1400
Wire Wire Line
	7750 1500 8250 1500
Wire Wire Line
	7750 1600 8250 1600
Wire Wire Line
	7750 1700 8250 1700
Wire Wire Line
	7750 2000 8250 2000
Wire Wire Line
	7750 2950 8250 2950
Wire Wire Line
	7750 3050 8250 3050
Wire Wire Line
	7750 3450 8250 3450
Wire Wire Line
	7750 3550 8250 3550
Wire Wire Line
	7750 3650 8250 3650
Wire Wire Line
	7750 3950 8250 3950
Wire Wire Line
	7750 5250 8250 5250
Wire Wire Line
	7750 5600 7750 5250
Wire Wire Line
	8100 5650 8100 6350
Wire Wire Line
	8100 5650 8250 5650
Wire Wire Line
	9050 4650 8750 4650
Wire Wire Line
	9250 1000 9600 1000
Wire Wire Line
	9250 1100 9600 1100
Wire Wire Line
	9250 1200 9600 1200
Wire Wire Line
	9250 1300 9600 1300
Wire Wire Line
	9250 1400 9600 1400
Wire Wire Line
	9250 1500 9600 1500
Wire Wire Line
	9250 1600 9600 1600
Wire Wire Line
	9250 1700 9600 1700
Wire Wire Line
	9250 2950 9600 2950
Wire Wire Line
	9250 3050 9600 3050
Wire Wire Line
	9250 3450 9600 3450
Wire Wire Line
	9250 3550 9600 3550
Wire Wire Line
	9250 3650 9600 3650
Wire Wire Line
	9250 4950 9600 4950
Wire Wire Line
	9250 5050 9600 5050
Wire Wire Line
	9250 5250 9600 5250
Wire Bus Line
	6200 3050 6200 3250
Wire Bus Line
	6200 3250 6200 3450
Wire Bus Line
	6200 3450 6200 3950
Wire Bus Line
	6200 3950 6200 4150
Wire Bus Line
	6200 3950 7650 3950
Wire Bus Line
	6200 4150 6200 4350
Wire Bus Line
	6200 4350 6200 4450
Wire Bus Line
	6200 4450 6200 4650
Wire Bus Line
	6200 4650 6200 4750
Wire Bus Line
	7650 1100 7650 1300
Wire Bus Line
	7650 1300 7650 1500
Wire Bus Line
	7650 1500 7650 1700
Wire Bus Line
	7650 1700 7650 1800
Wire Bus Line
	7650 1800 7650 2950
Wire Bus Line
	7650 2950 7650 3450
Wire Bus Line
	7650 3450 7650 3950
Wire Bus Line
	9700 1100 9700 1300
Wire Bus Line
	9700 1300 9700 1500
Wire Bus Line
	9700 1500 9700 1700
Wire Bus Line
	9700 1700 9700 2550
Wire Bus Line
	9700 2550 9700 3150
Wire Bus Line
	9700 3150 9700 3650
Wire Bus Line
	9700 3650 9700 4850
Wire Bus Line
	9700 4850 9700 5150
Wire Bus Line
	9900 2550 9700 2550
Text Label 5650 2950 0    50   ~ 0
VOLUME12
Text Label 5650 3050 0    50   ~ 0
VOLUME11
Text Label 5650 3150 0    50   ~ 0
VOLUME10
Text Label 5650 3250 0    50   ~ 0
VOLUME9
Text Label 5650 3350 0    50   ~ 0
VOLUME8
Text Label 5650 4100 0    50   ~ 0
VOLUME7
Text Label 5650 4250 0    50   ~ 0
VOLUME6
Text Label 5650 4350 0    50   ~ 0
VOLUME5
Text Label 5650 4450 0    50   ~ 0
VOLUME4
Text Label 5650 4550 0    50   ~ 0
VOLUME3
Text Label 5650 4650 0    50   ~ 0
VOLUME2
Text Label 5650 4750 0    50   ~ 0
VOLUME1
Text Label 5650 4850 0    50   ~ 0
VOLUME0
Text Label 7750 6350 0    50   ~ 0
~OE
Text Label 7800 1000 0    50   ~ 0
VOLUME1
Text Label 7800 1100 0    50   ~ 0
VOLUME3
Text Label 7800 1200 0    50   ~ 0
VOLUME5
Text Label 7800 1300 0    50   ~ 0
VOLUME7
Text Label 7800 1400 0    50   ~ 0
VOLUME6
Text Label 7800 1500 0    50   ~ 0
VOLUME4
Text Label 7800 1600 0    50   ~ 0
VOLUME2
Text Label 7800 1700 0    50   ~ 0
VOLUME0
Text Label 7800 2950 0    50   ~ 0
VOLUME9
Text Label 7800 3050 0    50   ~ 0
VOLUME11
Text Label 7800 3450 0    50   ~ 0
VOLUME12
Text Label 7800 3550 0    50   ~ 0
VOLUME10
Text Label 7800 3650 0    50   ~ 0
VOLUME8
Text Label 7850 2000 0    50   ~ 0
~OE
Text Label 7850 3950 0    50   ~ 0
~OE
Text Label 9300 1000 0    50   ~ 0
BUS1
Text Label 9300 1100 0    50   ~ 0
BUS3
Text Label 9300 1200 0    50   ~ 0
BUS5
Text Label 9300 1300 0    50   ~ 0
BUS7
Text Label 9300 1400 0    50   ~ 0
BUS6
Text Label 9300 1500 0    50   ~ 0
BUS4
Text Label 9300 1600 0    50   ~ 0
BUS2
Text Label 9300 1700 0    50   ~ 0
BUS0
Text Label 9300 2950 0    50   ~ 0
BUS9
Text Label 9300 3050 0    50   ~ 0
BUS11
Text Label 9300 3450 0    50   ~ 0
BUS12
Text Label 9300 3550 0    50   ~ 0
BUS10
Text Label 9300 3650 0    50   ~ 0
BUS8
Text Label 9300 4950 0    50   ~ 0
BUS15
Text Label 9300 5050 0    50   ~ 0
BUS14
Text Label 9300 5250 0    50   ~ 0
BUS13
Text HLabel 1600 1900 0    50   Input ~ 0
STB
Text HLabel 1600 2650 0    50   Input ~ 0
DATA
Text HLabel 1600 3150 0    50   Input ~ 0
CLK
Text HLabel 7050 4950 0    50   Input ~ 0
~PRPH-PRESENT
Text HLabel 7050 5050 0    50   Input ~ 0
~PRPH-MEM
Text HLabel 7050 5250 0    50   Input ~ 0
SHORT-DET
Text HLabel 7600 6350 0    50   Input ~ 0
~VOLUME-OE
Text HLabel 9900 2550 2    50   Output ~ 0
BUS[0..15]
$Comp
L power:VCC #PWR?
U 1 1 5F1FA21B
P 2700 5000
AR Path="/5F1FA21B" Ref="#PWR?"  Part="1" 
AR Path="/5F1915B1/5F1FA21B" Ref="#PWR0108"  Part="1" 
F 0 "#PWR0108" H 2700 4850 50  0001 C CNN
F 1 "VCC" H 2600 5050 50  0000 C CNN
F 2 "" H 2700 5000 50  0001 C CNN
F 3 "" H 2700 5000 50  0001 C CNN
	1    2700 5000
	1    0    0    -1  
$EndComp
$Comp
L power:VCC #PWR?
U 1 1 5F1FA214
P 3800 5200
AR Path="/5F1FA214" Ref="#PWR?"  Part="1" 
AR Path="/5F1915B1/5F1FA214" Ref="#PWR0107"  Part="1" 
F 0 "#PWR0107" H 3800 5050 50  0001 C CNN
F 1 "VCC" H 3700 5250 50  0000 C CNN
F 2 "" H 3800 5200 50  0001 C CNN
F 3 "" H 3800 5200 50  0001 C CNN
	1    3800 5200
	1    0    0    -1  
$EndComp
$Comp
L power:VCC #PWR?
U 1 1 5F1FA1E7
P 4300 2300
AR Path="/5F1FA1E7" Ref="#PWR?"  Part="1" 
AR Path="/5F1915B1/5F1FA1E7" Ref="#PWR0106"  Part="1" 
F 0 "#PWR0106" H 4300 2150 50  0001 C CNN
F 1 "VCC" H 4200 2350 50  0000 C CNN
F 2 "" H 4300 2300 50  0001 C CNN
F 3 "" H 4300 2300 50  0001 C CNN
	1    4300 2300
	1    0    0    -1  
$EndComp
$Comp
L power:VCC #PWR?
U 1 1 5F1FA269
P 5250 2200
AR Path="/5F1FA269" Ref="#PWR?"  Part="1" 
AR Path="/5F1915B1/5F1FA269" Ref="#PWR0110"  Part="1" 
F 0 "#PWR0110" H 5250 2050 50  0001 C CNN
F 1 "VCC" H 5400 2300 50  0000 C CNN
F 2 "" H 5250 2200 50  0001 C CNN
F 3 "" H 5250 2200 50  0001 C CNN
	1    5250 2200
	1    0    0    -1  
$EndComp
$Comp
L power:VCC #PWR?
U 1 1 5F1FA26F
P 5250 3700
AR Path="/5F1FA26F" Ref="#PWR?"  Part="1" 
AR Path="/5F1915B1/5F1FA26F" Ref="#PWR0111"  Part="1" 
F 0 "#PWR0111" H 5250 3550 50  0001 C CNN
F 1 "VCC" H 5400 3800 50  0000 C CNN
F 2 "" H 5250 3700 50  0001 C CNN
F 3 "" H 5250 3700 50  0001 C CNN
	1    5250 3700
	1    0    0    -1  
$EndComp
$Comp
L power:VCC #PWR?
U 1 1 5F257C8E
P 8750 700
AR Path="/5F257C8E" Ref="#PWR?"  Part="1" 
AR Path="/5F1915B1/5F257C8E" Ref="#PWR0121"  Part="1" 
F 0 "#PWR0121" H 8750 550 50  0001 C CNN
F 1 "VCC" H 8600 800 50  0000 C CNN
F 2 "" H 8750 700 50  0001 C CNN
F 3 "" H 8750 700 50  0001 C CNN
	1    8750 700 
	1    0    0    -1  
$EndComp
$Comp
L power:VCC #PWR?
U 1 1 5F257887
P 8750 2650
AR Path="/5F257887" Ref="#PWR?"  Part="1" 
AR Path="/5F1915B1/5F257887" Ref="#PWR0120"  Part="1" 
F 0 "#PWR0120" H 8750 2500 50  0001 C CNN
F 1 "VCC" H 8600 2750 50  0000 C CNN
F 2 "" H 8750 2650 50  0001 C CNN
F 3 "" H 8750 2650 50  0001 C CNN
	1    8750 2650
	1    0    0    -1  
$EndComp
$Comp
L power:VCC #PWR?
U 1 1 5F2573CF
P 8750 4650
AR Path="/5F2573CF" Ref="#PWR?"  Part="1" 
AR Path="/5F1915B1/5F2573CF" Ref="#PWR0119"  Part="1" 
F 0 "#PWR0119" H 8750 4500 50  0001 C CNN
F 1 "VCC" H 8600 4750 50  0000 C CNN
F 2 "" H 8750 4650 50  0001 C CNN
F 3 "" H 8750 4650 50  0001 C CNN
	1    8750 4650
	1    0    0    -1  
$EndComp
$Comp
L power:GND #PWR?
U 1 1 5F1FA224
P 2700 6000
AR Path="/5F1FA224" Ref="#PWR?"  Part="1" 
AR Path="/5F1915B1/5F1FA224" Ref="#PWR0109"  Part="1" 
F 0 "#PWR0109" H 2700 5750 50  0001 C CNN
F 1 "GND" H 2705 5827 50  0001 C CNN
F 2 "" H 2700 6000 50  0001 C CNN
F 3 "" H 2700 6000 50  0001 C CNN
	1    2700 6000
	1    0    0    -1  
$EndComp
$Comp
L power:GND #PWR?
U 1 1 5F1FA275
P 5050 2200
AR Path="/5F1FA275" Ref="#PWR?"  Part="1" 
AR Path="/5F1915B1/5F1FA275" Ref="#PWR0112"  Part="1" 
F 0 "#PWR0112" H 5050 1950 50  0001 C CNN
F 1 "GND" H 5055 2027 50  0001 C CNN
F 2 "" H 5050 2200 50  0001 C CNN
F 3 "" H 5050 2200 50  0001 C CNN
	1    5050 2200
	-1   0    0    1   
$EndComp
$Comp
L power:GND #PWR?
U 1 1 5F1FA27B
P 5050 3700
AR Path="/5F1FA27B" Ref="#PWR?"  Part="1" 
AR Path="/5F1915B1/5F1FA27B" Ref="#PWR0113"  Part="1" 
F 0 "#PWR0113" H 5050 3450 50  0001 C CNN
F 1 "GND" H 5055 3527 50  0001 C CNN
F 2 "" H 5050 3700 50  0001 C CNN
F 3 "" H 5050 3700 50  0001 C CNN
	1    5050 3700
	-1   0    0    1   
$EndComp
$Comp
L power:GND #PWR?
U 1 1 5F1FA2BF
P 7500 5800
AR Path="/5F1FA2BF" Ref="#PWR?"  Part="1" 
AR Path="/5F1915B1/5F1FA2BF" Ref="#PWR0114"  Part="1" 
F 0 "#PWR0114" H 7500 5550 50  0001 C CNN
F 1 "GND" H 7505 5627 50  0001 C CNN
F 2 "" H 7500 5800 50  0001 C CNN
F 3 "" H 7500 5800 50  0001 C CNN
	1    7500 5800
	1    0    0    -1  
$EndComp
$Comp
L power:GND #PWR?
U 1 1 5F256F7F
P 8750 2300
AR Path="/5F256F7F" Ref="#PWR?"  Part="1" 
AR Path="/5F1915B1/5F256F7F" Ref="#PWR0118"  Part="1" 
F 0 "#PWR0118" H 8750 2050 50  0001 C CNN
F 1 "GND" H 8755 2127 50  0001 C CNN
F 2 "" H 8750 2300 50  0001 C CNN
F 3 "" H 8750 2300 50  0001 C CNN
	1    8750 2300
	1    0    0    -1  
$EndComp
$Comp
L power:GND #PWR?
U 1 1 5F256D5B
P 8750 4250
AR Path="/5F256D5B" Ref="#PWR?"  Part="1" 
AR Path="/5F1915B1/5F256D5B" Ref="#PWR0117"  Part="1" 
F 0 "#PWR0117" H 8750 4000 50  0001 C CNN
F 1 "GND" H 8755 4077 50  0001 C CNN
F 2 "" H 8750 4250 50  0001 C CNN
F 3 "" H 8750 4250 50  0001 C CNN
	1    8750 4250
	1    0    0    -1  
$EndComp
$Comp
L power:GND #PWR?
U 1 1 5F256832
P 8750 6050
AR Path="/5F256832" Ref="#PWR?"  Part="1" 
AR Path="/5F1915B1/5F256832" Ref="#PWR0116"  Part="1" 
F 0 "#PWR0116" H 8750 5800 50  0001 C CNN
F 1 "GND" H 8755 5877 50  0001 C CNN
F 2 "" H 8750 6050 50  0001 C CNN
F 3 "" H 8750 6050 50  0001 C CNN
	1    8750 6050
	1    0    0    -1  
$EndComp
$Comp
L power:GND #PWR?
U 1 1 5F22C6B3
P 9250 4650
AR Path="/5F22C6B3" Ref="#PWR?"  Part="1" 
AR Path="/5F1915B1/5F22C6B3" Ref="#PWR0115"  Part="1" 
F 0 "#PWR0115" H 9250 4400 50  0001 C CNN
F 1 "GND" H 9255 4477 50  0001 C CNN
F 2 "" H 9250 4650 50  0001 C CNN
F 3 "" H 9250 4650 50  0001 C CNN
	1    9250 4650
	1    0    0    -1  
$EndComp
$Comp
L Device:R_Small R?
U 1 1 5F1FA2CB
P 7250 5700
AR Path="/5F1FA2CB" Ref="R?"  Part="1" 
AR Path="/5F1915B1/5F1FA2CB" Ref="R42"  Part="1" 
F 0 "R42" H 7309 5746 50  0000 L CNN
F 1 "10k" H 7309 5655 50  0000 L CNN
F 2 "" H 7250 5700 50  0001 C CNN
F 3 "~" H 7250 5700 50  0001 C CNN
	1    7250 5700
	1    0    0    -1  
$EndComp
$Comp
L Device:R_Small R?
U 1 1 5F1FA2D1
P 7500 5700
AR Path="/5F1FA2D1" Ref="R?"  Part="1" 
AR Path="/5F1915B1/5F1FA2D1" Ref="R43"  Part="1" 
F 0 "R43" H 7559 5746 50  0000 L CNN
F 1 "10k" H 7559 5655 50  0000 L CNN
F 2 "" H 7500 5700 50  0001 C CNN
F 3 "~" H 7500 5700 50  0001 C CNN
	1    7500 5700
	1    0    0    -1  
$EndComp
$Comp
L Device:R_Small R?
U 1 1 5F1FA2D7
P 7750 5700
AR Path="/5F1FA2D7" Ref="R?"  Part="1" 
AR Path="/5F1915B1/5F1FA2D7" Ref="R46"  Part="1" 
F 0 "R46" H 7809 5746 50  0000 L CNN
F 1 "10k" H 7809 5655 50  0000 L CNN
F 2 "" H 7750 5700 50  0001 C CNN
F 3 "~" H 7750 5700 50  0001 C CNN
	1    7750 5700
	1    0    0    -1  
$EndComp
$Comp
L Device:C_Small CX1
U 1 1 5F20EF9F
P 9150 4650
F 0 "CX1" V 8921 4650 50  0001 C CNN
F 1 "0.1u" V 9287 4650 50  0000 C CNN
F 2 "" H 9150 4650 50  0001 C CNN
F 3 "~" H 9150 4650 50  0001 C CNN
	1    9150 4650
	0    -1   -1   0   
$EndComp
$Comp
L 74xx:74HC04 UF?
U 4 1 5F1FA1A8
P 2200 1900
AR Path="/5F1FA1A8" Ref="UF?"  Part="4" 
AR Path="/5F1915B1/5F1FA1A8" Ref="UF14"  Part="4" 
F 0 "UF14" H 2200 2217 50  0000 C CNN
F 1 "74HC04" H 2200 2126 50  0000 C CNN
F 2 "" H 2200 1900 50  0001 C CNN
F 3 "https://assets.nexperia.com/documents/data-sheet/74HC_HCT04.pdf" H 2200 1900 50  0001 C CNN
	4    2200 1900
	1    0    0    -1  
$EndComp
$Comp
L 74xx:74HC04 UF?
U 5 1 5F1FA1AE
P 2200 2650
AR Path="/5F1FA1AE" Ref="UF?"  Part="5" 
AR Path="/5F1915B1/5F1FA1AE" Ref="UF14"  Part="5" 
F 0 "UF14" H 2200 2967 50  0000 C CNN
F 1 "74HC04" H 2200 2876 50  0000 C CNN
F 2 "" H 2200 2650 50  0001 C CNN
F 3 "https://assets.nexperia.com/documents/data-sheet/74HC_HCT04.pdf" H 2200 2650 50  0001 C CNN
	5    2200 2650
	1    0    0    -1  
$EndComp
$Comp
L 74xx:74HC04 UF?
U 6 1 5F1FA1C0
P 2200 3150
AR Path="/5F1FA1C0" Ref="UF?"  Part="6" 
AR Path="/5F1915B1/5F1FA1C0" Ref="UF14"  Part="6" 
F 0 "UF14" H 2200 3467 50  0000 C CNN
F 1 "74HC04" H 2200 3376 50  0000 C CNN
F 2 "" H 2200 3150 50  0001 C CNN
F 3 "https://assets.nexperia.com/documents/data-sheet/74HC_HCT04.pdf" H 2200 3150 50  0001 C CNN
	6    2200 3150
	1    0    0    -1  
$EndComp
$Comp
L 74xx:74HC04 UF?
U 3 1 5F1FA19B
P 2800 1900
AR Path="/5F1FA19B" Ref="UF?"  Part="3" 
AR Path="/5F1915B1/5F1FA19B" Ref="UF14"  Part="3" 
F 0 "UF14" H 2800 2217 50  0000 C CNN
F 1 "74HC04" H 2800 2126 50  0000 C CNN
F 2 "" H 2800 1900 50  0001 C CNN
F 3 "https://assets.nexperia.com/documents/data-sheet/74HC_HCT04.pdf" H 2800 1900 50  0001 C CNN
	3    2800 1900
	1    0    0    -1  
$EndComp
$Comp
L 74xx:74HC04 UF?
U 2 1 5F1FA1A1
P 2800 2650
AR Path="/5F1FA1A1" Ref="UF?"  Part="2" 
AR Path="/5F1915B1/5F1FA1A1" Ref="UF14"  Part="2" 
F 0 "UF14" H 2800 2967 50  0000 C CNN
F 1 "74HC04" H 2800 2876 50  0000 C CNN
F 2 "" H 2800 2650 50  0001 C CNN
F 3 "https://assets.nexperia.com/documents/data-sheet/74HC_HCT04.pdf" H 2800 2650 50  0001 C CNN
	2    2800 2650
	1    0    0    -1  
$EndComp
$Comp
L 74xx:74HC04 UF?
U 1 1 5F1FA1BA
P 2800 3150
AR Path="/5F1FA1BA" Ref="UF?"  Part="1" 
AR Path="/5F1915B1/5F1FA1BA" Ref="UF14"  Part="1" 
F 0 "UF14" H 2800 3467 50  0000 C CNN
F 1 "74HC04" H 2800 3376 50  0000 C CNN
F 2 "" H 2800 3150 50  0001 C CNN
F 3 "https://assets.nexperia.com/documents/data-sheet/74HC_HCT04.pdf" H 2800 3150 50  0001 C CNN
	1    2800 3150
	1    0    0    -1  
$EndComp
$Comp
L 74xx:74LS74 UH?
U 3 1 5F1FA1DE
P 3100 5500
AR Path="/5F1FA1DE" Ref="UH?"  Part="3" 
AR Path="/5F1915B1/5F1FA1DE" Ref="UH14"  Part="3" 
F 0 "UH14" H 3330 5546 50  0000 L CNN
F 1 "74LS74" H 3330 5455 50  0000 L CNN
F 2 "" H 3100 5500 50  0001 C CNN
F 3 "74xx/74hc_hct74.pdf" H 3100 5500 50  0001 C CNN
	3    3100 5500
	1    0    0    -1  
$EndComp
$Comp
L 74xx:74LS74 UH?
U 1 1 5F1FA1B4
P 3550 2750
AR Path="/5F1FA1B4" Ref="UH?"  Part="1" 
AR Path="/5F1915B1/5F1FA1B4" Ref="UH14"  Part="1" 
F 0 "UH14" H 3550 3231 50  0000 C CNN
F 1 "74LS74" H 3550 3140 50  0000 C CNN
F 2 "" H 3550 2750 50  0001 C CNN
F 3 "74xx/74hc_hct74.pdf" H 3550 2750 50  0001 C CNN
	1    3550 2750
	1    0    0    -1  
$EndComp
$Comp
L 74xx:74LS74 UH?
U 2 1 5F1FA1D8
P 4100 5500
AR Path="/5F1FA1D8" Ref="UH?"  Part="2" 
AR Path="/5F1915B1/5F1FA1D8" Ref="UH14"  Part="2" 
F 0 "UH14" H 4100 5981 50  0000 C CNN
F 1 "74LS74" H 4100 5890 50  0000 C CNN
F 2 "" H 4100 5500 50  0001 C CNN
F 3 "74xx/74hc_hct74.pdf" H 4100 5500 50  0001 C CNN
	2    4100 5500
	1    0    0    -1  
$EndComp
$Comp
L 74xx:74HC04 UF?
U 7 1 5F1FA1C6
P 2300 5500
AR Path="/5F1FA1C6" Ref="UF?"  Part="7" 
AR Path="/5F1915B1/5F1FA1C6" Ref="UF14"  Part="7" 
F 0 "UF14" H 2530 5546 50  0000 L CNN
F 1 "74HC04" H 2530 5455 50  0000 L CNN
F 2 "" H 2300 5500 50  0001 C CNN
F 3 "https://assets.nexperia.com/documents/data-sheet/74HC_HCT04.pdf" H 2300 5500 50  0001 C CNN
	7    2300 5500
	1    0    0    -1  
$EndComp
$Comp
L 74xx_IEEE:74164 UM?
U 1 1 5F1FA195
P 5050 2550
AR Path="/5F1FA195" Ref="UM?"  Part="1" 
AR Path="/5F1915B1/5F1FA195" Ref="UM14"  Part="1" 
F 0 "UM14" H 4900 2950 50  0000 C CNN
F 1 "74164" H 5150 2800 50  0000 C CNN
F 2 "" H 5050 2550 50  0001 C CNN
F 3 "" H 5050 2550 50  0001 C CNN
	1    5050 2550
	1    0    0    -1  
$EndComp
$Comp
L 74xx_IEEE:74164 UL?
U 1 1 5F1FA1D2
P 5050 4050
AR Path="/5F1FA1D2" Ref="UL?"  Part="1" 
AR Path="/5F1915B1/5F1FA1D2" Ref="UL14"  Part="1" 
F 0 "UL14" H 4900 4450 50  0000 C CNN
F 1 "74164" H 5150 4300 50  0000 C CNN
F 2 "" H 5050 4050 50  0001 C CNN
F 3 "" H 5050 4050 50  0001 C CNN
	1    5050 4050
	1    0    0    -1  
$EndComp
$Comp
L 74xx:74LS367 UK?
U 1 1 5F1FA2B4
P 8750 5350
AR Path="/5F1FA2B4" Ref="UK?"  Part="1" 
AR Path="/5F1915B1/5F1FA2B4" Ref="UK14"  Part="1" 
F 0 "UK14" H 8550 5900 50  0000 C CNN
F 1 "74LS367" H 8950 4750 50  0000 C CNN
F 2 "" H 8750 5350 50  0001 C CNN
F 3 "http://www.ti.com/lit/gpn/sn74LS367" H 8750 5350 50  0001 C CNN
	1    8750 5350
	1    0    0    -1  
$EndComp
$Comp
L 74xx:74LS374 UL?
U 1 1 5F1FA18F
P 8750 1500
AR Path="/5F1FA18F" Ref="UL?"  Part="1" 
AR Path="/5F1915B1/5F1FA18F" Ref="UL13"  Part="1" 
F 0 "UL13" H 8550 2150 50  0000 C CNN
F 1 "74LS374" H 8950 800 50  0000 C CNN
F 2 "" H 8750 1500 50  0001 C CNN
F 3 "http://www.ti.com/lit/gpn/sn74LS374" H 8750 1500 50  0001 C CNN
	1    8750 1500
	1    0    0    -1  
$EndComp
$Comp
L 74xx:74LS374 UM?
U 1 1 5F1FA281
P 8750 3450
AR Path="/5F1FA281" Ref="UM?"  Part="1" 
AR Path="/5F1915B1/5F1FA281" Ref="UM13"  Part="1" 
F 0 "UM13" H 8550 4100 50  0000 C CNN
F 1 "74LS374" H 8950 2750 50  0000 C CNN
F 2 "" H 8750 3450 50  0001 C CNN
F 3 "http://www.ti.com/lit/gpn/sn74LS374" H 8750 3450 50  0001 C CNN
	1    8750 3450
	1    0    0    -1  
$EndComp
$EndSCHEMATC
