EESchema Schematic File Version 5
EELAYER 33 0
EELAYER END
$Descr A4 11693 8268
encoding utf-8
Sheet 8 22
Title ""
Date "2019-11-23"
Rev ""
Comp ""
Comment1 "Licence: CC-BY"
Comment2 "Author: Loïc *WydD* Petit"
Comment3 ""
Comment4 ""
Comment5 ""
Comment6 ""
Comment7 ""
Comment8 ""
Comment9 ""
$EndDescr
Connection ~ 750  3700
Connection ~ 750  3850
Connection ~ 1350 4000
Connection ~ 4650 2850
Connection ~ 6650 2450
Connection ~ 7400 4500
Connection ~ 6550 4400
Connection ~ 7000 3600
Connection ~ 4000 5950
Connection ~ 3300 1550
Connection ~ 3400 1550
Connection ~ 3900 5950
Connection ~ 3800 5950
Connection ~ 3900 1550
Connection ~ 3500 1550
Connection ~ 3700 5950
Connection ~ 3600 1550
Connection ~ 3700 1550
Connection ~ 3600 5950
Connection ~ 3500 5950
Connection ~ 3800 1550
Connection ~ 3400 5950
Connection ~ 4650 4350
Connection ~ 4650 4450
Connection ~ 4650 4550
Connection ~ 4650 4650
Connection ~ 4650 4750
Connection ~ 4650 4850
Connection ~ 3300 7450
Connection ~ 4000 7450
Connection ~ 4000 6450
Connection ~ 3300 6450
Connection ~ 3650 6450
Connection ~ 3650 7450
Connection ~ 6550 5250
Connection ~ 5500 3700
Connection ~ 5850 4400
Connection ~ 6150 5250
NoConn ~ 2650 5050
NoConn ~ 2650 5150
NoConn ~ 2650 5250
NoConn ~ 2650 5350
NoConn ~ 2650 5450
NoConn ~ 2650 5550
NoConn ~ 2650 5650
NoConn ~ 2650 5750
NoConn ~ 6450 3350
NoConn ~ 7400 2350
NoConn ~ 4650 1850
NoConn ~ 4650 1950
NoConn ~ 4650 2050
NoConn ~ 4650 2150
NoConn ~ 4650 2550
NoConn ~ 4650 2650
NoConn ~ 6450 4600
Entry Wire Line
	2200 1650 2300 1750
Entry Wire Line
	2200 1750 2300 1850
Entry Wire Line
	2200 1850 2300 1950
Entry Wire Line
	2200 1950 2300 2050
Entry Wire Line
	2200 2050 2300 2150
Entry Wire Line
	2200 2150 2300 2250
Entry Wire Line
	2200 2250 2300 2350
Entry Wire Line
	2200 2350 2300 2450
Entry Wire Line
	2200 2450 2300 2550
Entry Wire Line
	2200 2550 2300 2650
Entry Wire Line
	2200 2650 2300 2750
Entry Wire Line
	2200 2750 2300 2850
Entry Wire Line
	2200 2850 2300 2950
Entry Wire Line
	2200 2950 2300 3050
Entry Wire Line
	2200 3050 2300 3150
Entry Wire Line
	2200 3150 2300 3250
Entry Wire Line
	2200 4350 2300 4250
Entry Wire Line
	2200 4450 2300 4350
Entry Wire Line
	2200 4550 2300 4450
Entry Wire Line
	2200 4650 2300 4550
Entry Wire Line
	2200 4750 2300 4650
Entry Wire Line
	2200 4850 2300 4750
Entry Wire Line
	2200 4950 2300 4850
Entry Wire Line
	2200 5050 2300 4950
Entry Wire Line
	4950 5050 5050 5150
Entry Wire Line
	4950 5150 5050 5250
Entry Wire Line
	4950 5250 5050 5350
Entry Wire Line
	4950 5350 5050 5450
Entry Wire Line
	4950 5450 5050 5550
Entry Wire Line
	4950 5550 5050 5650
Entry Wire Line
	4950 5650 5050 5750
Entry Wire Line
	4950 5750 5050 5850
Wire Wire Line
	650  3700 750  3700
Wire Wire Line
	750  3700 750  3850
Wire Wire Line
	750  3850 750  4000
Wire Wire Line
	1350 4000 1350 3850
Wire Wire Line
	1350 4200 1350 4000
Wire Wire Line
	1450 3700 1350 3700
Wire Wire Line
	2250 3700 2650 3700
Wire Wire Line
	2300 1750 2650 1750
Wire Wire Line
	2300 1850 2650 1850
Wire Wire Line
	2300 1950 2650 1950
Wire Wire Line
	2300 2050 2650 2050
Wire Wire Line
	2300 2150 2650 2150
Wire Wire Line
	2300 2250 2650 2250
Wire Wire Line
	2300 2350 2650 2350
Wire Wire Line
	2300 2450 2650 2450
Wire Wire Line
	2300 2550 2650 2550
Wire Wire Line
	2300 2650 2650 2650
Wire Wire Line
	2300 2750 2650 2750
Wire Wire Line
	2300 2850 2650 2850
Wire Wire Line
	2300 2950 2650 2950
Wire Wire Line
	2300 3050 2650 3050
Wire Wire Line
	2300 3150 2650 3150
Wire Wire Line
	2300 3250 2650 3250
Wire Wire Line
	2300 4250 2650 4250
Wire Wire Line
	2300 4350 2650 4350
Wire Wire Line
	2300 4450 2650 4450
Wire Wire Line
	2300 4550 2650 4550
Wire Wire Line
	2300 4650 2650 4650
Wire Wire Line
	2300 4750 2650 4750
Wire Wire Line
	2300 4850 2650 4850
Wire Wire Line
	2300 4950 2650 4950
Wire Wire Line
	2650 6450 3300 6450
Wire Wire Line
	3300 1550 3400 1550
Wire Wire Line
	3300 6450 3650 6450
Wire Wire Line
	3300 6550 3300 6450
Wire Wire Line
	3300 7350 3300 7450
Wire Wire Line
	3300 7450 2650 7450
Wire Wire Line
	3400 1550 3500 1550
Wire Wire Line
	3400 5950 3300 5950
Wire Wire Line
	3500 1550 3600 1550
Wire Wire Line
	3500 5950 3400 5950
Wire Wire Line
	3600 1550 3700 1550
Wire Wire Line
	3600 5950 3500 5950
Wire Wire Line
	3650 6450 4000 6450
Wire Wire Line
	3650 7450 3300 7450
Wire Wire Line
	3700 1550 3800 1550
Wire Wire Line
	3700 5950 3600 5950
Wire Wire Line
	3800 1550 3900 1550
Wire Wire Line
	3800 5950 3700 5950
Wire Wire Line
	3900 1550 4000 1550
Wire Wire Line
	3900 5950 3800 5950
Wire Wire Line
	4000 5950 3900 5950
Wire Wire Line
	4000 6450 4750 6450
Wire Wire Line
	4000 6550 4000 6450
Wire Wire Line
	4000 7350 4000 7450
Wire Wire Line
	4000 7450 3650 7450
Wire Wire Line
	4650 2350 5050 2350
Wire Wire Line
	4650 2450 5050 2450
Wire Wire Line
	4650 2850 4650 2750
Wire Wire Line
	4650 2950 4650 2850
Wire Wire Line
	4650 3250 5050 3250
Wire Wire Line
	4650 3700 5500 3700
Wire Wire Line
	4650 3800 5400 3800
Wire Wire Line
	4650 3900 5000 3900
Wire Wire Line
	4650 4000 5000 4000
Wire Wire Line
	4650 4350 4650 4250
Wire Wire Line
	4650 4450 4650 4350
Wire Wire Line
	4650 4550 4650 4450
Wire Wire Line
	4650 4550 4850 4550
Wire Wire Line
	4650 4650 4650 4550
Wire Wire Line
	4650 4750 4650 4650
Wire Wire Line
	4650 4850 4650 4750
Wire Wire Line
	4650 4950 4650 4850
Wire Wire Line
	4650 5050 4950 5050
Wire Wire Line
	4650 5150 4950 5150
Wire Wire Line
	4650 5250 4950 5250
Wire Wire Line
	4650 5350 4950 5350
Wire Wire Line
	4650 5450 4950 5450
Wire Wire Line
	4650 5550 4950 5550
Wire Wire Line
	4650 5650 4950 5650
Wire Wire Line
	4650 5750 4950 5750
Wire Wire Line
	4750 7450 4000 7450
Wire Wire Line
	4850 2850 4650 2850
Wire Wire Line
	4850 3400 4650 3400
Wire Wire Line
	5050 2150 6800 2150
Wire Wire Line
	5050 2350 5050 2150
Wire Wire Line
	5050 2950 5050 3150
Wire Wire Line
	5050 2950 5850 2950
Wire Wire Line
	5050 3150 4650 3150
Wire Wire Line
	5400 3800 5400 5250
Wire Wire Line
	5400 5250 6150 5250
Wire Wire Line
	5500 3700 5500 4700
Wire Wire Line
	5500 3700 5750 3700
Wire Wire Line
	5500 4700 5850 4700
Wire Wire Line
	5650 3250 5850 3250
Wire Wire Line
	5850 2950 5850 3150
Wire Wire Line
	5850 4400 5850 4600
Wire Wire Line
	5850 4400 6150 4400
Wire Wire Line
	5900 3550 6150 3550
Wire Wire Line
	6050 2450 6650 2450
Wire Wire Line
	6150 5000 6150 5250
Wire Wire Line
	6150 5250 6550 5250
Wire Wire Line
	6450 4800 7000 4800
Wire Wire Line
	6550 3950 6550 4400
Wire Wire Line
	6550 4400 6550 5250
Wire Wire Line
	6550 4400 6700 4400
Wire Wire Line
	6550 5250 7950 5250
Wire Wire Line
	6650 2450 6650 2950
Wire Wire Line
	6650 2450 6800 2450
Wire Wire Line
	6650 2950 7550 2950
Wire Wire Line
	6700 4150 6700 4300
Wire Wire Line
	6800 2150 6800 2350
Wire Wire Line
	6850 2750 7100 2750
Wire Wire Line
	7000 3600 4650 3600
Wire Wire Line
	7000 4100 7000 3600
Wire Wire Line
	7000 4800 7000 4700
Wire Wire Line
	7100 3600 7000 3600
Wire Wire Line
	7300 4500 7400 4500
Wire Wire Line
	7400 2550 7550 2550
Wire Wire Line
	7400 4150 7400 4300
Wire Wire Line
	7400 4300 7300 4300
Wire Wire Line
	7400 4500 7400 5050
Wire Wire Line
	7400 4500 7950 4500
Wire Wire Line
	7400 5050 7950 5050
Wire Wire Line
	7550 3150 6450 3150
Wire Wire Line
	7550 4700 7950 4700
Wire Wire Line
	7950 3950 6550 3950
Wire Wire Line
	7950 4150 7400 4150
Wire Wire Line
	9150 4050 8550 4050
Wire Wire Line
	9150 5150 8550 5150
Wire Bus Line
	2200 1450 2000 1450
Wire Bus Line
	2200 1450 2200 1750
Wire Bus Line
	2200 1750 2200 1850
Wire Bus Line
	2200 1850 2200 2050
Wire Bus Line
	2200 2050 2200 2250
Wire Bus Line
	2200 2250 2200 2450
Wire Bus Line
	2200 2450 2200 2650
Wire Bus Line
	2200 2650 2200 2750
Wire Bus Line
	2200 2750 2200 2950
Wire Bus Line
	2200 2950 2200 3150
Wire Bus Line
	2200 4350 2200 4450
Wire Bus Line
	2200 4450 2200 4650
Wire Bus Line
	2200 4650 2200 4750
Wire Bus Line
	2200 4750 2200 4950
Wire Bus Line
	2200 4950 2200 5250
Wire Bus Line
	2200 5250 2000 5250
Wire Bus Line
	5050 5150 5050 5350
Wire Bus Line
	5050 5350 5050 5550
Wire Bus Line
	5050 5550 5050 5750
Wire Bus Line
	5050 5750 5050 6050
Wire Bus Line
	5050 6050 5250 6050
Text Label 2350 1750 0    50   ~ 0
BUS0
Text Label 2350 1850 0    50   ~ 0
BUS1
Text Label 2350 1950 0    50   ~ 0
BUS2
Text Label 2350 2050 0    50   ~ 0
BUS3
Text Label 2350 2150 0    50   ~ 0
BUS4
Text Label 2350 2250 0    50   ~ 0
BUS5
Text Label 2350 2350 0    50   ~ 0
BUS6
Text Label 2350 2450 0    50   ~ 0
BUS7
Text Label 2350 2550 0    50   ~ 0
BUS8
Text Label 2350 2650 0    50   ~ 0
BUS9
Text Label 2350 2750 0    50   ~ 0
BUS10
Text Label 2350 2850 0    50   ~ 0
BUS11
Text Label 2350 2950 0    50   ~ 0
BUS12
Text Label 2350 3050 0    50   ~ 0
BUS13
Text Label 2350 3150 0    50   ~ 0
BUS14
Text Label 2350 3250 0    50   ~ 0
BUS15
Text Label 2350 4250 0    50   ~ 0
QSAH0
Text Label 2350 4350 0    50   ~ 0
QSAH1
Text Label 2350 4450 0    50   ~ 0
QSAH2
Text Label 2350 4550 0    50   ~ 0
QSAH3
Text Label 2350 4650 0    50   ~ 0
QSAH4
Text Label 2350 4750 0    50   ~ 0
QSAH5
Text Label 2350 4850 0    50   ~ 0
QSAH6
Text Label 2350 4950 0    50   ~ 0
QSAH7
Text Label 4700 5050 0    50   ~ 0
ROM0
Text Label 4700 5150 0    50   ~ 0
ROM1
Text Label 4700 5250 0    50   ~ 0
ROM2
Text Label 4700 5350 0    50   ~ 0
ROM3
Text Label 4700 5450 0    50   ~ 0
ROM4
Text Label 4700 5550 0    50   ~ 0
ROM5
Text Label 4700 5650 0    50   ~ 0
ROM6
Text Label 4700 5750 0    50   ~ 0
ROM7
Text Label 4750 3900 0    50   ~ 0
IACK
Text Label 4750 4000 0    50   ~ 0
INT
Text Label 5450 5250 0    50   ~ 0
~BUS-READ
Text Label 7600 4500 0    50   ~ 0
INT
Text Label 7600 4700 0    50   ~ 0
IACK
Text HLabel 2000 1450 0    50   3State ~ 0
BUS[0..15]
Text HLabel 2000 5250 0    50   Output ~ 0
QSAH[0..7]
Text HLabel 2650 3850 0    50   Output ~ 0
~QSAH-W
Text HLabel 5250 6050 2    50   Input ~ 0
ROM[0..7]
Text HLabel 5750 3700 2    50   Output ~ 0
~QSAL-W
Text HLabel 7100 3600 2    50   Input ~ 0
~RESET
Text HLabel 7550 2550 2    50   Output ~ 0
AUDIO-DATA
Text HLabel 7550 2950 2    50   Output ~ 0
AUDIO-BCLK
Text HLabel 7550 3150 2    50   Output ~ 0
AUDIO-WS
Text HLabel 9150 4050 2    50   Output ~ 0
~QS1-R
Text HLabel 9150 4600 2    50   Output ~ 0
~DSP-READY
Text HLabel 9150 5150 2    50   Output ~ 0
~QS0-R
$Comp
L power:VCC #PWR?
U 1 1 5DEA065B
P 650 3700
AR Path="/5DEA065B" Ref="#PWR?"  Part="1" 
AR Path="/5E4999E7/5DEA065B" Ref="#PWR?"  Part="1" 
AR Path="/5DE724A4/5DEA065B" Ref="#PWR0221"  Part="1" 
F 0 "#PWR0221" H 650 3550 50  0001 C CNN
F 1 "VCC" H 650 3850 50  0000 C CNN
F 2 "" H 650 3700 50  0001 C CNN
F 3 "" H 650 3700 50  0001 C CNN
	1    650  3700
	1    0    0    -1  
$EndComp
$Comp
L power:VCC #PWR?
U 1 1 5DF22A06
P 3300 1550
AR Path="/5DF22A06" Ref="#PWR?"  Part="1" 
AR Path="/5E4999E7/5DF22A06" Ref="#PWR?"  Part="1" 
AR Path="/5DE724A4/5DF22A06" Ref="#PWR0227"  Part="1" 
F 0 "#PWR0227" H 3300 1400 50  0001 C CNN
F 1 "VCC" H 3300 1700 50  0000 C CNN
F 2 "" H 3300 1550 50  0001 C CNN
F 3 "" H 3300 1550 50  0001 C CNN
	1    3300 1550
	1    0    0    -1  
$EndComp
$Comp
L power:VCC #PWR?
U 1 1 5E2FC0F6
P 3650 6450
AR Path="/5E2FC0F6" Ref="#PWR?"  Part="1" 
AR Path="/5E4999E7/5E2FC0F6" Ref="#PWR?"  Part="1" 
AR Path="/5DE724A4/5E2FC0F6" Ref="#PWR0232"  Part="1" 
F 0 "#PWR0232" H 3650 6300 50  0001 C CNN
F 1 "VCC" H 3650 6600 50  0000 C CNN
F 2 "" H 3650 6450 50  0001 C CNN
F 3 "" H 3650 6450 50  0001 C CNN
	1    3650 6450
	1    0    0    -1  
$EndComp
$Comp
L power:VCC #PWR?
U 1 1 5DE95182
P 5850 4400
AR Path="/5DE95182" Ref="#PWR?"  Part="1" 
AR Path="/5E4999E7/5DE95182" Ref="#PWR?"  Part="1" 
AR Path="/5DE724A4/5DE95182" Ref="#PWR0220"  Part="1" 
F 0 "#PWR0220" H 5850 4250 50  0001 C CNN
F 1 "VCC" H 5950 4500 50  0000 C CNN
F 2 "" H 5850 4400 50  0001 C CNN
F 3 "" H 5850 4400 50  0001 C CNN
	1    5850 4400
	1    0    0    -1  
$EndComp
$Comp
L power:VCC #PWR?
U 1 1 5DEA06D5
P 5900 3550
AR Path="/5DEA06D5" Ref="#PWR?"  Part="1" 
AR Path="/5E4999E7/5DEA06D5" Ref="#PWR?"  Part="1" 
AR Path="/5DE724A4/5DEA06D5" Ref="#PWR0226"  Part="1" 
F 0 "#PWR0226" H 5900 3400 50  0001 C CNN
F 1 "VCC" H 5800 3650 50  0000 C CNN
F 2 "" H 5900 3550 50  0001 C CNN
F 3 "" H 5900 3550 50  0001 C CNN
	1    5900 3550
	1    0    0    -1  
$EndComp
$Comp
L power:VCC #PWR?
U 1 1 5DEA06CF
P 6150 2950
AR Path="/5DEA06CF" Ref="#PWR?"  Part="1" 
AR Path="/5E4999E7/5DEA06CF" Ref="#PWR?"  Part="1" 
AR Path="/5DE724A4/5DEA06CF" Ref="#PWR0225"  Part="1" 
F 0 "#PWR0225" H 6150 2800 50  0001 C CNN
F 1 "VCC" H 6150 3100 50  0000 C CNN
F 2 "" H 6150 2950 50  0001 C CNN
F 3 "" H 6150 2950 50  0001 C CNN
	1    6150 2950
	1    0    0    -1  
$EndComp
$Comp
L power:VCC #PWR?
U 1 1 5EFC38F0
P 6700 4150
AR Path="/5EFC38F0" Ref="#PWR?"  Part="1" 
AR Path="/5E4999E7/5EFC38F0" Ref="#PWR?"  Part="1" 
AR Path="/5DE724A4/5EFC38F0" Ref="#PWR0157"  Part="1" 
F 0 "#PWR0157" H 6700 4000 50  0001 C CNN
F 1 "VCC" H 6800 4250 50  0000 C CNN
F 2 "" H 6700 4150 50  0001 C CNN
F 3 "" H 6700 4150 50  0001 C CNN
	1    6700 4150
	1    0    0    -1  
$EndComp
$Comp
L power:VCC #PWR?
U 1 1 5DEA06C9
P 6850 2750
AR Path="/5DEA06C9" Ref="#PWR?"  Part="1" 
AR Path="/5E4999E7/5DEA06C9" Ref="#PWR?"  Part="1" 
AR Path="/5DE724A4/5DEA06C9" Ref="#PWR0224"  Part="1" 
F 0 "#PWR0224" H 6850 2600 50  0001 C CNN
F 1 "VCC" H 6750 2850 50  0000 C CNN
F 2 "" H 6850 2750 50  0001 C CNN
F 3 "" H 6850 2750 50  0001 C CNN
	1    6850 2750
	1    0    0    -1  
$EndComp
$Comp
L power:VCC #PWR?
U 1 1 5DEA06C3
P 7100 2150
AR Path="/5DEA06C3" Ref="#PWR?"  Part="1" 
AR Path="/5E4999E7/5DEA06C3" Ref="#PWR?"  Part="1" 
AR Path="/5DE724A4/5DEA06C3" Ref="#PWR0223"  Part="1" 
F 0 "#PWR0223" H 7100 2000 50  0001 C CNN
F 1 "VCC" H 7100 2300 50  0000 C CNN
F 2 "" H 7100 2150 50  0001 C CNN
F 3 "" H 7100 2150 50  0001 C CNN
	1    7100 2150
	1    0    0    -1  
$EndComp
$Comp
L power:GND #PWR?
U 1 1 5DEA0666
P 1350 4200
AR Path="/5DEA0666" Ref="#PWR?"  Part="1" 
AR Path="/5E4999E7/5DEA0666" Ref="#PWR?"  Part="1" 
AR Path="/5DE724A4/5DEA0666" Ref="#PWR0222"  Part="1" 
F 0 "#PWR0222" H 1350 3950 50  0001 C CNN
F 1 "GND" H 1355 4027 50  0001 C CNN
F 2 "" H 1350 4200 50  0001 C CNN
F 3 "" H 1350 4200 50  0001 C CNN
	1    1350 4200
	1    0    0    -1  
$EndComp
$Comp
L power:GND #PWR?
U 1 1 5E2FC5C8
P 3650 7450
AR Path="/5E2FC5C8" Ref="#PWR?"  Part="1" 
AR Path="/5E4999E7/5E2FC5C8" Ref="#PWR?"  Part="1" 
AR Path="/5DE724A4/5E2FC5C8" Ref="#PWR0233"  Part="1" 
F 0 "#PWR0233" H 3650 7200 50  0001 C CNN
F 1 "GND" H 3655 7277 50  0001 C CNN
F 2 "" H 3650 7450 50  0001 C CNN
F 3 "" H 3650 7450 50  0001 C CNN
	1    3650 7450
	1    0    0    -1  
$EndComp
$Comp
L power:GND #PWR?
U 1 1 5DF2416E
P 4000 5950
AR Path="/5DF2416E" Ref="#PWR?"  Part="1" 
AR Path="/5E4999E7/5DF2416E" Ref="#PWR?"  Part="1" 
AR Path="/5DE724A4/5DF2416E" Ref="#PWR0228"  Part="1" 
F 0 "#PWR0228" H 4000 5700 50  0001 C CNN
F 1 "GND" H 4005 5777 50  0001 C CNN
F 2 "" H 4000 5950 50  0001 C CNN
F 3 "" H 4000 5950 50  0001 C CNN
	1    4000 5950
	1    0    0    -1  
$EndComp
$Comp
L power:GND #PWR?
U 1 1 5DF4803C
P 4850 2850
AR Path="/5DF4803C" Ref="#PWR?"  Part="1" 
AR Path="/5E4999E7/5DF4803C" Ref="#PWR?"  Part="1" 
AR Path="/5DE724A4/5DF4803C" Ref="#PWR0229"  Part="1" 
F 0 "#PWR0229" H 4850 2600 50  0001 C CNN
F 1 "GND" H 4855 2677 50  0001 C CNN
F 2 "" H 4850 2850 50  0001 C CNN
F 3 "" H 4850 2850 50  0001 C CNN
	1    4850 2850
	1    0    0    -1  
$EndComp
$Comp
L power:GND #PWR?
U 1 1 5E0709C5
P 4850 3400
AR Path="/5E0709C5" Ref="#PWR?"  Part="1" 
AR Path="/5E4999E7/5E0709C5" Ref="#PWR?"  Part="1" 
AR Path="/5DE724A4/5E0709C5" Ref="#PWR0230"  Part="1" 
F 0 "#PWR0230" H 4850 3150 50  0001 C CNN
F 1 "GND" H 4855 3227 50  0001 C CNN
F 2 "" H 4850 3400 50  0001 C CNN
F 3 "" H 4850 3400 50  0001 C CNN
	1    4850 3400
	1    0    0    -1  
$EndComp
$Comp
L power:GND #PWR?
U 1 1 5E19CF1A
P 4850 4550
AR Path="/5E19CF1A" Ref="#PWR?"  Part="1" 
AR Path="/5E4999E7/5E19CF1A" Ref="#PWR?"  Part="1" 
AR Path="/5DE724A4/5E19CF1A" Ref="#PWR0231"  Part="1" 
F 0 "#PWR0231" H 4850 4300 50  0001 C CNN
F 1 "GND" H 4855 4377 50  0001 C CNN
F 2 "" H 4850 4550 50  0001 C CNN
F 3 "" H 4850 4550 50  0001 C CNN
	1    4850 4550
	1    0    0    -1  
$EndComp
$Comp
L Device:Ferrite_Bead_Small FB?
U 1 1 5DEA0670
P 1550 3700
AR Path="/5DEA0670" Ref="FB?"  Part="1" 
AR Path="/5DE724A4/5DEA0670" Ref="FB33"  Part="1" 
F 0 "FB33" V 1405 3700 50  0000 C CNN
F 1 "Ferrite_Bead_Small" V 1404 3700 50  0001 C CNN
F 2 "" V 1480 3700 50  0001 C CNN
F 3 "~" H 1550 3700 50  0001 C CNN
	1    1550 3700
	0    1    1    0   
$EndComp
$Comp
L Device:Ferrite_Bead_Small FB?
U 1 1 5DEA0688
P 5150 2450
AR Path="/5DEA0688" Ref="FB?"  Part="1" 
AR Path="/5DE724A4/5DEA0688" Ref="FB32"  Part="1" 
F 0 "FB32" V 5300 2450 50  0000 C CNN
F 1 "Ferrite_Bead_Small" V 5004 2450 50  0001 C CNN
F 2 "" V 5080 2450 50  0001 C CNN
F 3 "~" H 5150 2450 50  0001 C CNN
	1    5150 2450
	0    1    1    0   
$EndComp
$Comp
L Device:Ferrite_Bead_Small FB?
U 1 1 5DEA068E
P 5950 2450
AR Path="/5DEA068E" Ref="FB?"  Part="1" 
AR Path="/5DE724A4/5DEA068E" Ref="FB34"  Part="1" 
F 0 "FB34" V 5805 2450 50  0000 C CNN
F 1 "Ferrite_Bead_Small" V 5804 2450 50  0001 C CNN
F 2 "" V 5880 2450 50  0001 C CNN
F 3 "~" H 5950 2450 50  0001 C CNN
	1    5950 2450
	0    1    1    0   
$EndComp
$Comp
L 74xx:74LS04 U?
U 6 1 5DEA0676
P 1950 3700
AR Path="/5DEA0676" Ref="U?"  Part="6" 
AR Path="/5DE724A4/5DEA0676" Ref="UP6"  Part="6" 
F 0 "UP6" H 1950 4017 50  0000 C CNN
F 1 "F04" H 1950 3926 50  0000 C CNN
F 2 "" H 1950 3700 50  0001 C CNN
F 3 "http://www.ti.com/lit/gpn/sn74LS04" H 1950 3700 50  0001 C CNN
	6    1950 3700
	1    0    0    -1  
$EndComp
$Comp
L 74xx:74LS04 U?
U 5 1 5DEA0694
P 5350 3250
AR Path="/5DEA0694" Ref="U?"  Part="5" 
AR Path="/5DE724A4/5DEA0694" Ref="UP6"  Part="5" 
F 0 "UP6" H 5350 3450 50  0000 C CNN
F 1 "F04" H 5350 3050 50  0000 C CNN
F 2 "" H 5350 3250 50  0001 C CNN
F 3 "http://www.ti.com/lit/gpn/sn74LS04" H 5350 3250 50  0001 C CNN
	5    5350 3250
	1    0    0    -1  
$EndComp
$Comp
L 74xx:74LS04 U?
U 4 1 5DEA0682
P 5550 2450
AR Path="/5DEA0682" Ref="U?"  Part="4" 
AR Path="/5DE724A4/5DEA0682" Ref="UP6"  Part="4" 
F 0 "UP6" H 5550 2150 50  0000 C CNN
F 1 "F04" H 5550 2250 50  0000 C CNN
F 2 "" H 5550 2450 50  0001 C CNN
F 3 "http://www.ti.com/lit/gpn/sn74LS04" H 5550 2450 50  0001 C CNN
	4    5550 2450
	1    0    0    -1  
$EndComp
$Comp
L 74xx:74LS04 U?
U 3 1 5DE95160
P 8850 4600
AR Path="/5DE95160" Ref="U?"  Part="3" 
AR Path="/5DE724A4/5DE95160" Ref="UP6"  Part="3" 
F 0 "UP6" H 8850 4917 50  0000 C CNN
F 1 "F04" H 8850 4826 50  0000 C CNN
F 2 "" H 8850 4600 50  0001 C CNN
F 3 "http://www.ti.com/lit/gpn/sn74LS04" H 8850 4600 50  0001 C CNN
	3    8850 4600
	1    0    0    -1  
$EndComp
$Comp
L 74xx:74LS32 U?
U 3 1 5DE9516D
P 8250 4050
AR Path="/5DE9516D" Ref="U?"  Part="3" 
AR Path="/5DE724A4/5DE9516D" Ref="US6"  Part="3" 
F 0 "US6" H 8250 3733 50  0000 C CNN
F 1 "F32" H 8250 3824 50  0000 C CNN
F 2 "" H 8250 4050 50  0001 C CNN
F 3 "http://www.ti.com/lit/gpn/sn74LS32" H 8250 4050 50  0001 C CNN
	3    8250 4050
	1    0    0    1   
$EndComp
$Comp
L 74xx:74LS32 U?
U 1 1 5DE95167
P 8250 4600
AR Path="/5DE95167" Ref="U?"  Part="1" 
AR Path="/5DE724A4/5DE95167" Ref="US6"  Part="1" 
F 0 "US6" H 8250 4925 50  0000 C CNN
F 1 "F32" H 8250 4834 50  0000 C CNN
F 2 "" H 8250 4600 50  0001 C CNN
F 3 "http://www.ti.com/lit/gpn/sn74LS32" H 8250 4600 50  0001 C CNN
	1    8250 4600
	1    0    0    -1  
$EndComp
$Comp
L 74xx:74LS32 U?
U 4 1 5DE9519B
P 8250 5150
AR Path="/5DE9519B" Ref="U?"  Part="4" 
AR Path="/5DE724A4/5DE9519B" Ref="US6"  Part="4" 
F 0 "US6" H 8250 4833 50  0000 C CNN
F 1 "F32" H 8250 4924 50  0000 C CNN
F 2 "" H 8250 5150 50  0001 C CNN
F 3 "http://www.ti.com/lit/gpn/sn74LS32" H 8250 5150 50  0001 C CNN
	4    8250 5150
	1    0    0    1   
$EndComp
$Comp
L 74xx:74LS74 U?
U 3 1 5DEA4E2F
P 3300 6950
AR Path="/5DEA4E2F" Ref="U?"  Part="3" 
AR Path="/5DE724A4/5DEA4E2F" Ref="UR6"  Part="3" 
F 0 "UR6" H 3530 6996 50  0000 L CNN
F 1 "F74" H 3530 6905 50  0000 L CNN
F 2 "" H 3300 6950 50  0001 C CNN
F 3 "74xx/74hc_hct74.pdf" H 3300 6950 50  0001 C CNN
	3    3300 6950
	1    0    0    -1  
$EndComp
$Comp
L 74xx:74LS74 U?
U 3 1 5DEA06AC
P 4000 6950
AR Path="/5DEA06AC" Ref="U?"  Part="3" 
AR Path="/5DE724A4/5DEA06AC" Ref="UM8"  Part="3" 
F 0 "UM8" H 4230 6996 50  0000 L CNN
F 1 "74LS74" H 4230 6905 50  0000 L CNN
F 2 "" H 4000 6950 50  0001 C CNN
F 3 "74xx/74hc_hct74.pdf" H 4000 6950 50  0001 C CNN
	3    4000 6950
	1    0    0    -1  
$EndComp
$Comp
L CPS2-Custom:MCO8100 U?
U 1 1 5DEA0655
P 1050 3850
AR Path="/5DEA0655" Ref="U?"  Part="1" 
AR Path="/5E4999E7/5DEA0655" Ref="U?"  Part="1" 
AR Path="/5DE724A4/5DEA0655" Ref="UN6"  Part="1" 
F 0 "UN6" H 1050 4100 50  0000 C CNN
F 1 "60MHz" H 1050 3600 50  0000 C CNN
F 2 "" V 1200 3900 50  0001 C CNN
F 3 "" V 1200 3900 50  0001 C CNN
	1    1050 3850
	1    0    0    -1  
$EndComp
$Comp
L 74xx:74LS74 U?
U 1 1 5DEA06B2
P 6150 3250
AR Path="/5DEA06B2" Ref="U?"  Part="1" 
AR Path="/5DE724A4/5DEA06B2" Ref="UM8"  Part="1" 
F 0 "UM8" H 6300 3500 50  0000 C CNN
F 1 "74LS74" H 6300 3000 50  0000 C CNN
F 2 "" H 6150 3250 50  0001 C CNN
F 3 "74xx/74hc_hct74.pdf" H 6150 3250 50  0001 C CNN
	1    6150 3250
	1    0    0    -1  
$EndComp
$Comp
L 74xx:74LS74 U?
U 1 1 5DE95176
P 6150 4700
AR Path="/5DE95176" Ref="U?"  Part="1" 
AR Path="/5DE724A4/5DE95176" Ref="UR6"  Part="1" 
F 0 "UR6" H 6250 4950 50  0000 C CNN
F 1 "F74" H 6250 4450 50  0000 C CNN
F 2 "" H 6150 4700 50  0001 C CNN
F 3 "74xx/74hc_hct74.pdf" H 6150 4700 50  0001 C CNN
	1    6150 4700
	1    0    0    -1  
$EndComp
$Comp
L 74xx:74LS74 U?
U 2 1 5DE9517C
P 7000 4400
AR Path="/5DE9517C" Ref="U?"  Part="2" 
AR Path="/5DE724A4/5DE9517C" Ref="UR6"  Part="2" 
F 0 "UR6" H 7100 4650 50  0000 C CNN
F 1 "F74" H 7100 4150 50  0000 C CNN
F 2 "" H 7000 4400 50  0001 C CNN
F 3 "74xx/74hc_hct74.pdf" H 7000 4400 50  0001 C CNN
	2    7000 4400
	1    0    0    -1  
$EndComp
$Comp
L 74xx:74LS74 U?
U 2 1 5DEA06B8
P 7100 2450
AR Path="/5DEA06B8" Ref="U?"  Part="2" 
AR Path="/5DE724A4/5DEA06B8" Ref="UM8"  Part="2" 
F 0 "UM8" H 7250 2700 50  0000 C CNN
F 1 "74LS74" H 7250 2200 50  0000 C CNN
F 2 "" H 7100 2450 50  0001 C CNN
F 3 "74xx/74hc_hct74.pdf" H 7100 2450 50  0001 C CNN
	2    7100 2450
	1    0    0    -1  
$EndComp
$Comp
L 74xx:74LS32 U?
U 5 1 5DEA4E29
P 2650 6950
AR Path="/5DEA4E29" Ref="U?"  Part="5" 
AR Path="/5DE724A4/5DEA4E29" Ref="US6"  Part="5" 
F 0 "US6" H 2880 6996 50  0000 L CNN
F 1 "F32" H 2880 6905 50  0000 L CNN
F 2 "" H 2650 6950 50  0001 C CNN
F 3 "http://www.ti.com/lit/gpn/sn74LS32" H 2650 6950 50  0001 C CNN
	5    2650 6950
	1    0    0    -1  
$EndComp
$Comp
L 74xx:74LS04 U?
U 7 1 5DEA067C
P 4750 6950
AR Path="/5DEA067C" Ref="U?"  Part="7" 
AR Path="/5DE724A4/5DEA067C" Ref="UP6"  Part="7" 
F 0 "UP6" H 4980 6996 50  0000 L CNN
F 1 "F04" H 4980 6905 50  0000 L CNN
F 2 "" H 4750 6950 50  0001 C CNN
F 3 "http://www.ti.com/lit/gpn/sn74LS04" H 4750 6950 50  0001 C CNN
	7    4750 6950
	1    0    0    -1  
$EndComp
$Comp
L CPS2-Custom:DL-1425 UP4
U 1 1 5DE75A51
P 3650 3750
F 0 "UP4" H 3650 3850 150 0000 C CNN
F 1 "DL-1425" H 3650 3550 150 0000 C CNN
F 2 "" H 2500 5000 50  0001 C CNN
F 3 "" H 2500 5000 50  0001 C CNN
	1    3650 3750
	1    0    0    -1  
$EndComp
$EndSCHEMATC
