EESchema Schematic File Version 5
EELAYER 33 0
EELAYER END
$Descr A4 11693 8268
encoding utf-8
Sheet 9 22
Title ""
Date "2019-11-23"
Rev ""
Comp ""
Comment1 "Licence: CC-BY"
Comment2 "Author: Loïc *WydD* Petit"
Comment3 ""
Comment4 ""
Comment5 ""
Comment6 ""
Comment7 ""
Comment8 ""
Comment9 ""
$EndDescr
Connection ~ 5100 1100
Connection ~ 5100 2100
Connection ~ 5100 2500
Connection ~ 4450 2100
Connection ~ 4450 1500
Connection ~ 5450 1500
Connection ~ 5100 1500
Connection ~ 5450 2100
Connection ~ 3850 1800
Connection ~ 3500 1400
Connection ~ 3500 2200
Connection ~ 9300 4300
Connection ~ 10000 4200
Connection ~ 9050 3750
Connection ~ 7650 3750
Connection ~ 8600 4400
Connection ~ 7900 4300
Connection ~ 7200 4300
Connection ~ 10250 3750
Connection ~ 10850 3750
Connection ~ 7050 2550
Connection ~ 6950 3750
Connection ~ 6450 3000
Connection ~ 6950 3450
Connection ~ 9750 3750
Connection ~ 10250 3000
Connection ~ 9750 3450
Connection ~ 6050 2100
Connection ~ 6050 1500
Connection ~ 6300 4200
Connection ~ 2850 7100
Connection ~ 800  6800
Connection ~ 800  7100
Connection ~ 3500 1000
Connection ~ 4450 1000
Connection ~ 3500 2600
Connection ~ 4450 2600
Connection ~ 2250 4900
Connection ~ 2450 5500
Connection ~ 4050 5850
Connection ~ 3700 5200
Connection ~ 3450 4400
Connection ~ 3100 4700
Connection ~ 3100 4400
Connection ~ 3900 3450
Connection ~ 4150 3450
Connection ~ 5400 6800
Connection ~ 5800 6800
Connection ~ 6200 6800
Connection ~ 2250 3450
Connection ~ 3100 3450
Connection ~ 2450 3450
Connection ~ 2800 4900
Connection ~ 3000 5500
Connection ~ 7250 5250
Connection ~ 3150 7400
Connection ~ 3650 7400
Connection ~ 3150 7100
Connection ~ 4150 7400
Connection ~ 4150 7100
Connection ~ 1150 7100
Connection ~ 1150 7400
Connection ~ 1650 7400
Connection ~ 2150 7400
Connection ~ 2150 7100
Connection ~ 4550 7100
Connection ~ 4550 6800
Connection ~ 5000 6800
Connection ~ 6200 6500
Connection ~ 2500 7100
Connection ~ 8200 2250
Connection ~ 5800 6500
Connection ~ 8500 2550
Connection ~ 8550 1850
Connection ~ 5400 6500
Connection ~ 4450 3450
Connection ~ 1150 6800
Connection ~ 9650 2550
NoConn ~ 4100 4900
NoConn ~ 4100 5000
NoConn ~ 4100 5100
NoConn ~ 4800 4750
NoConn ~ 4800 4850
NoConn ~ 4800 4950
NoConn ~ 4800 5050
NoConn ~ 4800 5150
NoConn ~ 4800 5250
NoConn ~ 4800 5350
Wire Wire Line
	800  6800 800  7100
Wire Wire Line
	800  7100 900  7100
Wire Wire Line
	800  7150 800  7100
Wire Wire Line
	800  7350 800  7400
Wire Wire Line
	800  7400 1150 7400
Wire Wire Line
	900  6800 800  6800
Wire Wire Line
	1100 6800 1150 6800
Wire Wire Line
	1100 7100 1150 7100
Wire Wire Line
	1150 6800 1150 7100
Wire Wire Line
	1150 7100 1150 7150
Wire Wire Line
	1150 7100 1350 7100
Wire Wire Line
	1150 7350 1150 7400
Wire Wire Line
	1150 7400 1650 7400
Wire Wire Line
	1650 4900 1750 4900
Wire Wire Line
	1650 5500 1750 5500
Wire Wire Line
	1650 7400 2150 7400
Wire Wire Line
	1950 5500 2450 5500
Wire Wire Line
	1950 7100 2150 7100
Wire Wire Line
	2100 3450 2250 3450
Wire Wire Line
	2150 6650 2500 6650
Wire Wire Line
	2150 7100 2150 7150
Wire Wire Line
	2150 7100 2500 7100
Wire Wire Line
	2150 7350 2150 7400
Wire Wire Line
	2150 7400 2500 7400
Wire Wire Line
	2250 3450 2250 4600
Wire Wire Line
	2250 3450 2450 3450
Wire Wire Line
	2250 4800 2250 4900
Wire Wire Line
	2250 4900 1950 4900
Wire Wire Line
	2250 4900 2800 4900
Wire Wire Line
	2250 5000 2250 4900
Wire Wire Line
	2450 3450 2450 5200
Wire Wire Line
	2450 3450 3100 3450
Wire Wire Line
	2450 5400 2450 5500
Wire Wire Line
	2450 5500 2450 5550
Wire Wire Line
	2450 5500 3000 5500
Wire Wire Line
	2500 1700 2600 1700
Wire Wire Line
	2500 1800 2600 1800
Wire Wire Line
	2500 1900 2600 1900
Wire Wire Line
	2500 6650 2500 7100
Wire Wire Line
	2500 7150 2500 7100
Wire Wire Line
	2500 7350 2500 7400
Wire Wire Line
	2800 4900 2800 5000
Wire Wire Line
	2800 4900 3400 4900
Wire Wire Line
	2850 7100 2950 7100
Wire Wire Line
	2850 7150 2850 7100
Wire Wire Line
	2850 7350 2850 7400
Wire Wire Line
	2850 7400 3150 7400
Wire Wire Line
	2900 1250 3050 1250
Wire Wire Line
	3000 5500 3000 5550
Wire Wire Line
	3000 5500 3400 5500
Wire Wire Line
	3050 1000 3050 950 
Wire Wire Line
	3050 1200 3050 1250
Wire Wire Line
	3050 1250 3050 1500
Wire Wire Line
	3100 3450 3100 4150
Wire Wire Line
	3100 4400 3100 4350
Wire Wire Line
	3100 4400 3450 4400
Wire Wire Line
	3100 4450 3100 4400
Wire Wire Line
	3100 4700 3100 4650
Wire Wire Line
	3150 7100 3150 7150
Wire Wire Line
	3150 7350 3150 7400
Wire Wire Line
	3150 7400 3650 7400
Wire Wire Line
	3350 7100 3150 7100
Wire Wire Line
	3450 4400 4100 4400
Wire Wire Line
	3450 4450 3450 4400
Wire Wire Line
	3450 4650 3450 4700
Wire Wire Line
	3450 4700 3100 4700
Wire Wire Line
	3500 750  3500 1000
Wire Wire Line
	3500 750  3850 750 
Wire Wire Line
	3500 1000 3500 1400
Wire Wire Line
	3500 1000 3850 1000
Wire Wire Line
	3500 1400 3500 1700
Wire Wire Line
	3500 1400 3850 1400
Wire Wire Line
	3500 1800 3850 1800
Wire Wire Line
	3500 1900 3500 2200
Wire Wire Line
	3500 2200 3500 2600
Wire Wire Line
	3500 2200 3850 2200
Wire Wire Line
	3500 2600 3500 2850
Wire Wire Line
	3500 2600 3850 2600
Wire Wire Line
	3500 2850 3850 2850
Wire Wire Line
	3550 3450 3100 3450
Wire Wire Line
	3650 7400 4150 7400
Wire Wire Line
	3700 4700 4100 4700
Wire Wire Line
	3700 5100 3700 5200
Wire Wire Line
	3700 5200 3700 5300
Wire Wire Line
	3700 5200 4100 5200
Wire Wire Line
	3700 5700 3950 5700
Wire Wire Line
	3700 5850 4050 5850
Wire Wire Line
	3700 5900 3700 5850
Wire Wire Line
	3850 1600 3850 1800
Wire Wire Line
	3850 1800 3850 2000
Wire Wire Line
	3900 3450 3750 3450
Wire Wire Line
	3900 3450 4150 3450
Wire Wire Line
	3900 3500 3900 3450
Wire Wire Line
	3900 3750 3900 3700
Wire Wire Line
	3950 4600 3950 5700
Wire Wire Line
	3950 7100 4150 7100
Wire Wire Line
	4050 5350 4050 5850
Wire Wire Line
	4050 5350 4100 5350
Wire Wire Line
	4050 5900 4050 5850
Wire Wire Line
	4100 4600 3950 4600
Wire Wire Line
	4150 750  4450 750 
Wire Wire Line
	4150 1000 4450 1000
Wire Wire Line
	4150 2600 4450 2600
Wire Wire Line
	4150 3450 4450 3450
Wire Wire Line
	4150 3500 4150 3450
Wire Wire Line
	4150 3750 4150 3700
Wire Wire Line
	4150 7100 4150 7150
Wire Wire Line
	4150 7100 4550 7100
Wire Wire Line
	4150 7350 4150 7400
Wire Wire Line
	4150 7400 4550 7400
Wire Wire Line
	4400 6650 4550 6650
Wire Wire Line
	4450 750  4450 1000
Wire Wire Line
	4450 1000 4450 1500
Wire Wire Line
	4450 2100 4450 2600
Wire Wire Line
	4450 2600 4450 2850
Wire Wire Line
	4450 2850 4150 2850
Wire Wire Line
	4450 3450 4900 3450
Wire Wire Line
	4450 4100 4450 3450
Wire Wire Line
	4550 1500 4450 1500
Wire Wire Line
	4550 2100 4450 2100
Wire Wire Line
	4550 6650 4550 6800
Wire Wire Line
	4550 6800 4550 7100
Wire Wire Line
	4550 6800 5000 6800
Wire Wire Line
	4550 7100 4550 7150
Wire Wire Line
	4550 7350 4550 7400
Wire Wire Line
	4850 1500 5100 1500
Wire Wire Line
	4850 2100 5100 2100
Wire Wire Line
	4900 3450 4900 3500
Wire Wire Line
	5000 6500 5400 6500
Wire Wire Line
	5000 6550 5000 6500
Wire Wire Line
	5000 6750 5000 6800
Wire Wire Line
	5100 1100 5450 1100
Wire Wire Line
	5100 1150 5100 1100
Wire Wire Line
	5100 1450 5100 1500
Wire Wire Line
	5100 2150 5100 2100
Wire Wire Line
	5100 2450 5100 2500
Wire Wire Line
	5100 2500 5450 2500
Wire Wire Line
	5150 4400 4800 4400
Wire Wire Line
	5150 4500 4800 4500
Wire Wire Line
	5150 4600 4800 4600
Wire Wire Line
	5400 1500 5450 1500
Wire Wire Line
	5400 2100 5450 2100
Wire Wire Line
	5400 6500 5800 6500
Wire Wire Line
	5400 6550 5400 6500
Wire Wire Line
	5400 6750 5400 6800
Wire Wire Line
	5400 6800 5000 6800
Wire Wire Line
	5450 1300 5450 1500
Wire Wire Line
	5450 1500 6050 1500
Wire Wire Line
	5450 2100 6050 2100
Wire Wire Line
	5450 2300 5450 2100
Wire Wire Line
	5800 6500 6200 6500
Wire Wire Line
	5800 6550 5800 6500
Wire Wire Line
	5800 6750 5800 6800
Wire Wire Line
	5800 6800 5400 6800
Wire Wire Line
	6050 1200 6050 1500
Wire Wire Line
	6050 1500 10050 1500
Wire Wire Line
	6050 2100 6050 2400
Wire Wire Line
	6050 2100 7050 2100
Wire Wire Line
	6200 6500 6800 6500
Wire Wire Line
	6200 6550 6200 6500
Wire Wire Line
	6200 6750 6200 6800
Wire Wire Line
	6200 6800 5800 6800
Wire Wire Line
	6300 3450 6300 4200
Wire Wire Line
	6300 3450 6950 3450
Wire Wire Line
	6300 5150 6300 4200
Wire Wire Line
	6300 5150 6650 5150
Wire Wire Line
	6450 2250 7050 2250
Wire Wire Line
	6450 2450 6450 2250
Wire Wire Line
	6450 2650 6450 3000
Wire Wire Line
	6450 3000 7050 3000
Wire Wire Line
	6450 3300 6450 3750
Wire Wire Line
	6450 3750 6950 3750
Wire Wire Line
	6600 4200 6300 4200
Wire Wire Line
	6600 4400 6600 4600
Wire Wire Line
	6600 4600 7200 4600
Wire Wire Line
	6600 6800 6200 6800
Wire Wire Line
	6650 5350 6650 5550
Wire Wire Line
	6650 5550 7250 5550
Wire Wire Line
	6950 3450 7050 3450
Wire Wire Line
	6950 3750 7650 3750
Wire Wire Line
	7050 2250 7050 2550
Wire Wire Line
	7200 4300 7200 4600
Wire Wire Line
	7250 5250 7250 5550
Wire Wire Line
	7250 5250 7650 5250
Wire Wire Line
	7350 2100 7650 2100
Wire Wire Line
	7350 2550 7550 2550
Wire Wire Line
	7350 3000 7650 3000
Wire Wire Line
	7350 3450 7550 3450
Wire Wire Line
	7550 2550 7550 2900
Wire Wire Line
	7550 2900 7650 2900
Wire Wire Line
	7550 3100 7550 3450
Wire Wire Line
	7550 3100 7650 3100
Wire Wire Line
	7650 2100 7650 2800
Wire Wire Line
	7650 3200 7650 3750
Wire Wire Line
	7650 3750 9050 3750
Wire Wire Line
	7800 4300 7900 4300
Wire Wire Line
	7850 3550 8350 3550
Wire Wire Line
	7850 3650 8500 3650
Wire Wire Line
	7900 4300 8050 4300
Wire Wire Line
	7900 4400 7900 4300
Wire Wire Line
	8150 2250 8200 2250
Wire Wire Line
	8200 1850 8200 1900
Wire Wire Line
	8200 2100 8200 2250
Wire Wire Line
	8200 2250 8200 2550
Wire Wire Line
	8200 2250 8550 2250
Wire Wire Line
	8200 3400 8200 3450
Wire Wire Line
	8200 3450 7850 3450
Wire Wire Line
	8350 2550 8500 2550
Wire Wire Line
	8350 3550 8350 3400
Wire Wire Line
	8450 4400 8600 4400
Wire Wire Line
	8500 3650 8500 3400
Wire Wire Line
	8550 1850 8200 1850
Wire Wire Line
	8550 1900 8550 1850
Wire Wire Line
	8550 2100 8550 2250
Wire Wire Line
	8600 4400 8600 4300
Wire Wire Line
	8700 4300 8600 4300
Wire Wire Line
	9050 2800 9050 2100
Wire Wire Line
	9050 3200 9050 3750
Wire Wire Line
	9050 3750 9750 3750
Wire Wire Line
	9150 2550 9150 2900
Wire Wire Line
	9150 2900 9050 2900
Wire Wire Line
	9150 3100 9050 3100
Wire Wire Line
	9150 3100 9150 3450
Wire Wire Line
	9300 4300 9300 4600
Wire Wire Line
	9350 2100 9050 2100
Wire Wire Line
	9350 2550 9150 2550
Wire Wire Line
	9350 3000 9050 3000
Wire Wire Line
	9350 3450 9150 3450
Wire Wire Line
	9650 2250 9650 2550
Wire Wire Line
	9750 3450 9650 3450
Wire Wire Line
	9750 3450 10000 3450
Wire Wire Line
	9900 4200 10000 4200
Wire Wire Line
	9900 4400 9900 4600
Wire Wire Line
	9900 4600 9300 4600
Wire Wire Line
	10000 3450 10000 4200
Wire Wire Line
	10000 4200 10000 4600
Wire Wire Line
	10000 4600 10250 4600
Wire Wire Line
	10050 1500 10050 2100
Wire Wire Line
	10050 2100 9650 2100
Wire Wire Line
	10250 2250 9650 2250
Wire Wire Line
	10250 2450 10250 2250
Wire Wire Line
	10250 2650 10250 3000
Wire Wire Line
	10250 3000 9650 3000
Wire Wire Line
	10250 3300 10250 3750
Wire Wire Line
	10250 3750 9750 3750
Wire Wire Line
	10250 3750 10850 3750
Wire Wire Line
	10250 4800 10250 5000
Wire Wire Line
	10250 5000 10850 5000
Wire Wire Line
	10800 2850 10850 2850
Wire Wire Line
	10850 2850 10850 3450
Wire Wire Line
	10850 4700 10850 5000
Wire Notes Line
	500  6350 500  7750
Wire Notes Line
	500  7750 6950 7750
Wire Notes Line
	6950 6350 500  6350
Wire Notes Line
	6950 6350 6950 7750
Text Notes 7000 6400 0    100  ~ 0
The TC9185P creates a serial signal from the buttons\nto the TC9176P which will control the preamp gain.\n\nThis serial signal will also be decoded and put\non the main bus externally.
Text Label 2150 7100 0    50   ~ 0
5VC
Text Label 2700 3450 0    50   ~ 0
5VC
Text Label 4800 4400 0    50   ~ 0
VOL-CLK
Text Label 4800 4500 0    50   ~ 0
VOL-DATA
Text Label 4800 4600 0    50   ~ 0
VOL-STB
Text Label 7850 3450 0    50   ~ 0
VOL-CLK
Text Label 7850 3550 0    50   ~ 0
VOL-DATA
Text Label 7850 3650 0    50   ~ 0
VOL-STB
Text GLabel 2100 3450 0    50   Input ~ 0
+5V-CONTROL
Text GLabel 2150 6650 0    50   Output ~ 0
+5V-CONTROL
Text GLabel 2900 1250 0    50   Input ~ 0
+5V-CONTROL
Text GLabel 4400 6650 0    50   Output ~ 0
+5V-AMP
Text GLabel 8150 2250 0    50   Input ~ 0
+5V-AMP
Text GLabel 10800 2850 0    50   Input ~ 0
+5V-AMP
Text HLabel 1650 4900 0    50   Input ~ 0
VOL-UP
Text HLabel 1650 5500 0    50   Input ~ 0
VOL-DOWN
Text HLabel 2500 1700 0    50   Input ~ 0
CLK
Text HLabel 2500 1800 0    50   Input ~ 0
CHANNEL
Text HLabel 2500 1900 0    50   Input ~ 0
DATA
Text HLabel 5150 4400 2    50   Output ~ 0
VOL-CLK
Text HLabel 5150 4500 2    50   Output ~ 0
VOL-DATA
Text HLabel 5150 4600 2    50   Output ~ 0
VOL-STB
Text HLabel 7650 5250 2    50   Output ~ 0
MONO
Text HLabel 8050 4300 2    50   Output ~ 0
LINE-L
Text HLabel 8450 4400 0    50   Output ~ 0
LINE-R
$Comp
L power:PWR_FLAG #FLG0105
U 1 1 5ED00A60
P 1150 6800
F 0 "#FLG0105" H 1150 6875 50  0001 C CNN
F 1 "PWR_FLAG" H 1150 6973 50  0001 C CNN
F 2 "" H 1150 6800 50  0001 C CNN
F 3 "~" H 1150 6800 50  0001 C CNN
	1    1150 6800
	1    0    0    -1  
$EndComp
$Comp
L power:PWR_FLAG #FLG0106
U 1 1 5ED4A93C
P 3150 7100
F 0 "#FLG0106" H 3150 7175 50  0001 C CNN
F 1 "PWR_FLAG" H 3150 7273 50  0001 C CNN
F 2 "" H 3150 7100 50  0001 C CNN
F 3 "~" H 3150 7100 50  0001 C CNN
	1    3150 7100
	1    0    0    -1  
$EndComp
$Comp
L power:PWR_FLAG #FLG0104
U 1 1 5ECB5D62
P 4450 3450
F 0 "#FLG0104" H 4450 3525 50  0001 C CNN
F 1 "PWR_FLAG" H 4450 3623 50  0000 C CNN
F 2 "" H 4450 3450 50  0001 C CNN
F 3 "~" H 4450 3450 50  0001 C CNN
	1    4450 3450
	1    0    0    -1  
$EndComp
$Comp
L power:+12V #PWR?
U 1 1 5DF16A73
P 800 6800
AR Path="/5DF16A73" Ref="#PWR?"  Part="1" 
AR Path="/5DDD7054/5DF16A73" Ref="#PWR0250"  Part="1" 
F 0 "#PWR0250" H 800 6650 50  0001 C CNN
F 1 "+12V" H 815 6973 50  0000 C CNN
F 2 "" H 800 6800 50  0001 C CNN
F 3 "" H 800 6800 50  0001 C CNN
	1    800  6800
	1    0    0    -1  
$EndComp
$Comp
L power:+12V #PWR?
U 1 1 5DE6D3A3
P 2850 7100
AR Path="/5DE6D3A3" Ref="#PWR?"  Part="1" 
AR Path="/5DDD7054/5DE6D3A3" Ref="#PWR0248"  Part="1" 
F 0 "#PWR0248" H 2850 6950 50  0001 C CNN
F 1 "+12V" H 2865 7273 50  0000 C CNN
F 2 "" H 2850 7100 50  0001 C CNN
F 3 "" H 2850 7100 50  0001 C CNN
	1    2850 7100
	1    0    0    -1  
$EndComp
$Comp
L power:GND #PWR?
U 1 1 5DEA0CD0
P 1650 7400
AR Path="/5DEA0CD0" Ref="#PWR?"  Part="1" 
AR Path="/5DDD7054/5DEA0CD0" Ref="#PWR0249"  Part="1" 
F 0 "#PWR0249" H 1650 7150 50  0001 C CNN
F 1 "GND" H 1655 7227 50  0000 C CNN
F 2 "" H 1650 7400 50  0001 C CNN
F 3 "" H 1650 7400 50  0001 C CNN
	1    1650 7400
	1    0    0    -1  
$EndComp
$Comp
L power:GND #PWR?
U 1 1 5E12EA24
P 2250 5200
AR Path="/5E12EA24" Ref="#PWR?"  Part="1" 
AR Path="/5DDD7054/5E12EA24" Ref="#PWR0251"  Part="1" 
F 0 "#PWR0251" H 2250 4950 50  0001 C CNN
F 1 "GND" H 2255 5027 50  0001 C CNN
F 2 "" H 2250 5200 50  0001 C CNN
F 3 "" H 2250 5200 50  0001 C CNN
	1    2250 5200
	1    0    0    -1  
$EndComp
$Comp
L power:GND #PWR?
U 1 1 5F03A327
P 2450 5750
AR Path="/5F03A327" Ref="#PWR?"  Part="1" 
AR Path="/5DDD7054/5F03A327" Ref="#PWR0259"  Part="1" 
F 0 "#PWR0259" H 2450 5500 50  0001 C CNN
F 1 "GND" H 2455 5577 50  0001 C CNN
F 2 "" H 2450 5750 50  0001 C CNN
F 3 "" H 2450 5750 50  0001 C CNN
	1    2450 5750
	1    0    0    -1  
$EndComp
$Comp
L power:GND #PWR?
U 1 1 5F039DCC
P 2800 5200
AR Path="/5F039DCC" Ref="#PWR?"  Part="1" 
AR Path="/5DDD7054/5F039DCC" Ref="#PWR0257"  Part="1" 
F 0 "#PWR0257" H 2800 4950 50  0001 C CNN
F 1 "GND" H 2805 5027 50  0001 C CNN
F 2 "" H 2800 5200 50  0001 C CNN
F 3 "" H 2800 5200 50  0001 C CNN
	1    2800 5200
	1    0    0    -1  
$EndComp
$Comp
L power:GND #PWR?
U 1 1 5F03A074
P 3000 5750
AR Path="/5F03A074" Ref="#PWR?"  Part="1" 
AR Path="/5DDD7054/5F03A074" Ref="#PWR0258"  Part="1" 
F 0 "#PWR0258" H 3000 5500 50  0001 C CNN
F 1 "GND" H 3005 5577 50  0001 C CNN
F 2 "" H 3000 5750 50  0001 C CNN
F 3 "" H 3000 5750 50  0001 C CNN
	1    3000 5750
	1    0    0    -1  
$EndComp
$Comp
L power:GND #PWR02
U 1 1 5E6FA531
P 3050 950
F 0 "#PWR02" H 3050 700 50  0001 C CNN
F 1 "GND" H 3055 777 50  0000 C CNN
F 2 "" H 3050 950 50  0001 C CNN
F 3 "" H 3050 950 50  0001 C CNN
	1    3050 950 
	-1   0    0    1   
$EndComp
$Comp
L power:GND #PWR0256
U 1 1 5ED1E94C
P 3050 2100
F 0 "#PWR0256" H 3050 1850 50  0001 C CNN
F 1 "GND" H 3055 1927 50  0001 C CNN
F 2 "" H 3050 2100 50  0001 C CNN
F 3 "" H 3050 2100 50  0001 C CNN
	1    3050 2100
	-1   0    0    -1  
$EndComp
$Comp
L power:GND #PWR0252
U 1 1 5E180BA6
P 3100 4700
F 0 "#PWR0252" H 3100 4450 50  0001 C CNN
F 1 "GND" H 3105 4527 50  0001 C CNN
F 2 "" H 3100 4700 50  0001 C CNN
F 3 "" H 3100 4700 50  0001 C CNN
	1    3100 4700
	-1   0    0    -1  
$EndComp
$Comp
L power:GND #PWR?
U 1 1 5DE570D0
P 3650 7400
AR Path="/5DE570D0" Ref="#PWR?"  Part="1" 
AR Path="/5DDD7054/5DE570D0" Ref="#PWR0247"  Part="1" 
F 0 "#PWR0247" H 3650 7150 50  0001 C CNN
F 1 "GND" H 3655 7227 50  0000 C CNN
F 2 "" H 3650 7400 50  0001 C CNN
F 3 "" H 3650 7400 50  0001 C CNN
	1    3650 7400
	1    0    0    -1  
$EndComp
$Comp
L power:GND #PWR?
U 1 1 5F04B216
P 3700 6100
AR Path="/5F04B216" Ref="#PWR?"  Part="1" 
AR Path="/5DDD7054/5F04B216" Ref="#PWR0260"  Part="1" 
F 0 "#PWR0260" H 3700 5850 50  0001 C CNN
F 1 "GND" H 3705 5927 50  0001 C CNN
F 2 "" H 3700 6100 50  0001 C CNN
F 3 "" H 3700 6100 50  0001 C CNN
	1    3700 6100
	1    0    0    -1  
$EndComp
$Comp
L power:GND #PWR0254
U 1 1 5E9C4C63
P 3900 3750
F 0 "#PWR0254" H 3900 3500 50  0001 C CNN
F 1 "GND" H 3905 3577 50  0001 C CNN
F 2 "" H 3900 3750 50  0001 C CNN
F 3 "" H 3900 3750 50  0001 C CNN
	1    3900 3750
	-1   0    0    -1  
$EndComp
$Comp
L power:GND #PWR?
U 1 1 5F04B588
P 4050 6100
AR Path="/5F04B588" Ref="#PWR?"  Part="1" 
AR Path="/5DDD7054/5F04B588" Ref="#PWR0261"  Part="1" 
F 0 "#PWR0261" H 4050 5850 50  0001 C CNN
F 1 "GND" H 4055 5927 50  0001 C CNN
F 2 "" H 4050 6100 50  0001 C CNN
F 3 "" H 4050 6100 50  0001 C CNN
	1    4050 6100
	1    0    0    -1  
$EndComp
$Comp
L power:GND #PWR0255
U 1 1 5EB7EF99
P 4150 3750
F 0 "#PWR0255" H 4150 3500 50  0001 C CNN
F 1 "GND" H 4155 3577 50  0001 C CNN
F 2 "" H 4150 3750 50  0001 C CNN
F 3 "" H 4150 3750 50  0001 C CNN
	1    4150 3750
	-1   0    0    -1  
$EndComp
$Comp
L power:GND #PWR?
U 1 1 5F488542
P 4450 5600
AR Path="/5F488542" Ref="#PWR?"  Part="1" 
AR Path="/5DDD7054/5F488542" Ref="#PWR0262"  Part="1" 
F 0 "#PWR0262" H 4450 5350 50  0001 C CNN
F 1 "GND" H 4455 5427 50  0001 C CNN
F 2 "" H 4450 5600 50  0001 C CNN
F 3 "" H 4450 5600 50  0001 C CNN
	1    4450 5600
	1    0    0    -1  
$EndComp
$Comp
L power:GND #PWR0253
U 1 1 5E999CD0
P 4900 4000
F 0 "#PWR0253" H 4900 3750 50  0001 C CNN
F 1 "GND" H 4905 3827 50  0001 C CNN
F 2 "" H 4900 4000 50  0001 C CNN
F 3 "" H 4900 4000 50  0001 C CNN
	1    4900 4000
	-1   0    0    -1  
$EndComp
$Comp
L power:GND #PWR0236
U 1 1 5DE0E6A9
P 5000 7400
F 0 "#PWR0236" H 5000 7150 50  0001 C CNN
F 1 "GND" H 5005 7227 50  0000 C CNN
F 2 "" H 5000 7400 50  0001 C CNN
F 3 "" H 5000 7400 50  0001 C CNN
	1    5000 7400
	1    0    0    -1  
$EndComp
$Comp
L power:GND #PWR0234
U 1 1 5DD27C37
P 5100 800
F 0 "#PWR0234" H 5100 550 50  0001 C CNN
F 1 "GND" H 5105 627 50  0000 C CNN
F 2 "" H 5100 800 50  0001 C CNN
F 3 "" H 5100 800 50  0001 C CNN
	1    5100 800 
	1    0    0    1   
$EndComp
$Comp
L power:GND #PWR0235
U 1 1 5DD42698
P 5100 2800
F 0 "#PWR0235" H 5100 2550 50  0001 C CNN
F 1 "GND" H 5105 2627 50  0000 C CNN
F 2 "" H 5100 2800 50  0001 C CNN
F 3 "" H 5100 2800 50  0001 C CNN
	1    5100 2800
	1    0    0    -1  
$EndComp
$Comp
L power:GND #PWR0237
U 1 1 5DE0F20B
P 5400 7400
F 0 "#PWR0237" H 5400 7150 50  0001 C CNN
F 1 "GND" H 5405 7227 50  0000 C CNN
F 2 "" H 5400 7400 50  0001 C CNN
F 3 "" H 5400 7400 50  0001 C CNN
	1    5400 7400
	1    0    0    -1  
$EndComp
$Comp
L power:GND #PWR0238
U 1 1 5E17D3BC
P 5800 7400
F 0 "#PWR0238" H 5800 7150 50  0001 C CNN
F 1 "GND" H 5805 7227 50  0000 C CNN
F 2 "" H 5800 7400 50  0001 C CNN
F 3 "" H 5800 7400 50  0001 C CNN
	1    5800 7400
	1    0    0    -1  
$EndComp
$Comp
L power:GND #PWR0239
U 1 1 5E18319F
P 6200 7400
F 0 "#PWR0239" H 6200 7150 50  0001 C CNN
F 1 "GND" H 6205 7227 50  0000 C CNN
F 2 "" H 6200 7400 50  0001 C CNN
F 3 "" H 6200 7400 50  0001 C CNN
	1    6200 7400
	1    0    0    -1  
$EndComp
$Comp
L power:GND #PWR0240
U 1 1 5E189C54
P 6600 7400
F 0 "#PWR0240" H 6600 7150 50  0001 C CNN
F 1 "GND" H 6605 7227 50  0000 C CNN
F 2 "" H 6600 7400 50  0001 C CNN
F 3 "" H 6600 7400 50  0001 C CNN
	1    6600 7400
	1    0    0    -1  
$EndComp
$Comp
L power:GND #PWR03
U 1 1 5E52C92F
P 6800 6500
F 0 "#PWR03" H 6800 6250 50  0001 C CNN
F 1 "GND" H 6805 6327 50  0000 C CNN
F 2 "" H 6800 6500 50  0001 C CNN
F 3 "" H 6800 6500 50  0001 C CNN
	1    6800 6500
	1    0    0    -1  
$EndComp
$Comp
L power:GND #PWR0243
U 1 1 5E0201EB
P 7900 4700
F 0 "#PWR0243" H 7900 4450 50  0001 C CNN
F 1 "GND" H 7905 4527 50  0000 C CNN
F 2 "" H 7900 4700 50  0001 C CNN
F 3 "" H 7900 4700 50  0001 C CNN
	1    7900 4700
	1    0    0    -1  
$EndComp
$Comp
L power:GND #PWR0246
U 1 1 5DFE335B
P 8500 2550
F 0 "#PWR0246" H 8500 2300 50  0001 C CNN
F 1 "GND" H 8505 2377 50  0000 C CNN
F 2 "" H 8500 2550 50  0001 C CNN
F 3 "" H 8500 2550 50  0001 C CNN
	1    8500 2550
	1    0    0    1   
$EndComp
$Comp
L power:GND #PWR04
U 1 1 5E7F55FA
P 8550 1850
F 0 "#PWR04" H 8550 1600 50  0001 C CNN
F 1 "GND" H 8555 1677 50  0000 C CNN
F 2 "" H 8550 1850 50  0001 C CNN
F 3 "" H 8550 1850 50  0001 C CNN
	1    8550 1850
	1    0    0    1   
$EndComp
$Comp
L power:GND #PWR0242
U 1 1 5E04744D
P 8600 4700
F 0 "#PWR0242" H 8600 4450 50  0001 C CNN
F 1 "GND" H 8605 4527 50  0000 C CNN
F 2 "" H 8600 4700 50  0001 C CNN
F 3 "" H 8600 4700 50  0001 C CNN
	1    8600 4700
	-1   0    0    -1  
$EndComp
$Comp
L power:GND #PWR0241
U 1 1 5E089C0E
P 10250 4050
F 0 "#PWR0241" H 10250 3800 50  0001 C CNN
F 1 "GND" H 10255 3877 50  0000 C CNN
F 2 "" H 10250 4050 50  0001 C CNN
F 3 "" H 10250 4050 50  0001 C CNN
	1    10250 4050
	-1   0    0    -1  
$EndComp
$Comp
L power:GND #PWR0244
U 1 1 5DFE4D83
P 10850 4050
F 0 "#PWR0244" H 10850 3800 50  0001 C CNN
F 1 "GND" H 10855 3877 50  0000 C CNN
F 2 "" H 10850 4050 50  0001 C CNN
F 3 "" H 10850 4050 50  0001 C CNN
	1    10850 4050
	-1   0    0    -1  
$EndComp
$Comp
L Device:R_Small R?
U 1 1 5DF25430
P 1000 6800
AR Path="/5DF25430" Ref="R?"  Part="1" 
AR Path="/5DDD7054/5DF25430" Ref="R30"  Part="1" 
F 0 "R30" V 804 6800 50  0000 C CNN
F 1 "100" V 895 6800 50  0000 C CNN
F 2 "" H 1000 6800 50  0001 C CNN
F 3 "~" H 1000 6800 50  0001 C CNN
	1    1000 6800
	0    1    1    0   
$EndComp
$Comp
L Device:R_Small R?
U 1 1 5DF16A6D
P 1000 7100
AR Path="/5DF16A6D" Ref="R?"  Part="1" 
AR Path="/5DDD7054/5DF16A6D" Ref="R29"  Part="1" 
F 0 "R29" V 804 7100 50  0000 C CNN
F 1 "100" V 895 7100 50  0000 C CNN
F 2 "" H 1000 7100 50  0001 C CNN
F 3 "~" H 1000 7100 50  0001 C CNN
	1    1000 7100
	0    1    1    0   
$EndComp
$Comp
L Device:R_Small R31
U 1 1 5DFA2F29
P 1850 4900
F 0 "R31" V 1654 4900 50  0000 C CNN
F 1 "15k" V 1745 4900 50  0000 C CNN
F 2 "" H 1850 4900 50  0001 C CNN
F 3 "~" H 1850 4900 50  0001 C CNN
	1    1850 4900
	0    1    1    0   
$EndComp
$Comp
L Device:R_Small R32
U 1 1 5DFA4485
P 1850 5500
F 0 "R32" V 1654 5500 50  0000 C CNN
F 1 "15k" V 1745 5500 50  0000 C CNN
F 2 "" H 1850 5500 50  0001 C CNN
F 3 "~" H 1850 5500 50  0001 C CNN
	1    1850 5500
	0    1    1    0   
$EndComp
$Comp
L Device:R_Small R51
U 1 1 5DFBBCE0
P 2250 4700
F 0 "R51" H 2192 4654 50  0000 R CNN
F 1 "10k" H 2192 4745 50  0000 R CNN
F 2 "" H 2250 4700 50  0001 C CNN
F 3 "~" H 2250 4700 50  0001 C CNN
	1    2250 4700
	1    0    0    1   
$EndComp
$Comp
L Device:R_Small R52
U 1 1 5DFD337E
P 2450 5300
F 0 "R52" H 2509 5346 50  0000 L CNN
F 1 "10k" H 2509 5255 50  0000 L CNN
F 2 "" H 2450 5300 50  0001 C CNN
F 3 "~" H 2450 5300 50  0001 C CNN
	1    2450 5300
	1    0    0    -1  
$EndComp
$Comp
L Device:R_Small R?
U 1 1 5DE570D6
P 3050 7100
AR Path="/5DE570D6" Ref="R?"  Part="1" 
AR Path="/5DDD7054/5DE570D6" Ref="R3"  Part="1" 
F 0 "R3" V 2854 7100 50  0000 C CNN
F 1 "10" V 2945 7100 50  0000 C CNN
F 2 "" H 3050 7100 50  0001 C CNN
F 3 "~" H 3050 7100 50  0001 C CNN
	1    3050 7100
	0    1    1    0   
$EndComp
$Comp
L Device:R_Small R22
U 1 1 5E865EB3
P 3100 4250
F 0 "R22" H 3041 4296 50  0000 R CNN
F 1 "10k" H 3041 4205 50  0000 R CNN
F 2 "" H 3100 4250 50  0001 C CNN
F 3 "~" H 3100 4250 50  0001 C CNN
	1    3100 4250
	-1   0    0    -1  
$EndComp
$Comp
L Device:R_Small R53
U 1 1 5E865EAD
P 3100 4550
F 0 "R53" H 3042 4504 50  0000 R CNN
F 1 "10k" H 3042 4595 50  0000 R CNN
F 2 "" H 3100 4550 50  0001 C CNN
F 3 "~" H 3100 4550 50  0001 C CNN
	1    3100 4550
	1    0    0    1   
$EndComp
$Comp
L Device:R_Small R21
U 1 1 5E608F2E
P 4050 6000
F 0 "R21" H 4109 6046 50  0000 L CNN
F 1 "47k" H 4109 5955 50  0000 L CNN
F 2 "" H 4050 6000 50  0001 C CNN
F 3 "~" H 4050 6000 50  0001 C CNN
	1    4050 6000
	1    0    0    -1  
$EndComp
$Comp
L Device:R_Small R20
U 1 1 5E9073F3
P 4900 3600
F 0 "R20" H 4842 3554 50  0000 R CNN
F 1 "1k" H 4842 3645 50  0000 R CNN
F 2 "" H 4900 3600 50  0001 C CNN
F 3 "~" H 4900 3600 50  0001 C CNN
	1    4900 3600
	1    0    0    1   
$EndComp
$Comp
L Device:D_Small_ALT D6
U 1 1 5E289C5B
P 2800 5100
F 0 "D6" V 2800 5168 50  0000 L CNN
F 1 "D_Small_ALT" V 2845 5168 50  0001 L CNN
F 2 "" V 2800 5100 50  0001 C CNN
F 3 "~" V 2800 5100 50  0001 C CNN
	1    2800 5100
	0    1    1    0   
$EndComp
$Comp
L Device:D_Small_ALT D8
U 1 1 5E1CF7C0
P 3000 5650
F 0 "D8" V 3000 5718 50  0000 L CNN
F 1 "D_Small_ALT" V 3045 5718 50  0001 L CNN
F 2 "" V 3000 5650 50  0001 C CNN
F 3 "~" V 3000 5650 50  0001 C CNN
	1    3000 5650
	0    1    1    0   
$EndComp
$Comp
L Device:D_Small_ALT D4
U 1 1 5E92F84C
P 3650 3450
F 0 "D4" H 3650 3337 50  0000 C CNN
F 1 "D_Small_ALT" V 3695 3518 50  0001 L CNN
F 2 "" V 3650 3450 50  0001 C CNN
F 3 "~" V 3650 3450 50  0001 C CNN
	1    3650 3450
	-1   0    0    1   
$EndComp
$Comp
L Device:CP_Small CC?
U 1 1 5DF16A67
P 800 7250
AR Path="/5DF16A67" Ref="CC?"  Part="1" 
AR Path="/5DDD7054/5DF16A67" Ref="CC28"  Part="1" 
F 0 "CC28" H 888 7296 50  0000 L CNN
F 1 "10u" H 888 7205 50  0000 L CNN
F 2 "" H 800 7250 50  0001 C CNN
F 3 "~" H 800 7250 50  0001 C CNN
	1    800  7250
	1    0    0    -1  
$EndComp
$Comp
L Device:CP_Small C?
U 1 1 5DE570A1
P 2500 7250
AR Path="/5DE570A1" Ref="C?"  Part="1" 
AR Path="/5DDD7054/5DE570A1" Ref="CC8"  Part="1" 
F 0 "CC8" H 2588 7296 50  0000 L CNN
F 1 "10u" H 2588 7205 50  0000 L CNN
F 2 "" H 2500 7250 50  0001 C CNN
F 3 "~" H 2500 7250 50  0001 C CNN
	1    2500 7250
	-1   0    0    1   
$EndComp
$Comp
L Device:CP_Small C?
U 1 1 5DE570CA
P 2850 7250
AR Path="/5DE570CA" Ref="C?"  Part="1" 
AR Path="/5DDD7054/5DE570CA" Ref="CC2"  Part="1" 
F 0 "CC2" H 2938 7296 50  0000 L CNN
F 1 "10u" H 2938 7205 50  0000 L CNN
F 2 "" H 2850 7250 50  0001 C CNN
F 3 "~" H 2850 7250 50  0001 C CNN
	1    2850 7250
	1    0    0    -1  
$EndComp
$Comp
L Device:CP_Small CC?
U 1 1 5E18B3C3
P 3450 4550
AR Path="/5E18B3C3" Ref="CC?"  Part="1" 
AR Path="/5DDD7054/5E18B3C3" Ref="CC30"  Part="1" 
F 0 "CC30" H 3538 4596 50  0000 L CNN
F 1 "2.2u" H 3538 4505 50  0000 L CNN
F 2 "" H 3450 4550 50  0001 C CNN
F 3 "~" H 3450 4550 50  0001 C CNN
	1    3450 4550
	-1   0    0    -1  
$EndComp
$Comp
L Device:CP_Small CC?
U 1 1 5E999F82
P 3900 3600
AR Path="/5E999F82" Ref="CC?"  Part="1" 
AR Path="/5DDD7054/5E999F82" Ref="CC25"  Part="1" 
F 0 "CC25" H 3988 3646 50  0000 L CNN
F 1 "25u" H 3988 3555 50  0000 L CNN
F 2 "" H 3900 3600 50  0001 C CNN
F 3 "~" H 3900 3600 50  0001 C CNN
	1    3900 3600
	-1   0    0    -1  
$EndComp
$Comp
L Device:CP_Small CC?
U 1 1 5E009A0C
P 4550 7250
AR Path="/5E009A0C" Ref="CC?"  Part="1" 
AR Path="/5DDD7054/5E009A0C" Ref="CC27"  Part="1" 
F 0 "CC27" H 4638 7296 50  0000 L CNN
F 1 "10u" H 4638 7205 50  0000 L CNN
F 2 "" H 4550 7250 50  0001 C CNN
F 3 "~" H 4550 7250 50  0001 C CNN
	1    4550 7250
	-1   0    0    -1  
$EndComp
$Comp
L Device:CP_Small CC?
U 1 1 5E311553
P 5400 6650
AR Path="/5E311553" Ref="CC?"  Part="1" 
AR Path="/5DDD7054/5E311553" Ref="CC26"  Part="1" 
F 0 "CC26" H 5488 6696 50  0000 L CNN
F 1 "10u" H 5488 6605 50  0000 L CNN
F 2 "" H 5400 6650 50  0001 C CNN
F 3 "~" H 5400 6650 50  0001 C CNN
	1    5400 6650
	-1   0    0    1   
$EndComp
$Comp
L Device:CP_Small C?
U 1 1 5E53ED10
P 6200 6650
AR Path="/5E53ED10" Ref="C?"  Part="1" 
AR Path="/5DDD7054/5E53ED10" Ref="CC9"  Part="1" 
F 0 "CC9" H 6288 6696 50  0000 L CNN
F 1 "10u" H 6288 6605 50  0000 L CNN
F 2 "" H 6200 6650 50  0001 C CNN
F 3 "~" H 6200 6650 50  0001 C CNN
	1    6200 6650
	-1   0    0    1   
$EndComp
$Comp
L Device:CP_Small CC?
U 1 1 5E601C0C
P 8550 2000
AR Path="/5E601C0C" Ref="CC?"  Part="1" 
AR Path="/5DDD7054/5E601C0C" Ref="CC13"  Part="1" 
F 0 "CC13" H 8638 2046 50  0000 L CNN
F 1 "10u" H 8638 1955 50  0000 L CNN
F 2 "" H 8550 2000 50  0001 C CNN
F 3 "~" H 8550 2000 50  0001 C CNN
	1    8550 2000
	-1   0    0    1   
$EndComp
$Comp
L Device:R R28
U 1 1 5DDF339B
P 4000 750
F 0 "R28" V 3793 750 50  0000 C CNN
F 1 "1.5k" V 3884 750 50  0000 C CNN
F 2 "" V 3930 750 50  0001 C CNN
F 3 "~" H 4000 750 50  0001 C CNN
	1    4000 750 
	0    1    1    0   
$EndComp
$Comp
L Device:R R27
U 1 1 5DDF83E0
P 4000 2850
F 0 "R27" V 3793 2850 50  0000 C CNN
F 1 "1.5k" V 3884 2850 50  0000 C CNN
F 2 "" V 3930 2850 50  0001 C CNN
F 3 "~" H 4000 2850 50  0001 C CNN
	1    4000 2850
	0    1    -1   0   
$EndComp
$Comp
L Device:R R25
U 1 1 5DD21B86
P 4700 1500
F 0 "R25" V 4493 1500 50  0000 C CNN
F 1 "8.2k" V 4584 1500 50  0000 C CNN
F 2 "" V 4630 1500 50  0001 C CNN
F 3 "~" H 4700 1500 50  0001 C CNN
	1    4700 1500
	0    1    1    0   
$EndComp
$Comp
L Device:R R26
U 1 1 5DD42682
P 4700 2100
F 0 "R26" V 4493 2100 50  0000 C CNN
F 1 "8.2k" V 4584 2100 50  0000 C CNN
F 2 "" V 4630 2100 50  0001 C CNN
F 3 "~" H 4700 2100 50  0001 C CNN
	1    4700 2100
	0    1    -1   0   
$EndComp
$Comp
L Device:R R23
U 1 1 5DD2295C
P 5100 1300
F 0 "R23" H 5030 1254 50  0000 R CNN
F 1 "8.2k" H 5030 1345 50  0000 R CNN
F 2 "" V 5030 1300 50  0001 C CNN
F 3 "~" H 5100 1300 50  0001 C CNN
	1    5100 1300
	1    0    0    1   
$EndComp
$Comp
L Device:R R24
U 1 1 5DD42688
P 5100 2300
F 0 "R24" H 5030 2254 50  0000 R CNN
F 1 "8.2k" H 5030 2345 50  0000 R CNN
F 2 "" V 5030 2300 50  0001 C CNN
F 3 "~" H 5100 2300 50  0001 C CNN
	1    5100 2300
	1    0    0    -1  
$EndComp
$Comp
L Device:R R19
U 1 1 5DE13651
P 6450 3150
F 0 "R19" H 6381 3104 50  0000 R CNN
F 1 "220k" H 6381 3195 50  0000 R CNN
F 2 "" V 6380 3150 50  0001 C CNN
F 3 "~" H 6450 3150 50  0001 C CNN
	1    6450 3150
	1    0    0    1   
$EndComp
$Comp
L Device:R R18
U 1 1 5DE5A1EA
P 6950 3600
F 0 "R18" H 6880 3554 50  0000 R CNN
F 1 "56k" H 6880 3645 50  0000 R CNN
F 2 "" V 6880 3600 50  0001 C CNN
F 3 "~" H 6950 3600 50  0001 C CNN
	1    6950 3600
	1    0    0    -1  
$EndComp
$Comp
L Device:R R1
U 1 1 5E0201DE
P 7350 4300
F 0 "R1" V 7143 4300 50  0000 C CNN
F 1 "100" V 7234 4300 50  0000 C CNN
F 2 "" V 7280 4300 50  0001 C CNN
F 3 "~" H 7350 4300 50  0001 C CNN
	1    7350 4300
	0    -1   1    0   
$EndComp
$Comp
L Device:R R2
U 1 1 5E0201E4
P 7900 4550
F 0 "R2" H 7830 4504 50  0000 R CNN
F 1 "100k" H 7830 4595 50  0000 R CNN
F 2 "" V 7830 4550 50  0001 C CNN
F 3 "~" H 7900 4550 50  0001 C CNN
	1    7900 4550
	1    0    0    1   
$EndComp
$Comp
L Device:R R5
U 1 1 5E047446
P 8600 4550
F 0 "R5" H 8530 4504 50  0000 R CNN
F 1 "100k" H 8530 4595 50  0000 R CNN
F 2 "" V 8530 4550 50  0001 C CNN
F 3 "~" H 8600 4550 50  0001 C CNN
	1    8600 4550
	-1   0    0    1   
$EndComp
$Comp
L Device:R R7
U 1 1 5E047440
P 9150 4300
F 0 "R7" V 8943 4300 50  0000 C CNN
F 1 "100" V 9034 4300 50  0000 C CNN
F 2 "" V 9080 4300 50  0001 C CNN
F 3 "~" H 9150 4300 50  0001 C CNN
	1    9150 4300
	0    1    1    0   
$EndComp
$Comp
L Device:R R11
U 1 1 5DF4B260
P 9750 3600
F 0 "R11" H 9680 3554 50  0000 R CNN
F 1 "56k" H 9680 3645 50  0000 R CNN
F 2 "" V 9680 3600 50  0001 C CNN
F 3 "~" H 9750 3600 50  0001 C CNN
	1    9750 3600
	-1   0    0    -1  
$EndComp
$Comp
L Device:R R17
U 1 1 5DF4B259
P 10250 3150
F 0 "R17" H 10181 3104 50  0000 R CNN
F 1 "220k" H 10181 3195 50  0000 R CNN
F 2 "" V 10180 3150 50  0001 C CNN
F 3 "~" H 10250 3150 50  0001 C CNN
	1    10250 3150
	-1   0    0    1   
$EndComp
$Comp
L Device:R R12
U 1 1 5DFE4742
P 10850 3600
F 0 "R12" H 10781 3554 50  0000 R CNN
F 1 "1k" H 10781 3645 50  0000 R CNN
F 2 "" V 10780 3600 50  0001 C CNN
F 3 "~" H 10850 3600 50  0001 C CNN
	1    10850 3600
	1    0    0    1   
$EndComp
$Comp
L Device:R R13
U 1 1 5DFE5420
P 10850 3900
F 0 "R13" H 10781 3854 50  0000 R CNN
F 1 "1k" H 10781 3945 50  0000 R CNN
F 2 "" V 10780 3900 50  0001 C CNN
F 3 "~" H 10850 3900 50  0001 C CNN
	1    10850 3900
	1    0    0    1   
$EndComp
$Comp
L Device:C_Small C?
U 1 1 5DF16A61
P 1150 7250
AR Path="/5DF16A61" Ref="C?"  Part="1" 
AR Path="/5DDD7054/5DF16A61" Ref="C20"  Part="1" 
F 0 "C20" H 1242 7296 50  0000 L CNN
F 1 "0.1u" H 1242 7205 50  0000 L CNN
F 2 "" H 1150 7250 50  0001 C CNN
F 3 "~" H 1150 7250 50  0001 C CNN
	1    1150 7250
	1    0    0    -1  
$EndComp
$Comp
L Device:C_Small C?
U 1 1 5DEA0C9F
P 2150 7250
AR Path="/5DEA0C9F" Ref="C?"  Part="1" 
AR Path="/5DDD7054/5DEA0C9F" Ref="C19"  Part="1" 
F 0 "C19" H 2242 7296 50  0000 L CNN
F 1 "0.1u" H 2242 7205 50  0000 L CNN
F 2 "" H 2150 7250 50  0001 C CNN
F 3 "~" H 2150 7250 50  0001 C CNN
	1    2150 7250
	-1   0    0    -1  
$EndComp
$Comp
L Device:C_Small C?
U 1 1 5DFEB23C
P 2250 5100
AR Path="/5DFEB23C" Ref="C?"  Part="1" 
AR Path="/5DDD7054/5DFEB23C" Ref="C27"  Part="1" 
F 0 "C27" H 2342 5146 50  0000 L CNN
F 1 "0.1u" H 2342 5055 50  0000 L CNN
F 2 "" H 2250 5100 50  0001 C CNN
F 3 "~" H 2250 5100 50  0001 C CNN
	1    2250 5100
	-1   0    0    -1  
$EndComp
$Comp
L Device:C_Small C?
U 1 1 5E83ABEE
P 2450 5650
AR Path="/5E83ABEE" Ref="C?"  Part="1" 
AR Path="/5DDD7054/5E83ABEE" Ref="C28"  Part="1" 
F 0 "C28" H 2542 5696 50  0000 L CNN
F 1 "0.1u" H 2542 5605 50  0000 L CNN
F 2 "" H 2450 5650 50  0001 C CNN
F 3 "~" H 2450 5650 50  0001 C CNN
	1    2450 5650
	-1   0    0    -1  
$EndComp
$Comp
L Device:C_Small C?
U 1 1 5E6E8E82
P 3050 1100
AR Path="/5E6E8E82" Ref="C?"  Part="1" 
AR Path="/5DDD7054/5E6E8E82" Ref="C18"  Part="1" 
F 0 "C18" H 3142 1146 50  0000 L CNN
F 1 "0.1u" H 3142 1055 50  0000 L CNN
F 2 "" H 3050 1100 50  0001 C CNN
F 3 "~" H 3050 1100 50  0001 C CNN
	1    3050 1100
	-1   0    0    -1  
$EndComp
$Comp
L Device:C_Small C?
U 1 1 5DE570BA
P 3150 7250
AR Path="/5DE570BA" Ref="C?"  Part="1" 
AR Path="/5DDD7054/5DE570BA" Ref="C4"  Part="1" 
F 0 "C4" H 3242 7296 50  0000 L CNN
F 1 "0.1u" H 3242 7205 50  0000 L CNN
F 2 "" H 3150 7250 50  0001 C CNN
F 3 "~" H 3150 7250 50  0001 C CNN
	1    3150 7250
	1    0    0    -1  
$EndComp
$Comp
L Device:C_Small C?
U 1 1 5E61EF4E
P 3700 6000
AR Path="/5E61EF4E" Ref="C?"  Part="1" 
AR Path="/5DDD7054/5E61EF4E" Ref="C11"  Part="1" 
F 0 "C11" H 3792 6046 50  0000 L CNN
F 1 "0.1u" H 3792 5955 50  0000 L CNN
F 2 "" H 3700 6000 50  0001 C CNN
F 3 "~" H 3700 6000 50  0001 C CNN
	1    3700 6000
	1    0    0    -1  
$EndComp
$Comp
L Device:C_Small C?
U 1 1 5EB52A5D
P 4150 3600
AR Path="/5EB52A5D" Ref="C?"  Part="1" 
AR Path="/5DDD7054/5EB52A5D" Ref="C9"  Part="1" 
F 0 "C9" H 4242 3646 50  0000 L CNN
F 1 "0.1u" H 4242 3555 50  0000 L CNN
F 2 "" H 4150 3600 50  0001 C CNN
F 3 "~" H 4150 3600 50  0001 C CNN
	1    4150 3600
	1    0    0    -1  
$EndComp
$Comp
L Device:C_Small C?
U 1 1 5DE5709B
P 4150 7250
AR Path="/5DE5709B" Ref="C?"  Part="1" 
AR Path="/5DDD7054/5DE5709B" Ref="C6"  Part="1" 
F 0 "C6" H 4242 7296 50  0000 L CNN
F 1 "0.1u" H 4242 7205 50  0000 L CNN
F 2 "" H 4150 7250 50  0001 C CNN
F 3 "~" H 4150 7250 50  0001 C CNN
	1    4150 7250
	-1   0    0    -1  
$EndComp
$Comp
L Device:C_Small C?
U 1 1 5E7FCAE2
P 5000 6650
AR Path="/5E7FCAE2" Ref="C?"  Part="1" 
AR Path="/5DDD7054/5E7FCAE2" Ref="C10"  Part="1" 
F 0 "C10" H 5092 6696 50  0000 L CNN
F 1 "0.1u" H 5092 6605 50  0000 L CNN
F 2 "" H 5000 6650 50  0001 C CNN
F 3 "~" H 5000 6650 50  0001 C CNN
	1    5000 6650
	-1   0    0    -1  
$EndComp
$Comp
L Device:C_Small C?
U 1 1 5E718DC6
P 5800 6650
AR Path="/5E718DC6" Ref="C?"  Part="1" 
AR Path="/5DDD7054/5E718DC6" Ref="C7"  Part="1" 
F 0 "C7" H 5892 6696 50  0000 L CNN
F 1 "0.1u" H 5892 6605 50  0000 L CNN
F 2 "" H 5800 6650 50  0001 C CNN
F 3 "~" H 5800 6650 50  0001 C CNN
	1    5800 6650
	-1   0    0    -1  
$EndComp
$Comp
L Device:C_Small C?
U 1 1 5E7734CB
P 8200 2000
AR Path="/5E7734CB" Ref="C?"  Part="1" 
AR Path="/5DDD7054/5E7734CB" Ref="C8"  Part="1" 
F 0 "C8" H 8292 2046 50  0000 L CNN
F 1 "0.1u" H 8292 1955 50  0000 L CNN
F 2 "" H 8200 2000 50  0001 C CNN
F 3 "~" H 8200 2000 50  0001 C CNN
	1    8200 2000
	-1   0    0    -1  
$EndComp
$Comp
L Amplifier_Operational:NE5532 UH10
U 3 1 5DDDE352
P 5100 7100
F 0 "UH10" H 5058 7146 50  0000 L CNN
F 1 "NE5532" H 5058 7055 50  0000 L CNN
F 2 "" H 5100 7100 50  0001 C CNN
F 3 "http://www.ti.com/lit/ds/symlink/ne5532.pdf" H 5100 7100 50  0001 C CNN
	3    5100 7100
	1    0    0    -1  
$EndComp
$Comp
L Amplifier_Operational:NE5532 UF10
U 3 1 5DDFF7DF
P 5500 7100
F 0 "UF10" H 5458 7146 50  0000 L CNN
F 1 "LM833" H 5458 7055 50  0000 L CNN
F 2 "" H 5500 7100 50  0001 C CNN
F 3 "http://www.ti.com/lit/ds/symlink/ne5532.pdf" H 5500 7100 50  0001 C CNN
	3    5500 7100
	1    0    0    -1  
$EndComp
$Comp
L Amplifier_Operational:NE5532 UC10
U 3 1 5E17D3B0
P 5900 7100
F 0 "UC10" H 5858 7146 50  0000 L CNN
F 1 "LM833" H 5858 7055 50  0000 L CNN
F 2 "" H 5900 7100 50  0001 C CNN
F 3 "http://www.ti.com/lit/ds/symlink/ne5532.pdf" H 5900 7100 50  0001 C CNN
	3    5900 7100
	1    0    0    -1  
$EndComp
$Comp
L Amplifier_Operational:NE5532 UB10
U 3 1 5E183193
P 6300 7100
F 0 "UB10" H 6258 7146 50  0000 L CNN
F 1 "LM833" H 6258 7055 50  0000 L CNN
F 2 "" H 6300 7100 50  0001 C CNN
F 3 "http://www.ti.com/lit/ds/symlink/ne5532.pdf" H 6300 7100 50  0001 C CNN
	3    6300 7100
	1    0    0    -1  
$EndComp
$Comp
L Amplifier_Operational:NE5532 UA10
U 3 1 5E189C48
P 6700 7100
F 0 "UA10" H 6658 7146 50  0000 L CNN
F 1 "LM833" H 6658 7055 50  0000 L CNN
F 2 "" H 6700 7100 50  0001 C CNN
F 3 "http://www.ti.com/lit/ds/symlink/ne5532.pdf" H 6700 7100 50  0001 C CNN
	3    6700 7100
	1    0    0    -1  
$EndComp
$Comp
L Device:C C17
U 1 1 5DDF4092
P 4000 1000
F 0 "C17" V 4252 1000 50  0000 C CNN
F 1 "8.2n" V 4161 1000 50  0000 C CNN
F 2 "" H 4038 850 50  0001 C CNN
F 3 "~" H 4000 1000 50  0001 C CNN
	1    4000 1000
	0    1    1    0   
$EndComp
$Comp
L Device:C C16
U 1 1 5DDF83E6
P 4000 2600
F 0 "C16" V 4252 2600 50  0000 C CNN
F 1 "8.2n" V 4161 2600 50  0000 C CNN
F 2 "" H 4038 2450 50  0001 C CNN
F 3 "~" H 4000 2600 50  0001 C CNN
	1    4000 2600
	0    1    -1   0   
$EndComp
$Comp
L Device:C C14
U 1 1 5DD23639
P 5100 950
F 0 "C14" H 4986 904 50  0000 R CNN
F 1 "1n" H 4986 995 50  0000 R CNN
F 2 "" H 5138 800 50  0001 C CNN
F 3 "~" H 5100 950 50  0001 C CNN
	1    5100 950 
	1    0    0    1   
$EndComp
$Comp
L Device:C C15
U 1 1 5DD4269E
P 5100 2650
F 0 "C15" H 4986 2604 50  0000 R CNN
F 1 "1n" H 4986 2695 50  0000 R CNN
F 2 "" H 5138 2500 50  0001 C CNN
F 3 "~" H 5100 2650 50  0001 C CNN
	1    5100 2650
	1    0    0    -1  
$EndComp
$Comp
L Device:C C12
U 1 1 5DD23B2D
P 5250 1500
F 0 "C12" V 4998 1500 50  0000 C CNN
F 1 "2.2n" V 5089 1500 50  0000 C CNN
F 2 "" H 5288 1350 50  0001 C CNN
F 3 "~" H 5250 1500 50  0001 C CNN
	1    5250 1500
	0    -1   1    0   
$EndComp
$Comp
L Device:C C13
U 1 1 5DD4268E
P 5250 2100
F 0 "C13" V 4998 2100 50  0000 C CNN
F 1 "2.2n" V 5089 2100 50  0000 C CNN
F 2 "" H 5288 1950 50  0001 C CNN
F 3 "~" H 5250 2100 50  0001 C CNN
	1    5250 2100
	0    -1   -1   0   
$EndComp
$Comp
L Device:CP CC18
U 1 1 5E84A430
P 4900 3850
F 0 "CC18" H 5018 3896 50  0000 L CNN
F 1 "0.1F" H 5018 3805 50  0000 L CNN
F 2 "" H 4938 3700 50  0001 C CNN
F 3 "~" H 4900 3850 50  0001 C CNN
	1    4900 3850
	1    0    0    -1  
$EndComp
$Comp
L Device:CP CC20
U 1 1 5DDF91D7
P 7200 2100
F 0 "CC20" V 6945 2100 50  0000 C CNN
F 1 "1u" V 7036 2100 50  0000 C CNN
F 2 "" H 7238 1950 50  0001 C CNN
F 3 "~" H 7200 2100 50  0001 C CNN
	1    7200 2100
	0    1    1    0   
$EndComp
$Comp
L Device:CP CC22
U 1 1 5DEB6525
P 7200 2550
F 0 "CC22" V 6945 2550 50  0000 C CNN
F 1 "10u" V 7036 2550 50  0000 C CNN
F 2 "" H 7238 2400 50  0001 C CNN
F 3 "~" H 7200 2550 50  0001 C CNN
	1    7200 2550
	0    -1   1    0   
$EndComp
$Comp
L Device:CP CC17
U 1 1 5DDF91DD
P 7200 3000
F 0 "CC17" V 6945 3000 50  0000 C CNN
F 1 "1u" V 7036 3000 50  0000 C CNN
F 2 "" H 7238 2850 50  0001 C CNN
F 3 "~" H 7200 3000 50  0001 C CNN
	1    7200 3000
	0    -1   1    0   
$EndComp
$Comp
L Device:CP CC24
U 1 1 5DDF91E3
P 7200 3450
F 0 "CC24" V 7455 3450 50  0000 C CNN
F 1 "10u" V 7364 3450 50  0000 C CNN
F 2 "" H 7238 3300 50  0001 C CNN
F 3 "~" H 7200 3450 50  0001 C CNN
	1    7200 3450
	0    -1   -1   0   
$EndComp
$Comp
L Device:CP CC4
U 1 1 5E0201D8
P 7650 4300
F 0 "CC4" V 7395 4300 50  0000 C CNN
F 1 "22u" V 7486 4300 50  0000 C CNN
F 2 "" H 7688 4150 50  0001 C CNN
F 3 "~" H 7650 4300 50  0001 C CNN
	1    7650 4300
	0    -1   1    0   
$EndComp
$Comp
L Device:CP CC6
U 1 1 5E04743A
P 8850 4300
F 0 "CC6" V 8595 4300 50  0000 C CNN
F 1 "22u" V 8686 4300 50  0000 C CNN
F 2 "" H 8888 4150 50  0001 C CNN
F 3 "~" H 8850 4300 50  0001 C CNN
	1    8850 4300
	0    1    1    0   
$EndComp
$Comp
L Device:CP CC19
U 1 1 5DE256EB
P 9500 2100
F 0 "CC19" V 9245 2100 50  0000 C CNN
F 1 "1u" V 9336 2100 50  0000 C CNN
F 2 "" H 9538 1950 50  0001 C CNN
F 3 "~" H 9500 2100 50  0001 C CNN
	1    9500 2100
	0    -1   1    0   
$EndComp
$Comp
L Device:CP CC21
U 1 1 5DE256F1
P 9500 2550
F 0 "CC21" V 9245 2550 50  0000 C CNN
F 1 "10u" V 9336 2550 50  0000 C CNN
F 2 "" H 9538 2400 50  0001 C CNN
F 3 "~" H 9500 2550 50  0001 C CNN
	1    9500 2550
	0    1    1    0   
$EndComp
$Comp
L Device:CP CC16
U 1 1 5DE256DF
P 9500 3000
F 0 "CC16" V 9245 3000 50  0000 C CNN
F 1 "1u" V 9336 3000 50  0000 C CNN
F 2 "" H 9538 2850 50  0001 C CNN
F 3 "~" H 9500 3000 50  0001 C CNN
	1    9500 3000
	0    1    1    0   
$EndComp
$Comp
L Device:CP CC23
U 1 1 5DE256E5
P 9500 3450
F 0 "CC23" V 9755 3450 50  0000 C CNN
F 1 "10u" V 9664 3450 50  0000 C CNN
F 2 "" H 9538 3300 50  0001 C CNN
F 3 "~" H 9500 3450 50  0001 C CNN
	1    9500 3450
	0    1    -1   0   
$EndComp
$Comp
L Device:CP CC10
U 1 1 5E089173
P 10250 3900
F 0 "CC10" H 10368 3946 50  0000 L CNN
F 1 "47u" H 10368 3855 50  0000 L CNN
F 2 "" H 10288 3750 50  0001 C CNN
F 3 "~" H 10250 3900 50  0001 C CNN
	1    10250 3900
	1    0    0    -1  
$EndComp
$Comp
L Transistor_BJT:2SA1015 Q1
U 1 1 5E34691D
P 3600 4900
F 0 "Q1" H 3450 5000 50  0000 L CNN
F 1 "2SA1015" H 3300 4750 50  0000 L CNN
F 2 "Package_TO_SOT_THT:TO-92_Inline" H 3800 4825 50  0001 L CIN
F 3 "http://www.datasheetcatalog.org/datasheet/toshiba/905.pdf" H 3600 4900 50  0001 L CNN
	1    3600 4900
	1    0    0    -1  
$EndComp
$Comp
L Transistor_BJT:2SA1015 Q2
U 1 1 5E347D61
P 3600 5500
F 0 "Q2" H 3450 5400 50  0000 L CNN
F 1 "2SA1015" H 3300 5650 50  0000 L CNN
F 2 "Package_TO_SOT_THT:TO-92_Inline" H 3800 5425 50  0001 L CIN
F 3 "http://www.datasheetcatalog.org/datasheet/toshiba/905.pdf" H 3600 5500 50  0001 L CNN
	1    3600 5500
	1    0    0    1   
$EndComp
$Comp
L Regulator_Linear:L78L09_TO92 UB?
U 1 1 5DEA0CAB
P 1650 7100
AR Path="/5DEA0CAB" Ref="UB?"  Part="1" 
AR Path="/5DDD7054/5DEA0CAB" Ref="UJ12"  Part="1" 
F 0 "UJ12" H 1650 7342 50  0000 C CNN
F 1 "L78L09_TO92" H 1650 7251 50  0000 C CNN
F 2 "Package_TO_SOT_THT:TO-92_Inline" H 1650 7325 50  0001 C CIN
F 3 "http://www.st.com/content/ccc/resource/technical/document/datasheet/15/55/e5/aa/23/5b/43/fd/CD00000446.pdf/files/CD00000446.pdf/jcr:content/translations/en.CD00000446.pdf" H 1650 7050 50  0001 C CNN
	1    1650 7100
	1    0    0    -1  
$EndComp
$Comp
L Regulator_Linear:L78L09_TO92 U?
U 1 1 5DE570A7
P 3650 7100
AR Path="/5DE570A7" Ref="U?"  Part="1" 
AR Path="/5DDD7054/5DE570A7" Ref="UB9"  Part="1" 
F 0 "UB9" H 3650 7342 50  0000 C CNN
F 1 "L78L09_TO92" H 3650 7251 50  0000 C CNN
F 2 "Package_TO_SOT_THT:TO-92_Inline" H 3650 7325 50  0001 C CIN
F 3 "http://www.st.com/content/ccc/resource/technical/document/datasheet/15/55/e5/aa/23/5b/43/fd/CD00000446.pdf/files/CD00000446.pdf/jcr:content/translations/en.CD00000446.pdf" H 3650 7050 50  0001 C CNN
	1    3650 7100
	1    0    0    -1  
$EndComp
$Comp
L Amplifier_Operational:NE5532 UH10
U 2 1 5DDDB68E
P 4150 1500
F 0 "UH10" H 4100 1500 50  0000 C CNN
F 1 "NE5532" H 4300 1650 50  0000 C CNN
F 2 "" H 4150 1500 50  0001 C CNN
F 3 "http://www.ti.com/lit/ds/symlink/ne5532.pdf" H 4150 1500 50  0001 C CNN
	2    4150 1500
	1    0    0    1   
$EndComp
$Comp
L Amplifier_Operational:NE5532 UH10
U 1 1 5DDD8E02
P 4150 2100
F 0 "UH10" H 4100 2100 50  0000 C CNN
F 1 "NE5532" H 4300 1950 50  0000 C CNN
F 2 "" H 4150 2100 50  0001 C CNN
F 3 "http://www.ti.com/lit/ds/symlink/ne5532.pdf" H 4150 2100 50  0001 C CNN
	1    4150 2100
	1    0    0    -1  
$EndComp
$Comp
L Amplifier_Operational:NE5532 UF10
U 2 1 5DDFDC75
P 5750 1200
F 0 "UF10" H 5750 1567 50  0000 C CNN
F 1 "LM833" H 5750 1476 50  0000 C CNN
F 2 "" H 5750 1200 50  0001 C CNN
F 3 "http://www.ti.com/lit/ds/symlink/ne5532.pdf" H 5750 1200 50  0001 C CNN
	2    5750 1200
	1    0    0    -1  
$EndComp
$Comp
L Amplifier_Operational:NE5532 UF10
U 1 1 5DDFBD64
P 5750 2400
F 0 "UF10" H 5750 2767 50  0000 C CNN
F 1 "LM833" H 5750 2676 50  0000 C CNN
F 2 "" H 5750 2400 50  0001 C CNN
F 3 "http://www.ti.com/lit/ds/symlink/ne5532.pdf" H 5750 2400 50  0001 C CNN
	1    5750 2400
	1    0    0    1   
$EndComp
$Comp
L Amplifier_Operational:NE5532 UB10
U 1 1 5DE88499
P 6750 2550
F 0 "UB10" H 6750 2917 50  0000 C CNN
F 1 "LM833" H 6750 2826 50  0000 C CNN
F 2 "" H 6750 2550 50  0001 C CNN
F 3 "http://www.ti.com/lit/ds/symlink/ne5532.pdf" H 6750 2550 50  0001 C CNN
	1    6750 2550
	1    0    0    1   
$EndComp
$Comp
L Amplifier_Operational:NE5532 UA10
U 1 1 5DEFD532
P 6900 4300
F 0 "UA10" H 6900 4667 50  0000 C CNN
F 1 "LM833" H 6900 4576 50  0000 C CNN
F 2 "" H 6900 4300 50  0001 C CNN
F 3 "http://www.ti.com/lit/ds/symlink/ne5532.pdf" H 6900 4300 50  0001 C CNN
	1    6900 4300
	1    0    0    -1  
$EndComp
$Comp
L Amplifier_Operational:NE5532 UC10
U 1 1 5DF1958E
P 6950 5250
F 0 "UC10" H 6950 5617 50  0000 C CNN
F 1 "LM833" H 6950 5526 50  0000 C CNN
F 2 "" H 6950 5250 50  0001 C CNN
F 3 "http://www.ti.com/lit/ds/symlink/ne5532.pdf" H 6950 5250 50  0001 C CNN
	1    6950 5250
	1    0    0    -1  
$EndComp
$Comp
L Amplifier_Operational:NE5532 UA10
U 2 1 5DFF39FF
P 9600 4300
F 0 "UA10" H 9600 4667 50  0000 C CNN
F 1 "LM833" H 9600 4576 50  0000 C CNN
F 2 "" H 9600 4300 50  0001 C CNN
F 3 "http://www.ti.com/lit/ds/symlink/ne5532.pdf" H 9600 4300 50  0001 C CNN
	2    9600 4300
	-1   0    0    -1  
$EndComp
$Comp
L Amplifier_Operational:NE5532 UB10
U 2 1 5DFF09A7
P 9950 2550
F 0 "UB10" H 9950 2917 50  0000 C CNN
F 1 "LM833" H 9950 2826 50  0000 C CNN
F 2 "" H 9950 2550 50  0001 C CNN
F 3 "http://www.ti.com/lit/ds/symlink/ne5532.pdf" H 9950 2550 50  0001 C CNN
	2    9950 2550
	-1   0    0    1   
$EndComp
$Comp
L Amplifier_Operational:NE5532 UC10
U 2 1 5DFFC19A
P 10550 4700
F 0 "UC10" H 10550 5067 50  0000 C CNN
F 1 "LM833" H 10550 4976 50  0000 C CNN
F 2 "" H 10550 4700 50  0001 C CNN
F 3 "http://www.ti.com/lit/ds/symlink/ne5532.pdf" H 10550 4700 50  0001 C CNN
	2    10550 4700
	1    0    0    -1  
$EndComp
$Comp
L CPS2-Custom:TDA1543 UJ10
U 1 1 5DDD86D6
P 3050 1800
F 0 "UJ10" H 2800 2050 50  0000 C CNN
F 1 "TDA1543" H 3250 1550 50  0000 C CNN
F 2 "" H 2700 1900 50  0001 C CNN
F 3 "" H 2700 1900 50  0001 C CNN
	1    3050 1800
	1    0    0    -1  
$EndComp
$Comp
L CPS2-Custom:TC9185P UF12
U 1 1 5DE218D5
P 4450 4850
F 0 "UF12" H 4250 5550 50  0000 C CNN
F 1 "TC9185P" H 4650 4150 50  0000 C CNN
F 2 "" H 4350 4850 50  0001 C CNN
F 3 "" H 4350 4850 50  0001 C CNN
	1    4450 4850
	1    0    0    -1  
$EndComp
$Comp
L CPS2-Custom:TC9176P UE10
U 1 1 5DE20F2A
P 8350 3000
F 0 "UE10" H 7800 3400 50  0000 C CNN
F 1 "TC9176P" H 8800 2650 50  0000 C CNN
F 2 "" H 8800 3800 50  0001 C CNN
F 3 "" H 8800 3800 50  0001 C CNN
	1    8350 3000
	1    0    0    -1  
$EndComp
$EndSCHEMATC
