EESchema Schematic File Version 5
EELAYER 33 0
EELAYER END
$Descr A4 11693 8268
encoding utf-8
Sheet 5 22
Title ""
Date "2019-11-23"
Rev ""
Comp ""
Comment1 "Licence: CC-BY"
Comment2 "Author: Loïc *WydD* Petit"
Comment3 ""
Comment4 ""
Comment5 ""
Comment6 ""
Comment7 ""
Comment8 ""
Comment9 ""
$EndDescr
Connection ~ 7150 3650
Connection ~ 7150 3550
Connection ~ 7150 3450
Connection ~ 7150 3350
Connection ~ 7150 3250
Connection ~ 7150 3150
Connection ~ 7150 3050
Connection ~ 3800 1750
Connection ~ 3200 1150
Connection ~ 8600 4500
Connection ~ 8750 4500
Connection ~ 3000 1250
Connection ~ 3100 1350
Connection ~ 1050 700 
Connection ~ 8450 6450
NoConn ~ 5950 6650
NoConn ~ 5000 5250
NoConn ~ 2450 1550
NoConn ~ 3800 1250
NoConn ~ 4800 1250
NoConn ~ 5750 1650
NoConn ~ 5750 1750
NoConn ~ 5750 1850
NoConn ~ 5750 1950
NoConn ~ 5750 2350
Entry Wire Line
	1050 950  1150 1050
Entry Wire Line
	1050 1050 1150 1150
Entry Wire Line
	1050 1150 1150 1250
Entry Wire Line
	1050 1250 1150 1350
Entry Wire Line
	1050 1350 1150 1450
Entry Wire Line
	3650 2850 3750 2950
Entry Wire Line
	3650 2950 3750 3050
Entry Wire Line
	3650 3050 3750 3150
Entry Wire Line
	3650 3150 3750 3250
Entry Wire Line
	3650 4650 3750 4750
Entry Wire Line
	3650 4750 3750 4850
Entry Wire Line
	3650 4850 3750 4950
Entry Wire Line
	3650 4950 3750 5050
Entry Wire Line
	3650 5050 3750 5150
Entry Wire Line
	3650 5150 3750 5250
Entry Wire Line
	3650 5250 3750 5350
Entry Wire Line
	4500 6250 4600 6350
Entry Wire Line
	4500 6350 4600 6450
Entry Wire Line
	4500 6450 4600 6550
Entry Wire Line
	4500 6550 4600 6650
Entry Wire Line
	4500 6650 4600 6750
Entry Wire Line
	4500 6750 4600 6850
Entry Wire Line
	4500 6850 4600 6950
Entry Wire Line
	4500 6950 4600 7050
Entry Wire Line
	5200 950  5100 1050
Entry Wire Line
	5200 1050 5100 1150
Entry Wire Line
	5200 1250 5100 1350
Entry Wire Line
	5200 1350 5100 1450
Entry Wire Line
	5200 1450 5100 1550
Entry Wire Line
	5750 2850 5650 2950
Entry Wire Line
	5750 2950 5650 3050
Entry Wire Line
	5750 3050 5650 3150
Entry Wire Line
	6150 4900 6250 5000
Entry Wire Line
	6150 5000 6250 5100
Entry Wire Line
	6150 5100 6250 5200
Entry Wire Line
	6150 5200 6250 5300
Entry Wire Line
	6150 5300 6250 5400
Entry Wire Line
	6150 5400 6250 5500
Entry Wire Line
	6150 5500 6250 5600
Entry Wire Line
	6150 5600 6250 5700
Entry Wire Line
	6700 1000 6800 1100
Entry Wire Line
	6700 1100 6800 1200
Entry Wire Line
	6700 1200 6800 1300
Entry Wire Line
	6700 1300 6800 1400
Entry Wire Line
	6700 1400 6800 1500
Entry Wire Line
	6700 1500 6800 1600
Entry Wire Line
	6700 1600 6800 1700
Entry Wire Line
	6700 1700 6800 1800
Entry Wire Line
	6700 6350 6800 6450
Entry Wire Line
	6700 6450 6800 6550
Entry Wire Line
	6700 6550 6800 6650
Entry Wire Line
	6800 6850 6700 6750
Entry Wire Line
	6800 6950 6700 6850
Entry Wire Line
	6800 7050 6700 6950
Entry Wire Line
	6800 7150 6700 7050
Entry Wire Line
	8350 5000 8450 5100
Entry Wire Line
	8350 5100 8450 5200
Entry Wire Line
	8350 5200 8450 5300
Entry Wire Line
	8350 5300 8450 5400
Entry Wire Line
	8350 5400 8450 5500
Entry Wire Line
	8350 5500 8450 5600
Entry Wire Line
	8350 5600 8450 5700
Entry Wire Line
	8350 5700 8450 5800
Entry Wire Line
	8500 1100 8600 1200
Entry Wire Line
	8500 1200 8600 1300
Entry Wire Line
	8500 1300 8600 1400
Entry Wire Line
	8500 1400 8600 1500
Entry Wire Line
	8500 1500 8600 1600
Entry Wire Line
	8500 1600 8600 1700
Entry Wire Line
	8500 1700 8600 1800
Entry Wire Line
	8500 1800 8600 1900
Entry Wire Line
	8500 3050 8600 3150
Entry Wire Line
	8500 3150 8600 3250
Entry Wire Line
	8500 3250 8600 3350
Entry Wire Line
	8500 3350 8600 3450
Entry Wire Line
	8500 3450 8600 3550
Entry Wire Line
	8500 3550 8600 3650
Entry Wire Line
	8500 3650 8600 3750
Entry Wire Line
	8500 3750 8600 3850
Entry Wire Line
	8750 4900 8850 5000
Entry Wire Line
	8750 5000 8850 5100
Entry Wire Line
	8750 5100 8850 5200
Entry Wire Line
	8750 5200 8850 5300
Entry Wire Line
	8750 5300 8850 5400
Entry Wire Line
	8750 5400 8850 5500
Entry Wire Line
	8750 5500 8850 5600
Entry Wire Line
	8750 5600 8850 5700
Entry Wire Line
	8950 1000 9050 1100
Entry Wire Line
	8950 1100 9050 1200
Entry Wire Line
	8950 1200 9050 1300
Entry Wire Line
	8950 1300 9050 1400
Entry Wire Line
	8950 1400 9050 1500
Entry Wire Line
	8950 1500 9050 1600
Entry Wire Line
	8950 1600 9050 1700
Entry Wire Line
	8950 1700 9050 1800
Entry Wire Line
	8950 2950 9050 3050
Entry Wire Line
	8950 3050 9050 3150
Entry Wire Line
	8950 3150 9050 3250
Entry Wire Line
	8950 3250 9050 3350
Entry Wire Line
	8950 3350 9050 3450
Entry Wire Line
	8950 3450 9050 3550
Entry Wire Line
	8950 3550 9050 3650
Entry Wire Line
	8950 3650 9050 3750
Entry Wire Line
	10750 1100 10850 1200
Entry Wire Line
	10750 1200 10850 1300
Entry Wire Line
	10750 1300 10850 1400
Entry Wire Line
	10750 1400 10850 1500
Entry Wire Line
	10750 1500 10850 1600
Entry Wire Line
	10750 1600 10850 1700
Entry Wire Line
	10750 1700 10850 1800
Entry Wire Line
	10750 1800 10850 1900
Entry Wire Line
	10750 3050 10850 3150
Entry Wire Line
	10750 3150 10850 3250
Entry Wire Line
	10750 3250 10850 3350
Entry Wire Line
	10750 3350 10850 3450
Entry Wire Line
	10750 3450 10850 3550
Entry Wire Line
	10750 3550 10850 3650
Entry Wire Line
	10750 3650 10850 3750
Entry Wire Line
	10750 3750 10850 3850
Entry Wire Line
	10950 5000 11050 5100
Entry Wire Line
	10950 5100 11050 5200
Entry Wire Line
	10950 5200 11050 5300
Entry Wire Line
	10950 5300 11050 5400
Entry Wire Line
	10950 5400 11050 5500
Entry Wire Line
	10950 5500 11050 5600
Entry Wire Line
	10950 5600 11050 5700
Entry Wire Line
	10950 5700 11050 5800
Wire Wire Line
	1050 5900 1350 5900
Wire Wire Line
	1050 6000 1350 6000
Wire Wire Line
	1050 6100 1350 6100
Wire Wire Line
	1050 6200 1350 6200
Wire Wire Line
	1050 6300 1350 6300
Wire Wire Line
	1050 6400 1350 6400
Wire Wire Line
	1050 6500 1350 6500
Wire Wire Line
	1050 6600 1350 6600
Wire Wire Line
	1050 6950 1250 6950
Wire Wire Line
	1050 7050 1250 7050
Wire Wire Line
	1050 7150 1250 7150
Wire Wire Line
	1050 7250 1250 7250
Wire Wire Line
	1050 7350 1250 7350
Wire Wire Line
	1050 7450 1250 7450
Wire Wire Line
	1050 7550 1250 7550
Wire Wire Line
	1050 7650 1250 7650
Wire Wire Line
	1100 1750 1450 1750
Wire Wire Line
	1150 1050 1450 1050
Wire Wire Line
	1150 1150 1450 1150
Wire Wire Line
	1150 1250 1450 1250
Wire Wire Line
	1150 1350 1450 1350
Wire Wire Line
	1150 1450 1450 1450
Wire Wire Line
	2050 5900 2300 5900
Wire Wire Line
	2050 6000 2300 6000
Wire Wire Line
	2050 6100 2300 6100
Wire Wire Line
	2050 6200 2300 6200
Wire Wire Line
	2050 6300 2300 6300
Wire Wire Line
	2050 6400 2300 6400
Wire Wire Line
	2050 6500 2300 6500
Wire Wire Line
	2050 6600 2300 6600
Wire Wire Line
	2450 1050 3800 1050
Wire Wire Line
	2450 1150 3200 1150
Wire Wire Line
	2450 1250 3000 1250
Wire Wire Line
	2450 1350 3100 1350
Wire Wire Line
	3000 1250 3650 1250
Wire Wire Line
	3000 3550 3000 1250
Wire Wire Line
	3000 3550 4000 3550
Wire Wire Line
	3100 1350 3550 1350
Wire Wire Line
	3100 3450 3100 1350
Wire Wire Line
	3100 3450 4000 3450
Wire Wire Line
	3200 1150 3800 1150
Wire Wire Line
	3200 3350 3200 1150
Wire Wire Line
	3200 3350 4000 3350
Wire Wire Line
	3300 3850 4000 3850
Wire Wire Line
	3300 5650 3300 3850
Wire Wire Line
	3400 3750 3400 5550
Wire Wire Line
	3400 3750 4000 3750
Wire Wire Line
	3400 5550 4000 5550
Wire Wire Line
	3450 1750 3800 1750
Wire Wire Line
	3500 3650 4000 3650
Wire Wire Line
	3500 5450 3500 3650
Wire Wire Line
	3550 1450 3550 1350
Wire Wire Line
	3650 1250 3650 1350
Wire Wire Line
	3650 1350 3800 1350
Wire Wire Line
	3750 2950 4000 2950
Wire Wire Line
	3750 3050 4000 3050
Wire Wire Line
	3750 3150 4000 3150
Wire Wire Line
	3750 3250 4000 3250
Wire Wire Line
	3750 4750 4000 4750
Wire Wire Line
	3750 4850 4000 4850
Wire Wire Line
	3750 4950 4000 4950
Wire Wire Line
	3750 5050 4000 5050
Wire Wire Line
	3750 5150 4000 5150
Wire Wire Line
	3750 5250 4000 5250
Wire Wire Line
	3750 5350 4000 5350
Wire Wire Line
	3800 1450 3550 1450
Wire Wire Line
	3800 1750 3800 1850
Wire Wire Line
	4000 5450 3500 5450
Wire Wire Line
	4000 5650 3300 5650
Wire Wire Line
	4600 6350 4950 6350
Wire Wire Line
	4600 6450 4950 6450
Wire Wire Line
	4600 6550 4950 6550
Wire Wire Line
	4600 6650 4950 6650
Wire Wire Line
	4600 6750 4950 6750
Wire Wire Line
	4600 6850 4950 6850
Wire Wire Line
	4600 6950 4950 6950
Wire Wire Line
	4600 7050 4950 7050
Wire Wire Line
	4800 1050 5100 1050
Wire Wire Line
	4800 1150 5100 1150
Wire Wire Line
	4800 1350 5100 1350
Wire Wire Line
	4800 1450 5100 1450
Wire Wire Line
	4800 1550 5100 1550
Wire Wire Line
	4950 7250 4600 7250
Wire Wire Line
	5000 2950 5650 2950
Wire Wire Line
	5000 3050 5650 3050
Wire Wire Line
	5000 3150 5650 3150
Wire Wire Line
	5000 3250 5350 3250
Wire Wire Line
	5000 3350 5350 3350
Wire Wire Line
	5000 3450 5350 3450
Wire Wire Line
	5000 3550 5250 3550
Wire Wire Line
	5000 3650 5350 3650
Wire Wire Line
	5000 4750 5350 4750
Wire Wire Line
	5000 4850 5350 4850
Wire Wire Line
	5000 4950 5350 4950
Wire Wire Line
	5000 5050 5350 5050
Wire Wire Line
	5000 5150 5350 5150
Wire Wire Line
	5000 5350 5350 5350
Wire Wire Line
	5000 5450 5350 5450
Wire Wire Line
	5050 2050 5750 2050
Wire Wire Line
	5050 2150 5750 2150
Wire Wire Line
	5050 2250 5750 2250
Wire Wire Line
	5950 6350 6700 6350
Wire Wire Line
	5950 6450 6700 6450
Wire Wire Line
	5950 6550 6700 6550
Wire Wire Line
	5950 6750 6700 6750
Wire Wire Line
	5950 6850 6700 6850
Wire Wire Line
	5950 6950 6700 6950
Wire Wire Line
	5950 7050 6700 7050
Wire Wire Line
	6250 5000 6600 5000
Wire Wire Line
	6250 5100 6600 5100
Wire Wire Line
	6250 5200 6600 5200
Wire Wire Line
	6250 5300 6600 5300
Wire Wire Line
	6250 5400 6600 5400
Wire Wire Line
	6250 5500 6600 5500
Wire Wire Line
	6250 5600 6600 5600
Wire Wire Line
	6250 5700 6600 5700
Wire Wire Line
	6250 5900 6600 5900
Wire Wire Line
	6800 1100 7150 1100
Wire Wire Line
	6800 1200 7150 1200
Wire Wire Line
	6800 1300 7150 1300
Wire Wire Line
	6800 1400 7150 1400
Wire Wire Line
	6800 1500 7150 1500
Wire Wire Line
	6800 1600 7150 1600
Wire Wire Line
	6800 1700 7150 1700
Wire Wire Line
	6800 1800 7150 1800
Wire Wire Line
	6800 2000 7150 2000
Wire Wire Line
	7000 3950 7150 3950
Wire Wire Line
	7150 2100 6800 2100
Wire Wire Line
	7150 3050 7000 3050
Wire Wire Line
	7150 3150 7150 3050
Wire Wire Line
	7150 3250 7150 3150
Wire Wire Line
	7150 3350 7150 3250
Wire Wire Line
	7150 3450 7150 3350
Wire Wire Line
	7150 3550 7150 3450
Wire Wire Line
	7150 3650 7150 3550
Wire Wire Line
	7150 3750 7150 3650
Wire Wire Line
	7150 4050 6800 4050
Wire Wire Line
	7600 5000 8350 5000
Wire Wire Line
	7600 5100 8350 5100
Wire Wire Line
	7600 5200 8350 5200
Wire Wire Line
	7600 5300 8350 5300
Wire Wire Line
	7600 5400 8350 5400
Wire Wire Line
	7600 5500 8350 5500
Wire Wire Line
	7600 5600 8350 5600
Wire Wire Line
	7600 5700 8350 5700
Wire Wire Line
	8150 1100 8500 1100
Wire Wire Line
	8150 1200 8500 1200
Wire Wire Line
	8150 1300 8500 1300
Wire Wire Line
	8150 1400 8500 1400
Wire Wire Line
	8150 1500 8500 1500
Wire Wire Line
	8150 1600 8500 1600
Wire Wire Line
	8150 1700 8500 1700
Wire Wire Line
	8150 1800 8500 1800
Wire Wire Line
	8150 3050 8500 3050
Wire Wire Line
	8150 3150 8500 3150
Wire Wire Line
	8150 3250 8500 3250
Wire Wire Line
	8150 3350 8500 3350
Wire Wire Line
	8150 3450 8500 3450
Wire Wire Line
	8150 3550 8500 3550
Wire Wire Line
	8150 3650 8500 3650
Wire Wire Line
	8150 3750 8500 3750
Wire Wire Line
	8850 5000 9200 5000
Wire Wire Line
	8850 5100 9200 5100
Wire Wire Line
	8850 5200 9200 5200
Wire Wire Line
	8850 5300 9200 5300
Wire Wire Line
	8850 5400 9200 5400
Wire Wire Line
	8850 5500 9200 5500
Wire Wire Line
	8850 5600 9200 5600
Wire Wire Line
	8850 5700 9200 5700
Wire Wire Line
	8850 5900 9200 5900
Wire Wire Line
	9050 1100 9400 1100
Wire Wire Line
	9050 1200 9400 1200
Wire Wire Line
	9050 1300 9400 1300
Wire Wire Line
	9050 1400 9400 1400
Wire Wire Line
	9050 1500 9400 1500
Wire Wire Line
	9050 1600 9400 1600
Wire Wire Line
	9050 1700 9400 1700
Wire Wire Line
	9050 1800 9400 1800
Wire Wire Line
	9050 2000 9400 2000
Wire Wire Line
	9050 3050 9400 3050
Wire Wire Line
	9050 3150 9400 3150
Wire Wire Line
	9050 3250 9400 3250
Wire Wire Line
	9050 3350 9400 3350
Wire Wire Line
	9050 3450 9400 3450
Wire Wire Line
	9050 3550 9400 3550
Wire Wire Line
	9050 3650 9400 3650
Wire Wire Line
	9050 3750 9400 3750
Wire Wire Line
	9050 3950 9400 3950
Wire Wire Line
	9400 2100 9050 2100
Wire Wire Line
	9400 4050 9050 4050
Wire Wire Line
	10200 5000 10950 5000
Wire Wire Line
	10200 5100 10950 5100
Wire Wire Line
	10200 5200 10950 5200
Wire Wire Line
	10200 5300 10950 5300
Wire Wire Line
	10200 5400 10950 5400
Wire Wire Line
	10200 5500 10950 5500
Wire Wire Line
	10200 5600 10950 5600
Wire Wire Line
	10200 5700 10950 5700
Wire Wire Line
	10400 1100 10750 1100
Wire Wire Line
	10400 1200 10750 1200
Wire Wire Line
	10400 1300 10750 1300
Wire Wire Line
	10400 1400 10750 1400
Wire Wire Line
	10400 1500 10750 1500
Wire Wire Line
	10400 1600 10750 1600
Wire Wire Line
	10400 1700 10750 1700
Wire Wire Line
	10400 1800 10750 1800
Wire Wire Line
	10400 3050 10750 3050
Wire Wire Line
	10400 3150 10750 3150
Wire Wire Line
	10400 3250 10750 3250
Wire Wire Line
	10400 3350 10750 3350
Wire Wire Line
	10400 3450 10750 3450
Wire Wire Line
	10400 3550 10750 3550
Wire Wire Line
	10400 3650 10750 3650
Wire Wire Line
	10400 3750 10750 3750
Wire Bus Line
	950  700  1050 700 
Wire Bus Line
	1050 500  1050 700 
Wire Bus Line
	1050 500  5200 500 
Wire Bus Line
	1050 700  1050 1050
Wire Bus Line
	1050 1050 1050 1250
Wire Bus Line
	1050 1250 1050 1350
Wire Bus Line
	3650 2300 3650 2850
Wire Bus Line
	3650 2850 3650 3050
Wire Bus Line
	3650 3050 3650 4650
Wire Bus Line
	3650 4650 3650 4750
Wire Bus Line
	3650 4750 3650 4950
Wire Bus Line
	3650 4950 3650 5050
Wire Bus Line
	3650 5050 3650 5250
Wire Bus Line
	3800 2300 3650 2300
Wire Bus Line
	4500 6100 4350 6100
Wire Bus Line
	4500 6100 4500 6350
Wire Bus Line
	4500 6350 4500 6550
Wire Bus Line
	4500 6550 4500 6750
Wire Bus Line
	4500 6750 4500 6950
Wire Bus Line
	5200 500  5200 1050
Wire Bus Line
	5200 1050 5200 1350
Wire Bus Line
	5200 1350 5200 1450
Wire Bus Line
	5750 2600 5600 2600
Wire Bus Line
	5750 2600 5750 2950
Wire Bus Line
	5750 2950 5750 3050
Wire Bus Line
	6050 4500 6150 4500
Wire Bus Line
	6150 4500 6150 4900
Wire Bus Line
	6150 4500 8600 4500
Wire Bus Line
	6150 4900 6150 5100
Wire Bus Line
	6150 5100 6150 5300
Wire Bus Line
	6150 5300 6150 5500
Wire Bus Line
	6150 5500 6150 5600
Wire Bus Line
	6600 700  6700 700 
Wire Bus Line
	6700 550  6700 1000
Wire Bus Line
	6700 1000 6700 1200
Wire Bus Line
	6700 1200 6700 1400
Wire Bus Line
	6700 1400 6700 1600
Wire Bus Line
	6700 1600 6700 1700
Wire Bus Line
	6800 6450 6800 6550
Wire Bus Line
	6800 6450 8450 6450
Wire Bus Line
	6800 6550 6800 6850
Wire Bus Line
	6800 6850 6800 7050
Wire Bus Line
	6800 7050 6800 7300
Wire Bus Line
	6800 7300 6700 7300
Wire Bus Line
	8450 5100 8450 5300
Wire Bus Line
	8450 5300 8450 5500
Wire Bus Line
	8450 5500 8450 5700
Wire Bus Line
	8450 5700 8450 6450
Wire Bus Line
	8600 1200 8600 1400
Wire Bus Line
	8600 1400 8600 1600
Wire Bus Line
	8600 1600 8600 1800
Wire Bus Line
	8600 1800 8600 3150
Wire Bus Line
	8600 3150 8600 3350
Wire Bus Line
	8600 3350 8600 3550
Wire Bus Line
	8600 3550 8600 3750
Wire Bus Line
	8600 3750 8600 4500
Wire Bus Line
	8600 4500 8750 4500
Wire Bus Line
	8750 4500 8750 4900
Wire Bus Line
	8750 4500 10850 4500
Wire Bus Line
	8750 4900 8750 5100
Wire Bus Line
	8750 5100 8750 5300
Wire Bus Line
	8750 5300 8750 5400
Wire Bus Line
	8750 5400 8750 5600
Wire Bus Line
	8950 550  6700 550 
Wire Bus Line
	8950 550  8950 1100
Wire Bus Line
	8950 1100 8950 1200
Wire Bus Line
	8950 1200 8950 1400
Wire Bus Line
	8950 1400 8950 1600
Wire Bus Line
	8950 1600 8950 2950
Wire Bus Line
	8950 2950 8950 3150
Wire Bus Line
	8950 3150 8950 3350
Wire Bus Line
	8950 3350 8950 3550
Wire Bus Line
	8950 3550 8950 3650
Wire Bus Line
	10850 1200 10850 1400
Wire Bus Line
	10850 1400 10850 1600
Wire Bus Line
	10850 1600 10850 1800
Wire Bus Line
	10850 1800 10850 3150
Wire Bus Line
	10850 3150 10850 3350
Wire Bus Line
	10850 3350 10850 3550
Wire Bus Line
	10850 3550 10850 3750
Wire Bus Line
	10850 3750 10850 4500
Wire Bus Line
	11050 5100 11050 5300
Wire Bus Line
	11050 5300 11050 5500
Wire Bus Line
	11050 5500 11050 5700
Wire Bus Line
	11050 5700 11050 6450
Wire Bus Line
	11050 6450 8450 6450
Text Notes 650  3200 0    50   ~ 0
/o12 = /i11 & i1 & /i2 & (i13 + i5 & i6)\n/o14 = /i11 & \n            /i1\n            /i2 & /i13 & (/i5 + /i6)\n/o15 = /i11 & i1 & i2 & (/i3 & /i4 + i3 & i4)\n/o16 = /i11 & /i8 & i1 & i2 & (/i3 & /i4 + i3 & i4)\n/o17 = /i2 & /i1 + /i2 & /i7\no18 = i1 & (/i6 + i2)\no19 = i1 & (i5 & /i6 + /i5 & i6 + i2)\n
Text Notes 650  4150 0    50   ~ 0
o19 = ADDR>=8000 & (ADDR>=C000 + BANK=2-7)\no18 = ADDR>=C000 + ADDR>=8000 & /BANK1\no17 = ADDR>=C000 + ADDR>=4000 & (ADDR<8000 + BANK0)\n\n/o16 =/ENABLE & /WRITE & (ADDR=Cxxx + ADDR=Fxxx)\n/o15 =/ENABLE & (ADDR=Cxxx + ADDR=Fxxx)\n\n/o14 =/ENABLE & (ADDR<8000 + ADDR<C000 & BANK<6)\n/o12 =/ENABLE & ADDR=(4000-7FFF) & BANK>=6
Text Notes 650  4850 0    50   ~ 0
/o19 = /WRITE & /ENABLE & ADDR=Dxx0\n/o18 = /WRITE & /ENABLE & ADDR=Dxx1\n/o17 = /WRITE & /ENABLE & ADDR=Dxx2\n/o16 = /WRITE & /ENABLE & ADDR=Dxx3 // write bank select\n/o15 = /READ & /ENABLE & ADDR=Dxx7 // read bank select\n/o12 = /M1 & (ADDR >= 4000)
Text Notes 650  5500 0    50   ~ 0
/o12 = /i13 & (/i1 + /i2)\n/o14 =\n/o15 = i1 & i2 & /i3 & i4 & i5 & i6 & i7 & /i9 & /i11\n/o16 = i1 & i2 & /i3 & i4 & /i5 & i6 & i7 & /i8 & /i11\n/o17 = i1 & i2 & /i3 & i4 & /i5 & i6 & /i7 & /i8 & /i11\n/o18 = i1 & i2 & /i3 & i4 & /i5 & /i6 & i7 & /i8 & /i11\n/o19 = i1 & i2 & /i3 & i4 & /i5 & /i6 & /i7 & /i8 & /i11
Text Notes 8100 800  0    50   ~ 0
offset=0
Text Notes 10450 750  0    50   ~ 0
offset=1
Text Notes 10500 2750 0    50   ~ 0
offset=2
Text Label 1100 1750 0    50   ~ 0
~FLAG-W
Text Label 1100 5900 0    50   ~ 0
DATA0
Text Label 1100 6000 0    50   ~ 0
DATA1
Text Label 1100 6100 0    50   ~ 0
DATA2
Text Label 1100 6200 0    50   ~ 0
DATA3
Text Label 1100 6300 0    50   ~ 0
DATA4
Text Label 1100 6400 0    50   ~ 0
DATA5
Text Label 1100 6500 0    50   ~ 0
DATA6
Text Label 1100 6600 0    50   ~ 0
DATA7
Text Label 1100 6950 0    50   ~ 0
A7
Text Label 1100 7050 0    50   ~ 0
A6
Text Label 1100 7150 0    50   ~ 0
A5
Text Label 1100 7250 0    50   ~ 0
A4
Text Label 1100 7350 0    50   ~ 0
A3
Text Label 1100 7450 0    50   ~ 0
A2
Text Label 1100 7550 0    50   ~ 0
A1
Text Label 1100 7650 0    50   ~ 0
A0
Text Label 1200 1050 0    50   ~ 0
DATA3
Text Label 1200 1150 0    50   ~ 0
DATA2
Text Label 1200 1250 0    50   ~ 0
DATA0
Text Label 1200 1350 0    50   ~ 0
DATA1
Text Label 1200 1450 0    50   ~ 0
DATA7
Text Label 2100 5900 0    50   ~ 0
A14
Text Label 2100 6000 0    50   ~ 0
A13
Text Label 2100 6100 0    50   ~ 0
A12
Text Label 2100 6200 0    50   ~ 0
A15
Text Label 2100 6300 0    50   ~ 0
A8
Text Label 2100 6400 0    50   ~ 0
A9
Text Label 2100 6500 0    50   ~ 0
A11
Text Label 2100 6600 0    50   ~ 0
A10
Text Label 2550 1050 0    50   ~ 0
BANK3
Text Label 2550 1150 0    50   ~ 0
BANK2
Text Label 2550 1250 0    50   ~ 0
BANK0
Text Label 2550 1350 0    50   ~ 0
BANK1
Text Label 3450 1750 0    50   ~ 0
~FLAG-R
Text Label 3700 3650 0    50   ~ 0
~WRITE
Text Label 3700 3750 0    50   ~ 0
~READ
Text Label 3700 3850 0    50   ~ 0
~ENABLE
Text Label 3700 5450 0    50   ~ 0
~WRITE
Text Label 3700 5550 0    50   ~ 0
~READ
Text Label 3700 5650 0    50   ~ 0
~ENABLE
Text Label 3750 3350 0    50   ~ 0
BANK2
Text Label 3750 3450 0    50   ~ 0
BANK1
Text Label 3750 3550 0    50   ~ 0
BANK0
Text Label 3800 2950 0    50   ~ 0
A15
Text Label 3800 3050 0    50   ~ 0
A14
Text Label 3800 3150 0    50   ~ 0
A13
Text Label 3800 3250 0    50   ~ 0
A12
Text Label 3800 4750 0    50   ~ 0
A15
Text Label 3800 4850 0    50   ~ 0
A14
Text Label 3800 4950 0    50   ~ 0
A13
Text Label 3800 5050 0    50   ~ 0
A12
Text Label 3800 5150 0    50   ~ 0
A2
Text Label 3800 5250 0    50   ~ 0
A1
Text Label 3800 5350 0    50   ~ 0
A0
Text Label 4650 6350 0    50   ~ 0
QSH0
Text Label 4650 6450 0    50   ~ 0
QSH1
Text Label 4650 6550 0    50   ~ 0
QSH2
Text Label 4650 6650 0    50   ~ 0
QSH3
Text Label 4650 6750 0    50   ~ 0
QSH7
Text Label 4650 6850 0    50   ~ 0
QSH6
Text Label 4650 6950 0    50   ~ 0
QSH5
Text Label 4650 7050 0    50   ~ 0
QSH4
Text Label 4850 1050 0    50   ~ 0
DATA3
Text Label 4850 1150 0    50   ~ 0
DATA2
Text Label 4850 1350 0    50   ~ 0
DATA0
Text Label 4850 1450 0    50   ~ 0
DATA1
Text Label 4850 1550 0    50   ~ 0
DATA7
Text Label 5000 2950 0    50   ~ 0
SOUND-ADDR16
Text Label 5000 3050 0    50   ~ 0
SOUND-ADDR15
Text Label 5000 3150 0    50   ~ 0
SOUND-ADDR14
Text Label 5000 3550 0    50   ~ 0
BANK3
Text Label 5000 4750 0    50   ~ 0
~QS0H-W
Text Label 5000 4850 0    50   ~ 0
~QS0L-W
Text Label 5000 4950 0    50   ~ 0
~QS1L-W
Text Label 5000 5050 0    50   ~ 0
~FLAG-W
Text Label 5000 5150 0    50   ~ 0
~FLAG-R
Text Label 5100 2050 0    50   ~ 0
SOUND-ADDR14
Text Label 5100 2150 0    50   ~ 0
SOUND-ADDR15
Text Label 5100 2250 0    50   ~ 0
SOUND-ADDR16
Text Label 6000 6350 0    50   ~ 0
QSOUND-ADDR20
Text Label 6000 6450 0    50   ~ 0
QSOUND-ADDR21
Text Label 6000 6550 0    50   ~ 0
QSOUND-ADDR22
Text Label 6000 6750 0    50   ~ 0
QSOUND-ADDR16
Text Label 6000 6850 0    50   ~ 0
QSOUND-ADDR17
Text Label 6000 6950 0    50   ~ 0
QSOUND-ADDR18
Text Label 6000 7050 0    50   ~ 0
QSOUND-ADDR19
Text Label 6300 5000 0    50   ~ 0
BUS8
Text Label 6300 5100 0    50   ~ 0
BUS9
Text Label 6300 5200 0    50   ~ 0
BUS10
Text Label 6300 5300 0    50   ~ 0
BUS11
Text Label 6300 5400 0    50   ~ 0
BUS15
Text Label 6300 5500 0    50   ~ 0
BUS14
Text Label 6300 5600 0    50   ~ 0
BUS13
Text Label 6300 5700 0    50   ~ 0
BUS12
Text Label 6300 5900 0    50   ~ 0
~QSA-W
Text Label 6800 2000 0    50   ~ 0
~QS0H-W
Text Label 6850 1100 0    50   ~ 0
DATA6
Text Label 6850 1200 0    50   ~ 0
DATA4
Text Label 6850 1300 0    50   ~ 0
DATA2
Text Label 6850 1400 0    50   ~ 0
DATA0
Text Label 6850 1500 0    50   ~ 0
DATA1
Text Label 6850 1600 0    50   ~ 0
DATA3
Text Label 6850 1700 0    50   ~ 0
DATA5
Text Label 6850 1800 0    50   ~ 0
DATA7
Text Label 6850 2100 0    50   ~ 0
~QS0-R
Text Label 6850 4050 0    50   ~ 0
~QS1-R
Text Label 7650 5000 0    50   ~ 0
QSOUND-ADDR8
Text Label 7650 5100 0    50   ~ 0
QSOUND-ADDR9
Text Label 7650 5200 0    50   ~ 0
QSOUND-ADDR10
Text Label 7650 5300 0    50   ~ 0
QSOUND-ADDR11
Text Label 7650 5400 0    50   ~ 0
QSOUND-ADDR15
Text Label 7650 5500 0    50   ~ 0
QSOUND-ADDR14
Text Label 7650 5600 0    50   ~ 0
QSOUND-ADDR13
Text Label 7650 5700 0    50   ~ 0
QSOUND-ADDR12
Text Label 8200 1100 0    50   ~ 0
BUS14
Text Label 8200 1200 0    50   ~ 0
BUS12
Text Label 8200 1300 0    50   ~ 0
BUS10
Text Label 8200 1400 0    50   ~ 0
BUS8
Text Label 8200 1500 0    50   ~ 0
BUS9
Text Label 8200 1600 0    50   ~ 0
BUS11
Text Label 8200 1700 0    50   ~ 0
BUS13
Text Label 8200 1800 0    50   ~ 0
BUS15
Text Label 8200 3050 0    50   ~ 0
BUS15
Text Label 8200 3150 0    50   ~ 0
BUS13
Text Label 8200 3250 0    50   ~ 0
BUS11
Text Label 8200 3350 0    50   ~ 0
BUS9
Text Label 8200 3450 0    50   ~ 0
BUS14
Text Label 8200 3550 0    50   ~ 0
BUS12
Text Label 8200 3650 0    50   ~ 0
BUS10
Text Label 8200 3750 0    50   ~ 0
BUS8
Text Label 8900 5000 0    50   ~ 0
BUS0
Text Label 8900 5100 0    50   ~ 0
BUS1
Text Label 8900 5200 0    50   ~ 0
BUS2
Text Label 8900 5300 0    50   ~ 0
BUS3
Text Label 8900 5400 0    50   ~ 0
BUS7
Text Label 8900 5500 0    50   ~ 0
BUS6
Text Label 8900 5600 0    50   ~ 0
BUS5
Text Label 8900 5700 0    50   ~ 0
BUS4
Text Label 8900 5900 0    50   ~ 0
~QSA-W
Text Label 9050 2000 0    50   ~ 0
~QS0L-W
Text Label 9050 3950 0    50   ~ 0
~QS1L-W
Text Label 9100 1100 0    50   ~ 0
DATA5
Text Label 9100 1200 0    50   ~ 0
DATA1
Text Label 9100 1300 0    50   ~ 0
DATA4
Text Label 9100 1400 0    50   ~ 0
DATA0
Text Label 9100 1500 0    50   ~ 0
DATA2
Text Label 9100 1600 0    50   ~ 0
DATA6
Text Label 9100 1700 0    50   ~ 0
DATA3
Text Label 9100 1800 0    50   ~ 0
DATA7
Text Label 9100 2100 0    50   ~ 0
~QS0-R
Text Label 9100 3050 0    50   ~ 0
DATA5
Text Label 9100 3150 0    50   ~ 0
DATA1
Text Label 9100 3250 0    50   ~ 0
DATA4
Text Label 9100 3350 0    50   ~ 0
DATA0
Text Label 9100 3450 0    50   ~ 0
DATA2
Text Label 9100 3550 0    50   ~ 0
DATA6
Text Label 9100 3650 0    50   ~ 0
DATA3
Text Label 9100 3750 0    50   ~ 0
DATA7
Text Label 9100 4050 0    50   ~ 0
~QS1-R
Text Label 10250 5000 0    50   ~ 0
QSOUND-ADDR0
Text Label 10250 5100 0    50   ~ 0
QSOUND-ADDR1
Text Label 10250 5200 0    50   ~ 0
QSOUND-ADDR2
Text Label 10250 5300 0    50   ~ 0
QSOUND-ADDR3
Text Label 10250 5400 0    50   ~ 0
QSOUND-ADDR7
Text Label 10250 5500 0    50   ~ 0
QSOUND-ADDR6
Text Label 10250 5600 0    50   ~ 0
QSOUND-ADDR5
Text Label 10250 5700 0    50   ~ 0
QSOUND-ADDR4
Text Label 10450 1100 0    50   ~ 0
BUS5
Text Label 10450 1200 0    50   ~ 0
BUS1
Text Label 10450 1300 0    50   ~ 0
BUS4
Text Label 10450 1400 0    50   ~ 0
BUS0
Text Label 10450 1500 0    50   ~ 0
BUS2
Text Label 10450 1600 0    50   ~ 0
BUS6
Text Label 10450 1700 0    50   ~ 0
BUS3
Text Label 10450 1800 0    50   ~ 0
BUS7
Text Label 10450 3050 0    50   ~ 0
BUS5
Text Label 10450 3150 0    50   ~ 0
BUS1
Text Label 10450 3250 0    50   ~ 0
BUS4
Text Label 10450 3350 0    50   ~ 0
BUS0
Text Label 10450 3450 0    50   ~ 0
BUS2
Text Label 10450 3550 0    50   ~ 0
BUS6
Text Label 10450 3650 0    50   ~ 0
BUS3
Text Label 10450 3750 0    50   ~ 0
BUS7
Text HLabel 950  700  0    50   BiDi ~ 0
DATA[0..7]
Text HLabel 1450 1950 0    50   Input ~ 0
~RESET
Text HLabel 2450 1450 2    50   Output ~ 0
~DSP-RESET
Text HLabel 3300 3850 0    50   Input ~ 0
~ENABLE
Text HLabel 3400 3750 0    50   Input ~ 0
~READ
Text HLabel 3500 3650 0    50   Input ~ 0
~WRITE
Text HLabel 3800 1550 0    50   Input ~ 0
~DSP-READY
Text HLabel 3800 2300 2    50   Input ~ 0
A[0..15]
Text HLabel 4350 6100 0    50   Input ~ 0
QSH[0..7]
Text HLabel 4600 7250 0    50   Input ~ 0
~QSH-W
Text HLabel 5350 3250 2    50   Output ~ 0
~RAM-WE
Text HLabel 5350 3350 2    50   Output ~ 0
~RAM-E
Text HLabel 5350 3450 2    50   Output ~ 0
~SOUND-E1
Text HLabel 5350 3650 2    50   Output ~ 0
~SOUND-E2
Text HLabel 5350 5350 2    50   Input ~ 0
~M1
Text HLabel 5350 5450 2    50   Output ~ 0
PAL3-12
Text HLabel 5600 2600 0    50   Output ~ 0
SOUND-ADDR[14..16]
Text HLabel 6050 4500 0    50   BiDi ~ 0
BUS[0..15]
Text HLabel 6250 5900 0    50   Input ~ 0
~QSA-W
Text HLabel 6600 700  0    50   BiDi ~ 0
DATA[0..7]
Text HLabel 6700 7300 0    50   Output ~ 0
QSOUND-ADDR[0..22]
Text HLabel 6800 2100 0    50   Input ~ 0
~QS0-R
Text HLabel 6800 4050 0    50   Input ~ 0
~QS1-R
$Comp
L power:VCC #PWR?
U 1 1 61F4A371
P 650 5900
AR Path="/5FD09D2D/61F4A371" Ref="#PWR?"  Part="1" 
AR Path="/5E482366/61F4A371" Ref="#PWR0373"  Part="1" 
F 0 "#PWR0373" H 650 5750 50  0001 C CNN
F 1 "VCC" H 650 6100 50  0000 C CNN
F 2 "" H 650 5900 50  0001 C CNN
F 3 "" H 650 5900 50  0001 C CNN
	1    650  5900
	-1   0    0    -1  
$EndComp
$Comp
L power:VCC #PWR?
U 1 1 61F4A37D
P 650 6950
AR Path="/5FD09D2D/61F4A37D" Ref="#PWR?"  Part="1" 
AR Path="/5E482366/61F4A37D" Ref="#PWR0374"  Part="1" 
F 0 "#PWR0374" H 650 6800 50  0001 C CNN
F 1 "VCC" H 650 7150 50  0000 C CNN
F 2 "" H 650 6950 50  0001 C CNN
F 3 "" H 650 6950 50  0001 C CNN
	1    650  6950
	-1   0    0    -1  
$EndComp
$Comp
L power:VCC #PWR?
U 1 1 61F4A3AB
P 1650 5900
AR Path="/5FD09D2D/61F4A3AB" Ref="#PWR?"  Part="1" 
AR Path="/5E482366/61F4A3AB" Ref="#PWR0376"  Part="1" 
F 0 "#PWR0376" H 1650 5750 50  0001 C CNN
F 1 "VCC" H 1650 6100 50  0000 C CNN
F 2 "" H 1650 5900 50  0001 C CNN
F 3 "" H 1650 5900 50  0001 C CNN
	1    1650 5900
	-1   0    0    -1  
$EndComp
$Comp
L power:VCC #PWR?
U 1 1 5E906426
P 1950 750
AR Path="/5E906426" Ref="#PWR?"  Part="1" 
AR Path="/5E482366/5E906426" Ref="#PWR0188"  Part="1" 
F 0 "#PWR0188" H 1950 600 50  0001 C CNN
F 1 "VCC" H 1967 923 50  0000 C CNN
F 2 "" H 1950 750 50  0001 C CNN
F 3 "" H 1950 750 50  0001 C CNN
	1    1950 750 
	1    0    0    -1  
$EndComp
$Comp
L power:VCC #PWR?
U 1 1 5E8F4845
P 4300 750
AR Path="/5E8F4845" Ref="#PWR?"  Part="1" 
AR Path="/5E482366/5E8F4845" Ref="#PWR0187"  Part="1" 
F 0 "#PWR0187" H 4300 600 50  0001 C CNN
F 1 "VCC" H 4317 923 50  0000 C CNN
F 2 "" H 4300 750 50  0001 C CNN
F 3 "" H 4300 750 50  0001 C CNN
	1    4300 750 
	1    0    0    -1  
$EndComp
$Comp
L power:VCC #PWR?
U 1 1 5EB84046
P 4500 2750
AR Path="/5EB84046" Ref="#PWR?"  Part="1" 
AR Path="/5E482366/5EB84046" Ref="#PWR09"  Part="1" 
F 0 "#PWR09" H 4500 2600 50  0001 C CNN
F 1 "VCC" H 4517 2923 50  0000 C CNN
F 2 "" H 4500 2750 50  0001 C CNN
F 3 "" H 4500 2750 50  0001 C CNN
	1    4500 2750
	1    0    0    -1  
$EndComp
$Comp
L power:VCC #PWR?
U 1 1 5EB844DE
P 4500 4550
AR Path="/5EB844DE" Ref="#PWR?"  Part="1" 
AR Path="/5E482366/5EB844DE" Ref="#PWR010"  Part="1" 
F 0 "#PWR010" H 4500 4400 50  0001 C CNN
F 1 "VCC" H 4517 4723 50  0000 C CNN
F 2 "" H 4500 4550 50  0001 C CNN
F 3 "" H 4500 4550 50  0001 C CNN
	1    4500 4550
	1    0    0    -1  
$EndComp
$Comp
L power:VCC #PWR?
U 1 1 5EA3C97A
P 5450 6050
AR Path="/5EA3C97A" Ref="#PWR?"  Part="1" 
AR Path="/5E482366/5EA3C97A" Ref="#PWR0202"  Part="1" 
F 0 "#PWR0202" H 5450 5900 50  0001 C CNN
F 1 "VCC" H 5467 6223 50  0000 C CNN
F 2 "" H 5450 6050 50  0001 C CNN
F 3 "" H 5450 6050 50  0001 C CNN
	1    5450 6050
	1    0    0    -1  
$EndComp
$Comp
L power:VCC #PWR?
U 1 1 61F4A399
P 6150 1650
AR Path="/5FD09D2D/61F4A399" Ref="#PWR?"  Part="1" 
AR Path="/5E482366/61F4A399" Ref="#PWR0375"  Part="1" 
F 0 "#PWR0375" H 6150 1500 50  0001 C CNN
F 1 "VCC" H 6150 1850 50  0000 C CNN
F 2 "" H 6150 1650 50  0001 C CNN
F 3 "" H 6150 1650 50  0001 C CNN
	1    6150 1650
	1    0    0    -1  
$EndComp
$Comp
L power:VCC #PWR?
U 1 1 5E490448
P 7000 3950
AR Path="/5E490448" Ref="#PWR?"  Part="1" 
AR Path="/5E482366/5E490448" Ref="#PWR0181"  Part="1" 
F 0 "#PWR0181" H 7000 3800 50  0001 C CNN
F 1 "VCC" H 7017 4123 50  0000 C CNN
F 2 "" H 7000 3950 50  0001 C CNN
F 3 "" H 7000 3950 50  0001 C CNN
	1    7000 3950
	1    0    0    -1  
$EndComp
$Comp
L power:VCC #PWR?
U 1 1 5EA3C0D8
P 7100 4700
AR Path="/5EA3C0D8" Ref="#PWR?"  Part="1" 
AR Path="/5E482366/5EA3C0D8" Ref="#PWR0200"  Part="1" 
F 0 "#PWR0200" H 7100 4550 50  0001 C CNN
F 1 "VCC" H 7117 4873 50  0000 C CNN
F 2 "" H 7100 4700 50  0001 C CNN
F 3 "" H 7100 4700 50  0001 C CNN
	1    7100 4700
	1    0    0    -1  
$EndComp
$Comp
L power:VCC #PWR?
U 1 1 5E9DB7F3
P 7650 800
AR Path="/5E9DB7F3" Ref="#PWR?"  Part="1" 
AR Path="/5E482366/5E9DB7F3" Ref="#PWR0190"  Part="1" 
F 0 "#PWR0190" H 7650 650 50  0001 C CNN
F 1 "VCC" H 7667 973 50  0000 C CNN
F 2 "" H 7650 800 50  0001 C CNN
F 3 "" H 7650 800 50  0001 C CNN
	1    7650 800 
	1    0    0    -1  
$EndComp
$Comp
L power:VCC #PWR?
U 1 1 5E9EDAC3
P 7650 2750
AR Path="/5E9EDAC3" Ref="#PWR?"  Part="1" 
AR Path="/5E482366/5E9EDAC3" Ref="#PWR0199"  Part="1" 
F 0 "#PWR0199" H 7650 2600 50  0001 C CNN
F 1 "VCC" H 7667 2923 50  0000 C CNN
F 2 "" H 7650 2750 50  0001 C CNN
F 3 "" H 7650 2750 50  0001 C CNN
	1    7650 2750
	1    0    0    -1  
$EndComp
$Comp
L power:VCC #PWR?
U 1 1 5EA3C51B
P 9700 4700
AR Path="/5EA3C51B" Ref="#PWR?"  Part="1" 
AR Path="/5E482366/5EA3C51B" Ref="#PWR0201"  Part="1" 
F 0 "#PWR0201" H 9700 4550 50  0001 C CNN
F 1 "VCC" H 9717 4873 50  0000 C CNN
F 2 "" H 9700 4700 50  0001 C CNN
F 3 "" H 9700 4700 50  0001 C CNN
	1    9700 4700
	1    0    0    -1  
$EndComp
$Comp
L power:VCC #PWR?
U 1 1 5E9EC055
P 9900 800
AR Path="/5E9EC055" Ref="#PWR?"  Part="1" 
AR Path="/5E482366/5E9EC055" Ref="#PWR0191"  Part="1" 
F 0 "#PWR0191" H 9900 650 50  0001 C CNN
F 1 "VCC" H 9917 973 50  0000 C CNN
F 2 "" H 9900 800 50  0001 C CNN
F 3 "" H 9900 800 50  0001 C CNN
	1    9900 800 
	1    0    0    -1  
$EndComp
$Comp
L power:VCC #PWR?
U 1 1 5E9ED794
P 9900 2750
AR Path="/5E9ED794" Ref="#PWR?"  Part="1" 
AR Path="/5E482366/5E9ED794" Ref="#PWR0198"  Part="1" 
F 0 "#PWR0198" H 9900 2600 50  0001 C CNN
F 1 "VCC" H 9917 2923 50  0000 C CNN
F 2 "" H 9900 2750 50  0001 C CNN
F 3 "" H 9900 2750 50  0001 C CNN
	1    9900 2750
	1    0    0    -1  
$EndComp
$Comp
L power:GND #PWR?
U 1 1 5DE4955B
P 1450 1550
AR Path="/5E735482/5DE4955B" Ref="#PWR?"  Part="1" 
AR Path="/5E482366/5DE4955B" Ref="#PWR0203"  Part="1" 
F 0 "#PWR0203" H 1450 1300 50  0001 C CNN
F 1 "GND" H 1455 1377 50  0001 C CNN
F 2 "" H 1450 1550 50  0001 C CNN
F 3 "" H 1450 1550 50  0001 C CNN
	1    1450 1550
	1    0    0    -1  
$EndComp
$Comp
L power:GND #PWR?
U 1 1 5E547270
P 1950 2250
AR Path="/5E735482/5E547270" Ref="#PWR?"  Part="1" 
AR Path="/5E482366/5E547270" Ref="#PWR0186"  Part="1" 
F 0 "#PWR0186" H 1950 2000 50  0001 C CNN
F 1 "GND" H 1955 2077 50  0001 C CNN
F 2 "" H 1950 2250 50  0001 C CNN
F 3 "" H 1950 2250 50  0001 C CNN
	1    1950 2250
	1    0    0    -1  
$EndComp
$Comp
L power:GND #PWR?
U 1 1 5E547276
P 4300 2150
AR Path="/5E735482/5E547276" Ref="#PWR?"  Part="1" 
AR Path="/5E482366/5E547276" Ref="#PWR0185"  Part="1" 
F 0 "#PWR0185" H 4300 1900 50  0001 C CNN
F 1 "GND" H 4305 1977 50  0001 C CNN
F 2 "" H 4300 2150 50  0001 C CNN
F 3 "" H 4300 2150 50  0001 C CNN
	1    4300 2150
	1    0    0    -1  
$EndComp
$Comp
L power:GND #PWR?
U 1 1 5E5472A8
P 4500 4050
AR Path="/5E735482/5E5472A8" Ref="#PWR?"  Part="1" 
AR Path="/5E482366/5E5472A8" Ref="#PWR0184"  Part="1" 
F 0 "#PWR0184" H 4500 3800 50  0001 C CNN
F 1 "GND" H 4505 3877 50  0001 C CNN
F 2 "" H 4500 4050 50  0001 C CNN
F 3 "" H 4500 4050 50  0001 C CNN
	1    4500 4050
	1    0    0    -1  
$EndComp
$Comp
L power:GND #PWR?
U 1 1 5E5472B4
P 4500 5850
AR Path="/5E735482/5E5472B4" Ref="#PWR?"  Part="1" 
AR Path="/5E482366/5E5472B4" Ref="#PWR0183"  Part="1" 
F 0 "#PWR0183" H 4500 5600 50  0001 C CNN
F 1 "GND" H 4505 5677 50  0001 C CNN
F 2 "" H 4500 5850 50  0001 C CNN
F 3 "" H 4500 5850 50  0001 C CNN
	1    4500 5850
	1    0    0    -1  
$EndComp
$Comp
L power:GND #PWR?
U 1 1 5E4904FF
P 4950 7350
AR Path="/5E4904FF" Ref="#PWR?"  Part="1" 
AR Path="/5E482366/5E4904FF" Ref="#PWR0180"  Part="1" 
F 0 "#PWR0180" H 4950 7100 50  0001 C CNN
F 1 "GND" H 4955 7177 50  0001 C CNN
F 2 "" H 4950 7350 50  0001 C CNN
F 3 "" H 4950 7350 50  0001 C CNN
	1    4950 7350
	1    0    0    -1  
$EndComp
$Comp
L power:GND #PWR?
U 1 1 5E95885E
P 5450 7650
AR Path="/5E95885E" Ref="#PWR?"  Part="1" 
AR Path="/5E482366/5E95885E" Ref="#PWR0189"  Part="1" 
F 0 "#PWR0189" H 5450 7400 50  0001 C CNN
F 1 "GND" H 5455 7477 50  0001 C CNN
F 2 "" H 5450 7650 50  0001 C CNN
F 3 "" H 5450 7650 50  0001 C CNN
	1    5450 7650
	1    0    0    -1  
$EndComp
$Comp
L power:GND #PWR?
U 1 1 5E4904B9
P 6600 6000
AR Path="/5E4904B9" Ref="#PWR?"  Part="1" 
AR Path="/5E482366/5E4904B9" Ref="#PWR0178"  Part="1" 
F 0 "#PWR0178" H 6600 5750 50  0001 C CNN
F 1 "GND" H 6605 5827 50  0001 C CNN
F 2 "" H 6600 6000 50  0001 C CNN
F 3 "" H 6600 6000 50  0001 C CNN
	1    6600 6000
	1    0    0    -1  
$EndComp
$Comp
L power:GND #PWR?
U 1 1 5E490442
P 7000 3050
AR Path="/5E490442" Ref="#PWR?"  Part="1" 
AR Path="/5E482366/5E490442" Ref="#PWR0182"  Part="1" 
F 0 "#PWR0182" H 7000 2800 50  0001 C CNN
F 1 "GND" H 7005 2877 50  0001 C CNN
F 2 "" H 7000 3050 50  0001 C CNN
F 3 "" H 7000 3050 50  0001 C CNN
	1    7000 3050
	1    0    0    -1  
$EndComp
$Comp
L power:GND #PWR?
U 1 1 5E9ED180
P 7100 6300
AR Path="/5E735482/5E9ED180" Ref="#PWR?"  Part="1" 
AR Path="/5E482366/5E9ED180" Ref="#PWR0196"  Part="1" 
F 0 "#PWR0196" H 7100 6050 50  0001 C CNN
F 1 "GND" H 7105 6127 50  0001 C CNN
F 2 "" H 7100 6300 50  0001 C CNN
F 3 "" H 7100 6300 50  0001 C CNN
	1    7100 6300
	1    0    0    -1  
$EndComp
$Comp
L power:GND #PWR?
U 1 1 5E9EC365
P 7650 2400
AR Path="/5E735482/5E9EC365" Ref="#PWR?"  Part="1" 
AR Path="/5E482366/5E9EC365" Ref="#PWR0192"  Part="1" 
F 0 "#PWR0192" H 7650 2150 50  0001 C CNN
F 1 "GND" H 7655 2227 50  0001 C CNN
F 2 "" H 7650 2400 50  0001 C CNN
F 3 "" H 7650 2400 50  0001 C CNN
	1    7650 2400
	1    0    0    -1  
$EndComp
$Comp
L power:GND #PWR?
U 1 1 5E9ECDBC
P 7650 4350
AR Path="/5E735482/5E9ECDBC" Ref="#PWR?"  Part="1" 
AR Path="/5E482366/5E9ECDBC" Ref="#PWR0195"  Part="1" 
F 0 "#PWR0195" H 7650 4100 50  0001 C CNN
F 1 "GND" H 7655 4177 50  0001 C CNN
F 2 "" H 7650 4350 50  0001 C CNN
F 3 "" H 7650 4350 50  0001 C CNN
	1    7650 4350
	1    0    0    -1  
$EndComp
$Comp
L power:GND #PWR?
U 1 1 5E4904BF
P 9200 6000
AR Path="/5E4904BF" Ref="#PWR?"  Part="1" 
AR Path="/5E482366/5E4904BF" Ref="#PWR0179"  Part="1" 
F 0 "#PWR0179" H 9200 5750 50  0001 C CNN
F 1 "GND" H 9205 5827 50  0001 C CNN
F 2 "" H 9200 6000 50  0001 C CNN
F 3 "" H 9200 6000 50  0001 C CNN
	1    9200 6000
	1    0    0    -1  
$EndComp
$Comp
L power:GND #PWR?
U 1 1 5E9ED4F3
P 9700 6300
AR Path="/5E735482/5E9ED4F3" Ref="#PWR?"  Part="1" 
AR Path="/5E482366/5E9ED4F3" Ref="#PWR0197"  Part="1" 
F 0 "#PWR0197" H 9700 6050 50  0001 C CNN
F 1 "GND" H 9705 6127 50  0001 C CNN
F 2 "" H 9700 6300 50  0001 C CNN
F 3 "" H 9700 6300 50  0001 C CNN
	1    9700 6300
	1    0    0    -1  
$EndComp
$Comp
L power:GND #PWR?
U 1 1 5E9EC73D
P 9900 2400
AR Path="/5E735482/5E9EC73D" Ref="#PWR?"  Part="1" 
AR Path="/5E482366/5E9EC73D" Ref="#PWR0193"  Part="1" 
F 0 "#PWR0193" H 9900 2150 50  0001 C CNN
F 1 "GND" H 9905 2227 50  0001 C CNN
F 2 "" H 9900 2400 50  0001 C CNN
F 3 "" H 9900 2400 50  0001 C CNN
	1    9900 2400
	1    0    0    -1  
$EndComp
$Comp
L power:GND #PWR?
U 1 1 5E9ECA47
P 9900 4350
AR Path="/5E735482/5E9ECA47" Ref="#PWR?"  Part="1" 
AR Path="/5E482366/5E9ECA47" Ref="#PWR0194"  Part="1" 
F 0 "#PWR0194" H 9900 4100 50  0001 C CNN
F 1 "GND" H 9905 4177 50  0001 C CNN
F 2 "" H 9900 4350 50  0001 C CNN
F 3 "" H 9900 4350 50  0001 C CNN
	1    9900 4350
	1    0    0    -1  
$EndComp
$Comp
L Device:R_Network08 RA?
U 1 1 61F4A36B
P 850 6300
AR Path="/5FD09D2D/61F4A36B" Ref="RA?"  Part="1" 
AR Path="/5E482366/61F4A36B" Ref="RA14"  Part="1" 
F 0 "RA14" V 233 6300 50  0000 C CNN
F 1 "4.7k" V 324 6300 50  0000 C CNN
F 2 "Resistor_THT:R_Array_SIP9" V 1325 6300 50  0001 C CNN
F 3 "http://www.vishay.com/docs/31509/csc.pdf" H 850 6300 50  0001 C CNN
	1    850  6300
	0    -1   1    0   
$EndComp
$Comp
L Device:R_Network08 RA?
U 1 1 61F4A377
P 850 7350
AR Path="/5FD09D2D/61F4A377" Ref="RA?"  Part="1" 
AR Path="/5E482366/61F4A377" Ref="RA15"  Part="1" 
F 0 "RA15" V 233 7350 50  0000 C CNN
F 1 "4.7k" V 324 7350 50  0000 C CNN
F 2 "Resistor_THT:R_Array_SIP9" V 1325 7350 50  0001 C CNN
F 3 "http://www.vishay.com/docs/31509/csc.pdf" H 850 7350 50  0001 C CNN
	1    850  7350
	0    -1   1    0   
$EndComp
$Comp
L Device:R_Network08 RA?
U 1 1 61F4A3A5
P 1850 6300
AR Path="/5FD09D2D/61F4A3A5" Ref="RA?"  Part="1" 
AR Path="/5E482366/61F4A3A5" Ref="RA16"  Part="1" 
F 0 "RA16" V 1233 6300 50  0000 C CNN
F 1 "4.7k" V 1324 6300 50  0000 C CNN
F 2 "Resistor_THT:R_Array_SIP9" V 2325 6300 50  0001 C CNN
F 3 "http://www.vishay.com/docs/31509/csc.pdf" H 1850 6300 50  0001 C CNN
	1    1850 6300
	0    -1   1    0   
$EndComp
$Comp
L Device:R_Network08 RA?
U 1 1 61F4A393
P 5950 2050
AR Path="/5FD09D2D/61F4A393" Ref="RA?"  Part="1" 
AR Path="/5E482366/61F4A393" Ref="RA13"  Part="1" 
F 0 "RA13" V 5333 2050 50  0000 C CNN
F 1 "4.7k" V 5424 2050 50  0000 C CNN
F 2 "Resistor_THT:R_Array_SIP9" V 6425 2050 50  0001 C CNN
F 3 "http://www.vishay.com/docs/31509/csc.pdf" H 5950 2050 50  0001 C CNN
	1    5950 2050
	0    1    1    0   
$EndComp
$Comp
L CPS2-Custom:PAL16L8-PIN13IN UK4
U 1 1 5DF9C24C
P 4500 3450
F 0 "UK4" H 4250 4100 50  0000 C CNN
F 1 "PAL16L8" H 4700 2900 50  0000 C CNN
F 2 "" H 4500 3450 50  0001 C CNN
F 3 "" H 4500 3450 50  0001 C CNN
	1    4500 3450
	1    0    0    -1  
$EndComp
$Comp
L CPS2-Custom:PAL16L8-PIN13IN UK3
U 1 1 5DF9AE04
P 4500 5250
F 0 "UK3" H 4250 5900 50  0000 C CNN
F 1 "PAL16L8" H 4700 4700 50  0000 C CNN
F 2 "" H 4500 5250 50  0001 C CNN
F 3 "" H 4500 5250 50  0001 C CNN
	1    4500 5250
	1    0    0    -1  
$EndComp
$Comp
L 74xx:74LS367 U?
U 1 1 5E547239
P 4300 1450
AR Path="/5E735482/5E547239" Ref="U?"  Part="1" 
AR Path="/5E482366/5E547239" Ref="UM2"  Part="1" 
F 0 "UM2" H 4050 2050 50  0000 C CNN
F 1 "74LS367" H 4500 850 50  0000 C CNN
F 2 "" H 4300 1450 50  0001 C CNN
F 3 "http://www.ti.com/lit/gpn/sn74LS367" H 4300 1450 50  0001 C CNN
	1    4300 1450
	1    0    0    -1  
$EndComp
$Comp
L 74xx:74LS174 U?
U 1 1 5E547233
P 1950 1450
AR Path="/5E735482/5E547233" Ref="U?"  Part="1" 
AR Path="/5E482366/5E547233" Ref="UM3"  Part="1" 
F 0 "UM3" H 1700 2050 50  0000 C CNN
F 1 "74LS174" H 2150 750 50  0000 C CNN
F 2 "" H 1950 1450 50  0001 C CNN
F 3 "http://www.ti.com/lit/gpn/sn74LS174" H 1950 1450 50  0001 C CNN
	1    1950 1450
	1    0    0    -1  
$EndComp
$Comp
L 74xx:74LS374 UM?
U 1 1 5E4903EE
P 5450 6850
AR Path="/5E4903EE" Ref="UM?"  Part="1" 
AR Path="/5E482366/5E4903EE" Ref="UN2"  Part="1" 
F 0 "UN2" H 5200 7550 50  0000 C CNN
F 1 "74LS374" H 5650 6150 50  0000 C CNN
F 2 "" H 5450 6850 50  0001 C CNN
F 3 "http://www.ti.com/lit/gpn/sn74LS374" H 5450 6850 50  0001 C CNN
	1    5450 6850
	1    0    0    -1  
$EndComp
$Comp
L 74xx:74LS374 UR?
U 1 1 5E4904A3
P 7100 5500
AR Path="/5E4904A3" Ref="UR?"  Part="1" 
AR Path="/5E482366/5E4904A3" Ref="UR2"  Part="1" 
F 0 "UR2" H 6850 6200 50  0000 C CNN
F 1 "74LS374" H 7300 4800 50  0000 C CNN
F 2 "" H 7100 5500 50  0001 C CNN
F 3 "http://www.ti.com/lit/gpn/sn74LS374" H 7100 5500 50  0001 C CNN
	1    7100 5500
	1    0    0    -1  
$EndComp
$Comp
L 74xx:74LS374 US?
U 1 1 5E4903E2
P 7650 1600
AR Path="/5E4903E2" Ref="US?"  Part="1" 
AR Path="/5E482366/5E4903E2" Ref="US4"  Part="1" 
F 0 "US4" H 7400 2250 50  0000 C CNN
F 1 "74LS374" H 7850 900 50  0000 C CNN
F 2 "" H 7650 1600 50  0001 C CNN
F 3 "http://www.ti.com/lit/gpn/sn74LS374" H 7650 1600 50  0001 C CNN
	1    7650 1600
	1    0    0    -1  
$EndComp
$Comp
L 74xx:74LS245 US?
U 1 1 5E49042D
P 7650 3550
AR Path="/5E49042D" Ref="US?"  Part="1" 
AR Path="/5E482366/5E49042D" Ref="US5"  Part="1" 
F 0 "US5" H 7400 4200 50  0000 C CNN
F 1 "74LS245" H 7850 2850 50  0000 C CNN
F 2 "" H 7650 3550 50  0001 C CNN
F 3 "http://www.ti.com/lit/gpn/sn74LS245" H 7650 3550 50  0001 C CNN
	1    7650 3550
	1    0    0    -1  
$EndComp
$Comp
L 74xx:74LS374 UP?
U 1 1 5E49048D
P 9700 5500
AR Path="/5E49048D" Ref="UP?"  Part="1" 
AR Path="/5E482366/5E49048D" Ref="UP2"  Part="1" 
F 0 "UP2" H 9450 6200 50  0000 C CNN
F 1 "74LS374" H 9900 4800 50  0000 C CNN
F 2 "" H 9700 5500 50  0001 C CNN
F 3 "http://www.ti.com/lit/gpn/sn74LS374" H 9700 5500 50  0001 C CNN
	1    9700 5500
	1    0    0    -1  
$EndComp
$Comp
L 74xx:74LS374 US?
U 1 1 5E4903E8
P 9900 1600
AR Path="/5E4903E8" Ref="US?"  Part="1" 
AR Path="/5E482366/5E4903E8" Ref="US2"  Part="1" 
F 0 "US2" H 9700 2250 50  0000 C CNN
F 1 "74LS374" H 10100 900 50  0000 C CNN
F 2 "" H 9900 1600 50  0001 C CNN
F 3 "http://www.ti.com/lit/gpn/sn74LS374" H 9900 1600 50  0001 C CNN
	1    9900 1600
	1    0    0    -1  
$EndComp
$Comp
L 74xx:74LS374 US?
U 1 1 5E490414
P 9900 3550
AR Path="/5E490414" Ref="US?"  Part="1" 
AR Path="/5E482366/5E490414" Ref="US3"  Part="1" 
F 0 "US3" H 9650 4200 50  0000 C CNN
F 1 "74LS374" H 10100 2850 50  0000 C CNN
F 2 "" H 9900 3550 50  0001 C CNN
F 3 "http://www.ti.com/lit/gpn/sn74LS374" H 9900 3550 50  0001 C CNN
	1    9900 3550
	1    0    0    -1  
$EndComp
$EndSCHEMATC
