EESchema Schematic File Version 5
EELAYER 33 0
EELAYER END
$Descr A4 11693 8268
encoding utf-8
Sheet 3 22
Title ""
Date "2019-11-23"
Rev ""
Comp ""
Comment1 "Licence: CC-BY"
Comment2 "Author: Loïc *WydD* Petit"
Comment3 ""
Comment4 ""
Comment5 ""
Comment6 ""
Comment7 ""
Comment8 ""
Comment9 ""
$EndDescr
Connection ~ 1100 3050
Connection ~ 1100 3200
Connection ~ 1700 3350
Connection ~ 10100 2800
Connection ~ 10100 3600
Connection ~ 10100 3200
Connection ~ 2100 3050
Connection ~ 4000 6800
Connection ~ 3400 4800
Connection ~ 4700 6300
Connection ~ 8600 5700
Connection ~ 3400 4000
Connection ~ 8800 4900
Connection ~ 8800 5000
Connection ~ 8800 5500
Connection ~ 8800 5400
Connection ~ 8800 5200
Connection ~ 8800 5100
Connection ~ 5200 2750
Connection ~ 3400 3050
Connection ~ 6600 2950
Connection ~ 5950 700 
Connection ~ 5950 1700
Connection ~ 6700 700 
Connection ~ 6700 1700
Connection ~ 7500 700 
Connection ~ 7500 1700
Connection ~ 4400 700 
Connection ~ 4400 1700
Connection ~ 5150 700 
Connection ~ 5150 1700
Connection ~ 4750 3800
NoConn ~ 10700 2400
NoConn ~ 10700 2800
NoConn ~ 10700 3200
NoConn ~ 10700 3600
NoConn ~ 5550 6500
NoConn ~ 4700 6500
NoConn ~ 6200 3150
NoConn ~ 5500 4100
NoConn ~ 9800 4900
NoConn ~ 9800 5000
NoConn ~ 9800 5100
NoConn ~ 9800 5200
NoConn ~ 8600 5800
NoConn ~ 8600 5900
NoConn ~ 8600 6000
NoConn ~ 7450 5500
NoConn ~ 7450 5600
NoConn ~ 6300 5200
NoConn ~ 6300 5300
NoConn ~ 5100 4900
NoConn ~ 5100 5000
NoConn ~ 10800 5500
Wire Wire Line
	1000 3050 1100 3050
Wire Wire Line
	1100 3050 1100 3200
Wire Wire Line
	1100 3200 1100 3350
Wire Wire Line
	1700 3350 1700 3200
Wire Wire Line
	1700 3550 1700 3350
Wire Wire Line
	1800 3050 1700 3050
Wire Wire Line
	2000 3050 2100 3050
Wire Wire Line
	2100 3050 2100 3450
Wire Wire Line
	2700 3050 3400 3050
Wire Wire Line
	3400 3050 3400 4000
Wire Wire Line
	3400 3050 5600 3050
Wire Wire Line
	3400 4000 3400 4800
Wire Wire Line
	3400 4000 4900 4000
Wire Wire Line
	3400 6800 3400 4800
Wire Wire Line
	3550 2750 4600 2750
Wire Wire Line
	3600 700  4400 700 
Wire Wire Line
	3600 800  3600 700 
Wire Wire Line
	3600 1600 3600 1700
Wire Wire Line
	3600 1700 4400 1700
Wire Wire Line
	3950 4450 3950 4900
Wire Wire Line
	3950 4900 4100 4900
Wire Wire Line
	4000 6400 4100 6400
Wire Wire Line
	4000 6800 3400 6800
Wire Wire Line
	4000 6800 4000 6400
Wire Wire Line
	4100 4800 3400 4800
Wire Wire Line
	4100 6700 4400 6700
Wire Wire Line
	4400 700  5150 700 
Wire Wire Line
	4400 1700 5150 1700
Wire Wire Line
	4400 5800 4400 6100
Wire Wire Line
	4600 3800 4750 3800
Wire Wire Line
	4700 3300 4750 3300
Wire Wire Line
	4700 6300 4700 5950
Wire Wire Line
	4750 3300 4750 3800
Wire Wire Line
	4750 3900 4750 3800
Wire Wire Line
	4750 3900 4900 3900
Wire Wire Line
	4800 6400 4800 6800
Wire Wire Line
	4800 6800 4000 6800
Wire Wire Line
	4900 4300 5200 4300
Wire Wire Line
	4950 6300 4700 6300
Wire Wire Line
	4950 6400 4800 6400
Wire Wire Line
	4950 6700 5250 6700
Wire Wire Line
	5100 4450 3950 4450
Wire Wire Line
	5100 4800 5100 4450
Wire Wire Line
	5100 5100 5300 5100
Wire Wire Line
	5150 700  5950 700 
Wire Wire Line
	5150 1700 5950 1700
Wire Wire Line
	5200 2750 5200 3700
Wire Wire Line
	5200 2750 5900 2750
Wire Wire Line
	5200 4750 6300 4750
Wire Wire Line
	5200 5200 5200 4750
Wire Wire Line
	5300 5200 5200 5200
Wire Wire Line
	5500 2950 5500 3900
Wire Wire Line
	5500 2950 5600 2950
Wire Wire Line
	5550 5800 4400 5800
Wire Wire Line
	5550 6300 5550 5800
Wire Wire Line
	5900 3350 5600 3350
Wire Wire Line
	5950 700  6700 700 
Wire Wire Line
	5950 800  5950 700 
Wire Wire Line
	5950 1600 5950 1700
Wire Wire Line
	5950 1700 6700 1700
Wire Wire Line
	6300 4750 6300 5100
Wire Wire Line
	6300 5400 6450 5400
Wire Wire Line
	6400 5050 7450 5050
Wire Wire Line
	6400 5500 6400 5050
Wire Wire Line
	6450 5500 6400 5500
Wire Wire Line
	6600 2950 6200 2950
Wire Wire Line
	6600 2950 6600 3450
Wire Wire Line
	6600 2950 6750 2950
Wire Wire Line
	6600 3450 6850 3450
Wire Wire Line
	6700 700  7500 700 
Wire Wire Line
	6700 1700 7500 1700
Wire Wire Line
	7350 2850 7800 2850
Wire Wire Line
	7450 5050 7450 5400
Wire Wire Line
	7500 700  8300 700 
Wire Wire Line
	7500 1700 8300 1700
Wire Wire Line
	7550 5350 8600 5350
Wire Wire Line
	7550 5800 7550 5350
Wire Wire Line
	7600 5700 7450 5700
Wire Wire Line
	7600 5800 7550 5800
Wire Wire Line
	8300 700  8300 800 
Wire Wire Line
	8300 1700 8300 1600
Wire Wire Line
	8600 5350 8600 5700
Wire Wire Line
	8650 4900 8800 4900
Wire Wire Line
	8800 4900 8800 5000
Wire Wire Line
	8800 5000 8800 5100
Wire Wire Line
	8800 5100 8800 5200
Wire Wire Line
	8800 5200 8800 5400
Wire Wire Line
	8800 5400 8800 5500
Wire Wire Line
	8800 5500 8800 5600
Wire Wire Line
	8800 5700 8600 5700
Wire Wire Line
	9700 4100 10500 4100
Wire Wire Line
	9800 5400 10200 5400
Wire Wire Line
	10100 2800 10100 2400
Wire Wire Line
	10100 2800 10100 3200
Wire Wire Line
	10100 3200 10100 3600
Wire Wire Line
	10200 5300 10100 5300
Wire Wire Line
	10200 5700 10500 5700
Wire Wire Line
	10500 4100 10500 5100
Text Notes 6400 4800 0    50   ~ 0
This whole block until UL8 output is a 32k clock divider.\n(Rising #30000 Falling #32000)\nIt provides a 250Hz clock to UM11B
Text Label 3600 2750 0    50   ~ 0
~BUS-E
Text Label 3950 2750 0    50   ~ 0
4M-11
Text Label 4300 2750 0    50   ~ 0
IO62
Text Label 9800 5400 0    50   ~ 0
CLK250HZ
Text HLabel 2700 3450 2    50   Output ~ 0
Z80-CLK
Text HLabel 3550 2750 0    50   Input ~ 0
~BUS-E
Text HLabel 4000 3700 0    50   Input ~ 0
~Z80-BUSREQ
Text HLabel 4000 3900 0    50   Input ~ 0
~Z80-BUSACK
Text HLabel 4100 6300 0    50   Input ~ 0
PALA3-12
Text HLabel 4700 3300 0    50   Output ~ 0
~Z80-BUSIO
Text HLabel 4700 5950 2    50   Output ~ 0
~Z80-WAIT
Text HLabel 6750 2750 0    50   Input ~ 0
~BUS-WE
Text HLabel 6850 3450 2    50   Output ~ 0
CIF155
Text HLabel 7800 2850 2    50   Output ~ 0
~Z80-BUSW
Text HLabel 9100 4000 0    50   Input ~ 0
~Z80-M1
Text HLabel 9100 4200 0    50   Input ~ 0
~Z80-IOREQ
Text HLabel 10800 5300 2    50   Output ~ 0
~Z80-INT
$Comp
L power:VCC #PWR?
U 1 1 5E4AB442
P 1000 3050
AR Path="/5E4AB442" Ref="#PWR?"  Part="1" 
AR Path="/5E4999E7/5E4AB442" Ref="#PWR0133"  Part="1" 
F 0 "#PWR0133" H 1000 2900 50  0001 C CNN
F 1 "VCC" H 1000 3200 50  0000 C CNN
F 2 "" H 1000 3050 50  0001 C CNN
F 3 "" H 1000 3050 50  0001 C CNN
	1    1000 3050
	1    0    0    -1  
$EndComp
$Comp
L power:VCC #PWR?
U 1 1 5E4AB57C
P 4100 6700
AR Path="/5E4AB57C" Ref="#PWR?"  Part="1" 
AR Path="/5E4999E7/5E4AB57C" Ref="#PWR0139"  Part="1" 
F 0 "#PWR0139" H 4100 6550 50  0001 C CNN
F 1 "VCC" H 4100 6850 50  0000 C CNN
F 2 "" H 4100 6700 50  0001 C CNN
F 3 "" H 4100 6700 50  0001 C CNN
	1    4100 6700
	1    0    0    -1  
$EndComp
$Comp
L power:VCC #PWR?
U 1 1 5E4AB433
P 4900 4300
AR Path="/5E4AB433" Ref="#PWR?"  Part="1" 
AR Path="/5E4999E7/5E4AB433" Ref="#PWR0149"  Part="1" 
F 0 "#PWR0149" H 4900 4150 50  0001 C CNN
F 1 "VCC" H 4900 4450 50  0000 C CNN
F 2 "" H 4900 4300 50  0001 C CNN
F 3 "" H 4900 4300 50  0001 C CNN
	1    4900 4300
	1    0    0    -1  
$EndComp
$Comp
L power:VCC #PWR?
U 1 1 5E4AB56F
P 4950 6700
AR Path="/5E4AB56F" Ref="#PWR?"  Part="1" 
AR Path="/5E4999E7/5E4AB56F" Ref="#PWR0140"  Part="1" 
F 0 "#PWR0140" H 4950 6550 50  0001 C CNN
F 1 "VCC" H 4950 6850 50  0000 C CNN
F 2 "" H 4950 6700 50  0001 C CNN
F 3 "" H 4950 6700 50  0001 C CNN
	1    4950 6700
	1    0    0    -1  
$EndComp
$Comp
L power:VCC #PWR?
U 1 1 5E4AB583
P 5250 6100
AR Path="/5E4AB583" Ref="#PWR?"  Part="1" 
AR Path="/5E4999E7/5E4AB583" Ref="#PWR0138"  Part="1" 
F 0 "#PWR0138" H 5250 5950 50  0001 C CNN
F 1 "VCC" H 5250 6250 50  0000 C CNN
F 2 "" H 5250 6100 50  0001 C CNN
F 3 "" H 5250 6100 50  0001 C CNN
	1    5250 6100
	1    0    0    -1  
$EndComp
$Comp
L power:VCC #PWR?
U 1 1 5E4AB41B
P 5600 3350
AR Path="/5E4AB41B" Ref="#PWR?"  Part="1" 
AR Path="/5E4999E7/5E4AB41B" Ref="#PWR0150"  Part="1" 
F 0 "#PWR0150" H 5600 3200 50  0001 C CNN
F 1 "VCC" H 5600 3500 50  0000 C CNN
F 2 "" H 5600 3350 50  0001 C CNN
F 3 "" H 5600 3350 50  0001 C CNN
	1    5600 3350
	1    0    0    -1  
$EndComp
$Comp
L power:VCC #PWR?
U 1 1 5E6B4530
P 5950 700
AR Path="/5E6B4530" Ref="#PWR?"  Part="1" 
AR Path="/5E4999E7/5E6B4530" Ref="#PWR0151"  Part="1" 
F 0 "#PWR0151" H 5950 550 50  0001 C CNN
F 1 "VCC" H 5950 850 50  0000 C CNN
F 2 "" H 5950 700 50  0001 C CNN
F 3 "" H 5950 700 50  0001 C CNN
	1    5950 700 
	1    0    0    -1  
$EndComp
$Comp
L power:VCC #PWR?
U 1 1 5E4AB4ED
P 8650 4900
AR Path="/5E4AB4ED" Ref="#PWR?"  Part="1" 
AR Path="/5E4999E7/5E4AB4ED" Ref="#PWR0145"  Part="1" 
F 0 "#PWR0145" H 8650 4750 50  0001 C CNN
F 1 "VCC" H 8650 5050 50  0000 C CNN
F 2 "" H 8650 4900 50  0001 C CNN
F 3 "" H 8650 4900 50  0001 C CNN
	1    8650 4900
	1    0    0    -1  
$EndComp
$Comp
L power:VCC #PWR?
U 1 1 5E4AB4F8
P 8800 5900
AR Path="/5E4AB4F8" Ref="#PWR?"  Part="1" 
AR Path="/5E4999E7/5E4AB4F8" Ref="#PWR0144"  Part="1" 
F 0 "#PWR0144" H 8800 5750 50  0001 C CNN
F 1 "VCC" H 8800 6050 50  0000 C CNN
F 2 "" H 8800 5900 50  0001 C CNN
F 3 "" H 8800 5900 50  0001 C CNN
	1    8800 5900
	1    0    0    -1  
$EndComp
$Comp
L power:VCC #PWR?
U 1 1 5E5BAF02
P 9300 4600
AR Path="/5E5BAF02" Ref="#PWR?"  Part="1" 
AR Path="/5E4999E7/5E5BAF02" Ref="#PWR0136"  Part="1" 
F 0 "#PWR0136" H 9300 4450 50  0001 C CNN
F 1 "VCC" H 9300 4750 50  0000 C CNN
F 2 "" H 9300 4600 50  0001 C CNN
F 3 "" H 9300 4600 50  0001 C CNN
	1    9300 4600
	1    0    0    -1  
$EndComp
$Comp
L power:VCC #PWR?
U 1 1 5E4AB532
P 10200 5700
AR Path="/5E4AB532" Ref="#PWR?"  Part="1" 
AR Path="/5E4999E7/5E4AB532" Ref="#PWR0142"  Part="1" 
F 0 "#PWR0142" H 10200 5550 50  0001 C CNN
F 1 "VCC" H 10200 5850 50  0000 C CNN
F 2 "" H 10200 5700 50  0001 C CNN
F 3 "" H 10200 5700 50  0001 C CNN
	1    10200 5700
	1    0    0    -1  
$EndComp
$Comp
L power:GND #PWR?
U 1 1 5E4AB44D
P 1700 3550
AR Path="/5E4AB44D" Ref="#PWR?"  Part="1" 
AR Path="/5E4999E7/5E4AB44D" Ref="#PWR0134"  Part="1" 
F 0 "#PWR0134" H 1700 3300 50  0001 C CNN
F 1 "GND" H 1705 3377 50  0001 C CNN
F 2 "" H 1700 3550 50  0001 C CNN
F 3 "" H 1700 3550 50  0001 C CNN
	1    1700 3550
	1    0    0    -1  
$EndComp
$Comp
L power:GND #PWR?
U 1 1 5E4AB4C0
P 4100 5100
AR Path="/5E4AB4C0" Ref="#PWR?"  Part="1" 
AR Path="/5E4999E7/5E4AB4C0" Ref="#PWR0148"  Part="1" 
F 0 "#PWR0148" H 4100 4850 50  0001 C CNN
F 1 "GND" H 4105 4927 50  0001 C CNN
F 2 "" H 4100 5100 50  0001 C CNN
F 3 "" H 4100 5100 50  0001 C CNN
	1    4100 5100
	1    0    0    -1  
$EndComp
$Comp
L power:GND #PWR?
U 1 1 5E4AB4C6
P 5300 5400
AR Path="/5E4AB4C6" Ref="#PWR?"  Part="1" 
AR Path="/5E4999E7/5E4AB4C6" Ref="#PWR0147"  Part="1" 
F 0 "#PWR0147" H 5300 5150 50  0001 C CNN
F 1 "GND" H 5305 5227 50  0001 C CNN
F 2 "" H 5300 5400 50  0001 C CNN
F 3 "" H 5300 5400 50  0001 C CNN
	1    5300 5400
	1    0    0    -1  
$EndComp
$Comp
L power:GND #PWR?
U 1 1 5E6BABB0
P 5950 1700
AR Path="/5E6BABB0" Ref="#PWR?"  Part="1" 
AR Path="/5E4999E7/5E6BABB0" Ref="#PWR0152"  Part="1" 
F 0 "#PWR0152" H 5950 1450 50  0001 C CNN
F 1 "GND" H 5955 1527 50  0001 C CNN
F 2 "" H 5950 1700 50  0001 C CNN
F 3 "" H 5950 1700 50  0001 C CNN
	1    5950 1700
	1    0    0    -1  
$EndComp
$Comp
L power:GND #PWR?
U 1 1 5E4AB4D2
P 6450 5700
AR Path="/5E4AB4D2" Ref="#PWR?"  Part="1" 
AR Path="/5E4999E7/5E4AB4D2" Ref="#PWR0146"  Part="1" 
F 0 "#PWR0146" H 6450 5450 50  0001 C CNN
F 1 "GND" H 6455 5527 50  0001 C CNN
F 2 "" H 6450 5700 50  0001 C CNN
F 3 "" H 6450 5700 50  0001 C CNN
	1    6450 5700
	1    0    0    -1  
$EndComp
$Comp
L power:GND #PWR?
U 1 1 5E4AB558
P 7600 6000
AR Path="/5E4AB558" Ref="#PWR?"  Part="1" 
AR Path="/5E4999E7/5E4AB558" Ref="#PWR0141"  Part="1" 
F 0 "#PWR0141" H 7600 5750 50  0001 C CNN
F 1 "GND" H 7605 5827 50  0001 C CNN
F 2 "" H 7600 6000 50  0001 C CNN
F 3 "" H 7600 6000 50  0001 C CNN
	1    7600 6000
	1    0    0    -1  
$EndComp
$Comp
L power:GND #PWR?
U 1 1 5E4F823F
P 9300 6200
AR Path="/5E4F823F" Ref="#PWR?"  Part="1" 
AR Path="/5E4999E7/5E4F823F" Ref="#PWR0137"  Part="1" 
F 0 "#PWR0137" H 9300 5950 50  0001 C CNN
F 1 "GND" H 9305 6027 50  0001 C CNN
F 2 "" H 9300 6200 50  0001 C CNN
F 3 "" H 9300 6200 50  0001 C CNN
	1    9300 6200
	1    0    0    -1  
$EndComp
$Comp
L power:GND #PWR?
U 1 1 5E4AB45B
P 10100 3600
AR Path="/5E4AB45B" Ref="#PWR?"  Part="1" 
AR Path="/5E4999E7/5E4AB45B" Ref="#PWR0135"  Part="1" 
F 0 "#PWR0135" H 10100 3350 50  0001 C CNN
F 1 "GND" H 10105 3427 50  0001 C CNN
F 2 "" H 10100 3600 50  0001 C CNN
F 3 "" H 10100 3600 50  0001 C CNN
	1    10100 3600
	1    0    0    -1  
$EndComp
$Comp
L power:GND #PWR?
U 1 1 5E4AB52B
P 10100 5300
AR Path="/5E4AB52B" Ref="#PWR?"  Part="1" 
AR Path="/5E4999E7/5E4AB52B" Ref="#PWR0143"  Part="1" 
F 0 "#PWR0143" H 10100 5050 50  0001 C CNN
F 1 "GND" H 10105 5127 50  0001 C CNN
F 2 "" H 10100 5300 50  0001 C CNN
F 3 "" H 10100 5300 50  0001 C CNN
	1    10100 5300
	-1   0    0    1   
$EndComp
$Comp
L Device:Ferrite_Bead_Small FB?
U 1 1 5E4AB467
P 1900 3050
AR Path="/5E4AB467" Ref="FB?"  Part="1" 
AR Path="/5E4999E7/5E4AB467" Ref="FB29"  Part="1" 
F 0 "FB29" V 1755 3050 50  0000 C CNN
F 1 "Ferrite_Bead_Small" V 1754 3050 50  0001 C CNN
F 2 "" V 1830 3050 50  0001 C CNN
F 3 "~" H 1900 3050 50  0001 C CNN
	1    1900 3050
	0    1    1    0   
$EndComp
$Comp
L 74xx:74LS04 U?
U 3 1 5E4AB4AE
P 2400 3050
AR Path="/5E4AB4AE" Ref="U?"  Part="3" 
AR Path="/5E4999E7/5E4AB4AE" Ref="UK6"  Part="3" 
F 0 "UK6" H 2400 3367 50  0000 C CNN
F 1 "HCU04" H 2400 3276 50  0000 C CNN
F 2 "" H 2400 3050 50  0001 C CNN
F 3 "http://www.ti.com/lit/gpn/sn74LS04" H 2400 3050 50  0001 C CNN
	3    2400 3050
	1    0    0    -1  
$EndComp
$Comp
L 74xx:74LS04 U?
U 2 1 5E4AB4A8
P 2400 3450
AR Path="/5E4AB4A8" Ref="U?"  Part="2" 
AR Path="/5E4999E7/5E4AB4A8" Ref="UK6"  Part="2" 
F 0 "UK6" H 2400 3250 50  0000 C CNN
F 1 "HCU04" H 2400 3150 50  0000 C CNN
F 2 "" H 2400 3450 50  0001 C CNN
F 3 "http://www.ti.com/lit/gpn/sn74LS04" H 2400 3450 50  0001 C CNN
	2    2400 3450
	1    0    0    -1  
$EndComp
$Comp
L 74xx:74LS04 U?
U 3 1 5E4AB490
P 4900 2750
AR Path="/5E4AB490" Ref="U?"  Part="3" 
AR Path="/5E4999E7/5E4AB490" Ref="UK13"  Part="3" 
F 0 "UK13" H 4900 3067 50  0000 C CNN
F 1 "74LS04" H 4900 2976 50  0000 C CNN
F 2 "" H 4900 2750 50  0001 C CNN
F 3 "http://www.ti.com/lit/gpn/sn74LS04" H 4900 2750 50  0001 C CNN
	3    4900 2750
	1    0    0    -1  
$EndComp
$Comp
L 74xx:74LS04 U?
U 6 1 5E4AB478
P 10400 2400
AR Path="/5E4AB478" Ref="U?"  Part="6" 
AR Path="/5E4999E7/5E4AB478" Ref="UK6"  Part="6" 
F 0 "UK6" H 10400 2717 50  0000 C CNN
F 1 "HCU04" H 10400 2626 50  0000 C CNN
F 2 "" H 10400 2400 50  0001 C CNN
F 3 "http://www.ti.com/lit/gpn/sn74LS04" H 10400 2400 50  0001 C CNN
	6    10400 2400
	1    0    0    -1  
$EndComp
$Comp
L 74xx:74LS04 U?
U 5 1 5E4AB47E
P 10400 2800
AR Path="/5E4AB47E" Ref="U?"  Part="5" 
AR Path="/5E4999E7/5E4AB47E" Ref="UK6"  Part="5" 
F 0 "UK6" H 10400 3025 50  0000 C CNN
F 1 "HCU04" H 10400 3026 50  0001 C CNN
F 2 "" H 10400 2800 50  0001 C CNN
F 3 "http://www.ti.com/lit/gpn/sn74LS04" H 10400 2800 50  0001 C CNN
	5    10400 2800
	1    0    0    -1  
$EndComp
$Comp
L 74xx:74LS04 U?
U 1 1 5E4AB4A2
P 10400 3200
AR Path="/5E4AB4A2" Ref="U?"  Part="1" 
AR Path="/5E4999E7/5E4AB4A2" Ref="UK6"  Part="1" 
F 0 "UK6" H 10400 3425 50  0000 C CNN
F 1 "HCU04" H 10400 3426 50  0001 C CNN
F 2 "" H 10400 3200 50  0001 C CNN
F 3 "http://www.ti.com/lit/gpn/sn74LS04" H 10400 3200 50  0001 C CNN
	1    10400 3200
	1    0    0    -1  
$EndComp
$Comp
L 74xx:74LS04 U?
U 4 1 5E4AB484
P 10400 3600
AR Path="/5E4AB484" Ref="U?"  Part="4" 
AR Path="/5E4999E7/5E4AB484" Ref="UK6"  Part="4" 
F 0 "UK6" H 10400 3825 50  0000 C CNN
F 1 "HCU04" H 10400 3826 50  0001 C CNN
F 2 "" H 10400 3600 50  0001 C CNN
F 3 "http://www.ti.com/lit/gpn/sn74LS04" H 10400 3600 50  0001 C CNN
	4    10400 3600
	1    0    0    -1  
$EndComp
$Comp
L 74xx:74LS32 U?
U 4 1 5E4AB539
P 4300 3800
AR Path="/5E4AB539" Ref="U?"  Part="4" 
AR Path="/5E4999E7/5E4AB539" Ref="UM9"  Part="4" 
F 0 "UM9" H 4300 4125 50  0000 C CNN
F 1 "74LS32" H 4300 4034 50  0000 C CNN
F 2 "" H 4300 3800 50  0001 C CNN
F 3 "http://www.ti.com/lit/gpn/sn74LS32" H 4300 3800 50  0001 C CNN
	4    4300 3800
	1    0    0    -1  
$EndComp
$Comp
L 74xx:74LS32 U?
U 1 1 5E4AB510
P 7050 2850
AR Path="/5E4AB510" Ref="U?"  Part="1" 
AR Path="/5E4999E7/5E4AB510" Ref="UM9"  Part="1" 
F 0 "UM9" H 7050 2533 50  0000 C CNN
F 1 "74LS32" H 7050 2624 50  0000 C CNN
F 2 "" H 7050 2850 50  0001 C CNN
F 3 "http://www.ti.com/lit/gpn/sn74LS32" H 7050 2850 50  0001 C CNN
	1    7050 2850
	1    0    0    1   
$EndComp
$Comp
L 74xx:74LS32 U?
U 2 1 5E4AB51E
P 9400 4100
AR Path="/5E4AB51E" Ref="U?"  Part="2" 
AR Path="/5E4999E7/5E4AB51E" Ref="UM9"  Part="2" 
F 0 "UM9" H 9400 4425 50  0000 C CNN
F 1 "74LS32" H 9400 4334 50  0000 C CNN
F 2 "" H 9400 4100 50  0001 C CNN
F 3 "http://www.ti.com/lit/gpn/sn74LS32" H 9400 4100 50  0001 C CNN
	2    9400 4100
	1    0    0    -1  
$EndComp
$Comp
L 74xx:74LS74 UK8
U 3 1 5E89E305
P 3600 1200
F 0 "UK8" H 3830 1246 50  0000 L CNN
F 1 "F74" H 3830 1155 50  0000 L CNN
F 2 "" H 3600 1200 50  0001 C CNN
F 3 "74xx/74hc_hct74.pdf" H 3600 1200 50  0001 C CNN
	3    3600 1200
	1    0    0    -1  
$EndComp
$Comp
L 74xx:74LS74 U?
U 3 1 5E4AB428
P 5950 1200
AR Path="/5E4AB428" Ref="U?"  Part="3" 
AR Path="/5E4999E7/5E4AB428" Ref="UK9"  Part="3" 
F 0 "UK9" H 6180 1246 50  0000 L CNN
F 1 "74LS74" H 6180 1155 50  0000 L CNN
F 2 "" H 5950 1200 50  0001 C CNN
F 3 "74xx/74hc_hct74.pdf" H 5950 1200 50  0001 C CNN
	3    5950 1200
	1    0    0    -1  
$EndComp
$Comp
L 74xx:74LS74 U?
U 3 1 5E547232
P 8300 1200
AR Path="/5E547232" Ref="U?"  Part="3" 
AR Path="/5E4999E7/5E547232" Ref="UM11"  Part="3" 
F 0 "UM11" H 8530 1246 50  0000 L CNN
F 1 "74LS74" H 8530 1155 50  0000 L CNN
F 2 "" H 8300 1200 50  0001 C CNN
F 3 "74xx/74hc_hct74.pdf" H 8300 1200 50  0001 C CNN
	3    8300 1200
	1    0    0    -1  
$EndComp
$Comp
L CPS2-Custom:MCO8100 U?
U 1 1 5E4AB43C
P 1400 3200
AR Path="/5E4AB43C" Ref="U?"  Part="1" 
AR Path="/5E4999E7/5E4AB43C" Ref="UK7"  Part="1" 
F 0 "UK7" H 1400 3450 50  0000 C CNN
F 1 "8MHz" H 1400 2950 50  0000 C CNN
F 2 "" V 1550 3250 50  0001 C CNN
F 3 "" V 1550 3250 50  0001 C CNN
	1    1400 3200
	1    0    0    -1  
$EndComp
$Comp
L 74xx:74LS74 U?
U 2 1 5E4AB576
P 4400 6400
AR Path="/5E4AB576" Ref="U?"  Part="2" 
AR Path="/5E4999E7/5E4AB576" Ref="UK8"  Part="2" 
F 0 "UK8" H 4200 6650 50  0000 C CNN
F 1 "F74" H 4550 6150 50  0000 C CNN
F 2 "" H 4400 6400 50  0001 C CNN
F 3 "74xx/74hc_hct74.pdf" H 4400 6400 50  0001 C CNN
	2    4400 6400
	1    0    0    -1  
$EndComp
$Comp
L 74xx:74LS74 U?
U 2 1 5E4AB422
P 5200 4000
AR Path="/5E4AB422" Ref="U?"  Part="2" 
AR Path="/5E4999E7/5E4AB422" Ref="UK9"  Part="2" 
F 0 "UK9" H 5000 4250 50  0000 C CNN
F 1 "74LS74" H 5350 3750 50  0000 C CNN
F 2 "" H 5200 4000 50  0001 C CNN
F 3 "74xx/74hc_hct74.pdf" H 5200 4000 50  0001 C CNN
	2    5200 4000
	1    0    0    -1  
$EndComp
$Comp
L 74xx:74LS74 U?
U 1 1 5E4AB569
P 5250 6400
AR Path="/5E4AB569" Ref="U?"  Part="1" 
AR Path="/5E4999E7/5E4AB569" Ref="UK8"  Part="1" 
F 0 "UK8" H 5050 6650 50  0000 C CNN
F 1 "F74" H 5400 6150 50  0000 C CNN
F 2 "" H 5250 6400 50  0001 C CNN
F 3 "74xx/74hc_hct74.pdf" H 5250 6400 50  0001 C CNN
	1    5250 6400
	1    0    0    -1  
$EndComp
$Comp
L 74xx:74LS74 U?
U 1 1 5E4AB3F0
P 5900 3050
AR Path="/5E4AB3F0" Ref="U?"  Part="1" 
AR Path="/5E4999E7/5E4AB3F0" Ref="UK9"  Part="1" 
F 0 "UK9" H 5700 3300 50  0000 C CNN
F 1 "74LS74" H 6050 2800 50  0000 C CNN
F 2 "" H 5900 3050 50  0001 C CNN
F 3 "74xx/74hc_hct74.pdf" H 5900 3050 50  0001 C CNN
	1    5900 3050
	1    0    0    -1  
$EndComp
$Comp
L 74xx:74LS74 U?
U 2 1 5E4AB50A
P 10500 5400
AR Path="/5E4AB50A" Ref="U?"  Part="2" 
AR Path="/5E4999E7/5E4AB50A" Ref="UM11"  Part="2" 
F 0 "UM11" H 10300 5650 50  0000 C CNN
F 1 "74LS74" H 10650 5150 50  0000 C CNN
F 2 "" H 10500 5400 50  0001 C CNN
F 3 "74xx/74hc_hct74.pdf" H 10500 5400 50  0001 C CNN
	2    10500 5400
	1    0    0    -1  
$EndComp
$Comp
L 74xx:74LS32 UM9
U 5 1 5E55366E
P 4400 1200
F 0 "UM9" H 4630 1246 50  0000 L CNN
F 1 "74LS32" H 4630 1155 50  0000 L CNN
F 2 "" H 4400 1200 50  0001 C CNN
F 3 "http://www.ti.com/lit/gpn/sn74LS32" H 4400 1200 50  0001 C CNN
	5    4400 1200
	1    0    0    -1  
$EndComp
$Comp
L 74xx:74LS04 U?
U 7 1 5E4AB48A
P 5150 1200
AR Path="/5E4AB48A" Ref="U?"  Part="7" 
AR Path="/5E4999E7/5E4AB48A" Ref="UK13"  Part="7" 
F 0 "UK13" H 5380 1246 50  0000 L CNN
F 1 "74LS04" H 5380 1155 50  0000 L CNN
F 2 "" H 5150 1200 50  0001 C CNN
F 3 "http://www.ti.com/lit/gpn/sn74LS04" H 5150 1200 50  0001 C CNN
	7    5150 1200
	1    0    0    -1  
$EndComp
$Comp
L 74xx:74LS390 U?
U 3 1 5E4AB4FE
P 6700 1200
AR Path="/5E4AB4FE" Ref="U?"  Part="3" 
AR Path="/5E4999E7/5E4AB4FE" Ref="UL11"  Part="3" 
F 0 "UL11" H 6930 1246 50  0000 L CNN
F 1 "74LS390" H 6930 1155 50  0000 L CNN
F 2 "" H 6700 1200 50  0001 C CNN
F 3 "http://www.ti.com/lit/gpn/sn74LS390" H 6700 1200 50  0001 C CNN
	3    6700 1200
	1    0    0    -1  
$EndComp
$Comp
L 74xx:74LS390 U?
U 3 1 5E4AB504
P 7500 1200
AR Path="/5E4AB504" Ref="U?"  Part="3" 
AR Path="/5E4999E7/5E4AB504" Ref="UL9"  Part="3" 
F 0 "UL9" H 7730 1246 50  0000 L CNN
F 1 "74LS390" H 7730 1155 50  0000 L CNN
F 2 "" H 7500 1200 50  0001 C CNN
F 3 "http://www.ti.com/lit/gpn/sn74LS390" H 7500 1200 50  0001 C CNN
	3    7500 1200
	1    0    0    -1  
$EndComp
$Comp
L 74xx:74LS390 U?
U 1 1 5E4AB4B4
P 4600 4900
AR Path="/5E4AB4B4" Ref="U?"  Part="1" 
AR Path="/5E4999E7/5E4AB4B4" Ref="UL11"  Part="1" 
F 0 "UL11" H 4600 5267 50  0000 C CNN
F 1 "74LS390" H 4600 5176 50  0000 C CNN
F 2 "" H 4600 4900 50  0001 C CNN
F 3 "http://www.ti.com/lit/gpn/sn74LS390" H 4600 4900 50  0001 C CNN
	1    4600 4900
	1    0    0    -1  
$EndComp
$Comp
L 74xx:74LS390 U?
U 2 1 5E4AB4BA
P 5800 5200
AR Path="/5E4AB4BA" Ref="U?"  Part="2" 
AR Path="/5E4999E7/5E4AB4BA" Ref="UL11"  Part="2" 
F 0 "UL11" H 5800 5567 50  0000 C CNN
F 1 "74LS390" H 5800 5476 50  0000 C CNN
F 2 "" H 5800 5200 50  0001 C CNN
F 3 "http://www.ti.com/lit/gpn/sn74LS390" H 5800 5200 50  0001 C CNN
	2    5800 5200
	1    0    0    -1  
$EndComp
$Comp
L 74xx:74LS390 U?
U 1 1 5E4AB4CC
P 6950 5500
AR Path="/5E4AB4CC" Ref="U?"  Part="1" 
AR Path="/5E4999E7/5E4AB4CC" Ref="UL9"  Part="1" 
F 0 "UL9" H 6950 5867 50  0000 C CNN
F 1 "74LS390" H 6950 5776 50  0000 C CNN
F 2 "" H 6950 5500 50  0001 C CNN
F 3 "http://www.ti.com/lit/gpn/sn74LS390" H 6950 5500 50  0001 C CNN
	1    6950 5500
	1    0    0    -1  
$EndComp
$Comp
L 74xx:74LS390 U?
U 2 1 5E4AB4D8
P 8100 5800
AR Path="/5E4AB4D8" Ref="U?"  Part="2" 
AR Path="/5E4999E7/5E4AB4D8" Ref="UL9"  Part="2" 
F 0 "UL9" H 8100 6167 50  0000 C CNN
F 1 "74LS390" H 8100 6076 50  0000 C CNN
F 2 "" H 8100 5800 50  0001 C CNN
F 3 "http://www.ti.com/lit/gpn/sn74LS390" H 8100 5800 50  0001 C CNN
	2    8100 5800
	1    0    0    -1  
$EndComp
$Comp
L 74xx:74LS161 U?
U 1 1 5E4AB4DE
P 9300 5400
AR Path="/5E4AB4DE" Ref="U?"  Part="1" 
AR Path="/5E4999E7/5E4AB4DE" Ref="UL8"  Part="1" 
F 0 "UL8" H 9050 6050 50  0000 C CNN
F 1 "74LS161" H 9500 4700 50  0000 C CNN
F 2 "" H 9300 5400 50  0001 C CNN
F 3 "http://www.ti.com/lit/gpn/sn74LS161" H 9300 5400 50  0001 C CNN
	1    9300 5400
	1    0    0    -1  
$EndComp
$EndSCHEMATC
