EESchema Schematic File Version 5
EELAYER 33 0
EELAYER END
$Descr A4 11693 8268
encoding utf-8
Sheet 2 22
Title ""
Date "2019-11-23"
Rev ""
Comp ""
Comment1 "Licence: CC-BY"
Comment2 "Author: Loïc *WydD* Petit"
Comment3 ""
Comment4 ""
Comment5 ""
Comment6 ""
Comment7 ""
Comment8 ""
Comment9 ""
$EndDescr
Connection ~ 9250 5350
Connection ~ 3950 2250
Connection ~ 3950 5550
Connection ~ 4750 5550
Connection ~ 1750 2700
NoConn ~ 8750 3750
NoConn ~ 8750 3850
NoConn ~ 9750 3750
Entry Wire Line
	1850 1300 1750 1400
Entry Wire Line
	1850 1400 1750 1500
Entry Wire Line
	1850 1500 1750 1600
Entry Wire Line
	1850 1600 1750 1700
Entry Wire Line
	1850 1700 1750 1800
Entry Wire Line
	1850 1800 1750 1900
Entry Wire Line
	1850 1900 1750 2000
Entry Wire Line
	1850 2000 1750 2100
Entry Wire Line
	1850 3350 1750 3250
Entry Wire Line
	1850 3450 1750 3350
Entry Wire Line
	1850 3550 1750 3450
Entry Wire Line
	1850 3650 1750 3550
Entry Wire Line
	1850 3750 1750 3650
Entry Wire Line
	1850 3850 1750 3750
Entry Wire Line
	1850 3950 1750 3850
Entry Wire Line
	1850 4050 1750 3950
Entry Wire Line
	1900 5800 1800 5700
Entry Wire Line
	1900 5900 1800 5800
Entry Wire Line
	1900 6000 1800 5900
Entry Wire Line
	1900 6100 1800 6000
Entry Wire Line
	1900 6200 1800 6100
Entry Wire Line
	1900 6300 1800 6200
Entry Wire Line
	1900 6400 1800 6300
Entry Wire Line
	1900 6500 1800 6400
Entry Wire Line
	3850 1300 3950 1400
Entry Wire Line
	3850 1400 3950 1500
Entry Wire Line
	3850 1500 3950 1600
Entry Wire Line
	3850 1600 3950 1700
Entry Wire Line
	3850 1700 3950 1800
Entry Wire Line
	3850 1800 3950 1900
Entry Wire Line
	3850 1900 3950 2000
Entry Wire Line
	3850 2000 3950 2100
Entry Wire Line
	3850 3350 3950 3250
Entry Wire Line
	3850 3450 3950 3350
Entry Wire Line
	3850 3550 3950 3450
Entry Wire Line
	3850 3650 3950 3550
Entry Wire Line
	3850 3750 3950 3650
Entry Wire Line
	3850 3850 3950 3750
Entry Wire Line
	3850 3950 3950 3850
Entry Wire Line
	3850 4050 3950 3950
Entry Wire Line
	3850 5800 3950 5700
Entry Wire Line
	3850 5900 3950 5800
Entry Wire Line
	3850 6000 3950 5900
Entry Wire Line
	3850 6100 3950 6000
Entry Wire Line
	3850 6200 3950 6100
Entry Wire Line
	3850 6300 3950 6200
Entry Wire Line
	3850 6400 3950 6300
Entry Wire Line
	3850 6500 3950 6400
Entry Wire Line
	4750 2350 4850 2450
Entry Wire Line
	4750 2450 4850 2550
Entry Wire Line
	4750 2550 4850 2650
Entry Wire Line
	4750 2650 4850 2750
Entry Wire Line
	4750 2750 4850 2850
Entry Wire Line
	4750 2850 4850 2950
Entry Wire Line
	4750 2950 4850 3050
Entry Wire Line
	4750 3050 4850 3150
Entry Wire Line
	4750 3150 4850 3250
Entry Wire Line
	4750 3250 4850 3350
Entry Wire Line
	4750 3350 4850 3450
Entry Wire Line
	4750 3450 4850 3550
Entry Wire Line
	4750 3550 4850 3650
Entry Wire Line
	4750 3650 4850 3750
Entry Wire Line
	4750 3750 4850 3850
Entry Wire Line
	4750 3850 4850 3950
Entry Wire Line
	4750 4250 4850 4150
Entry Wire Line
	4750 4350 4850 4250
Entry Wire Line
	4750 4450 4850 4350
Entry Wire Line
	4750 4550 4850 4450
Entry Wire Line
	4750 4650 4850 4550
Entry Wire Line
	4750 4750 4850 4650
Entry Wire Line
	4750 4850 4850 4750
Entry Wire Line
	4750 4950 4850 4850
Entry Wire Line
	8350 900  8450 1000
Entry Wire Line
	8350 1000 8450 1100
Entry Wire Line
	8350 1100 8450 1200
Entry Wire Line
	8350 1200 8450 1300
Entry Wire Line
	8350 1300 8450 1400
Entry Wire Line
	8350 1400 8450 1500
Entry Wire Line
	8350 1500 8450 1600
Entry Wire Line
	8350 1600 8450 1700
Entry Wire Line
	8350 1700 8450 1800
Entry Wire Line
	8350 1800 8450 1900
Entry Wire Line
	8350 1900 8450 2000
Entry Wire Line
	8350 2000 8450 2100
Entry Wire Line
	8350 2100 8450 2200
Entry Wire Line
	10150 1100 10050 1000
Entry Wire Line
	10150 1200 10050 1100
Entry Wire Line
	10150 1300 10050 1200
Entry Wire Line
	10150 1400 10050 1300
Entry Wire Line
	10150 1500 10050 1400
Entry Wire Line
	10150 1600 10050 1500
Entry Wire Line
	10150 1700 10050 1600
Entry Wire Line
	10150 1800 10050 1700
Wire Wire Line
	1850 1300 2450 1300
Wire Wire Line
	1850 1400 2450 1400
Wire Wire Line
	1850 1500 2450 1500
Wire Wire Line
	1850 1600 2450 1600
Wire Wire Line
	1850 1700 2450 1700
Wire Wire Line
	1850 1800 2450 1800
Wire Wire Line
	1850 1900 2450 1900
Wire Wire Line
	1850 2000 2450 2000
Wire Wire Line
	1850 3350 2450 3350
Wire Wire Line
	1850 3450 2450 3450
Wire Wire Line
	1850 3550 2450 3550
Wire Wire Line
	1850 3650 2450 3650
Wire Wire Line
	1850 3750 2450 3750
Wire Wire Line
	1850 3850 2450 3850
Wire Wire Line
	1850 3950 2450 3950
Wire Wire Line
	1850 4050 2450 4050
Wire Wire Line
	1900 5800 2450 5800
Wire Wire Line
	1900 5900 2450 5900
Wire Wire Line
	1900 6000 2450 6000
Wire Wire Line
	1900 6100 2450 6100
Wire Wire Line
	1900 6200 2450 6200
Wire Wire Line
	1900 6300 2450 6300
Wire Wire Line
	1900 6400 2450 6400
Wire Wire Line
	1900 6500 2450 6500
Wire Wire Line
	2300 2200 2450 2200
Wire Wire Line
	2300 4250 2450 4250
Wire Wire Line
	3450 1300 3850 1300
Wire Wire Line
	3450 1400 3850 1400
Wire Wire Line
	3450 1500 3850 1500
Wire Wire Line
	3450 1600 3850 1600
Wire Wire Line
	3450 1700 3850 1700
Wire Wire Line
	3450 1800 3850 1800
Wire Wire Line
	3450 1900 3850 1900
Wire Wire Line
	3450 2000 3850 2000
Wire Wire Line
	3450 3350 3850 3350
Wire Wire Line
	3450 3450 3850 3450
Wire Wire Line
	3450 3550 3850 3550
Wire Wire Line
	3450 3650 3850 3650
Wire Wire Line
	3450 3750 3850 3750
Wire Wire Line
	3450 3850 3850 3850
Wire Wire Line
	3450 3950 3850 3950
Wire Wire Line
	3450 4050 3850 4050
Wire Wire Line
	3450 5800 3850 5800
Wire Wire Line
	3450 5900 3850 5900
Wire Wire Line
	3450 6000 3850 6000
Wire Wire Line
	3450 6100 3850 6100
Wire Wire Line
	3450 6200 3850 6200
Wire Wire Line
	3450 6300 3850 6300
Wire Wire Line
	3450 6400 3850 6400
Wire Wire Line
	3450 6500 3850 6500
Wire Wire Line
	4850 2450 5250 2450
Wire Wire Line
	4850 2550 5250 2550
Wire Wire Line
	4850 2650 5250 2650
Wire Wire Line
	4850 2750 5250 2750
Wire Wire Line
	4850 2850 5250 2850
Wire Wire Line
	4850 2950 5250 2950
Wire Wire Line
	4850 3050 5250 3050
Wire Wire Line
	4850 3150 5250 3150
Wire Wire Line
	4850 3250 5250 3250
Wire Wire Line
	4850 3350 5250 3350
Wire Wire Line
	4850 3450 5250 3450
Wire Wire Line
	4850 3550 5250 3550
Wire Wire Line
	4850 3650 5250 3650
Wire Wire Line
	4850 3750 5250 3750
Wire Wire Line
	4850 3850 5250 3850
Wire Wire Line
	4850 3950 5250 3950
Wire Wire Line
	4850 4150 5250 4150
Wire Wire Line
	4850 4250 5250 4250
Wire Wire Line
	4850 4350 5250 4350
Wire Wire Line
	4850 4450 5250 4450
Wire Wire Line
	4850 4550 5250 4550
Wire Wire Line
	4850 4650 5250 4650
Wire Wire Line
	4850 4750 5250 4750
Wire Wire Line
	4850 4850 5250 4850
Wire Wire Line
	6000 6100 6400 6100
Wire Wire Line
	6000 6200 6400 6200
Wire Wire Line
	6000 6300 6400 6300
Wire Wire Line
	6000 6400 6400 6400
Wire Wire Line
	6000 6500 6400 6500
Wire Wire Line
	6000 6600 6400 6600
Wire Wire Line
	6000 6700 6400 6700
Wire Wire Line
	6000 6800 6400 6800
Wire Wire Line
	6650 3050 6850 3050
Wire Wire Line
	6650 3750 6850 3750
Wire Wire Line
	6650 4150 8750 4150
Wire Wire Line
	6650 4250 8200 4250
Wire Wire Line
	6650 4350 8300 4350
Wire Wire Line
	6650 4850 7150 4850
Wire Wire Line
	6950 2450 6650 2450
Wire Wire Line
	6950 3150 6650 3150
Wire Wire Line
	6950 3450 6650 3450
Wire Wire Line
	6950 3650 6650 3650
Wire Wire Line
	7150 4750 6650 4750
Wire Wire Line
	7500 3550 6650 3550
Wire Wire Line
	7900 3550 7800 3550
Wire Wire Line
	8200 4250 8200 4750
Wire Wire Line
	8200 4750 8750 4750
Wire Wire Line
	8300 4350 8300 4450
Wire Wire Line
	8300 4450 8750 4450
Wire Wire Line
	8450 1000 8850 1000
Wire Wire Line
	8450 1100 8850 1100
Wire Wire Line
	8450 1200 8850 1200
Wire Wire Line
	8450 1300 8850 1300
Wire Wire Line
	8450 1400 8850 1400
Wire Wire Line
	8450 1500 8850 1500
Wire Wire Line
	8450 1600 8850 1600
Wire Wire Line
	8450 1700 8850 1700
Wire Wire Line
	8450 1800 8850 1800
Wire Wire Line
	8450 1900 8850 1900
Wire Wire Line
	8450 2000 8850 2000
Wire Wire Line
	8450 2100 8850 2100
Wire Wire Line
	8450 2200 8850 2200
Wire Wire Line
	8700 2350 8850 2350
Wire Wire Line
	8750 5050 8750 5350
Wire Wire Line
	8750 5350 9250 5350
Wire Wire Line
	8850 2550 8350 2550
Wire Wire Line
	10050 1000 9650 1000
Wire Wire Line
	10050 1100 9650 1100
Wire Wire Line
	10050 1200 9650 1200
Wire Wire Line
	10050 1300 9650 1300
Wire Wire Line
	10050 1400 9650 1400
Wire Wire Line
	10050 1500 9650 1500
Wire Wire Line
	10050 1600 9650 1600
Wire Wire Line
	10050 1700 9650 1700
Wire Bus Line
	1550 2700 1750 2700
Wire Bus Line
	1750 1400 1750 1600
Wire Bus Line
	1750 1600 1750 1800
Wire Bus Line
	1750 1800 1750 2000
Wire Bus Line
	1750 2000 1750 2700
Wire Bus Line
	1750 2700 1750 3350
Wire Bus Line
	1750 3350 1750 3550
Wire Bus Line
	1750 3550 1750 3650
Wire Bus Line
	1750 3650 1750 3850
Wire Bus Line
	1750 3850 1750 3950
Wire Bus Line
	1800 5200 1600 5200
Wire Bus Line
	1800 5200 1800 5800
Wire Bus Line
	1800 5800 1800 5900
Wire Bus Line
	1800 5900 1800 6100
Wire Bus Line
	1800 6100 1800 6300
Wire Bus Line
	1800 6300 1800 6400
Wire Bus Line
	3950 800  3950 1500
Wire Bus Line
	3950 800  8350 800 
Wire Bus Line
	3950 1500 3950 1600
Wire Bus Line
	3950 1600 3950 1800
Wire Bus Line
	3950 1800 3950 1900
Wire Bus Line
	3950 1900 3950 2100
Wire Bus Line
	3950 2100 3950 2250
Wire Bus Line
	3950 2250 3950 3350
Wire Bus Line
	3950 3350 3950 3550
Wire Bus Line
	3950 3550 3950 3750
Wire Bus Line
	3950 3750 3950 3950
Wire Bus Line
	3950 3950 3950 4300
Wire Bus Line
	3950 5300 3950 5550
Wire Bus Line
	3950 5550 3950 5700
Wire Bus Line
	3950 5550 4750 5550
Wire Bus Line
	3950 5700 3950 5900
Wire Bus Line
	3950 5900 3950 6100
Wire Bus Line
	3950 6100 3950 6200
Wire Bus Line
	3950 6200 3950 6400
Wire Bus Line
	4150 4300 3950 4300
Wire Bus Line
	4150 5300 3950 5300
Wire Bus Line
	4750 2250 3950 2250
Wire Bus Line
	4750 2250 4750 2350
Wire Bus Line
	4750 2350 4750 2550
Wire Bus Line
	4750 2550 4750 2750
Wire Bus Line
	4750 2750 4750 2950
Wire Bus Line
	4750 2950 4750 3150
Wire Bus Line
	4750 3150 4750 3350
Wire Bus Line
	4750 3350 4750 3550
Wire Bus Line
	4750 3550 4750 3750
Wire Bus Line
	4750 3750 4750 3850
Wire Bus Line
	4750 4250 4750 4350
Wire Bus Line
	4750 4350 4750 4550
Wire Bus Line
	4750 4550 4750 4750
Wire Bus Line
	4750 4750 4750 4950
Wire Bus Line
	4750 4950 4750 5550
Wire Bus Line
	4750 5550 4800 5550
Wire Bus Line
	4750 5550 10150 5550
Wire Bus Line
	8350 800  8350 1000
Wire Bus Line
	8350 1000 8350 1200
Wire Bus Line
	8350 1200 8350 1300
Wire Bus Line
	8350 1300 8350 1500
Wire Bus Line
	8350 1500 8350 1700
Wire Bus Line
	8350 1700 8350 1800
Wire Bus Line
	8350 1800 8350 2000
Wire Bus Line
	8350 2000 8350 2100
Wire Bus Line
	10150 1100 10150 1300
Wire Bus Line
	10150 1300 10150 1400
Wire Bus Line
	10150 1400 10150 1600
Wire Bus Line
	10150 1600 10150 1800
Wire Bus Line
	10150 1800 10150 5550
Text Notes 7550 3300 0    50   ~ 0
Bridge in case of Kabuki usage
Text Label 1900 1300 0    50   ~ 0
BUS-ADDR1
Text Label 1900 1400 0    50   ~ 0
BUS-ADDR2
Text Label 1900 1500 0    50   ~ 0
BUS-ADDR3
Text Label 1900 1600 0    50   ~ 0
BUS-ADDR4
Text Label 1900 1700 0    50   ~ 0
BUS-ADDR5
Text Label 1900 1800 0    50   ~ 0
BUS-ADDR6
Text Label 1900 1900 0    50   ~ 0
BUS-ADDR7
Text Label 1900 2000 0    50   ~ 0
BUS-ADDR8
Text Label 1900 3350 0    50   ~ 0
BUS-ADDR9
Text Label 1900 3450 0    50   ~ 0
BUS-ADDR10
Text Label 1900 3550 0    50   ~ 0
BUS-ADDR11
Text Label 1900 3650 0    50   ~ 0
BUS-ADDR12
Text Label 1900 3750 0    50   ~ 0
BUS-ADDR13
Text Label 1900 3850 0    50   ~ 0
BUS-ADDR14
Text Label 1900 3950 0    50   ~ 0
BUS-ADDR15
Text Label 1900 4050 0    50   ~ 0
BUS-ADDR16
Text Label 1950 5800 0    50   ~ 0
BUS-DATA3
Text Label 1950 5900 0    50   ~ 0
BUS-DATA4
Text Label 1950 6000 0    50   ~ 0
BUS-DATA5
Text Label 1950 6100 0    50   ~ 0
BUS-DATA6
Text Label 1950 6200 0    50   ~ 0
BUS-DATA7
Text Label 1950 6300 0    50   ~ 0
BUS-DATA2
Text Label 1950 6400 0    50   ~ 0
BUS-DATA1
Text Label 1950 6500 0    50   ~ 0
BUS-DATA0
Text Label 3500 1300 0    50   ~ 0
ADDR0
Text Label 3500 1400 0    50   ~ 0
ADDR1
Text Label 3500 1500 0    50   ~ 0
ADDR2
Text Label 3500 1600 0    50   ~ 0
ADDR3
Text Label 3500 1700 0    50   ~ 0
ADDR4
Text Label 3500 1800 0    50   ~ 0
ADDR5
Text Label 3500 1900 0    50   ~ 0
ADDR6
Text Label 3500 2000 0    50   ~ 0
ADDR7
Text Label 3500 3350 0    50   ~ 0
ADDR8
Text Label 3500 3450 0    50   ~ 0
ADDR9
Text Label 3500 3550 0    50   ~ 0
ADDR10
Text Label 3500 3650 0    50   ~ 0
ADDR11
Text Label 3500 3750 0    50   ~ 0
ADDR12
Text Label 3500 3850 0    50   ~ 0
ADDR13
Text Label 3500 3950 0    50   ~ 0
ADDR14
Text Label 3500 4050 0    50   ~ 0
ADDR15
Text Label 3500 5800 0    50   ~ 0
DATA3
Text Label 3500 5900 0    50   ~ 0
DATA4
Text Label 3500 6000 0    50   ~ 0
DATA5
Text Label 3500 6100 0    50   ~ 0
DATA6
Text Label 3500 6200 0    50   ~ 0
DATA7
Text Label 3500 6300 0    50   ~ 0
DATA2
Text Label 3500 6400 0    50   ~ 0
DATA1
Text Label 3500 6500 0    50   ~ 0
DATA0
Text Label 4900 2450 0    50   ~ 0
ADDR0
Text Label 4900 2550 0    50   ~ 0
ADDR1
Text Label 4900 2650 0    50   ~ 0
ADDR2
Text Label 4900 2750 0    50   ~ 0
ADDR3
Text Label 4900 2850 0    50   ~ 0
ADDR4
Text Label 4900 2950 0    50   ~ 0
ADDR5
Text Label 4900 3050 0    50   ~ 0
ADDR6
Text Label 4900 3150 0    50   ~ 0
ADDR7
Text Label 4900 3250 0    50   ~ 0
ADDR8
Text Label 4900 3350 0    50   ~ 0
ADDR9
Text Label 4900 3450 0    50   ~ 0
ADDR10
Text Label 4900 3550 0    50   ~ 0
ADDR11
Text Label 4900 3650 0    50   ~ 0
ADDR12
Text Label 4900 3750 0    50   ~ 0
ADDR13
Text Label 4900 3850 0    50   ~ 0
ADDR14
Text Label 4900 3950 0    50   ~ 0
ADDR15
Text Label 4900 4150 0    50   ~ 0
DATA0
Text Label 4900 4250 0    50   ~ 0
DATA1
Text Label 4900 4350 0    50   ~ 0
DATA2
Text Label 4900 4450 0    50   ~ 0
DATA3
Text Label 4900 4550 0    50   ~ 0
DATA4
Text Label 4900 4650 0    50   ~ 0
DATA5
Text Label 4900 4750 0    50   ~ 0
DATA6
Text Label 4900 4850 0    50   ~ 0
DATA7
Text Label 6050 6100 0    50   ~ 0
~MREQ
Text Label 6050 6200 0    50   ~ 0
~M1
Text Label 6050 6300 0    50   ~ 0
~RESET
Text Label 6050 6400 0    50   ~ 0
~NMI
Text Label 6050 6500 0    50   ~ 0
~BUSACK
Text Label 6050 6600 0    50   ~ 0
~WR
Text Label 6050 6700 0    50   ~ 0
~HALT
Text Label 6050 6800 0    50   ~ 0
~RD
Text Label 6700 2450 0    50   ~ 0
~RESET
Text Label 6700 3050 0    50   ~ 0
~NMI
Text Label 6700 3450 0    50   ~ 0
~M1
Text Label 6700 3750 0    50   ~ 0
~HALT
Text Label 6700 4150 0    50   ~ 0
~RD
Text Label 6700 4250 0    50   ~ 0
~WR
Text Label 6700 4350 0    50   ~ 0
~MREQ
Text Label 6700 4850 0    50   ~ 0
~BUSACK
Text Label 8500 1000 0    50   ~ 0
ADDR0
Text Label 8500 1100 0    50   ~ 0
ADDR1
Text Label 8500 1200 0    50   ~ 0
ADDR2
Text Label 8500 1300 0    50   ~ 0
ADDR3
Text Label 8500 1400 0    50   ~ 0
ADDR4
Text Label 8500 1500 0    50   ~ 0
ADDR5
Text Label 8500 1600 0    50   ~ 0
ADDR6
Text Label 8500 1700 0    50   ~ 0
ADDR7
Text Label 8500 1800 0    50   ~ 0
ADDR8
Text Label 8500 1900 0    50   ~ 0
ADDR9
Text Label 8500 2000 0    50   ~ 0
ADDR10
Text Label 8500 2100 0    50   ~ 0
ADDR11
Text Label 8500 2200 0    50   ~ 0
ADDR12
Text Label 10000 1000 2    50   ~ 0
DATA0
Text Label 10000 1100 2    50   ~ 0
DATA1
Text Label 10000 1200 2    50   ~ 0
DATA2
Text Label 10000 1300 2    50   ~ 0
DATA3
Text Label 10000 1400 2    50   ~ 0
DATA4
Text Label 10000 1500 2    50   ~ 0
DATA5
Text Label 10000 1600 2    50   ~ 0
DATA6
Text Label 10000 1700 2    50   ~ 0
DATA7
Text HLabel 1550 2700 0    50   Input ~ 0
BUS-ADDR[1..16]
Text HLabel 1600 5200 0    50   Input ~ 0
BUS-DATA[0..7]
Text HLabel 2450 2300 0    50   Input ~ 0
~Z80-BUSIO
Text HLabel 2450 4350 0    50   Input ~ 0
~Z80-BUSIO
Text HLabel 2450 6700 0    50   Input ~ 0
~BUS-OE
Text HLabel 2450 6800 0    50   Input ~ 0
~Z80-BUSIO
Text HLabel 4150 4300 2    50   Output ~ 0
ADDR[0..15]
Text HLabel 4150 5300 2    50   BiDi ~ 0
DATA[0..7]
Text HLabel 6650 4450 2    50   Output ~ 0
~Z80-IOREQ
Text HLabel 6850 2750 2    50   Input ~ 0
Z80-CLK
Text HLabel 6950 2450 2    50   Input ~ 0
~Z80-RESET
Text HLabel 6950 3150 2    50   Input ~ 0
~Z80-INT
Text HLabel 6950 3450 2    50   Output ~ 0
~Z80-M1
Text HLabel 6950 3650 2    50   Input ~ 0
~Z80-WAIT
Text HLabel 7150 4750 2    50   Input ~ 0
~Z80-BUSREQ
Text HLabel 7150 4850 2    50   Output ~ 0
~Z80-BUSACK
Text HLabel 8750 4050 0    50   Input ~ 0
~BUS-OE
Text HLabel 8750 4350 0    50   Input ~ 0
~BUS-E
Text HLabel 8750 4650 0    50   Input ~ 0
~BUS-W
Text HLabel 8750 4950 0    50   Input ~ 0
~Z80-BUSIO
Text HLabel 8850 2450 0    50   Input ~ 0
~RAM-E
Text HLabel 8850 2650 0    50   Input ~ 0
~RAM-WE
Text HLabel 9750 4050 2    50   Output ~ 0
~READ
Text HLabel 9750 4350 2    50   Output ~ 0
~ENABLE
Text HLabel 9750 4650 2    50   Output ~ 0
~WRITE
$Comp
L power:VCC #PWR0168
U 1 1 5E744B9D
P 2300 2200
F 0 "#PWR0168" H 2300 2050 50  0001 C CNN
F 1 "VCC" H 2400 2300 50  0000 C CNN
F 2 "" H 2300 2200 50  0001 C CNN
F 3 "" H 2300 2200 50  0001 C CNN
	1    2300 2200
	1    0    0    -1  
$EndComp
$Comp
L power:VCC #PWR0169
U 1 1 5E745879
P 2300 4250
F 0 "#PWR0169" H 2300 4100 50  0001 C CNN
F 1 "VCC" H 2400 4350 50  0000 C CNN
F 2 "" H 2300 4250 50  0001 C CNN
F 3 "" H 2300 4250 50  0001 C CNN
	1    2300 4250
	1    0    0    -1  
$EndComp
$Comp
L power:VCC #PWR0167
U 1 1 5E7447EE
P 2950 1000
F 0 "#PWR0167" H 2950 850 50  0001 C CNN
F 1 "VCC" H 2967 1173 50  0000 C CNN
F 2 "" H 2950 1000 50  0001 C CNN
F 3 "" H 2950 1000 50  0001 C CNN
	1    2950 1000
	1    0    0    -1  
$EndComp
$Comp
L power:VCC #PWR0166
U 1 1 5E744434
P 2950 3050
F 0 "#PWR0166" H 2950 2900 50  0001 C CNN
F 1 "VCC" H 2967 3223 50  0000 C CNN
F 2 "" H 2950 3050 50  0001 C CNN
F 3 "" H 2950 3050 50  0001 C CNN
	1    2950 3050
	1    0    0    -1  
$EndComp
$Comp
L power:VCC #PWR0162
U 1 1 5E742758
P 2950 5500
F 0 "#PWR0162" H 2950 5350 50  0001 C CNN
F 1 "VCC" H 2967 5673 50  0000 C CNN
F 2 "" H 2950 5500 50  0001 C CNN
F 3 "" H 2950 5500 50  0001 C CNN
	1    2950 5500
	1    0    0    -1  
$EndComp
$Comp
L power:VCC #PWR?
U 1 1 628B7836
P 5600 6100
AR Path="/5FD09D2D/628B7836" Ref="#PWR?"  Part="1" 
AR Path="/5E482366/628B7836" Ref="#PWR?"  Part="1" 
AR Path="/5E735482/628B7836" Ref="#PWR0372"  Part="1" 
F 0 "#PWR0372" H 5600 5950 50  0001 C CNN
F 1 "VCC" H 5600 6300 50  0000 C CNN
F 2 "" H 5600 6100 50  0001 C CNN
F 3 "" H 5600 6100 50  0001 C CNN
	1    5600 6100
	-1   0    0    -1  
$EndComp
$Comp
L power:VCC #PWR0171
U 1 1 5E810161
P 5950 2150
F 0 "#PWR0171" H 5950 2000 50  0001 C CNN
F 1 "VCC" H 5967 2323 50  0000 C CNN
F 2 "" H 5950 2150 50  0001 C CNN
F 3 "" H 5950 2150 50  0001 C CNN
	1    5950 2150
	1    0    0    -1  
$EndComp
$Comp
L power:VCC #PWR0176
U 1 1 5E3D70AB
P 8700 2350
F 0 "#PWR0176" H 8700 2200 50  0001 C CNN
F 1 "VCC" H 8600 2450 50  0000 C CNN
F 2 "" H 8700 2350 50  0001 C CNN
F 3 "" H 8700 2350 50  0001 C CNN
	1    8700 2350
	1    0    0    -1  
$EndComp
$Comp
L power:VCC #PWR0175
U 1 1 5E386FA3
P 9250 800
F 0 "#PWR0175" H 9250 650 50  0001 C CNN
F 1 "VCC" H 9267 973 50  0000 C CNN
F 2 "" H 9250 800 50  0001 C CNN
F 3 "" H 9250 800 50  0001 C CNN
	1    9250 800 
	1    0    0    -1  
$EndComp
$Comp
L power:VCC #PWR0173
U 1 1 5F64DA64
P 9250 3450
F 0 "#PWR0173" H 9250 3300 50  0001 C CNN
F 1 "VCC" H 9267 3623 50  0000 C CNN
F 2 "" H 9250 3450 50  0001 C CNN
F 3 "" H 9250 3450 50  0001 C CNN
	1    9250 3450
	1    0    0    -1  
$EndComp
$Comp
L power:GND #PWR0165
U 1 1 5E743771
P 2950 2600
F 0 "#PWR0165" H 2950 2350 50  0001 C CNN
F 1 "GND" H 2955 2427 50  0001 C CNN
F 2 "" H 2950 2600 50  0001 C CNN
F 3 "" H 2950 2600 50  0001 C CNN
	1    2950 2600
	1    0    0    -1  
$EndComp
$Comp
L power:GND #PWR0164
U 1 1 5E74342F
P 2950 4650
F 0 "#PWR0164" H 2950 4400 50  0001 C CNN
F 1 "GND" H 2955 4477 50  0001 C CNN
F 2 "" H 2950 4650 50  0001 C CNN
F 3 "" H 2950 4650 50  0001 C CNN
	1    2950 4650
	1    0    0    -1  
$EndComp
$Comp
L power:GND #PWR0163
U 1 1 5E7430E9
P 2950 7100
F 0 "#PWR0163" H 2950 6850 50  0001 C CNN
F 1 "GND" H 2955 6927 50  0001 C CNN
F 2 "" H 2950 7100 50  0001 C CNN
F 3 "" H 2950 7100 50  0001 C CNN
	1    2950 7100
	1    0    0    -1  
$EndComp
$Comp
L power:GND #PWR0170
U 1 1 5E80FCE1
P 5950 5150
F 0 "#PWR0170" H 5950 4900 50  0001 C CNN
F 1 "GND" H 5955 4977 50  0001 C CNN
F 2 "" H 5950 5150 50  0001 C CNN
F 3 "" H 5950 5150 50  0001 C CNN
	1    5950 5150
	1    0    0    -1  
$EndComp
$Comp
L power:GND #PWR01
U 1 1 5DF63266
P 7900 3550
F 0 "#PWR01" H 7900 3300 50  0001 C CNN
F 1 "GND" H 7905 3377 50  0001 C CNN
F 2 "" H 7900 3550 50  0001 C CNN
F 3 "" H 7900 3550 50  0001 C CNN
	1    7900 3550
	1    0    0    -1  
$EndComp
$Comp
L power:GND #PWR0177
U 1 1 5E3E9C6B
P 8350 2550
F 0 "#PWR0177" H 8350 2300 50  0001 C CNN
F 1 "GND" H 8355 2377 50  0001 C CNN
F 2 "" H 8350 2550 50  0001 C CNN
F 3 "" H 8350 2550 50  0001 C CNN
	1    8350 2550
	1    0    0    -1  
$EndComp
$Comp
L power:GND #PWR0174
U 1 1 5E386AE6
P 9250 2850
F 0 "#PWR0174" H 9250 2600 50  0001 C CNN
F 1 "GND" H 9255 2677 50  0001 C CNN
F 2 "" H 9250 2850 50  0001 C CNN
F 3 "" H 9250 2850 50  0001 C CNN
	1    9250 2850
	1    0    0    -1  
$EndComp
$Comp
L power:GND #PWR0172
U 1 1 5EBCA5E3
P 9250 5350
F 0 "#PWR0172" H 9250 5100 50  0001 C CNN
F 1 "GND" H 9255 5177 50  0001 C CNN
F 2 "" H 9250 5350 50  0001 C CNN
F 3 "" H 9250 5350 50  0001 C CNN
	1    9250 5350
	1    0    0    -1  
$EndComp
$Comp
L Jumper:SolderJumper_2_Open JP3
U 1 1 5DF5A1B4
P 7650 3550
F 0 "JP3" H 7650 3663 50  0000 C CNN
F 1 "SolderJumper_2_Open" H 7650 3664 50  0001 C CNN
F 2 "" H 7650 3550 50  0001 C CNN
F 3 "~" H 7650 3550 50  0001 C CNN
	1    7650 3550
	1    0    0    -1  
$EndComp
$Comp
L Device:Ferrite_Bead_Small FB?
U 1 1 5E871944
P 6750 2750
AR Path="/5E871944" Ref="FB?"  Part="1" 
AR Path="/5E4999E7/5E871944" Ref="FB?"  Part="1" 
AR Path="/5E735482/5E871944" Ref="FB28"  Part="1" 
F 0 "FB28" V 6605 2750 50  0000 C CNN
F 1 "Ferrite_Bead_Small" V 6604 2750 50  0001 C CNN
F 2 "" V 6680 2750 50  0001 C CNN
F 3 "~" H 6750 2750 50  0001 C CNN
	1    6750 2750
	0    1    1    0   
$EndComp
$Comp
L Device:R_Network08 RA?
U 1 1 628B7830
P 5800 6500
AR Path="/5FD09D2D/628B7830" Ref="RA?"  Part="1" 
AR Path="/5E482366/628B7830" Ref="RA?"  Part="1" 
AR Path="/5E735482/628B7830" Ref="RA18"  Part="1" 
F 0 "RA18" V 5183 6500 50  0000 C CNN
F 1 "4.7k" V 5274 6500 50  0000 C CNN
F 2 "Resistor_THT:R_Array_SIP9" V 6275 6500 50  0001 C CNN
F 3 "http://www.vishay.com/docs/31509/csc.pdf" H 5800 6500 50  0001 C CNN
	1    5800 6500
	0    -1   1    0   
$EndComp
$Comp
L 74xx:74LS245 UL6
U 1 1 5E7379E1
P 2950 1800
F 0 "UL6" H 2700 2450 50  0000 C CNN
F 1 "74LS245" H 3150 1100 50  0000 C CNN
F 2 "" H 2950 1800 50  0001 C CNN
F 3 "http://www.ti.com/lit/gpn/sn74LS245" H 2950 1800 50  0001 C CNN
	1    2950 1800
	1    0    0    -1  
$EndComp
$Comp
L 74xx:74LS245 UH6
U 1 1 5E7368C4
P 2950 3850
F 0 "UH6" H 2700 4500 50  0000 C CNN
F 1 "74LS245" H 3150 3150 50  0000 C CNN
F 2 "" H 2950 3850 50  0001 C CNN
F 3 "http://www.ti.com/lit/gpn/sn74LS245" H 2950 3850 50  0001 C CNN
	1    2950 3850
	1    0    0    -1  
$EndComp
$Comp
L 74xx:74LS245 UM6
U 1 1 5E737050
P 2950 6300
F 0 "UM6" H 2700 7000 50  0000 C CNN
F 1 "74LS245" H 3150 5600 50  0000 C CNN
F 2 "" H 2950 6300 50  0001 C CNN
F 3 "http://www.ti.com/lit/gpn/sn74LS245" H 2950 6300 50  0001 C CNN
	1    2950 6300
	1    0    0    -1  
$EndComp
$Comp
L CPS2-Custom:HM6264 UK2
U 1 1 5E37BD17
P 9250 1800
F 0 "UK2" H 9000 2750 50  0000 C CNN
F 1 "HM6264" H 9450 750 50  0000 C CNN
F 2 "Package_SO:SOIC-28W_7.5x17.9mm_P1.27mm" H 9350 1800 50  0001 C CNN
F 3 "http://ww1.microchip.com/downloads/en/DeviceDoc/doc0015.pdf" H 9250 1700 50  0001 C CNN
	1    9250 1800
	1    0    0    -1  
$EndComp
$Comp
L 74xx:74LS157 UM4
U 1 1 5E880E4B
P 9250 4350
F 0 "UM4" H 9050 5100 50  0000 C CNN
F 1 "74LS157" H 9450 3450 50  0000 C CNN
F 2 "" H 9250 4350 50  0001 C CNN
F 3 "http://www.ti.com/lit/gpn/sn74LS157" H 9250 4350 50  0001 C CNN
	1    9250 4350
	1    0    0    -1  
$EndComp
$Comp
L CPU:Z80CPU UK5
U 1 1 5E73561E
P 5950 3650
F 0 "UK5" H 6450 5100 50  0000 C CNN
F 1 "Z80CPU" H 5650 2200 50  0000 C CNN
F 2 "" H 5950 4050 50  0001 C CNN
F 3 "www.zilog.com/manage_directlink.php?filepath=docs/z80/um0080" H 5950 4050 50  0001 C CNN
	1    5950 3650
	-1   0    0    -1  
$EndComp
$EndSCHEMATC
