EESchema Schematic File Version 5
EELAYER 33 0
EELAYER END
$Descr A4 11693 8268
encoding utf-8
Sheet 17 17
Title ""
Date "2019-10-17"
Rev ""
Comp ""
Comment1 ""
Comment2 "Licence: CC-BY"
Comment3 "Author: Loic *WydD* Petit"
Comment4 "Project: CPS2 Reverse Engineering: 93646B"
Comment5 ""
Comment6 ""
Comment7 ""
Comment8 ""
Comment9 ""
$EndDescr
Connection ~ 4600 3300
Connection ~ 4600 6600
Connection ~ 5350 7550
Entry Wire Line
	2700 3650 2800 3750
Entry Wire Line
	2700 3750 2800 3850
Entry Wire Line
	2700 3850 2800 3950
Entry Wire Line
	2750 2550 2850 2650
Entry Wire Line
	2800 4050 2700 3950
Entry Wire Line
	2800 4150 2700 4050
Entry Wire Line
	2800 4250 2700 4150
Entry Wire Line
	2800 4350 2700 4250
Entry Wire Line
	2800 4450 2700 4350
Entry Wire Line
	2800 4550 2700 4450
Entry Wire Line
	2800 4650 2700 4550
Entry Wire Line
	2800 4750 2700 4650
Entry Wire Line
	2850 2750 2750 2650
Entry Wire Line
	2850 2850 2750 2750
Entry Wire Line
	2850 2950 2750 2850
Entry Wire Line
	2850 3050 2750 2950
Entry Wire Line
	2850 3150 2750 3050
Entry Wire Line
	2850 3250 2750 3150
Entry Wire Line
	2850 3350 2750 3250
Entry Wire Line
	2850 3450 2750 3350
Entry Wire Line
	2900 5150 2800 5250
Entry Wire Line
	2900 5250 2800 5350
Entry Wire Line
	2900 5350 2800 5450
Entry Wire Line
	2900 5450 2800 5550
Entry Wire Line
	2900 5550 2800 5650
Entry Wire Line
	2900 5650 2800 5750
Entry Wire Line
	5250 3500 5350 3600
Entry Wire Line
	5250 3600 5350 3700
Entry Wire Line
	5250 3700 5350 3800
Entry Wire Line
	5250 3800 5350 3900
Entry Wire Line
	5250 3900 5350 4000
Entry Wire Line
	5250 4000 5350 4100
Entry Wire Line
	5250 6800 5350 6900
Entry Wire Line
	5250 6900 5350 7000
Entry Wire Line
	5250 7000 5350 7100
Entry Wire Line
	5250 7100 5350 7200
Entry Wire Line
	5250 7200 5350 7300
Entry Wire Line
	5250 7300 5350 7400
Entry Wire Line
	5300 1100 5400 1200
Entry Wire Line
	5300 1200 5400 1300
Entry Wire Line
	5300 1300 5400 1400
Entry Wire Line
	5300 1400 5400 1500
Entry Wire Line
	5300 1500 5400 1600
Entry Wire Line
	5300 1600 5400 1700
Entry Wire Line
	5300 1700 5400 1800
Entry Wire Line
	5300 1800 5400 1900
Entry Wire Line
	5300 4400 5400 4500
Entry Wire Line
	5300 4500 5400 4600
Entry Wire Line
	5300 4600 5400 4700
Entry Wire Line
	5300 4700 5400 4800
Entry Wire Line
	5300 4800 5400 4900
Entry Wire Line
	5300 4900 5400 5000
Entry Wire Line
	5300 5000 5400 5100
Entry Wire Line
	5300 5100 5400 5200
Entry Wire Line
	5350 2200 5450 2300
Entry Wire Line
	5350 2300 5450 2400
Entry Wire Line
	5350 2400 5450 2500
Entry Wire Line
	5350 2500 5450 2600
Entry Wire Line
	5350 2600 5450 2700
Entry Wire Line
	5350 2700 5450 2800
Entry Wire Line
	5350 2800 5450 2900
Entry Wire Line
	5350 2900 5450 3000
Entry Wire Line
	5350 3000 5450 3100
Entry Wire Line
	5350 3100 5450 3200
Entry Wire Line
	5350 5500 5450 5600
Entry Wire Line
	5350 5600 5450 5700
Entry Wire Line
	5350 5700 5450 5800
Entry Wire Line
	5350 5800 5450 5900
Entry Wire Line
	5350 5900 5450 6000
Entry Wire Line
	5350 6000 5450 6100
Entry Wire Line
	5350 6100 5450 6200
Entry Wire Line
	5350 6200 5450 6300
Entry Wire Line
	5350 6300 5450 6400
Entry Wire Line
	5350 6400 5450 6500
Entry Wire Line
	7300 5700 7400 5600
Entry Wire Line
	7300 5800 7400 5700
Entry Wire Line
	7300 5900 7400 5800
Entry Wire Line
	7300 6000 7400 5900
Wire Wire Line
	2700 4850 3550 4850
Wire Wire Line
	2800 3750 3550 3750
Wire Wire Line
	2800 3850 3550 3850
Wire Wire Line
	2800 3950 3550 3950
Wire Wire Line
	2800 4050 3550 4050
Wire Wire Line
	2800 4150 3550 4150
Wire Wire Line
	2800 4250 3550 4250
Wire Wire Line
	2800 4350 3550 4350
Wire Wire Line
	2800 4450 3550 4450
Wire Wire Line
	2800 4550 3550 4550
Wire Wire Line
	2800 4650 3550 4650
Wire Wire Line
	2800 4750 3550 4750
Wire Wire Line
	2850 2650 3550 2650
Wire Wire Line
	2850 2750 3550 2750
Wire Wire Line
	2850 2850 3550 2850
Wire Wire Line
	2850 2950 3550 2950
Wire Wire Line
	2850 3050 3550 3050
Wire Wire Line
	2850 3150 3550 3150
Wire Wire Line
	2850 3250 3550 3250
Wire Wire Line
	2850 3350 3550 3350
Wire Wire Line
	2850 3450 3550 3450
Wire Wire Line
	2850 3550 3550 3550
Wire Wire Line
	2850 4950 3550 4950
Wire Wire Line
	2850 5050 3550 5050
Wire Wire Line
	2900 5350 3550 5350
Wire Wire Line
	2900 5450 3550 5450
Wire Wire Line
	2900 5550 3550 5550
Wire Wire Line
	2900 5650 3550 5650
Wire Wire Line
	3150 3650 3550 3650
Wire Wire Line
	3400 2550 3550 2550
Wire Wire Line
	3550 5150 2900 5150
Wire Wire Line
	3550 5250 2900 5250
Wire Wire Line
	4600 1100 5300 1100
Wire Wire Line
	4600 1200 5300 1200
Wire Wire Line
	4600 1300 5300 1300
Wire Wire Line
	4600 1400 5300 1400
Wire Wire Line
	4600 1500 5300 1500
Wire Wire Line
	4600 1600 5300 1600
Wire Wire Line
	4600 1700 5300 1700
Wire Wire Line
	4600 1800 5300 1800
Wire Wire Line
	4600 2200 5350 2200
Wire Wire Line
	4600 2300 5350 2300
Wire Wire Line
	4600 2400 5350 2400
Wire Wire Line
	4600 2500 5350 2500
Wire Wire Line
	4600 2600 5350 2600
Wire Wire Line
	4600 2700 5350 2700
Wire Wire Line
	4600 2800 5350 2800
Wire Wire Line
	4600 2900 5350 2900
Wire Wire Line
	4600 3000 5350 3000
Wire Wire Line
	4600 3100 5350 3100
Wire Wire Line
	4600 3200 4600 3300
Wire Wire Line
	4600 4400 5300 4400
Wire Wire Line
	4600 4500 5300 4500
Wire Wire Line
	4600 4600 5300 4600
Wire Wire Line
	4600 4700 5300 4700
Wire Wire Line
	4600 4800 5300 4800
Wire Wire Line
	4600 4900 5300 4900
Wire Wire Line
	4600 5000 5300 5000
Wire Wire Line
	4600 5100 5300 5100
Wire Wire Line
	4600 5500 5350 5500
Wire Wire Line
	4600 5600 5350 5600
Wire Wire Line
	4600 5700 5350 5700
Wire Wire Line
	4600 5800 5350 5800
Wire Wire Line
	4600 5900 5350 5900
Wire Wire Line
	4600 6000 5350 6000
Wire Wire Line
	4600 6100 5350 6100
Wire Wire Line
	4600 6200 5350 6200
Wire Wire Line
	4600 6300 5350 6300
Wire Wire Line
	4600 6400 5350 6400
Wire Wire Line
	4600 6500 4600 6600
Wire Wire Line
	4600 6700 5350 6700
Wire Wire Line
	4600 7000 5250 7000
Wire Wire Line
	4600 7100 5250 7100
Wire Wire Line
	4600 7200 5250 7200
Wire Wire Line
	4600 7300 5250 7300
Wire Wire Line
	4750 900  4600 900 
Wire Wire Line
	4750 3300 4600 3300
Wire Wire Line
	4750 4200 4600 4200
Wire Wire Line
	4750 6600 4600 6600
Wire Wire Line
	5000 2000 4600 2000
Wire Wire Line
	5000 2100 4600 2100
Wire Wire Line
	5000 5300 4600 5300
Wire Wire Line
	5150 5200 4600 5200
Wire Wire Line
	5250 3500 4600 3500
Wire Wire Line
	5250 3600 4600 3600
Wire Wire Line
	5250 3700 4600 3700
Wire Wire Line
	5250 3800 4600 3800
Wire Wire Line
	5250 3900 4600 3900
Wire Wire Line
	5250 4000 4600 4000
Wire Wire Line
	5250 6800 4600 6800
Wire Wire Line
	5250 6900 4600 6900
Wire Wire Line
	5300 1000 4600 1000
Wire Wire Line
	5300 1900 4600 1900
Wire Wire Line
	5300 3400 4600 3400
Wire Wire Line
	5300 4300 4600 4300
Wire Wire Line
	5400 5400 4600 5400
Wire Wire Line
	7800 5600 7400 5600
Wire Wire Line
	7800 5700 7400 5700
Wire Wire Line
	7800 5800 7400 5800
Wire Wire Line
	7800 5900 7400 5900
Wire Bus Line
	2300 3650 2700 3650
Wire Bus Line
	2300 3950 2700 3950
Wire Bus Line
	2350 2550 2750 2550
Wire Bus Line
	2350 2650 2750 2650
Wire Bus Line
	2400 5350 2800 5350
Wire Bus Line
	2700 3650 2700 3850
Wire Bus Line
	2700 3950 2700 4150
Wire Bus Line
	2700 4150 2700 4350
Wire Bus Line
	2700 4350 2700 4550
Wire Bus Line
	2700 4550 2700 4650
Wire Bus Line
	2750 2650 2750 2850
Wire Bus Line
	2750 2850 2750 3050
Wire Bus Line
	2750 3050 2750 3250
Wire Bus Line
	2750 3250 2750 3350
Wire Bus Line
	2800 5250 2800 5350
Wire Bus Line
	2800 5450 2800 5650
Wire Bus Line
	2800 5650 2800 7550
Wire Bus Line
	5350 3600 5350 3700
Wire Bus Line
	5350 3700 5350 3900
Wire Bus Line
	5350 3900 5350 4100
Wire Bus Line
	5350 4100 5350 4150
Wire Bus Line
	5350 6900 5350 7000
Wire Bus Line
	5350 7100 5350 7200
Wire Bus Line
	5350 7200 5350 7400
Wire Bus Line
	5350 7400 5350 7550
Wire Bus Line
	5350 7550 2800 7550
Wire Bus Line
	5400 1200 5400 1400
Wire Bus Line
	5400 1400 5400 1600
Wire Bus Line
	5400 1600 5400 1800
Wire Bus Line
	5400 1800 5400 1950
Wire Bus Line
	5400 4500 5400 4700
Wire Bus Line
	5400 4700 5400 4900
Wire Bus Line
	5400 4900 5400 5100
Wire Bus Line
	5400 5100 5400 5250
Wire Bus Line
	5450 2300 5450 2500
Wire Bus Line
	5450 2500 5450 2700
Wire Bus Line
	5450 2700 5450 2900
Wire Bus Line
	5450 2900 5450 3100
Wire Bus Line
	5450 3100 5450 3250
Wire Bus Line
	5450 5600 5450 5800
Wire Bus Line
	5450 5800 5450 6000
Wire Bus Line
	5450 6000 5450 6200
Wire Bus Line
	5450 6200 5450 6400
Wire Bus Line
	5450 6400 5450 6500
Wire Bus Line
	5750 4150 5350 4150
Wire Bus Line
	5750 7000 5350 7000
Wire Bus Line
	5750 7550 5350 7550
Wire Bus Line
	5800 1950 5400 1950
Wire Bus Line
	5800 5250 5400 5250
Wire Bus Line
	5850 3250 5450 3250
Wire Bus Line
	5850 6500 5450 6500
Wire Bus Line
	7200 6000 7300 6000
Wire Bus Line
	7300 5700 7300 5900
Wire Bus Line
	7300 5900 7300 6000
Text Label 2850 3750 0    50   ~ 0
QSOUND-ADDR22
Text Label 2850 3850 0    50   ~ 0
QSOUND-ADDR19
Text Label 2850 3950 0    50   ~ 0
QSOUND-ADDR16
Text Label 2900 4050 0    50   ~ 0
QSOUND-DATA7
Text Label 2900 4150 0    50   ~ 0
QSOUND-DATA5
Text Label 2900 4250 0    50   ~ 0
QSOUND-DATA6
Text Label 2900 4350 0    50   ~ 0
QSOUND-DATA4
Text Label 2900 4450 0    50   ~ 0
QSOUND-DATA3
Text Label 2900 4550 0    50   ~ 0
QSOUND-DATA2
Text Label 2900 4650 0    50   ~ 0
QSOUND-DATA1
Text Label 2900 4750 0    50   ~ 0
QSOUND-DATA0
Text Label 2950 5150 0    50   ~ 0
GFXA-ADDR21
Text Label 2950 5250 0    50   ~ 0
GFXA-ADDR18
Text Label 2950 5350 0    50   ~ 0
GFXA-DATA15
Text Label 2950 5450 0    50   ~ 0
GFXA-DATA14
Text Label 2950 5550 0    50   ~ 0
GFXA-DATA13
Text Label 2950 5650 0    50   ~ 0
GFXA-DATA12
Text Label 3150 3650 0    50   ~ 0
EEPROM3
Text Label 3500 2650 2    50   ~ 0
SOUND-ADDR16
Text Label 3500 2750 2    50   ~ 0
SOUND-DATA7
Text Label 3500 2850 2    50   ~ 0
SOUND-DATA6
Text Label 3500 2950 2    50   ~ 0
SOUND-DATA5
Text Label 3500 3050 2    50   ~ 0
SOUND-DATA4
Text Label 3500 3150 2    50   ~ 0
SOUND-DATA3
Text Label 3500 3250 2    50   ~ 0
SOUND-DATA2
Text Label 3500 3350 2    50   ~ 0
SOUND-DATA1
Text Label 3500 3450 2    50   ~ 0
SOUND-DATA0
Text Label 4650 1100 0    50   ~ 0
SOUND-ADDR15
Text Label 4650 1200 0    50   ~ 0
SOUND-ADDR14
Text Label 4650 1300 0    50   ~ 0
SOUND-ADDR13
Text Label 4650 1400 0    50   ~ 0
SOUND-ADDR12
Text Label 4650 1500 0    50   ~ 0
SOUND-ADDR11
Text Label 4650 1600 0    50   ~ 0
SOUND-ADDR10
Text Label 4650 1700 0    50   ~ 0
SOUND-ADDR9
Text Label 4650 1800 0    50   ~ 0
SOUND-ADDR8
Text Label 4650 2200 0    50   ~ 0
QSOUND-ADDR21
Text Label 4650 2300 0    50   ~ 0
QSOUND-ADDR18
Text Label 4650 2400 0    50   ~ 0
QSOUND-ADDR15
Text Label 4650 2500 0    50   ~ 0
QSOUND-ADDR14
Text Label 4650 2600 0    50   ~ 0
QSOUND-ADDR13
Text Label 4650 2700 0    50   ~ 0
QSOUND-ADDR12
Text Label 4650 2800 0    50   ~ 0
QSOUND-ADDR11
Text Label 4650 2900 0    50   ~ 0
QSOUND-ADDR10
Text Label 4650 3000 0    50   ~ 0
QSOUND-ADDR9
Text Label 4650 3100 0    50   ~ 0
QSOUND-ADDR8
Text Label 4650 3500 0    50   ~ 0
GFXA-ADDR23
Text Label 4650 3600 0    50   ~ 0
GFXA-ADDR20
Text Label 4650 3700 0    50   ~ 0
GFXA-ADDR17
Text Label 4650 3800 0    50   ~ 0
GFXA-ADDR16
Text Label 4650 3900 0    50   ~ 0
GFXA-ADDR15
Text Label 4650 4000 0    50   ~ 0
GFXA-ADDR14
Text Label 4650 4400 0    50   ~ 0
SOUND-ADDR7
Text Label 4650 4500 0    50   ~ 0
SOUND-ADDR6
Text Label 4650 4600 0    50   ~ 0
SOUND-ADDR5
Text Label 4650 4700 0    50   ~ 0
SOUND-ADDR4
Text Label 4650 4800 0    50   ~ 0
SOUND-ADDR3
Text Label 4650 4900 0    50   ~ 0
SOUND-ADDR2
Text Label 4650 5000 0    50   ~ 0
SOUND-ADDR1
Text Label 4650 5100 0    50   ~ 0
SOUND-ADDR0
Text Label 4650 5500 0    50   ~ 0
QSOUND-ADDR20
Text Label 4650 5600 0    50   ~ 0
QSOUND-ADDR17
Text Label 4650 5700 0    50   ~ 0
QSOUND-ADDR7
Text Label 4650 5800 0    50   ~ 0
QSOUND-ADDR6
Text Label 4650 5900 0    50   ~ 0
QSOUND-ADDR5
Text Label 4650 6000 0    50   ~ 0
QSOUND-ADDR4
Text Label 4650 6100 0    50   ~ 0
QSOUND-ADDR3
Text Label 4650 6200 0    50   ~ 0
QSOUND-ADDR2
Text Label 4650 6300 0    50   ~ 0
QSOUND-ADDR1
Text Label 4650 6400 0    50   ~ 0
QSOUND-ADDR0
Text Label 4650 6800 0    50   ~ 0
GFXA-ADDR22
Text Label 4650 6900 0    50   ~ 0
GFXA-ADDR19
Text Label 4650 7000 0    50   ~ 0
GFXA-DATA31
Text Label 4650 7100 0    50   ~ 0
GFXA-DATA30
Text Label 4650 7200 0    50   ~ 0
GFXA-DATA29
Text Label 4650 7300 0    50   ~ 0
GFXA-DATA28
Text Label 5000 2000 2    50   ~ 0
EEPROM5
Text Label 5000 2100 2    50   ~ 0
EEPROM4
Text Label 5000 5300 2    50   ~ 0
EEPROM2
Text Label 7800 5600 2    50   ~ 0
EEPROM2
Text Label 7800 5700 2    50   ~ 0
EEPROM3
Text Label 7800 5800 2    50   ~ 0
EEPROM4
Text Label 7800 5900 2    50   ~ 0
EEPROM5
Text HLabel 2300 3650 0    50   Output ~ 0
QSOUND-ADDR[0..22]
Text HLabel 2300 3950 0    50   Input ~ 0
QSOUND-DATA[0..7]
Text HLabel 2350 2550 0    50   Output ~ 0
SOUND-ADDR[0..16]
Text HLabel 2350 2650 0    50   Input ~ 0
SOUND-DATA[0..7]
Text HLabel 2400 5350 0    50   BiDi ~ 0
GFXA-ADDR[2..23]
Text HLabel 2850 4950 0    50   Output ~ 0
ENABLE3
Text HLabel 2850 5050 0    50   BiDi ~ 0
MIF25
Text HLabel 5300 1000 2    50   Output ~ 0
~SOUND-E2
Text HLabel 5300 3400 2    50   Input ~ 0
~GFX-OE
Text HLabel 5300 4300 2    50   Output ~ 0
~SOUND-E1
Text HLabel 5400 5400 2    50   Output ~ 0
QSOUND-ENABLE
Text HLabel 5750 4150 2    50   BiDi ~ 0
GFXA-ADDR[2..23]
Text HLabel 5750 7000 2    50   BiDi ~ 0
GFXA-ADDR[2..23]
Text HLabel 5750 7550 2    50   Input ~ 0
GFXA-DATA[0..31]
Text HLabel 5800 1950 2    50   Output ~ 0
SOUND-ADDR[0..16]
Text HLabel 5800 5250 2    50   Output ~ 0
SOUND-ADDR[0..16]
Text HLabel 5850 3250 2    50   Output ~ 0
QSOUND-ADDR[0..22]
Text HLabel 5850 6500 2    50   Output ~ 0
QSOUND-ADDR[0..22]
Text HLabel 7200 6000 0    50   BiDi ~ 0
EEPROM[2..5]
$Comp
L power:VCC #PWR?
U 1 1 646BFDFF
P 2700 4850
AR Path="/6492EFBF/646BFDFF" Ref="#PWR?"  Part="1" 
AR Path="/646BFDFF" Ref="#PWR?"  Part="1" 
AR Path="/640ADD2B/646BFDFF" Ref="#PWR?"  Part="1" 
AR Path="/6466CFCE/646BFDFF" Ref="#PWR0269"  Part="1" 
F 0 "#PWR0269" H 2700 4700 50  0001 C CNN
F 1 "VCC" H 2850 4900 50  0000 C CNN
F 2 "" H 2700 4850 50  0001 C CNN
F 3 "" H 2700 4850 50  0001 C CNN
	1    2700 4850
	-1   0    0    -1  
$EndComp
$Comp
L power:VCC #PWR?
U 1 1 646BF0F1
P 3400 2550
AR Path="/6492EFBF/646BF0F1" Ref="#PWR?"  Part="1" 
AR Path="/646BF0F1" Ref="#PWR?"  Part="1" 
AR Path="/640ADD2B/646BF0F1" Ref="#PWR?"  Part="1" 
AR Path="/6466CFCE/646BF0F1" Ref="#PWR0266"  Part="1" 
F 0 "#PWR0266" H 3400 2400 50  0001 C CNN
F 1 "VCC" H 3550 2600 50  0000 C CNN
F 2 "" H 3400 2550 50  0001 C CNN
F 3 "" H 3400 2550 50  0001 C CNN
	1    3400 2550
	-1   0    0    -1  
$EndComp
$Comp
L power:VCC #PWR?
U 1 1 646BEFEA
P 4750 900
AR Path="/6492EFBF/646BEFEA" Ref="#PWR?"  Part="1" 
AR Path="/646BEFEA" Ref="#PWR?"  Part="1" 
AR Path="/640ADD2B/646BEFEA" Ref="#PWR?"  Part="1" 
AR Path="/6466CFCE/646BEFEA" Ref="#PWR0265"  Part="1" 
F 0 "#PWR0265" H 4750 750 50  0001 C CNN
F 1 "VCC" H 4767 1073 50  0000 C CNN
F 2 "" H 4750 900 50  0001 C CNN
F 3 "" H 4750 900 50  0001 C CNN
	1    4750 900 
	1    0    0    -1  
$EndComp
$Comp
L power:VCC #PWR?
U 1 1 646BCCAC
P 4750 3300
AR Path="/6492EFBF/646BCCAC" Ref="#PWR?"  Part="1" 
AR Path="/646BCCAC" Ref="#PWR?"  Part="1" 
AR Path="/640ADD2B/646BCCAC" Ref="#PWR?"  Part="1" 
AR Path="/6466CFCE/646BCCAC" Ref="#PWR0264"  Part="1" 
F 0 "#PWR0264" H 4750 3150 50  0001 C CNN
F 1 "VCC" H 4900 3350 50  0000 C CNN
F 2 "" H 4750 3300 50  0001 C CNN
F 3 "" H 4750 3300 50  0001 C CNN
	1    4750 3300
	1    0    0    -1  
$EndComp
$Comp
L power:VCC #PWR?
U 1 1 646BF4C4
P 4750 4200
AR Path="/6492EFBF/646BF4C4" Ref="#PWR?"  Part="1" 
AR Path="/646BF4C4" Ref="#PWR?"  Part="1" 
AR Path="/640ADD2B/646BF4C4" Ref="#PWR?"  Part="1" 
AR Path="/6466CFCE/646BF4C4" Ref="#PWR0267"  Part="1" 
F 0 "#PWR0267" H 4750 4050 50  0001 C CNN
F 1 "VCC" H 4900 4250 50  0000 C CNN
F 2 "" H 4750 4200 50  0001 C CNN
F 3 "" H 4750 4200 50  0001 C CNN
	1    4750 4200
	1    0    0    -1  
$EndComp
$Comp
L power:VCC #PWR?
U 1 1 646BF6A7
P 4750 6600
AR Path="/6492EFBF/646BF6A7" Ref="#PWR?"  Part="1" 
AR Path="/646BF6A7" Ref="#PWR?"  Part="1" 
AR Path="/640ADD2B/646BF6A7" Ref="#PWR?"  Part="1" 
AR Path="/6466CFCE/646BF6A7" Ref="#PWR0268"  Part="1" 
F 0 "#PWR0268" H 4750 6450 50  0001 C CNN
F 1 "VCC" H 4900 6650 50  0000 C CNN
F 2 "" H 4750 6600 50  0001 C CNN
F 3 "" H 4750 6600 50  0001 C CNN
	1    4750 6600
	1    0    0    -1  
$EndComp
$Comp
L power:GND #PWR?
U 1 1 646C0A06
P 2850 3550
AR Path="/6492EFBF/646C0A06" Ref="#PWR?"  Part="1" 
AR Path="/646C0A06" Ref="#PWR?"  Part="1" 
AR Path="/640ADD2B/646C0A06" Ref="#PWR?"  Part="1" 
AR Path="/6466CFCE/646C0A06" Ref="#PWR0271"  Part="1" 
F 0 "#PWR0271" H 2850 3300 50  0001 C CNN
F 1 "GND" H 2855 3377 50  0001 C CNN
F 2 "" H 2850 3550 50  0001 C CNN
F 3 "" H 2850 3550 50  0001 C CNN
	1    2850 3550
	-1   0    0    -1  
$EndComp
$Comp
L power:GND #PWR?
U 1 1 646C04BA
P 5150 5200
AR Path="/6492EFBF/646C04BA" Ref="#PWR?"  Part="1" 
AR Path="/646C04BA" Ref="#PWR?"  Part="1" 
AR Path="/640ADD2B/646C04BA" Ref="#PWR?"  Part="1" 
AR Path="/6466CFCE/646C04BA" Ref="#PWR0270"  Part="1" 
F 0 "#PWR0270" H 5150 4950 50  0001 C CNN
F 1 "GND" H 5155 5027 50  0001 C CNN
F 2 "" H 5150 5200 50  0001 C CNN
F 3 "" H 5150 5200 50  0001 C CNN
	1    5150 5200
	1    0    0    -1  
$EndComp
$Comp
L power:GND #PWR?
U 1 1 646C1510
P 5300 1900
AR Path="/6492EFBF/646C1510" Ref="#PWR?"  Part="1" 
AR Path="/646C1510" Ref="#PWR?"  Part="1" 
AR Path="/640ADD2B/646C1510" Ref="#PWR?"  Part="1" 
AR Path="/6466CFCE/646C1510" Ref="#PWR0272"  Part="1" 
F 0 "#PWR0272" H 5300 1650 50  0001 C CNN
F 1 "GND" H 5305 1727 50  0001 C CNN
F 2 "" H 5300 1900 50  0001 C CNN
F 3 "" H 5300 1900 50  0001 C CNN
	1    5300 1900
	1    0    0    -1  
$EndComp
$Comp
L power:GND #PWR?
U 1 1 646D16FC
P 5350 6700
AR Path="/6492EFBF/646D16FC" Ref="#PWR?"  Part="1" 
AR Path="/646D16FC" Ref="#PWR?"  Part="1" 
AR Path="/640ADD2B/646D16FC" Ref="#PWR?"  Part="1" 
AR Path="/6466CFCE/646D16FC" Ref="#PWR0273"  Part="1" 
F 0 "#PWR0273" H 5350 6450 50  0001 C CNN
F 1 "GND" H 5355 6527 50  0001 C CNN
F 2 "" H 5350 6700 50  0001 C CNN
F 3 "" H 5350 6700 50  0001 C CNN
	1    5350 6700
	1    0    0    -1  
$EndComp
$Comp
L CPS2-Custom:96PIN_Sep CN3
U 1 1 646BCB7B
P 4100 4100
F 0 "CN3" V 727 4075 50  0000 C CNN
F 1 "96PIN_Sep" H 773 4030 50  0001 R CNN
F 2 "" H 2900 4400 50  0001 C CNN
F 3 "" H 2900 4400 50  0001 C CNN
	1    4100 4100
	0    1    1    0   
$EndComp
$EndSCHEMATC
