EESchema Schematic File Version 5
EELAYER 33 0
EELAYER END
$Descr A4 11693 8268
encoding utf-8
Sheet 10 17
Title ""
Date "2019-10-17"
Rev ""
Comp ""
Comment1 ""
Comment2 "Licence: CC-BY"
Comment3 "Author: Loic *WydD* Petit"
Comment4 "Project: CPS2 Reverse Engineering: 93646B"
Comment5 ""
Comment6 ""
Comment7 ""
Comment8 ""
Comment9 ""
$EndDescr
Connection ~ 1600 3550
Connection ~ 1600 3650
Connection ~ 1600 3750
Connection ~ 1600 3850
Connection ~ 1600 3950
Connection ~ 1600 4250
Connection ~ 1600 4350
Connection ~ 1600 4450
Connection ~ 1600 4550
Connection ~ 1600 4650
Connection ~ 1600 4750
Connection ~ 1600 4850
Connection ~ 1600 4950
Connection ~ 1600 5050
Connection ~ 6700 6000
Connection ~ 950  2050
Connection ~ 1600 4050
Connection ~ 1600 4150
Connection ~ 1600 2700
Connection ~ 1600 2800
Connection ~ 1600 2900
Connection ~ 1600 3000
Connection ~ 1600 3100
Connection ~ 1600 3200
Connection ~ 1400 3200
Connection ~ 1400 3550
Connection ~ 8700 3800
NoConn ~ 10200 3250
NoConn ~ 8200 4600
NoConn ~ 8200 4200
NoConn ~ 8200 4100
NoConn ~ 8200 4000
Entry Wire Line
	1900 900  2000 1000
Entry Wire Line
	1950 6900 1850 7000
Entry Wire Line
	2000 900  2100 1000
Entry Wire Line
	2050 6900 1950 7000
Entry Wire Line
	2100 900  2200 1000
Entry Wire Line
	2150 6900 2050 7000
Entry Wire Line
	2200 900  2300 1000
Entry Wire Line
	2250 6900 2150 7000
Entry Wire Line
	2300 900  2400 1000
Entry Wire Line
	2350 6900 2250 7000
Entry Wire Line
	2400 900  2500 1000
Entry Wire Line
	2450 6900 2350 7000
Entry Wire Line
	2500 900  2600 1000
Entry Wire Line
	2550 6900 2450 7000
Entry Wire Line
	2600 900  2700 1000
Entry Wire Line
	2650 6900 2550 7000
Entry Wire Line
	2700 900  2800 1000
Entry Wire Line
	2750 6900 2650 7000
Entry Wire Line
	2800 900  2900 1000
Entry Wire Line
	2850 6900 2750 7000
Entry Wire Line
	2900 900  3000 1000
Entry Wire Line
	2950 6900 2850 7000
Entry Wire Line
	3000 900  3100 1000
Entry Wire Line
	3050 6900 2950 7000
Entry Wire Line
	3100 900  3200 1000
Entry Wire Line
	3150 6900 3050 7000
Entry Wire Line
	3200 900  3300 1000
Entry Wire Line
	3250 6900 3150 7000
Entry Wire Line
	3300 900  3400 1000
Entry Wire Line
	3350 6900 3250 7000
Entry Wire Line
	3400 900  3500 1000
Entry Wire Line
	3450 6900 3350 7000
Entry Wire Line
	3500 900  3600 1000
Entry Wire Line
	3550 6900 3450 7000
Entry Wire Line
	3600 900  3700 1000
Entry Wire Line
	3650 6900 3550 7000
Entry Wire Line
	3700 900  3800 1000
Entry Wire Line
	3750 6900 3650 7000
Entry Wire Line
	3800 900  3900 1000
Entry Wire Line
	3850 6900 3750 7000
Entry Wire Line
	3900 900  4000 1000
Entry Wire Line
	3950 6900 3850 7000
Entry Wire Line
	4000 900  4100 1000
Entry Wire Line
	4050 6900 3950 7000
Entry Wire Line
	4100 900  4200 1000
Entry Wire Line
	4150 6900 4050 7000
Entry Wire Line
	4350 6900 4450 7000
Entry Wire Line
	4450 6900 4550 7000
Entry Wire Line
	4500 900  4400 1000
Entry Wire Line
	4550 6900 4650 7000
Entry Wire Line
	4600 900  4500 1000
Entry Wire Line
	4650 6900 4750 7000
Entry Wire Line
	4700 900  4600 1000
Entry Wire Line
	4750 6900 4850 7000
Entry Wire Line
	4800 900  4700 1000
Entry Wire Line
	4850 6900 4950 7000
Entry Wire Line
	4900 900  4800 1000
Entry Wire Line
	4950 6900 5050 7000
Entry Wire Line
	5000 900  4900 1000
Entry Wire Line
	5050 6900 5150 7000
Entry Wire Line
	5100 900  5000 1000
Entry Wire Line
	5150 6900 5250 7000
Entry Wire Line
	5200 900  5100 1000
Entry Wire Line
	5250 6900 5350 7000
Entry Wire Line
	5300 900  5200 1000
Entry Wire Line
	5350 6900 5450 7000
Entry Wire Line
	5400 900  5300 1000
Entry Wire Line
	5450 6900 5550 7000
Entry Wire Line
	5500 900  5400 1000
Entry Wire Line
	5550 6900 5650 7000
Entry Wire Line
	5600 900  5500 1000
Entry Wire Line
	5650 6900 5750 7000
Entry Wire Line
	5700 900  5600 1000
Entry Wire Line
	5750 6900 5850 7000
Entry Wire Line
	5800 900  5700 1000
Entry Wire Line
	5850 6900 5950 7000
Entry Wire Line
	5900 900  5800 1000
Entry Wire Line
	6000 900  5900 1000
Entry Wire Line
	6800 2350 6900 2250
Entry Wire Line
	6800 2450 6900 2350
Entry Wire Line
	6800 2550 6900 2450
Entry Wire Line
	6800 2650 6900 2550
Entry Wire Line
	6800 2750 6900 2650
Entry Wire Line
	6800 2850 6900 2750
Wire Wire Line
	550  2050 550  2400
Wire Wire Line
	950  2050 550  2050
Wire Wire Line
	1150 3550 1150 3500
Wire Wire Line
	1350 2400 1600 2400
Wire Wire Line
	1400 3000 1600 3000
Wire Wire Line
	1400 3200 1150 3200
Wire Wire Line
	1400 3200 1600 3200
Wire Wire Line
	1400 3250 1400 3200
Wire Wire Line
	1400 3450 1400 3550
Wire Wire Line
	1400 3550 1150 3550
Wire Wire Line
	1400 3550 1600 3550
Wire Wire Line
	1400 4150 1600 4150
Wire Wire Line
	1600 2600 1600 2700
Wire Wire Line
	1600 2700 1600 2800
Wire Wire Line
	1600 2800 1600 2900
Wire Wire Line
	1600 2900 1600 3000
Wire Wire Line
	1600 3000 1600 3100
Wire Wire Line
	1600 3100 1600 3200
Wire Wire Line
	1600 3200 1600 3300
Wire Wire Line
	1600 3450 1600 3550
Wire Wire Line
	1600 3550 1600 3650
Wire Wire Line
	1600 3650 1600 3750
Wire Wire Line
	1600 3750 1600 3850
Wire Wire Line
	1600 3850 1600 3950
Wire Wire Line
	1600 3950 1600 4050
Wire Wire Line
	1600 4050 1600 4150
Wire Wire Line
	1600 4150 1600 4250
Wire Wire Line
	1600 4250 1600 4350
Wire Wire Line
	1600 4350 1600 4450
Wire Wire Line
	1600 4450 1600 4550
Wire Wire Line
	1600 4550 1600 4650
Wire Wire Line
	1600 4650 1600 4750
Wire Wire Line
	1600 4750 1600 4850
Wire Wire Line
	1600 4850 1600 4950
Wire Wire Line
	1600 4950 1600 5050
Wire Wire Line
	1600 5050 1600 5150
Wire Wire Line
	1950 6900 1950 6300
Wire Wire Line
	2000 1600 2000 1000
Wire Wire Line
	2050 6900 2050 6300
Wire Wire Line
	2100 1600 2100 1000
Wire Wire Line
	2150 6900 2150 6300
Wire Wire Line
	2200 1600 2200 1000
Wire Wire Line
	2250 6900 2250 6300
Wire Wire Line
	2300 1600 2300 1000
Wire Wire Line
	2350 6900 2350 6300
Wire Wire Line
	2400 1600 2400 1000
Wire Wire Line
	2450 6900 2450 6300
Wire Wire Line
	2500 1600 2500 1000
Wire Wire Line
	2550 6900 2550 6300
Wire Wire Line
	2600 1600 2600 1000
Wire Wire Line
	2650 6900 2650 6300
Wire Wire Line
	2700 1600 2700 1000
Wire Wire Line
	2750 6900 2750 6300
Wire Wire Line
	2800 1600 2800 1000
Wire Wire Line
	2850 6900 2850 6300
Wire Wire Line
	2900 1600 2900 1000
Wire Wire Line
	2950 6900 2950 6300
Wire Wire Line
	3000 1600 3000 1000
Wire Wire Line
	3050 6900 3050 6300
Wire Wire Line
	3100 1600 3100 1000
Wire Wire Line
	3150 6900 3150 6300
Wire Wire Line
	3200 1600 3200 1000
Wire Wire Line
	3250 6900 3250 6300
Wire Wire Line
	3300 1600 3300 1000
Wire Wire Line
	3350 6900 3350 6300
Wire Wire Line
	3400 1600 3400 1000
Wire Wire Line
	3450 6900 3450 6300
Wire Wire Line
	3500 1600 3500 1000
Wire Wire Line
	3550 6900 3550 6300
Wire Wire Line
	3600 1600 3600 1000
Wire Wire Line
	3650 6900 3650 6300
Wire Wire Line
	3700 1600 3700 1000
Wire Wire Line
	3750 6900 3750 6300
Wire Wire Line
	3800 1600 3800 1000
Wire Wire Line
	3850 6900 3850 6300
Wire Wire Line
	3900 1600 3900 1000
Wire Wire Line
	3950 6900 3950 6300
Wire Wire Line
	4000 1600 4000 1000
Wire Wire Line
	4050 6900 4050 6300
Wire Wire Line
	4100 1600 4100 1000
Wire Wire Line
	4150 6900 4150 6300
Wire Wire Line
	4200 1600 4200 1000
Wire Wire Line
	4350 6900 4350 6300
Wire Wire Line
	4400 1600 4400 1000
Wire Wire Line
	4450 6900 4450 6300
Wire Wire Line
	4500 1600 4500 1000
Wire Wire Line
	4550 6900 4550 6300
Wire Wire Line
	4600 1600 4600 1000
Wire Wire Line
	4650 6900 4650 6300
Wire Wire Line
	4700 1600 4700 1000
Wire Wire Line
	4750 6900 4750 6300
Wire Wire Line
	4800 1600 4800 1000
Wire Wire Line
	4850 6900 4850 6300
Wire Wire Line
	4900 1600 4900 1000
Wire Wire Line
	4950 6900 4950 6300
Wire Wire Line
	5000 1600 5000 1000
Wire Wire Line
	5050 6900 5050 6300
Wire Wire Line
	5100 1600 5100 1000
Wire Wire Line
	5150 6900 5150 6300
Wire Wire Line
	5200 1600 5200 1000
Wire Wire Line
	5250 6900 5250 6300
Wire Wire Line
	5300 1600 5300 1000
Wire Wire Line
	5350 6900 5350 6300
Wire Wire Line
	5400 1600 5400 1000
Wire Wire Line
	5450 6900 5450 6300
Wire Wire Line
	5500 1600 5500 1000
Wire Wire Line
	5550 6900 5550 6300
Wire Wire Line
	5600 1600 5600 1000
Wire Wire Line
	5650 6900 5650 6300
Wire Wire Line
	5700 1600 5700 1000
Wire Wire Line
	5750 6900 5750 6300
Wire Wire Line
	5800 1600 5800 1000
Wire Wire Line
	5850 6900 5850 6300
Wire Wire Line
	5900 1600 5900 1000
Wire Wire Line
	6300 2350 6800 2350
Wire Wire Line
	6300 2450 6800 2450
Wire Wire Line
	6300 2550 6800 2550
Wire Wire Line
	6300 2650 6800 2650
Wire Wire Line
	6300 2750 6800 2750
Wire Wire Line
	6300 2850 6800 2850
Wire Wire Line
	6300 3100 6550 3100
Wire Wire Line
	6300 3300 6550 3300
Wire Wire Line
	6300 3450 6750 3450
Wire Wire Line
	6300 3650 6750 3650
Wire Wire Line
	6300 3950 6750 3950
Wire Wire Line
	6300 4150 6750 4150
Wire Wire Line
	6300 4250 6750 4250
Wire Wire Line
	6300 4500 6750 4500
Wire Wire Line
	6300 4600 6750 4600
Wire Wire Line
	6300 4800 6750 4800
Wire Wire Line
	6300 4900 6750 4900
Wire Wire Line
	6300 5000 6750 5000
Wire Wire Line
	6300 5200 6400 5200
Wire Wire Line
	6400 3850 6300 3850
Wire Wire Line
	6550 3200 6300 3200
Wire Wire Line
	6600 3850 6750 3850
Wire Wire Line
	6600 5200 6700 5200
Wire Wire Line
	6700 5200 6700 6000
Wire Wire Line
	6750 3550 6300 3550
Wire Wire Line
	6900 6000 6700 6000
Wire Wire Line
	7050 4400 6300 4400
Wire Wire Line
	7050 4500 7050 4400
Wire Wire Line
	7950 1050 8550 1050
Wire Wire Line
	7950 1150 8550 1150
Wire Wire Line
	7950 4200 8100 4200
Wire Wire Line
	8100 4200 8100 4300
Wire Wire Line
	8100 4300 8200 4300
Wire Wire Line
	8200 4400 8000 4400
Wire Wire Line
	8200 4500 7050 4500
Wire Wire Line
	8200 4700 6300 4700
Wire Wire Line
	8550 1250 7950 1250
Wire Wire Line
	8550 1350 7950 1350
Wire Wire Line
	8550 1450 7950 1450
Wire Wire Line
	8550 1550 7950 1550
Wire Wire Line
	8550 1650 7950 1650
Wire Wire Line
	8550 1750 7950 1750
Wire Wire Line
	8550 1850 7950 1850
Wire Wire Line
	8550 1950 7950 1950
Wire Wire Line
	8550 2050 7950 2050
Wire Wire Line
	8550 2150 7950 2150
Wire Wire Line
	8550 2250 7950 2250
Wire Wire Line
	8550 2350 7950 2350
Wire Wire Line
	8550 2450 7950 2450
Wire Wire Line
	8550 2550 7950 2550
Wire Wire Line
	9000 3800 8700 3800
Wire Wire Line
	9200 4100 9700 4100
Wire Wire Line
	9200 4200 9800 4200
Wire Wire Line
	9200 4300 9800 4300
Wire Wire Line
	9200 4400 9800 4400
Wire Wire Line
	9200 4500 9800 4500
Wire Wire Line
	9200 4600 9800 4600
Wire Wire Line
	9200 4700 9800 4700
Wire Wire Line
	9200 4800 9800 4800
Wire Wire Line
	9200 4900 9800 4900
Wire Wire Line
	9700 4000 9200 4000
Wire Wire Line
	10200 1050 9600 1050
Wire Wire Line
	10200 1150 9600 1150
Wire Wire Line
	10200 1250 9600 1250
Wire Wire Line
	10200 1350 9600 1350
Wire Wire Line
	10200 1450 9600 1450
Wire Wire Line
	10200 1550 9600 1550
Wire Wire Line
	10200 1650 9600 1650
Wire Wire Line
	10200 1750 9600 1750
Wire Wire Line
	10200 1850 9600 1850
Wire Wire Line
	10200 1950 9600 1950
Wire Wire Line
	10200 2050 9600 2050
Wire Wire Line
	10200 2150 9600 2150
Wire Wire Line
	10200 2250 9600 2250
Wire Wire Line
	10200 2350 9600 2350
Wire Wire Line
	10200 2450 9600 2450
Wire Wire Line
	10200 2550 9600 2550
Wire Wire Line
	10200 2650 9600 2650
Wire Wire Line
	10200 2750 9600 2750
Wire Wire Line
	10200 2850 9600 2850
Wire Wire Line
	10200 2950 9600 2950
Wire Wire Line
	10200 3050 9600 3050
Wire Wire Line
	10200 3150 9600 3150
Wire Wire Line
	10200 3350 9600 3350
Wire Bus Line
	1500 7000 1850 7000
Wire Bus Line
	1650 900  2000 900 
Wire Bus Line
	1850 7000 2050 7000
Wire Bus Line
	2000 900  2200 900 
Wire Bus Line
	2050 7000 2250 7000
Wire Bus Line
	2200 900  2400 900 
Wire Bus Line
	2250 7000 2450 7000
Wire Bus Line
	2400 900  2500 900 
Wire Bus Line
	2450 7000 2650 7000
Wire Bus Line
	2500 900  2700 900 
Wire Bus Line
	2650 7000 2850 7000
Wire Bus Line
	2700 900  2800 900 
Wire Bus Line
	2800 900  3000 900 
Wire Bus Line
	2850 7000 3050 7000
Wire Bus Line
	3000 900  3200 900 
Wire Bus Line
	3050 7000 3150 7000
Wire Bus Line
	3150 7000 3350 7000
Wire Bus Line
	3200 900  3400 900 
Wire Bus Line
	3350 7000 3550 7000
Wire Bus Line
	3400 900  3600 900 
Wire Bus Line
	3550 7000 3750 7000
Wire Bus Line
	3600 900  3800 900 
Wire Bus Line
	3750 7000 3850 7000
Wire Bus Line
	3800 900  4000 900 
Wire Bus Line
	3850 7000 4050 7000
Wire Bus Line
	4000 900  4100 900 
Wire Bus Line
	4450 7000 4650 7000
Wire Bus Line
	4500 900  4700 900 
Wire Bus Line
	4650 7000 4850 7000
Wire Bus Line
	4700 900  4900 900 
Wire Bus Line
	4850 7000 5050 7000
Wire Bus Line
	4900 900  5100 900 
Wire Bus Line
	5050 7000 5250 7000
Wire Bus Line
	5100 900  5300 900 
Wire Bus Line
	5250 7000 5350 7000
Wire Bus Line
	5300 900  5500 900 
Wire Bus Line
	5350 7000 5550 7000
Wire Bus Line
	5500 900  5700 900 
Wire Bus Line
	5550 7000 5750 7000
Wire Bus Line
	5700 900  5900 900 
Wire Bus Line
	5750 7000 5950 7000
Wire Bus Line
	5900 900  6300 900 
Wire Bus Line
	5950 7000 6150 7000
Wire Bus Line
	6900 2150 6900 2250
Wire Bus Line
	6900 2150 7050 2150
Wire Bus Line
	6900 2250 6900 2450
Wire Bus Line
	6900 2450 6900 2650
Wire Bus Line
	6900 2650 6900 2750
Text Notes 7000 6000 0    50   ~ 0
o12 = /i1 & /i3 & i4 & /i5 & /i6 +\n      /i1 & /i3 & i4 & i5 & i6\n/o15 = /i1 & i3 & i4 & i5 & i6 & i7 & i8 & i9 & i11 +\n       /i1 & /i3 & i4 & i5 & /i6 & /i7 & /i8 +\n       /i1 & i3 & /i4 & /i5 & /i6 & /i7 & i8 +\n       /i1 & i3 & /i4 & /i5 & /i7 & /i8 +\n       /i1 & /i3 & i4 & i5 & /i6 & /i7 & i8 & i9
Text Notes 9400 6200 0    50   ~ 0
o12 = /ROM_E AND ADDR=(\n    40 0000 - 4f ffff    object positions\n    70 0000 - 7f ffff    object ram\n)\n/o15 = /ROM_E AND ADDR=(\n    60 0000 - 63 ffff    qsound shared ram\n    66 0000 - 67 ffff    peripherals\n    80 0000 - 83 ffff    cps2 register\n    90 0000 - 93 ffff    gfx ram\n    84 0000 - 87 ffff    ???\n    ff 0000 - ff ffff    ram\n)
Text Notes 9800 4000 0    50   ~ 0
~ROM-E
Text Label 1950 6850 1    50   ~ 0
CPU-ADDR1
Text Label 2000 1550 1    50   ~ 0
ROM-ADDR1
Text Label 2050 6850 1    50   ~ 0
CPU-ADDR2
Text Label 2100 1550 1    50   ~ 0
ROM-ADDR2
Text Label 2150 6850 1    50   ~ 0
CPU-ADDR3
Text Label 2200 1550 1    50   ~ 0
ROM-ADDR3
Text Label 2250 6850 1    50   ~ 0
CPU-ADDR4
Text Label 2300 1550 1    50   ~ 0
ROM-ADDR4
Text Label 2350 6850 1    50   ~ 0
CPU-ADDR5
Text Label 2400 1550 1    50   ~ 0
ROM-ADDR5
Text Label 2450 6850 1    50   ~ 0
CPU-ADDR6
Text Label 2500 1550 1    50   ~ 0
ROM-ADDR6
Text Label 2550 6850 1    50   ~ 0
CPU-ADDR7
Text Label 2600 1550 1    50   ~ 0
ROM-ADDR7
Text Label 2650 6850 1    50   ~ 0
CPU-ADDR8
Text Label 2700 1550 1    50   ~ 0
ROM-ADDR8
Text Label 2750 6850 1    50   ~ 0
CPU-ADDR9
Text Label 2800 1550 1    50   ~ 0
ROM-ADDR9
Text Label 2850 6850 1    50   ~ 0
CPU-ADDR10
Text Label 2900 1550 1    50   ~ 0
ROM-ADDR10
Text Label 2950 6850 1    50   ~ 0
CPU-ADDR11
Text Label 3000 1550 1    50   ~ 0
ROM-ADDR11
Text Label 3050 6850 1    50   ~ 0
CPU-ADDR12
Text Label 3100 1550 1    50   ~ 0
ROM-ADDR12
Text Label 3150 6850 1    50   ~ 0
CPU-ADDR13
Text Label 3200 1550 1    50   ~ 0
ROM-ADDR13
Text Label 3250 6850 1    50   ~ 0
CPU-ADDR14
Text Label 3300 1550 1    50   ~ 0
ROM-ADDR14
Text Label 3350 6850 1    50   ~ 0
CPU-ADDR15
Text Label 3400 1550 1    50   ~ 0
ROM-ADDR15
Text Label 3450 6850 1    50   ~ 0
CPU-ADDR16
Text Label 3500 1550 1    50   ~ 0
ROM-ADDR16
Text Label 3550 6850 1    50   ~ 0
CPU-ADDR17
Text Label 3600 1550 1    50   ~ 0
ROM-ADDR17
Text Label 3650 6850 1    50   ~ 0
CPU-ADDR18
Text Label 3700 1550 1    50   ~ 0
ROM-ADDR18
Text Label 3750 6850 1    50   ~ 0
CPU-ADDR19
Text Label 3800 1550 1    50   ~ 0
ROM-ADDR19
Text Label 3850 6850 1    50   ~ 0
CPU-ADDR20
Text Label 3900 1550 1    50   ~ 0
ROM-ADDR20
Text Label 3950 6850 1    50   ~ 0
CPU-ADDR21
Text Label 4000 1550 1    50   ~ 0
ROM-ADDR21
Text Label 4050 6850 1    50   ~ 0
CPU-ADDR22
Text Label 4100 1550 1    50   ~ 0
ROM-ADDR22
Text Label 4150 6850 1    50   ~ 0
CPU-ADDR23
Text Label 4200 1550 1    50   ~ 0
ROM-ADDR23
Text Label 4350 6850 1    50   ~ 0
CPU-DATA0
Text Label 4400 1550 1    50   ~ 0
ROM-DATA0
Text Label 4450 6850 1    50   ~ 0
CPU-DATA1
Text Label 4500 1550 1    50   ~ 0
ROM-DATA1
Text Label 4550 6850 1    50   ~ 0
CPU-DATA2
Text Label 4600 1550 1    50   ~ 0
ROM-DATA2
Text Label 4650 6850 1    50   ~ 0
CPU-DATA3
Text Label 4700 1550 1    50   ~ 0
ROM-DATA3
Text Label 4750 6850 1    50   ~ 0
CPU-DATA4
Text Label 4800 1550 1    50   ~ 0
ROM-DATA4
Text Label 4850 6850 1    50   ~ 0
CPU-DATA5
Text Label 4900 1550 1    50   ~ 0
ROM-DATA5
Text Label 4950 6850 1    50   ~ 0
CPU-DATA6
Text Label 5000 1550 1    50   ~ 0
ROM-DATA6
Text Label 5050 6850 1    50   ~ 0
CPU-DATA7
Text Label 5100 1550 1    50   ~ 0
ROM-DATA7
Text Label 5150 6850 1    50   ~ 0
CPU-DATA8
Text Label 5200 1550 1    50   ~ 0
ROM-DATA8
Text Label 5250 6850 1    50   ~ 0
CPU-DATA9
Text Label 5300 1550 1    50   ~ 0
ROM-DATA9
Text Label 5350 6850 1    50   ~ 0
CPU-DATA10
Text Label 5400 1550 1    50   ~ 0
ROM-DATA10
Text Label 5450 6850 1    50   ~ 0
CPU-DATA11
Text Label 5500 1550 1    50   ~ 0
ROM-DATA11
Text Label 5550 6850 1    50   ~ 0
CPU-DATA12
Text Label 5600 1550 1    50   ~ 0
ROM-DATA12
Text Label 5650 6850 1    50   ~ 0
CPU-DATA13
Text Label 5700 1550 1    50   ~ 0
ROM-DATA13
Text Label 5750 6850 1    50   ~ 0
CPU-DATA14
Text Label 5800 1550 1    50   ~ 0
ROM-DATA14
Text Label 5850 6850 1    50   ~ 0
CPU-DATA15
Text Label 5900 1550 1    50   ~ 0
ROM-DATA15
Text Label 6350 2350 0    50   ~ 0
CONTROL6
Text Label 6350 2450 0    50   ~ 0
CONTROL5
Text Label 6350 2550 0    50   ~ 0
CONTROL4
Text Label 6350 2650 0    50   ~ 0
CONTROL3
Text Label 6350 2750 0    50   ~ 0
CONTROL2
Text Label 6350 2850 0    50   ~ 0
CONTROL1
Text Label 8500 1050 2    50   ~ 0
CPU-DATA0
Text Label 8500 1150 2    50   ~ 0
CPU-DATA1
Text Label 8500 1250 2    50   ~ 0
CPU-DATA2
Text Label 8500 1350 2    50   ~ 0
CPU-DATA3
Text Label 8500 1450 2    50   ~ 0
CPU-DATA4
Text Label 8500 1550 2    50   ~ 0
CPU-DATA5
Text Label 8500 1650 2    50   ~ 0
CPU-DATA6
Text Label 8500 1750 2    50   ~ 0
CPU-DATA7
Text Label 8500 1850 2    50   ~ 0
CPU-DATA8
Text Label 8500 1950 2    50   ~ 0
CPU-DATA9
Text Label 8500 2050 2    50   ~ 0
CPU-DATA10
Text Label 8500 2150 2    50   ~ 0
CPU-DATA11
Text Label 8500 2250 2    50   ~ 0
CPU-DATA12
Text Label 8500 2350 2    50   ~ 0
CPU-DATA13
Text Label 8500 2450 2    50   ~ 0
CPU-DATA14
Text Label 8500 2550 2    50   ~ 0
CPU-DATA15
Text Label 9250 4000 0    50   ~ 0
CONTROL4
Text Label 9250 4100 0    50   ~ 0
CONTROL6
Text Label 9250 4200 0    50   ~ 0
ROM-ADDR23
Text Label 9250 4300 0    50   ~ 0
ROM-ADDR22
Text Label 9250 4400 0    50   ~ 0
ROM-ADDR21
Text Label 9250 4500 0    50   ~ 0
ROM-ADDR20
Text Label 9250 4600 0    50   ~ 0
ROM-ADDR19
Text Label 9250 4700 0    50   ~ 0
ROM-ADDR18
Text Label 9250 4800 0    50   ~ 0
ROM-ADDR17
Text Label 9250 4900 0    50   ~ 0
ROM-ADDR16
Text Label 10150 1050 2    50   ~ 0
CPU-ADDR1
Text Label 10150 1150 2    50   ~ 0
CPU-ADDR2
Text Label 10150 1250 2    50   ~ 0
CPU-ADDR3
Text Label 10150 1350 2    50   ~ 0
CPU-ADDR4
Text Label 10150 1450 2    50   ~ 0
CPU-ADDR5
Text Label 10150 1550 2    50   ~ 0
CPU-ADDR6
Text Label 10150 1650 2    50   ~ 0
CPU-ADDR7
Text Label 10150 1750 2    50   ~ 0
CPU-ADDR8
Text Label 10150 1850 2    50   ~ 0
CPU-ADDR9
Text Label 10150 1950 2    50   ~ 0
CPU-ADDR10
Text Label 10150 2050 2    50   ~ 0
CPU-ADDR11
Text Label 10150 2150 2    50   ~ 0
CPU-ADDR12
Text Label 10150 2250 2    50   ~ 0
CPU-ADDR13
Text Label 10150 2350 2    50   ~ 0
CPU-ADDR14
Text Label 10150 2450 2    50   ~ 0
CPU-ADDR15
Text Label 10150 2550 2    50   ~ 0
CPU-ADDR16
Text Label 10150 2650 2    50   ~ 0
CPU-ADDR17
Text Label 10150 2750 2    50   ~ 0
CPU-ADDR18
Text Label 10150 2850 2    50   ~ 0
CPU-ADDR19
Text Label 10150 2950 2    50   ~ 0
CPU-ADDR20
Text Label 10150 3050 2    50   ~ 0
CPU-ADDR21
Text Label 10150 3150 2    50   ~ 0
CPU-ADDR22
Text Label 10150 3350 2    50   ~ 0
CPU-ADDR23
Text HLabel 1500 7000 0    50   Input ~ 0
CPU-ADDR[1..23]
Text HLabel 1650 900  0    50   Output ~ 0
ROM-ADDR[1..23]
Text HLabel 6150 7000 2    50   Input ~ 0
CPU-DATA[0..15]
Text HLabel 6300 900  2    50   Input ~ 0
ROM-DATA[0..15]
Text HLabel 6550 3100 2    50   Output ~ 0
CBUS-DATA-DIR
Text HLabel 6550 3200 2    50   Output ~ 0
CBUS-ADDR-DIR
Text HLabel 6550 3300 2    50   Output ~ 0
~CBUS-ADDR-ENABLE
Text HLabel 6750 3450 2    50   Output ~ 0
ENABLE
Text HLabel 6750 3550 2    50   Input ~ 0
ENABLE2
Text HLabel 6750 3650 2    50   Input ~ 0
ENABLE3
Text HLabel 6750 3850 2    50   Input ~ 0
CLK16M
Text HLabel 6750 3950 2    50   Input ~ 0
CLK2M
Text HLabel 6750 4150 2    50   BiDi ~ 0
UK-MAIN1
Text HLabel 6750 4250 2    50   BiDi ~ 0
UK-MAIN2
Text HLabel 6750 4500 2    50   BiDi ~ 0
UK25
Text HLabel 6750 4600 2    50   BiDi ~ 0
UK54
Text HLabel 6750 4800 2    50   BiDi ~ 0
UK154
Text HLabel 6750 4900 2    50   BiDi ~ 0
CIF126
Text HLabel 6750 5000 2    50   BiDi ~ 0
CIF103
Text HLabel 7050 2150 2    50   BiDi ~ 0
CONTROL[1..6]
Text HLabel 8000 4400 0    50   Output ~ 0
~CBUS-DATA-ENABLE
$Comp
L power:VCC #PWR0171
U 1 1 5D9743F0
P 950 2050
F 0 "#PWR0171" H 950 1900 50  0001 C CNN
F 1 "VCC" H 967 2223 50  0000 C CNN
F 2 "" H 950 2050 50  0001 C CNN
F 3 "" H 950 2050 50  0001 C CNN
	1    950  2050
	1    0    0    -1  
$EndComp
$Comp
L power:VCC #PWR0168
U 1 1 5D958F8E
P 1200 5350
F 0 "#PWR0168" H 1200 5200 50  0001 C CNN
F 1 "VCC" H 1217 5523 50  0000 C CNN
F 2 "" H 1200 5350 50  0001 C CNN
F 3 "" H 1200 5350 50  0001 C CNN
	1    1200 5350
	-1   0    0    -1  
$EndComp
$Comp
L power:VDD #PWR0173
U 1 1 5D9779DA
P 1400 3000
F 0 "#PWR0173" H 1400 2850 50  0001 C CNN
F 1 "VDD" H 1417 3173 50  0000 C CNN
F 2 "" H 1400 3000 50  0001 C CNN
F 3 "" H 1400 3000 50  0001 C CNN
	1    1400 3000
	-1   0    0    -1  
$EndComp
$Comp
L power:VCC #PWR0169
U 1 1 5D95A037
P 6900 6000
F 0 "#PWR0169" H 6900 5850 50  0001 C CNN
F 1 "VCC" H 6917 6173 50  0000 C CNN
F 2 "" H 6900 6000 50  0001 C CNN
F 3 "" H 6900 6000 50  0001 C CNN
	1    6900 6000
	-1   0    0    -1  
$EndComp
$Comp
L power:VCC #PWR?
U 1 1 5DF5EEA9
P 8700 3800
AR Path="/635BEEB0/5DF5EEA9" Ref="#PWR?"  Part="1" 
AR Path="/5DF5EEA9" Ref="#PWR?"  Part="1" 
AR Path="/5DC1E7F0/5DF5EEA9" Ref="#PWR0180"  Part="1" 
F 0 "#PWR0180" H 8700 3650 50  0001 C CNN
F 1 "VCC" H 8500 3850 50  0000 L CNN
F 2 "" H 8700 3800 50  0001 C CNN
F 3 "" H 8700 3800 50  0001 C CNN
	1    8700 3800
	1    0    0    -1  
$EndComp
$Comp
L power:VCC #PWR0177
U 1 1 5EDB9AC1
P 8950 1050
F 0 "#PWR0177" H 8950 900 50  0001 C CNN
F 1 "VCC" H 8967 1223 50  0000 C CNN
F 2 "" H 8950 1050 50  0001 C CNN
F 3 "" H 8950 1050 50  0001 C CNN
	1    8950 1050
	0    1    1    0   
$EndComp
$Comp
L power:VCC #PWR0178
U 1 1 5EDB9ACE
P 8950 1850
F 0 "#PWR0178" H 8950 1700 50  0001 C CNN
F 1 "VCC" H 8967 2023 50  0000 C CNN
F 2 "" H 8950 1850 50  0001 C CNN
F 3 "" H 8950 1850 50  0001 C CNN
	1    8950 1850
	0    1    1    0   
$EndComp
$Comp
L power:VCC #PWR0174
U 1 1 5ED26C4C
P 10600 1050
F 0 "#PWR0174" H 10600 900 50  0001 C CNN
F 1 "VCC" H 10617 1223 50  0000 C CNN
F 2 "" H 10600 1050 50  0001 C CNN
F 3 "" H 10600 1050 50  0001 C CNN
	1    10600 1050
	0    1    1    0   
$EndComp
$Comp
L power:VCC #PWR0175
U 1 1 5ED5D927
P 10600 1850
F 0 "#PWR0175" H 10600 1700 50  0001 C CNN
F 1 "VCC" H 10617 2023 50  0000 C CNN
F 2 "" H 10600 1850 50  0001 C CNN
F 3 "" H 10600 1850 50  0001 C CNN
	1    10600 1850
	0    1    1    0   
$EndComp
$Comp
L power:VCC #PWR0176
U 1 1 5ED646AB
P 10600 2650
F 0 "#PWR0176" H 10600 2500 50  0001 C CNN
F 1 "VCC" H 10617 2823 50  0000 C CNN
F 2 "" H 10600 2650 50  0001 C CNN
F 3 "" H 10600 2650 50  0001 C CNN
	1    10600 2650
	0    1    1    0   
$EndComp
$Comp
L power:GND #PWR0172
U 1 1 5D9743F8
P 950 2750
F 0 "#PWR0172" H 950 2500 50  0001 C CNN
F 1 "GND" H 955 2577 50  0000 C CNN
F 2 "" H 950 2750 50  0001 C CNN
F 3 "" H 950 2750 50  0001 C CNN
	1    950  2750
	1    0    0    -1  
$EndComp
$Comp
L power:GND #PWR0170
U 1 1 5D9680AF
P 1400 4150
F 0 "#PWR0170" H 1400 3900 50  0001 C CNN
F 1 "GND" H 1405 3977 50  0000 C CNN
F 2 "" H 1400 4150 50  0001 C CNN
F 3 "" H 1400 4150 50  0001 C CNN
	1    1400 4150
	-1   0    0    -1  
$EndComp
$Comp
L power:GND #PWR?
U 1 1 5E2F06DF
P 7950 4200
AR Path="/6492EFBF/5E2F06DF" Ref="#PWR?"  Part="1" 
AR Path="/5E2F06DF" Ref="#PWR?"  Part="1" 
AR Path="/5DC1E7F0/5E2F06DF" Ref="#PWR0182"  Part="1" 
F 0 "#PWR0182" H 7950 3950 50  0001 C CNN
F 1 "GND" H 7955 4027 50  0001 C CNN
F 2 "" H 7950 4200 50  0001 C CNN
F 3 "" H 7950 4200 50  0001 C CNN
	1    7950 4200
	1    0    0    -1  
$EndComp
$Comp
L power:GND #PWR?
U 1 1 5DB9D477
P 8700 5100
AR Path="/6492EFBF/5DB9D477" Ref="#PWR?"  Part="1" 
AR Path="/5DB9D477" Ref="#PWR?"  Part="1" 
AR Path="/5DC1E7F0/5DB9D477" Ref="#PWR0179"  Part="1" 
F 0 "#PWR0179" H 8700 4850 50  0001 C CNN
F 1 "GND" H 8705 4927 50  0001 C CNN
F 2 "" H 8700 5100 50  0001 C CNN
F 3 "" H 8700 5100 50  0001 C CNN
	1    8700 5100
	1    0    0    -1  
$EndComp
$Comp
L power:GND #PWR?
U 1 1 5E05CDB4
P 9200 3800
AR Path="/635BEEB0/5E05CDB4" Ref="#PWR?"  Part="1" 
AR Path="/5E05CDB4" Ref="#PWR?"  Part="1" 
AR Path="/5DC1E7F0/5E05CDB4" Ref="#PWR0181"  Part="1" 
F 0 "#PWR0181" H 9200 3550 50  0001 C CNN
F 1 "GND" H 9205 3627 50  0001 C CNN
F 2 "" H 9200 3800 50  0001 C CNN
F 3 "" H 9200 3800 50  0001 C CNN
	1    9200 3800
	-1   0    0    -1  
$EndComp
$Comp
L Device:R_Small R12
U 1 1 5D966AAB
P 6500 5200
F 0 "R12" V 6450 5050 50  0000 C CNN
F 1 "4.7k" V 6450 5350 50  0000 C CNN
F 2 "" H 6500 5200 50  0001 C CNN
F 3 "~" H 6500 5200 50  0001 C CNN
	1    6500 5200
	0    -1   1    0   
$EndComp
$Comp
L Device:C_Small CX?
U 1 1 5DDFA3CE
P 1400 3350
AR Path="/5E35B989/5DDFA3CE" Ref="CX?"  Part="1" 
AR Path="/5DC1E7F0/5DDFA3CE" Ref="CX13"  Part="1" 
F 0 "CX13" H 1492 3396 50  0001 L CNN
F 1 "0.1u" H 1200 3250 50  0000 L CNN
F 2 "" H 1400 3350 50  0001 C CNN
F 3 "~" H 1400 3350 50  0001 C CNN
	1    1400 3350
	-1   0    0    -1  
$EndComp
$Comp
L Device:C_Small C?
U 1 1 5E05CDAE
P 9100 3800
AR Path="/635BEEB0/5E05CDAE" Ref="C?"  Part="1" 
AR Path="/5E05CDAE" Ref="C?"  Part="1" 
AR Path="/5DC1E7F0/5E05CDAE" Ref="CX14"  Part="1" 
F 0 "CX14" V 8871 3800 50  0001 C CNN
F 1 "0.1u" V 8963 3800 50  0000 C TNN
F 2 "" H 9100 3800 50  0001 C CNN
F 3 "~" H 9100 3800 50  0001 C CNN
	1    9100 3800
	0    -1   1    0   
$EndComp
$Comp
L Device:Ferrite_Bead_Small FB2
U 1 1 5DA9B1A5
P 6500 3850
F 0 "FB2" V 6355 3850 50  0000 C CNN
F 1 "Ferrite_Bead_Small" V 6354 3850 50  0001 C CNN
F 2 "" V 6430 3850 50  0001 C CNN
F 3 "~" H 6500 3850 50  0001 C CNN
	1    6500 3850
	0    1    1    0   
$EndComp
$Comp
L Device:C EXC?
U 1 1 5DDFA3D4
P 1150 3350
AR Path="/5E35B989/5DDFA3D4" Ref="EXC?"  Part="1" 
AR Path="/5DC1E7F0/5DDFA3D4" Ref="EXC3"  Part="1" 
F 0 "EXC3" H 1150 3450 50  0000 L CNN
F 1 "1u" H 1150 3250 50  0000 L CNN
F 2 "" H 1188 3200 50  0001 C CNN
F 3 "~" H 1150 3350 50  0001 C CNN
	1    1150 3350
	1    0    0    -1  
$EndComp
$Comp
L Device:R_Network08 RA23
U 1 1 5D955DF7
P 1400 5750
F 0 "RA23" V 783 5750 50  0000 C CNN
F 1 "4.7k" V 874 5750 50  0000 C CNN
F 2 "Resistor_THT:R_Array_SIP9" V 1875 5750 50  0001 C CNN
F 3 "http://www.vishay.com/docs/31509/csc.pdf" H 1400 5750 50  0001 C CNN
	1    1400 5750
	0    -1   1    0   
$EndComp
$Comp
L Device:R_Network08 RA24
U 1 1 5D95A030
P 6500 5600
F 0 "RA24" V 5883 5600 50  0000 C CNN
F 1 "4.7k" V 5974 5600 50  0000 C CNN
F 2 "Resistor_THT:R_Array_SIP9" V 6975 5600 50  0001 C CNN
F 3 "http://www.vishay.com/docs/31509/csc.pdf" H 6500 5600 50  0001 C CNN
	1    6500 5600
	0    1    -1   0   
$EndComp
$Comp
L Device:R_Network08 RA21
U 1 1 5EDB9ABA
P 8750 1450
F 0 "RA21" V 9050 1700 50  0000 C CNN
F 1 "4.7k" V 8950 1700 50  0000 C CNN
F 2 "Resistor_THT:R_Array_SIP9" V 9225 1450 50  0001 C CNN
F 3 "http://www.vishay.com/docs/31509/csc.pdf" H 8750 1450 50  0001 C CNN
	1    8750 1450
	0    1    1    0   
$EndComp
$Comp
L Device:R_Network08 RA22
U 1 1 5EDB9AC7
P 8750 2250
F 0 "RA22" V 9050 2500 50  0000 C CNN
F 1 "4.7k" V 8950 2500 50  0000 C CNN
F 2 "Resistor_THT:R_Array_SIP9" V 9225 2250 50  0001 C CNN
F 3 "http://www.vishay.com/docs/31509/csc.pdf" H 8750 2250 50  0001 C CNN
	1    8750 2250
	0    1    1    0   
$EndComp
$Comp
L Device:R_Network08 RA18
U 1 1 5ED26C45
P 10400 1450
F 0 "RA18" V 10700 1700 50  0000 C CNN
F 1 "4.7k" V 10600 1700 50  0000 C CNN
F 2 "Resistor_THT:R_Array_SIP9" V 10875 1450 50  0001 C CNN
F 3 "http://www.vishay.com/docs/31509/csc.pdf" H 10400 1450 50  0001 C CNN
	1    10400 1450
	0    1    1    0   
$EndComp
$Comp
L Device:R_Network08 RA19
U 1 1 5ED5D920
P 10400 2250
F 0 "RA19" V 10700 2500 50  0000 C CNN
F 1 "4.7k" V 10600 2500 50  0000 C CNN
F 2 "Resistor_THT:R_Array_SIP9" V 10875 2250 50  0001 C CNN
F 3 "http://www.vishay.com/docs/31509/csc.pdf" H 10400 2250 50  0001 C CNN
	1    10400 2250
	0    1    1    0   
$EndComp
$Comp
L Device:R_Network08 RA20
U 1 1 5ED646A4
P 10400 3050
F 0 "RA20" V 10700 3300 50  0000 C CNN
F 1 "4.7k" V 10600 3300 50  0000 C CNN
F 2 "Resistor_THT:R_Array_SIP9" V 10875 3050 50  0001 C CNN
F 3 "http://www.vishay.com/docs/31509/csc.pdf" H 10400 3050 50  0001 C CNN
	1    10400 3050
	0    1    1    0   
$EndComp
$Comp
L CPS2-Custom:RX5VA VD1
U 1 1 5D9743FF
P 950 2400
F 0 "VD1" H 1150 2700 50  0000 L CNN
F 1 "RX5VA" H 650 2100 50  0000 L CNN
F 2 "" V 550 2500 50  0001 C CNN
F 3 "" V 550 2500 50  0001 C CNN
	1    950  2400
	1    0    0    -1  
$EndComp
$Comp
L CPS2-Custom:PAL16L8-PIN16IN UH10
U 1 1 5DBFCD70
P 8700 4500
F 0 "UH10" H 8950 5100 50  0000 C CNN
F 1 "PAL16L8" H 8500 4000 50  0000 C CNN
F 2 "" H 8700 4500 50  0001 C CNN
F 3 "" H 8700 4500 50  0001 C CNN
	1    8700 4500
	-1   0    0    -1  
$EndComp
$Comp
L CPS2-Custom:DL-1727 U-MIF-H7
U 1 1 5DC25FE7
P 3950 3950
F 0 "U-MIF-H7" V 3650 3950 200 0000 C CNN
F 1 "DL-1727" V 3950 3950 200 0000 C CNN
F 2 "" H 7550 5400 50  0001 C CNN
F 3 "" H 7550 5400 50  0001 C CNN
	1    3950 3950
	0    -1   1    0   
$EndComp
$EndSCHEMATC
