EESchema Schematic File Version 5
EELAYER 33 0
EELAYER END
$Descr A4 11693 8268
encoding utf-8
Sheet 8 17
Title ""
Date "2019-10-17"
Rev ""
Comp ""
Comment1 ""
Comment2 "Licence: CC-BY"
Comment3 "Author: Loic *WydD* Petit"
Comment4 "Project: CPS2 Reverse Engineering: 93646B"
Comment5 ""
Comment6 ""
Comment7 ""
Comment8 ""
Comment9 ""
$EndDescr
Connection ~ 8000 4600
Connection ~ 8000 5000
Connection ~ 8000 4900
Connection ~ 8000 4800
Connection ~ 8000 4700
Connection ~ 8000 4500
Connection ~ 8000 4400
Connection ~ 8000 4300
Connection ~ 8000 4200
Connection ~ 8000 5100
Connection ~ 8000 4100
Connection ~ 8000 3300
Connection ~ 8000 3400
Connection ~ 8000 3500
Connection ~ 8000 3600
Connection ~ 8200 3700
Connection ~ 8000 3700
Connection ~ 8000 4000
Connection ~ 8200 4000
Entry Wire Line
	3050 1950 3150 2050
Entry Wire Line
	3050 2050 3150 2150
Entry Wire Line
	3050 2150 3150 2250
Entry Wire Line
	3050 2250 3150 2350
Entry Wire Line
	3050 2350 3150 2450
Entry Wire Line
	3050 2450 3150 2550
Entry Wire Line
	3050 2550 3150 2650
Entry Wire Line
	3050 2650 3150 2750
Entry Wire Line
	3050 2750 3150 2850
Entry Wire Line
	3050 2850 3150 2950
Entry Wire Line
	3050 2950 3150 3050
Entry Wire Line
	3050 3050 3150 3150
Entry Wire Line
	3050 3150 3150 3250
Entry Wire Line
	3050 3250 3150 3350
Entry Wire Line
	3050 3350 3150 3450
Entry Wire Line
	3050 3450 3150 3550
Entry Wire Line
	3050 3550 3150 3650
Entry Wire Line
	3050 3650 3150 3750
Entry Wire Line
	3050 3750 3150 3850
Entry Wire Line
	3050 3850 3150 3950
Entry Wire Line
	3050 3950 3150 4050
Entry Wire Line
	3050 4050 3150 4150
Entry Wire Line
	3050 4150 3150 4250
Entry Wire Line
	3050 4250 3150 4350
Entry Wire Line
	3050 4350 3150 4450
Entry Wire Line
	3050 4450 3150 4550
Entry Wire Line
	3050 4550 3150 4650
Entry Wire Line
	3050 4650 3150 4750
Entry Wire Line
	3050 4750 3150 4850
Entry Wire Line
	3050 4850 3150 4950
Entry Wire Line
	3050 4950 3150 5050
Entry Wire Line
	3050 5050 3150 5150
Entry Wire Line
	4400 1100 4300 1200
Entry Wire Line
	4450 6100 4350 6000
Entry Wire Line
	4500 1100 4400 1200
Entry Wire Line
	4550 6100 4450 6000
Entry Wire Line
	4600 1100 4500 1200
Entry Wire Line
	4650 6100 4550 6000
Entry Wire Line
	4700 1100 4600 1200
Entry Wire Line
	4750 6100 4650 6000
Entry Wire Line
	4800 1100 4700 1200
Entry Wire Line
	4850 6100 4750 6000
Entry Wire Line
	4900 1100 4800 1200
Entry Wire Line
	4950 6100 4850 6000
Entry Wire Line
	5000 1100 4900 1200
Entry Wire Line
	5050 6100 4950 6000
Entry Wire Line
	5100 1100 5000 1200
Entry Wire Line
	5150 6100 5050 6000
Entry Wire Line
	5200 1100 5100 1200
Entry Wire Line
	5250 6100 5150 6000
Entry Wire Line
	5300 1100 5200 1200
Entry Wire Line
	5350 6100 5250 6000
Entry Wire Line
	5400 1100 5300 1200
Entry Wire Line
	5450 6100 5350 6000
Entry Wire Line
	5500 1100 5400 1200
Entry Wire Line
	5550 6100 5450 6000
Entry Wire Line
	5600 1100 5500 1200
Entry Wire Line
	5650 6100 5550 6000
Entry Wire Line
	5700 1100 5600 1200
Entry Wire Line
	5750 6100 5650 6000
Entry Wire Line
	5800 1100 5700 1200
Entry Wire Line
	5850 6100 5750 6000
Entry Wire Line
	5900 1100 5800 1200
Entry Wire Line
	5950 6100 5850 6000
Entry Wire Line
	6000 1100 5900 1200
Entry Wire Line
	6050 6100 5950 6000
Entry Wire Line
	6100 1100 6000 1200
Entry Wire Line
	6150 6100 6050 6000
Entry Wire Line
	6200 1100 6100 1200
Entry Wire Line
	6250 6100 6150 6000
Entry Wire Line
	6300 1100 6200 1200
Entry Wire Line
	6350 6100 6250 6000
Entry Wire Line
	6400 1100 6300 1200
Entry Wire Line
	6450 6100 6350 6000
Entry Wire Line
	6500 1100 6400 1200
Entry Wire Line
	6550 6100 6450 6000
Entry Wire Line
	6600 1100 6500 1200
Entry Wire Line
	6650 6100 6550 6000
Entry Wire Line
	6700 1100 6600 1200
Entry Wire Line
	6750 6100 6650 6000
Entry Wire Line
	6800 1100 6700 1200
Entry Wire Line
	6850 6100 6750 6000
Entry Wire Line
	6900 1100 6800 1200
Entry Wire Line
	6950 6100 6850 6000
Entry Wire Line
	7000 1100 6900 1200
Entry Wire Line
	7050 6100 6950 6000
Entry Wire Line
	7100 1100 7000 1200
Entry Wire Line
	7150 6100 7050 6000
Entry Wire Line
	7200 1100 7100 1200
Entry Wire Line
	7250 6100 7150 6000
Entry Wire Line
	7300 1100 7200 1200
Entry Wire Line
	7350 6100 7250 6000
Entry Wire Line
	7400 1100 7300 1200
Entry Wire Line
	7450 6100 7350 6000
Entry Wire Line
	7500 1100 7400 1200
Entry Wire Line
	7550 6100 7450 6000
Wire Wire Line
	3150 2050 3700 2050
Wire Wire Line
	3150 2150 3700 2150
Wire Wire Line
	3150 2250 3700 2250
Wire Wire Line
	3150 2350 3700 2350
Wire Wire Line
	3150 2450 3700 2450
Wire Wire Line
	3150 2550 3700 2550
Wire Wire Line
	3150 2650 3700 2650
Wire Wire Line
	3150 2750 3700 2750
Wire Wire Line
	3150 2850 3700 2850
Wire Wire Line
	3150 2950 3700 2950
Wire Wire Line
	3150 3050 3700 3050
Wire Wire Line
	3150 3150 3700 3150
Wire Wire Line
	3150 3250 3700 3250
Wire Wire Line
	3150 3350 3700 3350
Wire Wire Line
	3150 3450 3700 3450
Wire Wire Line
	3150 3550 3700 3550
Wire Wire Line
	3150 3650 3700 3650
Wire Wire Line
	3150 3750 3700 3750
Wire Wire Line
	3150 3850 3700 3850
Wire Wire Line
	3150 3950 3700 3950
Wire Wire Line
	3150 4050 3700 4050
Wire Wire Line
	3150 4150 3700 4150
Wire Wire Line
	3150 4250 3700 4250
Wire Wire Line
	3150 4350 3700 4350
Wire Wire Line
	3150 4450 3700 4450
Wire Wire Line
	3150 4550 3700 4550
Wire Wire Line
	3150 4650 3700 4650
Wire Wire Line
	3150 4750 3700 4750
Wire Wire Line
	3150 4850 3700 4850
Wire Wire Line
	3150 4950 3700 4950
Wire Wire Line
	3150 5050 3700 5050
Wire Wire Line
	3150 5150 3700 5150
Wire Wire Line
	4300 1650 4300 1200
Wire Wire Line
	4350 5550 4350 6000
Wire Wire Line
	4400 1650 4400 1200
Wire Wire Line
	4450 5550 4450 6000
Wire Wire Line
	4500 1650 4500 1200
Wire Wire Line
	4550 5550 4550 6000
Wire Wire Line
	4600 1650 4600 1200
Wire Wire Line
	4650 5550 4650 6000
Wire Wire Line
	4700 1650 4700 1200
Wire Wire Line
	4750 5550 4750 6000
Wire Wire Line
	4800 1650 4800 1200
Wire Wire Line
	4850 5550 4850 6000
Wire Wire Line
	4900 1650 4900 1200
Wire Wire Line
	4950 5550 4950 6000
Wire Wire Line
	5000 1650 5000 1200
Wire Wire Line
	5050 5550 5050 6000
Wire Wire Line
	5100 1650 5100 1200
Wire Wire Line
	5150 5550 5150 6000
Wire Wire Line
	5200 1650 5200 1200
Wire Wire Line
	5250 5550 5250 6000
Wire Wire Line
	5300 1650 5300 1200
Wire Wire Line
	5350 5550 5350 6000
Wire Wire Line
	5400 1650 5400 1200
Wire Wire Line
	5450 5550 5450 6000
Wire Wire Line
	5500 1650 5500 1200
Wire Wire Line
	5550 5550 5550 6000
Wire Wire Line
	5600 1650 5600 1200
Wire Wire Line
	5650 5550 5650 6000
Wire Wire Line
	5700 1650 5700 1200
Wire Wire Line
	5750 5550 5750 6000
Wire Wire Line
	5800 1650 5800 1200
Wire Wire Line
	5850 5550 5850 6000
Wire Wire Line
	5900 1650 5900 1200
Wire Wire Line
	5950 5550 5950 6000
Wire Wire Line
	6000 1650 6000 1200
Wire Wire Line
	6050 5550 6050 6000
Wire Wire Line
	6100 1650 6100 1200
Wire Wire Line
	6150 5550 6150 6000
Wire Wire Line
	6200 1650 6200 1200
Wire Wire Line
	6250 5550 6250 6000
Wire Wire Line
	6300 1650 6300 1200
Wire Wire Line
	6350 5550 6350 6000
Wire Wire Line
	6400 1650 6400 1200
Wire Wire Line
	6450 5550 6450 6000
Wire Wire Line
	6500 1650 6500 1200
Wire Wire Line
	6550 5550 6550 6000
Wire Wire Line
	6600 1650 6600 1200
Wire Wire Line
	6650 5550 6650 6000
Wire Wire Line
	6700 1650 6700 1200
Wire Wire Line
	6750 5550 6750 6000
Wire Wire Line
	6800 1650 6800 1200
Wire Wire Line
	6850 5550 6850 6000
Wire Wire Line
	6900 1650 6900 1200
Wire Wire Line
	6950 5550 6950 6000
Wire Wire Line
	7000 1650 7000 1200
Wire Wire Line
	7050 5550 7050 6000
Wire Wire Line
	7100 1650 7100 1200
Wire Wire Line
	7150 5550 7150 6000
Wire Wire Line
	7200 1650 7200 1200
Wire Wire Line
	7250 5550 7250 6000
Wire Wire Line
	7300 1650 7300 1200
Wire Wire Line
	7350 5550 7350 6000
Wire Wire Line
	7400 1650 7400 1200
Wire Wire Line
	7450 5550 7450 6000
Wire Wire Line
	8000 2400 8150 2400
Wire Wire Line
	8000 2650 8150 2650
Wire Wire Line
	8000 2750 8150 2750
Wire Wire Line
	8000 2850 8150 2850
Wire Wire Line
	8000 3200 8000 3300
Wire Wire Line
	8000 3300 8000 3400
Wire Wire Line
	8000 3400 8000 3500
Wire Wire Line
	8000 3500 8000 3600
Wire Wire Line
	8000 3600 8000 3700
Wire Wire Line
	8000 4000 8000 4100
Wire Wire Line
	8000 4000 8200 4000
Wire Wire Line
	8000 4100 8000 4200
Wire Wire Line
	8000 4200 8000 4300
Wire Wire Line
	8000 4300 8000 4400
Wire Wire Line
	8000 4400 8000 4500
Wire Wire Line
	8000 4500 8000 4600
Wire Wire Line
	8000 4600 8000 4700
Wire Wire Line
	8000 4600 8400 4600
Wire Wire Line
	8000 4700 8000 4800
Wire Wire Line
	8000 4800 8000 4900
Wire Wire Line
	8000 4900 8000 5000
Wire Wire Line
	8000 5000 8000 5100
Wire Wire Line
	8000 5100 8000 5200
Wire Wire Line
	8200 3700 8000 3700
Wire Wire Line
	8200 3700 8450 3700
Wire Wire Line
	8200 3750 8200 3700
Wire Wire Line
	8200 3950 8200 4000
Wire Wire Line
	8200 4000 8450 4000
Wire Wire Line
	8250 3300 8250 3400
Wire Wire Line
	8250 3400 8000 3400
Wire Bus Line
	3050 1650 2800 1650
Wire Bus Line
	3050 1650 3050 1950
Wire Bus Line
	3050 1950 3050 2150
Wire Bus Line
	3050 2150 3050 2350
Wire Bus Line
	3050 2350 3050 2550
Wire Bus Line
	3050 2550 3050 2650
Wire Bus Line
	3050 2650 3050 2850
Wire Bus Line
	3050 2850 3050 3050
Wire Bus Line
	3050 3050 3050 3250
Wire Bus Line
	3050 3250 3050 3450
Wire Bus Line
	3050 3450 3050 3650
Wire Bus Line
	3050 3650 3050 3850
Wire Bus Line
	3050 3850 3050 4050
Wire Bus Line
	3050 4050 3050 4150
Wire Bus Line
	3050 4150 3050 4350
Wire Bus Line
	3050 4350 3050 4550
Wire Bus Line
	3050 4550 3050 4750
Wire Bus Line
	3050 4750 3050 4950
Wire Bus Line
	3050 4950 3050 5050
Wire Bus Line
	4400 1100 4600 1100
Wire Bus Line
	4450 6100 4550 6100
Wire Bus Line
	4550 6100 4750 6100
Wire Bus Line
	4600 1100 4700 1100
Wire Bus Line
	4700 1100 4900 1100
Wire Bus Line
	4750 6100 4950 6100
Wire Bus Line
	4900 1100 5100 1100
Wire Bus Line
	4950 6100 5150 6100
Wire Bus Line
	5100 1100 5200 1100
Wire Bus Line
	5150 6100 5350 6100
Wire Bus Line
	5200 1100 5400 1100
Wire Bus Line
	5350 6100 5550 6100
Wire Bus Line
	5400 1100 5500 1100
Wire Bus Line
	5500 1100 5700 1100
Wire Bus Line
	5550 6100 5750 6100
Wire Bus Line
	5700 1100 5800 1100
Wire Bus Line
	5750 6100 5950 6100
Wire Bus Line
	5800 1100 6000 1100
Wire Bus Line
	5950 6100 6150 6100
Wire Bus Line
	6000 1100 6200 1100
Wire Bus Line
	6150 6100 6350 6100
Wire Bus Line
	6200 1100 6400 1100
Wire Bus Line
	6350 6100 6550 6100
Wire Bus Line
	6400 1100 6600 1100
Wire Bus Line
	6550 6100 6750 6100
Wire Bus Line
	6600 1100 6800 1100
Wire Bus Line
	6750 6100 6950 6100
Wire Bus Line
	6800 1100 7000 1100
Wire Bus Line
	6950 6100 7050 6100
Wire Bus Line
	7000 1100 7200 1100
Wire Bus Line
	7050 6100 7250 6100
Wire Bus Line
	7200 1100 7400 1100
Wire Bus Line
	7250 6100 7450 6100
Wire Bus Line
	7400 1100 7850 1100
Wire Bus Line
	7450 6100 7850 6100
Text Label 3200 2050 0    50   ~ 0
GFX-BUS0
Text Label 3200 2150 0    50   ~ 0
GFX-BUS1
Text Label 3200 2250 0    50   ~ 0
GFX-BUS2
Text Label 3200 2350 0    50   ~ 0
GFX-BUS3
Text Label 3200 2450 0    50   ~ 0
GFX-BUS4
Text Label 3200 2550 0    50   ~ 0
GFX-BUS5
Text Label 3200 2650 0    50   ~ 0
GFX-BUS6
Text Label 3200 2750 0    50   ~ 0
GFX-BUS7
Text Label 3200 2850 0    50   ~ 0
GFX-BUS8
Text Label 3200 2950 0    50   ~ 0
GFX-BUS9
Text Label 3200 3050 0    50   ~ 0
GFX-BUS10
Text Label 3200 3150 0    50   ~ 0
GFX-BUS11
Text Label 3200 3250 0    50   ~ 0
GFX-BUS12
Text Label 3200 3350 0    50   ~ 0
GFX-BUS13
Text Label 3200 3450 0    50   ~ 0
GFX-BUS14
Text Label 3200 3550 0    50   ~ 0
GFX-BUS15
Text Label 3200 3650 0    50   ~ 0
GFX-BUS16
Text Label 3200 3750 0    50   ~ 0
GFX-BUS17
Text Label 3200 3850 0    50   ~ 0
GFX-BUS18
Text Label 3200 3950 0    50   ~ 0
GFX-BUS19
Text Label 3200 4050 0    50   ~ 0
GFX-BUS20
Text Label 3200 4150 0    50   ~ 0
GFX-BUS21
Text Label 3200 4250 0    50   ~ 0
GFX-BUS22
Text Label 3200 4350 0    50   ~ 0
GFX-BUS23
Text Label 3200 4450 0    50   ~ 0
GFX-BUS24
Text Label 3200 4550 0    50   ~ 0
GFX-BUS25
Text Label 3200 4650 0    50   ~ 0
GFX-BUS26
Text Label 3200 4750 0    50   ~ 0
GFX-BUS27
Text Label 3200 4850 0    50   ~ 0
GFX-BUS28
Text Label 3200 4950 0    50   ~ 0
GFX-BUS29
Text Label 3200 5050 0    50   ~ 0
GFX-BUS30
Text Label 3200 5150 0    50   ~ 0
GFX-BUS31
Text Label 4300 1600 1    50   ~ 0
GFX-A0
Text Label 4350 5600 3    50   ~ 0
GFX-B0
Text Label 4400 1600 1    50   ~ 0
GFX-A1
Text Label 4450 5600 3    50   ~ 0
GFX-B1
Text Label 4500 1600 1    50   ~ 0
GFX-A2
Text Label 4550 5600 3    50   ~ 0
GFX-B2
Text Label 4600 1600 1    50   ~ 0
GFX-A3
Text Label 4650 5600 3    50   ~ 0
GFX-B3
Text Label 4700 1600 1    50   ~ 0
GFX-A4
Text Label 4750 5600 3    50   ~ 0
GFX-B4
Text Label 4800 1600 1    50   ~ 0
GFX-A5
Text Label 4850 5600 3    50   ~ 0
GFX-B5
Text Label 4900 1600 1    50   ~ 0
GFX-A6
Text Label 4950 5600 3    50   ~ 0
GFX-B6
Text Label 5000 1600 1    50   ~ 0
GFX-A7
Text Label 5050 5600 3    50   ~ 0
GFX-B7
Text Label 5100 1600 1    50   ~ 0
GFX-A8
Text Label 5150 5600 3    50   ~ 0
GFX-B8
Text Label 5200 1600 1    50   ~ 0
GFX-A9
Text Label 5250 5600 3    50   ~ 0
GFX-B9
Text Label 5300 1600 1    50   ~ 0
GFX-A10
Text Label 5350 5600 3    50   ~ 0
GFX-B10
Text Label 5400 1600 1    50   ~ 0
GFX-A11
Text Label 5450 5600 3    50   ~ 0
GFX-B11
Text Label 5500 1600 1    50   ~ 0
GFX-A12
Text Label 5550 5600 3    50   ~ 0
GFX-B12
Text Label 5600 1600 1    50   ~ 0
GFX-A13
Text Label 5650 5600 3    50   ~ 0
GFX-B13
Text Label 5700 1600 1    50   ~ 0
GFX-A14
Text Label 5750 5600 3    50   ~ 0
GFX-B14
Text Label 5800 1600 1    50   ~ 0
GFX-A15
Text Label 5850 5600 3    50   ~ 0
GFX-B15
Text Label 5900 1600 1    50   ~ 0
GFX-A16
Text Label 5950 5600 3    50   ~ 0
GFX-B16
Text Label 6000 1600 1    50   ~ 0
GFX-A17
Text Label 6050 5600 3    50   ~ 0
GFX-B17
Text Label 6100 1600 1    50   ~ 0
GFX-A18
Text Label 6150 5600 3    50   ~ 0
GFX-B18
Text Label 6200 1600 1    50   ~ 0
GFX-A19
Text Label 6250 5600 3    50   ~ 0
GFX-B19
Text Label 6300 1600 1    50   ~ 0
GFX-A20
Text Label 6350 5600 3    50   ~ 0
GFX-B20
Text Label 6400 1600 1    50   ~ 0
GFX-A21
Text Label 6450 5600 3    50   ~ 0
GFX-B21
Text Label 6500 1600 1    50   ~ 0
GFX-A22
Text Label 6550 5600 3    50   ~ 0
GFX-B22
Text Label 6600 1600 1    50   ~ 0
GFX-A23
Text Label 6650 5600 3    50   ~ 0
GFX-B23
Text Label 6700 1600 1    50   ~ 0
GFX-A24
Text Label 6750 5600 3    50   ~ 0
GFX-B24
Text Label 6800 1600 1    50   ~ 0
GFX-A25
Text Label 6850 5600 3    50   ~ 0
GFX-B25
Text Label 6900 1600 1    50   ~ 0
GFX-A26
Text Label 6950 5600 3    50   ~ 0
GFX-B26
Text Label 7000 1600 1    50   ~ 0
GFX-A27
Text Label 7050 5600 3    50   ~ 0
GFX-B27
Text Label 7100 1600 1    50   ~ 0
GFX-A28
Text Label 7150 5600 3    50   ~ 0
GFX-B28
Text Label 7200 1600 1    50   ~ 0
GFX-A29
Text Label 7250 5600 3    50   ~ 0
GFX-B29
Text Label 7300 1600 1    50   ~ 0
GFX-A30
Text Label 7350 5600 3    50   ~ 0
GFX-B30
Text Label 7400 1600 1    50   ~ 0
GFX-A31
Text Label 7450 5600 3    50   ~ 0
GFX-B31
Text HLabel 2800 1650 0    50   BiDi ~ 0
GFX-BUS[0..31]
Text HLabel 7850 1100 2    50   Input ~ 0
GFX-A[0..31]
Text HLabel 7850 6100 2    50   Input ~ 0
GFX-B[0..31]
Text HLabel 8150 2400 2    50   Input ~ 0
CLK2M
Text HLabel 8150 2650 2    50   Input ~ 0
GFX-DATA-ENABLE
Text HLabel 8150 2750 2    50   Input ~ 0
ENABLE3
Text HLabel 8150 2850 2    50   Input ~ 0
ENABLE
$Comp
L power:VDD #PWR?
U 1 1 62D2055E
P 8250 3300
AR Path="/62C44E7C/62D2055E" Ref="#PWR?"  Part="1" 
AR Path="/62D0139C/62D2055E" Ref="#PWR0230"  Part="1" 
F 0 "#PWR0230" H 8250 3150 50  0001 C CNN
F 1 "VDD" H 8267 3473 50  0000 C CNN
F 2 "" H 8250 3300 50  0001 C CNN
F 3 "" H 8250 3300 50  0001 C CNN
	1    8250 3300
	1    0    0    -1  
$EndComp
$Comp
L power:GND #PWR?
U 1 1 62D2057F
P 8400 4600
AR Path="/62C44E7C/62D2057F" Ref="#PWR?"  Part="1" 
AR Path="/62D0139C/62D2057F" Ref="#PWR0229"  Part="1" 
F 0 "#PWR0229" H 8400 4350 50  0001 C CNN
F 1 "GND" H 8405 4427 50  0001 C CNN
F 2 "" H 8400 4600 50  0001 C CNN
F 3 "" H 8400 4600 50  0001 C CNN
	1    8400 4600
	1    0    0    -1  
$EndComp
$Comp
L Device:C_Small CX?
U 1 1 5E0F158D
P 8200 3850
AR Path="/5E35B989/5E0F158D" Ref="CX?"  Part="1" 
AR Path="/5DC1E7F0/5E0F158D" Ref="CX?"  Part="1" 
AR Path="/62D0139C/5E0F158D" Ref="CX25"  Part="1" 
F 0 "CX25" H 8292 3896 50  0001 L CNN
F 1 "0.1u" H 8000 3750 50  0000 L CNN
F 2 "" H 8200 3850 50  0001 C CNN
F 3 "~" H 8200 3850 50  0001 C CNN
	1    8200 3850
	1    0    0    -1  
$EndComp
$Comp
L Device:C EXC?
U 1 1 5E0F1593
P 8450 3850
AR Path="/5E35B989/5E0F1593" Ref="EXC?"  Part="1" 
AR Path="/5DC1E7F0/5E0F1593" Ref="EXC?"  Part="1" 
AR Path="/62D0139C/5E0F1593" Ref="EXC4"  Part="1" 
F 0 "EXC4" H 8450 3950 50  0000 L CNN
F 1 "1u" H 8450 3750 50  0000 L CNN
F 2 "" H 8488 3700 50  0001 C CNN
F 3 "~" H 8450 3850 50  0001 C CNN
	1    8450 3850
	-1   0    0    -1  
$EndComp
$Comp
L CPS2-Custom:DL-2027 U-CGD-J7
U 1 1 62D35595
P 5850 3600
F 0 "U-CGD-J7" H 5850 3900 200 0000 C CNN
F 1 "DL-2027" H 5150 3600 200 0000 L CNN
F 2 "" V 6100 4950 50  0001 C CNN
F 3 "" V 6100 4950 50  0001 C CNN
	1    5850 3600
	1    0    0    -1  
$EndComp
$EndSCHEMATC
