EESchema Schematic File Version 5
EELAYER 33 0
EELAYER END
$Descr A4 11693 8268
encoding utf-8
Sheet 6 17
Title ""
Date "2019-10-17"
Rev ""
Comp ""
Comment1 ""
Comment2 "Licence: CC-BY"
Comment3 "Author: Loic *WydD* Petit"
Comment4 "Project: CPS2 Reverse Engineering: 93646B"
Comment5 ""
Comment6 ""
Comment7 ""
Comment8 ""
Comment9 ""
$EndDescr
Connection ~ 1450 800 
Connection ~ 1450 3200
Connection ~ 1450 3600
Connection ~ 1450 6000
Connection ~ 4500 800 
Connection ~ 4500 3200
Connection ~ 4500 3600
Connection ~ 4500 6000
Connection ~ 5900 1200
Connection ~ 5900 1600
Connection ~ 5900 2000
Connection ~ 5900 2400
Connection ~ 1100 6650
Connection ~ 1100 7650
Connection ~ 7200 800 
Connection ~ 7200 3200
Connection ~ 7200 3600
Connection ~ 7200 6000
Connection ~ 10250 800 
Connection ~ 10250 3200
Connection ~ 10250 3600
Connection ~ 5800 3600
Connection ~ 5800 4000
Connection ~ 5800 4400
Connection ~ 5800 4800
Connection ~ 10250 6000
Connection ~ 1300 6650
Connection ~ 5450 2300
Connection ~ 5450 1900
Connection ~ 5450 1500
Connection ~ 5550 1300
Connection ~ 5550 1700
Connection ~ 5550 2100
Connection ~ 6250 3500
Connection ~ 6250 4300
Connection ~ 6250 3900
Connection ~ 6150 4100
Connection ~ 6150 4500
Connection ~ 6150 3700
Connection ~ 5550 2500
Connection ~ 9350 5550
Connection ~ 2350 5550
NoConn ~ 3300 7500
Entry Wire Line
	600  900  700  1000
Entry Wire Line
	600  1000 700  1100
Entry Wire Line
	600  1100 700  1200
Entry Wire Line
	600  1200 700  1300
Entry Wire Line
	600  1300 700  1400
Entry Wire Line
	600  1400 700  1500
Entry Wire Line
	600  1500 700  1600
Entry Wire Line
	600  1600 700  1700
Entry Wire Line
	600  1700 700  1800
Entry Wire Line
	600  1800 700  1900
Entry Wire Line
	600  1900 700  2000
Entry Wire Line
	600  2000 700  2100
Entry Wire Line
	600  2100 700  2200
Entry Wire Line
	600  2200 700  2300
Entry Wire Line
	600  2300 700  2400
Entry Wire Line
	600  2400 700  2500
Entry Wire Line
	600  2500 700  2600
Entry Wire Line
	600  2600 700  2700
Entry Wire Line
	600  2700 700  2800
Entry Wire Line
	600  2800 700  2900
Entry Wire Line
	600  3700 700  3800
Entry Wire Line
	600  3800 700  3900
Entry Wire Line
	600  3900 700  4000
Entry Wire Line
	600  4000 700  4100
Entry Wire Line
	600  4100 700  4200
Entry Wire Line
	600  4200 700  4300
Entry Wire Line
	600  4300 700  4400
Entry Wire Line
	600  4400 700  4500
Entry Wire Line
	600  4500 700  4600
Entry Wire Line
	600  4600 700  4700
Entry Wire Line
	600  4700 700  4800
Entry Wire Line
	600  4800 700  4900
Entry Wire Line
	600  4900 700  5000
Entry Wire Line
	600  5000 700  5100
Entry Wire Line
	600  5100 700  5200
Entry Wire Line
	600  5200 700  5300
Entry Wire Line
	600  5300 700  5400
Entry Wire Line
	600  5400 700  5500
Entry Wire Line
	600  5500 700  5600
Entry Wire Line
	600  5600 700  5700
Entry Wire Line
	2250 1000 2350 1100
Entry Wire Line
	2250 1100 2350 1200
Entry Wire Line
	2250 1200 2350 1300
Entry Wire Line
	2250 1300 2350 1400
Entry Wire Line
	2250 1400 2350 1500
Entry Wire Line
	2250 1500 2350 1600
Entry Wire Line
	2250 1600 2350 1700
Entry Wire Line
	2250 1700 2350 1800
Entry Wire Line
	2250 1800 2350 1900
Entry Wire Line
	2250 1900 2350 2000
Entry Wire Line
	2250 2000 2350 2100
Entry Wire Line
	2250 2100 2350 2200
Entry Wire Line
	2250 2200 2350 2300
Entry Wire Line
	2250 2300 2350 2400
Entry Wire Line
	2250 2400 2350 2500
Entry Wire Line
	2250 2500 2350 2600
Entry Wire Line
	2250 3800 2350 3900
Entry Wire Line
	2250 3900 2350 4000
Entry Wire Line
	2250 4000 2350 4100
Entry Wire Line
	2250 4100 2350 4200
Entry Wire Line
	2250 4200 2350 4300
Entry Wire Line
	2250 4300 2350 4400
Entry Wire Line
	2250 4400 2350 4500
Entry Wire Line
	2250 4500 2350 4600
Entry Wire Line
	2250 4600 2350 4700
Entry Wire Line
	2250 4700 2350 4800
Entry Wire Line
	2250 4800 2350 4900
Entry Wire Line
	2250 4900 2350 5000
Entry Wire Line
	2250 5000 2350 5100
Entry Wire Line
	2250 5100 2350 5200
Entry Wire Line
	2250 5200 2350 5300
Entry Wire Line
	2250 5300 2350 5400
Entry Wire Line
	2350 1100 2450 1000
Entry Wire Line
	2350 1200 2450 1100
Entry Wire Line
	2350 1300 2450 1200
Entry Wire Line
	2350 1400 2450 1300
Entry Wire Line
	2350 1500 2450 1400
Entry Wire Line
	2350 1600 2450 1500
Entry Wire Line
	2350 1700 2450 1600
Entry Wire Line
	2350 1800 2450 1700
Entry Wire Line
	2350 1900 2450 1800
Entry Wire Line
	2350 2000 2450 1900
Entry Wire Line
	2350 2100 2450 2000
Entry Wire Line
	2350 2200 2450 2100
Entry Wire Line
	2350 2300 2450 2200
Entry Wire Line
	2350 2400 2450 2300
Entry Wire Line
	2350 2500 2450 2400
Entry Wire Line
	2350 2600 2450 2500
Entry Wire Line
	3600 3900 3500 3800
Entry Wire Line
	3600 4000 3500 3900
Entry Wire Line
	3600 4100 3500 4000
Entry Wire Line
	3600 4200 3500 4100
Entry Wire Line
	3600 4300 3500 4200
Entry Wire Line
	3600 4400 3500 4300
Entry Wire Line
	3600 4500 3500 4400
Entry Wire Line
	3600 4600 3500 4500
Entry Wire Line
	3600 4700 3500 4600
Entry Wire Line
	3600 4800 3500 4700
Entry Wire Line
	3600 4900 3500 4800
Entry Wire Line
	3600 5000 3500 4900
Entry Wire Line
	3600 5100 3500 5000
Entry Wire Line
	3600 5200 3500 5100
Entry Wire Line
	3600 5300 3500 5200
Entry Wire Line
	3600 5400 3500 5300
Entry Wire Line
	3700 1000 3600 1100
Entry Wire Line
	3700 1100 3600 1200
Entry Wire Line
	3700 1200 3600 1300
Entry Wire Line
	3700 1300 3600 1400
Entry Wire Line
	3700 1400 3600 1500
Entry Wire Line
	3700 1500 3600 1600
Entry Wire Line
	3700 1600 3600 1700
Entry Wire Line
	3700 1700 3600 1800
Entry Wire Line
	3700 1800 3600 1900
Entry Wire Line
	3700 1900 3600 2000
Entry Wire Line
	3700 2000 3600 2100
Entry Wire Line
	3700 2100 3600 2200
Entry Wire Line
	3700 2200 3600 2300
Entry Wire Line
	3700 2300 3600 2400
Entry Wire Line
	3700 2400 3600 2500
Entry Wire Line
	3700 2500 3600 2600
Entry Wire Line
	3700 3800 3600 3900
Entry Wire Line
	3700 3900 3600 4000
Entry Wire Line
	3700 4000 3600 4100
Entry Wire Line
	3700 4100 3600 4200
Entry Wire Line
	3700 4200 3600 4300
Entry Wire Line
	3700 4300 3600 4400
Entry Wire Line
	3700 4400 3600 4500
Entry Wire Line
	3700 4500 3600 4600
Entry Wire Line
	3700 4600 3600 4700
Entry Wire Line
	3700 4700 3600 4800
Entry Wire Line
	3700 4800 3600 4900
Entry Wire Line
	3700 4900 3600 5000
Entry Wire Line
	3700 5000 3600 5100
Entry Wire Line
	3700 5100 3600 5200
Entry Wire Line
	3700 5200 3600 5300
Entry Wire Line
	3700 5300 3600 5400
Entry Wire Line
	4450 6900 4550 7000
Entry Wire Line
	4450 7000 4550 7100
Entry Wire Line
	4450 7100 4550 7200
Entry Wire Line
	5350 900  5250 1000
Entry Wire Line
	5350 1000 5250 1100
Entry Wire Line
	5350 1100 5250 1200
Entry Wire Line
	5350 1200 5250 1300
Entry Wire Line
	5350 1300 5250 1400
Entry Wire Line
	5350 1400 5250 1500
Entry Wire Line
	5350 1500 5250 1600
Entry Wire Line
	5350 1600 5250 1700
Entry Wire Line
	5350 1700 5250 1800
Entry Wire Line
	5350 1800 5250 1900
Entry Wire Line
	5350 1900 5250 2000
Entry Wire Line
	5350 2000 5250 2100
Entry Wire Line
	5350 2100 5250 2200
Entry Wire Line
	5350 2200 5250 2300
Entry Wire Line
	5350 2300 5250 2400
Entry Wire Line
	5350 2400 5250 2500
Entry Wire Line
	5350 2500 5250 2600
Entry Wire Line
	5350 2600 5250 2700
Entry Wire Line
	5350 2700 5250 2800
Entry Wire Line
	5350 2800 5250 2900
Entry Wire Line
	5350 3000 5450 2900
Entry Wire Line
	5350 3700 5250 3800
Entry Wire Line
	5350 3800 5250 3900
Entry Wire Line
	5350 3900 5250 4000
Entry Wire Line
	5350 4000 5250 4100
Entry Wire Line
	5350 4100 5250 4200
Entry Wire Line
	5350 4200 5250 4300
Entry Wire Line
	5350 4300 5250 4400
Entry Wire Line
	5350 4400 5250 4500
Entry Wire Line
	5350 4500 5250 4600
Entry Wire Line
	5350 4600 5250 4700
Entry Wire Line
	5350 4700 5250 4800
Entry Wire Line
	5350 4800 5250 4900
Entry Wire Line
	5350 4900 5250 5000
Entry Wire Line
	5350 5000 5250 5100
Entry Wire Line
	5350 5100 5250 5200
Entry Wire Line
	5350 5200 5250 5300
Entry Wire Line
	5350 5300 5250 5400
Entry Wire Line
	5350 5400 5250 5500
Entry Wire Line
	5350 5500 5250 5600
Entry Wire Line
	5350 5600 5250 5700
Entry Wire Line
	5350 5600 5450 5700
Entry Wire Line
	6350 900  6450 1000
Entry Wire Line
	6350 1000 6450 1100
Entry Wire Line
	6350 1100 6450 1200
Entry Wire Line
	6350 1200 6450 1300
Entry Wire Line
	6350 1300 6450 1400
Entry Wire Line
	6350 1400 6450 1500
Entry Wire Line
	6350 1500 6450 1600
Entry Wire Line
	6350 1600 6450 1700
Entry Wire Line
	6350 1700 6450 1800
Entry Wire Line
	6350 1800 6450 1900
Entry Wire Line
	6350 1900 6450 2000
Entry Wire Line
	6350 2000 6450 2100
Entry Wire Line
	6350 2100 6450 2200
Entry Wire Line
	6350 2200 6450 2300
Entry Wire Line
	6350 2300 6450 2400
Entry Wire Line
	6350 2400 6450 2500
Entry Wire Line
	6350 2500 6450 2600
Entry Wire Line
	6350 2600 6450 2700
Entry Wire Line
	6350 2700 6450 2800
Entry Wire Line
	6350 2800 6450 2900
Entry Wire Line
	6350 3000 6250 3100
Entry Wire Line
	6350 3700 6450 3800
Entry Wire Line
	6350 3800 6450 3900
Entry Wire Line
	6350 3900 6450 4000
Entry Wire Line
	6350 4000 6450 4100
Entry Wire Line
	6350 4100 6450 4200
Entry Wire Line
	6350 4200 6450 4300
Entry Wire Line
	6350 4300 6450 4400
Entry Wire Line
	6350 4400 6450 4500
Entry Wire Line
	6350 4500 6450 4600
Entry Wire Line
	6350 4600 6450 4700
Entry Wire Line
	6350 4700 6450 4800
Entry Wire Line
	6350 4800 6450 4900
Entry Wire Line
	6350 4900 6450 5000
Entry Wire Line
	6350 5000 6450 5100
Entry Wire Line
	6350 5100 6450 5200
Entry Wire Line
	6350 5200 6450 5300
Entry Wire Line
	6350 5300 6450 5400
Entry Wire Line
	6350 5400 6450 5500
Entry Wire Line
	6350 5500 6450 5600
Entry Wire Line
	6350 5600 6250 5700
Entry Wire Line
	6350 5600 6450 5700
Entry Wire Line
	8000 1000 8100 1100
Entry Wire Line
	8000 1100 8100 1200
Entry Wire Line
	8000 1200 8100 1300
Entry Wire Line
	8000 1300 8100 1400
Entry Wire Line
	8000 1400 8100 1500
Entry Wire Line
	8000 1500 8100 1600
Entry Wire Line
	8000 1600 8100 1700
Entry Wire Line
	8000 1700 8100 1800
Entry Wire Line
	8000 1800 8100 1900
Entry Wire Line
	8000 1900 8100 2000
Entry Wire Line
	8000 2000 8100 2100
Entry Wire Line
	8000 2100 8100 2200
Entry Wire Line
	8000 2200 8100 2300
Entry Wire Line
	8000 2300 8100 2400
Entry Wire Line
	8000 2400 8100 2500
Entry Wire Line
	8000 2500 8100 2600
Entry Wire Line
	8000 3800 8100 3900
Entry Wire Line
	8000 3900 8100 4000
Entry Wire Line
	8000 4000 8100 4100
Entry Wire Line
	8000 4100 8100 4200
Entry Wire Line
	8000 4200 8100 4300
Entry Wire Line
	8000 4300 8100 4400
Entry Wire Line
	8000 4400 8100 4500
Entry Wire Line
	8000 4500 8100 4600
Entry Wire Line
	8000 4600 8100 4700
Entry Wire Line
	8000 4700 8100 4800
Entry Wire Line
	8000 4800 8100 4900
Entry Wire Line
	8000 4900 8100 5000
Entry Wire Line
	8000 5000 8100 5100
Entry Wire Line
	8000 5100 8100 5200
Entry Wire Line
	8000 5200 8100 5300
Entry Wire Line
	8000 5300 8100 5400
Entry Wire Line
	8100 1100 8200 1000
Entry Wire Line
	8100 1200 8200 1100
Entry Wire Line
	8100 1300 8200 1200
Entry Wire Line
	8100 1400 8200 1300
Entry Wire Line
	8100 1500 8200 1400
Entry Wire Line
	8100 1600 8200 1500
Entry Wire Line
	8100 1700 8200 1600
Entry Wire Line
	8100 1800 8200 1700
Entry Wire Line
	8100 1900 8200 1800
Entry Wire Line
	8100 2000 8200 1900
Entry Wire Line
	8100 2100 8200 2000
Entry Wire Line
	8100 2200 8200 2100
Entry Wire Line
	8100 2300 8200 2200
Entry Wire Line
	8100 2400 8200 2300
Entry Wire Line
	8100 2500 8200 2400
Entry Wire Line
	8100 2600 8200 2500
Entry Wire Line
	9350 3900 9250 3800
Entry Wire Line
	9350 4000 9250 3900
Entry Wire Line
	9350 4100 9250 4000
Entry Wire Line
	9350 4200 9250 4100
Entry Wire Line
	9350 4300 9250 4200
Entry Wire Line
	9350 4400 9250 4300
Entry Wire Line
	9350 4500 9250 4400
Entry Wire Line
	9350 4600 9250 4500
Entry Wire Line
	9350 4700 9250 4600
Entry Wire Line
	9350 4800 9250 4700
Entry Wire Line
	9350 4900 9250 4800
Entry Wire Line
	9350 5000 9250 4900
Entry Wire Line
	9350 5100 9250 5000
Entry Wire Line
	9350 5200 9250 5100
Entry Wire Line
	9350 5300 9250 5200
Entry Wire Line
	9350 5400 9250 5300
Entry Wire Line
	9450 1000 9350 1100
Entry Wire Line
	9450 1100 9350 1200
Entry Wire Line
	9450 1200 9350 1300
Entry Wire Line
	9450 1300 9350 1400
Entry Wire Line
	9450 1400 9350 1500
Entry Wire Line
	9450 1500 9350 1600
Entry Wire Line
	9450 1600 9350 1700
Entry Wire Line
	9450 1700 9350 1800
Entry Wire Line
	9450 1800 9350 1900
Entry Wire Line
	9450 1900 9350 2000
Entry Wire Line
	9450 2000 9350 2100
Entry Wire Line
	9450 2100 9350 2200
Entry Wire Line
	9450 2200 9350 2300
Entry Wire Line
	9450 2300 9350 2400
Entry Wire Line
	9450 2400 9350 2500
Entry Wire Line
	9450 2500 9350 2600
Entry Wire Line
	9450 3800 9350 3900
Entry Wire Line
	9450 3900 9350 4000
Entry Wire Line
	9450 4000 9350 4100
Entry Wire Line
	9450 4100 9350 4200
Entry Wire Line
	9450 4200 9350 4300
Entry Wire Line
	9450 4300 9350 4400
Entry Wire Line
	9450 4400 9350 4500
Entry Wire Line
	9450 4500 9350 4600
Entry Wire Line
	9450 4600 9350 4700
Entry Wire Line
	9450 4700 9350 4800
Entry Wire Line
	9450 4800 9350 4900
Entry Wire Line
	9450 4900 9350 5000
Entry Wire Line
	9450 5000 9350 5100
Entry Wire Line
	9450 5100 9350 5200
Entry Wire Line
	9450 5200 9350 5300
Entry Wire Line
	9450 5300 9350 5400
Entry Wire Line
	11100 900  11000 1000
Entry Wire Line
	11100 1000 11000 1100
Entry Wire Line
	11100 1100 11000 1200
Entry Wire Line
	11100 1200 11000 1300
Entry Wire Line
	11100 1300 11000 1400
Entry Wire Line
	11100 1400 11000 1500
Entry Wire Line
	11100 1500 11000 1600
Entry Wire Line
	11100 1600 11000 1700
Entry Wire Line
	11100 1700 11000 1800
Entry Wire Line
	11100 1800 11000 1900
Entry Wire Line
	11100 1900 11000 2000
Entry Wire Line
	11100 2000 11000 2100
Entry Wire Line
	11100 2100 11000 2200
Entry Wire Line
	11100 2200 11000 2300
Entry Wire Line
	11100 2300 11000 2400
Entry Wire Line
	11100 2400 11000 2500
Entry Wire Line
	11100 2500 11000 2600
Entry Wire Line
	11100 2600 11000 2700
Entry Wire Line
	11100 2700 11000 2800
Entry Wire Line
	11100 2800 11000 2900
Entry Wire Line
	11100 3700 11000 3800
Entry Wire Line
	11100 3800 11000 3900
Entry Wire Line
	11100 3900 11000 4000
Entry Wire Line
	11100 4000 11000 4100
Entry Wire Line
	11100 4100 11000 4200
Entry Wire Line
	11100 4200 11000 4300
Entry Wire Line
	11100 4300 11000 4400
Entry Wire Line
	11100 4400 11000 4500
Entry Wire Line
	11100 4500 11000 4600
Entry Wire Line
	11100 4600 11000 4700
Entry Wire Line
	11100 4700 11000 4800
Entry Wire Line
	11100 4800 11000 4900
Entry Wire Line
	11100 4900 11000 5000
Entry Wire Line
	11100 5000 11000 5100
Entry Wire Line
	11100 5100 11000 5200
Entry Wire Line
	11100 5200 11000 5300
Entry Wire Line
	11100 5300 11000 5400
Entry Wire Line
	11100 5400 11000 5500
Entry Wire Line
	11100 5500 11000 5600
Entry Wire Line
	11100 5600 11000 5700
Wire Wire Line
	650  3000 1050 3000
Wire Wire Line
	650  5800 1050 5800
Wire Wire Line
	700  1000 1050 1000
Wire Wire Line
	700  1100 1050 1100
Wire Wire Line
	700  1200 1050 1200
Wire Wire Line
	700  1300 1050 1300
Wire Wire Line
	700  1400 1050 1400
Wire Wire Line
	700  1500 1050 1500
Wire Wire Line
	700  1600 1050 1600
Wire Wire Line
	700  1700 1050 1700
Wire Wire Line
	700  1800 1050 1800
Wire Wire Line
	700  1900 1050 1900
Wire Wire Line
	700  2000 1050 2000
Wire Wire Line
	700  2100 1050 2100
Wire Wire Line
	700  2200 1050 2200
Wire Wire Line
	700  2300 1050 2300
Wire Wire Line
	700  2400 1050 2400
Wire Wire Line
	700  2500 1050 2500
Wire Wire Line
	700  2600 1050 2600
Wire Wire Line
	700  2700 1050 2700
Wire Wire Line
	700  2800 1050 2800
Wire Wire Line
	700  2900 1050 2900
Wire Wire Line
	700  3800 1050 3800
Wire Wire Line
	700  3900 1050 3900
Wire Wire Line
	700  4000 1050 4000
Wire Wire Line
	700  4100 1050 4100
Wire Wire Line
	700  4200 1050 4200
Wire Wire Line
	700  4300 1050 4300
Wire Wire Line
	700  4400 1050 4400
Wire Wire Line
	700  4500 1050 4500
Wire Wire Line
	700  4600 1050 4600
Wire Wire Line
	700  4700 1050 4700
Wire Wire Line
	700  4800 1050 4800
Wire Wire Line
	700  4900 1050 4900
Wire Wire Line
	700  5000 1050 5000
Wire Wire Line
	700  5100 1050 5100
Wire Wire Line
	700  5200 1050 5200
Wire Wire Line
	700  5300 1050 5300
Wire Wire Line
	700  5400 1050 5400
Wire Wire Line
	700  5500 1050 5500
Wire Wire Line
	700  5600 1050 5600
Wire Wire Line
	700  5700 1050 5700
Wire Wire Line
	850  6650 1100 6650
Wire Wire Line
	850  7650 1100 7650
Wire Wire Line
	1100 6650 1300 6650
Wire Wire Line
	1100 7650 1300 7650
Wire Wire Line
	1300 6750 1300 6650
Wire Wire Line
	1300 7650 1300 7550
Wire Wire Line
	1400 3200 1450 3200
Wire Wire Line
	1400 6000 1450 6000
Wire Wire Line
	1450 3200 1500 3200
Wire Wire Line
	1450 6000 1500 6000
Wire Wire Line
	1600 800  1450 800 
Wire Wire Line
	1600 3600 1450 3600
Wire Wire Line
	1850 1000 2250 1000
Wire Wire Line
	1850 1100 2250 1100
Wire Wire Line
	1850 1200 2250 1200
Wire Wire Line
	1850 1300 2250 1300
Wire Wire Line
	1850 1400 2250 1400
Wire Wire Line
	1850 1500 2250 1500
Wire Wire Line
	1850 1600 2250 1600
Wire Wire Line
	1850 1700 2250 1700
Wire Wire Line
	1850 1800 2250 1800
Wire Wire Line
	1850 1900 2250 1900
Wire Wire Line
	1850 2000 2250 2000
Wire Wire Line
	1850 2100 2250 2100
Wire Wire Line
	1850 2200 2250 2200
Wire Wire Line
	1850 2300 2250 2300
Wire Wire Line
	1850 2400 2250 2400
Wire Wire Line
	1850 2500 2250 2500
Wire Wire Line
	1850 2750 2300 2750
Wire Wire Line
	1850 3800 2250 3800
Wire Wire Line
	1850 3900 2250 3900
Wire Wire Line
	1850 4000 2250 4000
Wire Wire Line
	1850 4100 2250 4100
Wire Wire Line
	1850 4200 2250 4200
Wire Wire Line
	1850 4300 2250 4300
Wire Wire Line
	1850 4400 2250 4400
Wire Wire Line
	1850 4500 2250 4500
Wire Wire Line
	1850 4600 2250 4600
Wire Wire Line
	1850 4700 2250 4700
Wire Wire Line
	1850 4800 2250 4800
Wire Wire Line
	1850 4900 2250 4900
Wire Wire Line
	1850 5000 2250 5000
Wire Wire Line
	1850 5100 2250 5100
Wire Wire Line
	1850 5200 2250 5200
Wire Wire Line
	1850 5300 2250 5300
Wire Wire Line
	1850 5550 2300 5550
Wire Wire Line
	2150 2850 1850 2850
Wire Wire Line
	2150 5650 1850 5650
Wire Wire Line
	2450 1000 2850 1000
Wire Wire Line
	2450 1100 2850 1100
Wire Wire Line
	2450 1200 2850 1200
Wire Wire Line
	2450 1300 2850 1300
Wire Wire Line
	2450 1400 2850 1400
Wire Wire Line
	2450 1500 2850 1500
Wire Wire Line
	2450 1600 2850 1600
Wire Wire Line
	2450 1700 2850 1700
Wire Wire Line
	2450 1800 2850 1800
Wire Wire Line
	2450 1900 2850 1900
Wire Wire Line
	2450 2000 2850 2000
Wire Wire Line
	2450 2100 2850 2100
Wire Wire Line
	2450 2200 2850 2200
Wire Wire Line
	2450 2300 2850 2300
Wire Wire Line
	2450 2400 2850 2400
Wire Wire Line
	2450 2500 2850 2500
Wire Wire Line
	2500 6950 2600 6950
Wire Wire Line
	2550 7400 2700 7400
Wire Wire Line
	2600 6950 2600 7300
Wire Wire Line
	2600 7300 2700 7300
Wire Wire Line
	2650 7700 3000 7700
Wire Wire Line
	3100 3800 3500 3800
Wire Wire Line
	3100 3900 3500 3900
Wire Wire Line
	3100 4000 3500 4000
Wire Wire Line
	3100 4100 3500 4100
Wire Wire Line
	3100 4200 3500 4200
Wire Wire Line
	3100 4300 3500 4300
Wire Wire Line
	3100 4400 3500 4400
Wire Wire Line
	3100 4500 3500 4500
Wire Wire Line
	3100 4600 3500 4600
Wire Wire Line
	3100 4700 3500 4700
Wire Wire Line
	3100 4800 3500 4800
Wire Wire Line
	3100 4900 3500 4900
Wire Wire Line
	3100 5000 3500 5000
Wire Wire Line
	3100 5100 3500 5100
Wire Wire Line
	3100 5200 3500 5200
Wire Wire Line
	3100 5300 3500 5300
Wire Wire Line
	3300 7300 4900 7300
Wire Wire Line
	3700 1000 4100 1000
Wire Wire Line
	3700 1100 4100 1100
Wire Wire Line
	3700 1200 4100 1200
Wire Wire Line
	3700 1300 4100 1300
Wire Wire Line
	3700 1400 4100 1400
Wire Wire Line
	3700 1500 4100 1500
Wire Wire Line
	3700 1600 4100 1600
Wire Wire Line
	3700 1700 4100 1700
Wire Wire Line
	3700 1800 4100 1800
Wire Wire Line
	3700 1900 4100 1900
Wire Wire Line
	3700 2000 4100 2000
Wire Wire Line
	3700 2100 4100 2100
Wire Wire Line
	3700 2200 4100 2200
Wire Wire Line
	3700 2300 4100 2300
Wire Wire Line
	3700 2400 4100 2400
Wire Wire Line
	3700 2500 4100 2500
Wire Wire Line
	3700 3800 4100 3800
Wire Wire Line
	3700 3900 4100 3900
Wire Wire Line
	3700 4000 4100 4000
Wire Wire Line
	3700 4100 4100 4100
Wire Wire Line
	3700 4200 4100 4200
Wire Wire Line
	3700 4300 4100 4300
Wire Wire Line
	3700 4400 4100 4400
Wire Wire Line
	3700 4500 4100 4500
Wire Wire Line
	3700 4600 4100 4600
Wire Wire Line
	3700 4700 4100 4700
Wire Wire Line
	3700 4800 4100 4800
Wire Wire Line
	3700 4900 4100 4900
Wire Wire Line
	3700 5000 4100 5000
Wire Wire Line
	3700 5100 4100 5100
Wire Wire Line
	3700 5200 4100 5200
Wire Wire Line
	3700 5300 4100 5300
Wire Wire Line
	3800 2850 4100 2850
Wire Wire Line
	3800 5650 4100 5650
Wire Wire Line
	4100 2750 3650 2750
Wire Wire Line
	4100 5550 3650 5550
Wire Wire Line
	4350 800  4500 800 
Wire Wire Line
	4350 3600 4500 3600
Wire Wire Line
	4500 3200 4450 3200
Wire Wire Line
	4500 6000 4450 6000
Wire Wire Line
	4550 3200 4500 3200
Wire Wire Line
	4550 6000 4500 6000
Wire Wire Line
	4550 6400 4900 6400
Wire Wire Line
	4550 6500 4900 6500
Wire Wire Line
	4550 6600 4900 6600
Wire Wire Line
	4550 6700 4900 6700
Wire Wire Line
	4550 6800 4900 6800
Wire Wire Line
	4550 6900 4900 6900
Wire Wire Line
	4550 7000 4900 7000
Wire Wire Line
	4550 7100 4900 7100
Wire Wire Line
	4550 7200 4900 7200
Wire Wire Line
	4900 3000 5300 3000
Wire Wire Line
	4900 3800 5250 3800
Wire Wire Line
	4900 3900 5250 3900
Wire Wire Line
	4900 4000 5250 4000
Wire Wire Line
	4900 4100 5250 4100
Wire Wire Line
	4900 4200 5250 4200
Wire Wire Line
	4900 4300 5250 4300
Wire Wire Line
	4900 4400 5250 4400
Wire Wire Line
	4900 4500 5250 4500
Wire Wire Line
	4900 4600 5250 4600
Wire Wire Line
	4900 4700 5250 4700
Wire Wire Line
	4900 4800 5250 4800
Wire Wire Line
	4900 4900 5250 4900
Wire Wire Line
	4900 5000 5250 5000
Wire Wire Line
	4900 5100 5250 5100
Wire Wire Line
	4900 5200 5250 5200
Wire Wire Line
	4900 5300 5250 5300
Wire Wire Line
	4900 5400 5250 5400
Wire Wire Line
	4900 5500 5250 5500
Wire Wire Line
	4900 5600 5250 5600
Wire Wire Line
	4900 5700 5250 5700
Wire Wire Line
	4900 5800 5300 5800
Wire Wire Line
	5250 1000 4900 1000
Wire Wire Line
	5250 1100 4900 1100
Wire Wire Line
	5250 1200 4900 1200
Wire Wire Line
	5250 1300 4900 1300
Wire Wire Line
	5250 1400 4900 1400
Wire Wire Line
	5250 1500 4900 1500
Wire Wire Line
	5250 1600 4900 1600
Wire Wire Line
	5250 1700 4900 1700
Wire Wire Line
	5250 1800 4900 1800
Wire Wire Line
	5250 1900 4900 1900
Wire Wire Line
	5250 2000 4900 2000
Wire Wire Line
	5250 2100 4900 2100
Wire Wire Line
	5250 2200 4900 2200
Wire Wire Line
	5250 2300 4900 2300
Wire Wire Line
	5250 2400 4900 2400
Wire Wire Line
	5250 2500 4900 2500
Wire Wire Line
	5250 2600 4900 2600
Wire Wire Line
	5250 2700 4900 2700
Wire Wire Line
	5250 2800 4900 2800
Wire Wire Line
	5250 2900 4900 2900
Wire Wire Line
	5450 1100 5450 1500
Wire Wire Line
	5450 1100 5600 1100
Wire Wire Line
	5450 1500 5450 1900
Wire Wire Line
	5450 1900 5450 2300
Wire Wire Line
	5450 2300 5450 2900
Wire Wire Line
	5450 5700 5800 5700
Wire Wire Line
	5550 950  5550 1300
Wire Wire Line
	5550 1300 5550 1700
Wire Wire Line
	5550 1300 5600 1300
Wire Wire Line
	5550 1700 5550 2100
Wire Wire Line
	5550 1700 5600 1700
Wire Wire Line
	5550 2100 5550 2500
Wire Wire Line
	5550 2100 5600 2100
Wire Wire Line
	5550 2500 5550 2700
Wire Wire Line
	5550 2500 5600 2500
Wire Wire Line
	5550 2700 5900 2700
Wire Wire Line
	5600 1500 5450 1500
Wire Wire Line
	5600 1900 5450 1900
Wire Wire Line
	5600 2300 5450 2300
Wire Wire Line
	5800 3500 5800 3600
Wire Wire Line
	5800 3600 5450 3600
Wire Wire Line
	5800 3600 5800 3700
Wire Wire Line
	5800 3900 5800 4000
Wire Wire Line
	5800 4000 5450 4000
Wire Wire Line
	5800 4000 5800 4100
Wire Wire Line
	5800 4300 5800 4400
Wire Wire Line
	5800 4400 5450 4400
Wire Wire Line
	5800 4400 5800 4500
Wire Wire Line
	5800 4700 5800 4800
Wire Wire Line
	5800 4800 5450 4800
Wire Wire Line
	5800 4800 5800 4900
Wire Wire Line
	5900 1100 5900 1200
Wire Wire Line
	5900 1200 5900 1300
Wire Wire Line
	5900 1200 6250 1200
Wire Wire Line
	5900 1500 5900 1600
Wire Wire Line
	5900 1600 5900 1700
Wire Wire Line
	5900 1600 6250 1600
Wire Wire Line
	5900 1900 5900 2000
Wire Wire Line
	5900 2000 5900 2100
Wire Wire Line
	5900 2000 6250 2000
Wire Wire Line
	5900 2300 5900 2400
Wire Wire Line
	5900 2400 5900 2500
Wire Wire Line
	5900 2400 6250 2400
Wire Wire Line
	5900 2700 5900 3300
Wire Wire Line
	5900 3300 6150 3300
Wire Wire Line
	5900 6400 6350 6400
Wire Wire Line
	5900 6500 6350 6500
Wire Wire Line
	5900 6600 6350 6600
Wire Wire Line
	5900 6700 6350 6700
Wire Wire Line
	5900 6800 6450 6800
Wire Wire Line
	5900 6900 6450 6900
Wire Wire Line
	5900 7000 6450 7000
Wire Wire Line
	5900 7100 6450 7100
Wire Wire Line
	6100 3700 6150 3700
Wire Wire Line
	6100 3900 6250 3900
Wire Wire Line
	6100 4300 6250 4300
Wire Wire Line
	6150 3300 6150 3700
Wire Wire Line
	6150 3700 6150 4100
Wire Wire Line
	6150 4100 6100 4100
Wire Wire Line
	6150 4100 6150 4500
Wire Wire Line
	6150 4500 6100 4500
Wire Wire Line
	6150 4500 6150 4900
Wire Wire Line
	6150 4900 6100 4900
Wire Wire Line
	6250 3100 6250 3500
Wire Wire Line
	6250 3500 6100 3500
Wire Wire Line
	6250 3500 6250 3900
Wire Wire Line
	6250 3900 6250 4300
Wire Wire Line
	6250 4300 6250 4700
Wire Wire Line
	6250 4700 6100 4700
Wire Wire Line
	6250 5700 5900 5700
Wire Wire Line
	6400 3000 6800 3000
Wire Wire Line
	6400 5800 6800 5800
Wire Wire Line
	6450 1000 6800 1000
Wire Wire Line
	6450 1100 6800 1100
Wire Wire Line
	6450 1200 6800 1200
Wire Wire Line
	6450 1300 6800 1300
Wire Wire Line
	6450 1400 6800 1400
Wire Wire Line
	6450 1500 6800 1500
Wire Wire Line
	6450 1600 6800 1600
Wire Wire Line
	6450 1700 6800 1700
Wire Wire Line
	6450 1800 6800 1800
Wire Wire Line
	6450 1900 6800 1900
Wire Wire Line
	6450 2000 6800 2000
Wire Wire Line
	6450 2100 6800 2100
Wire Wire Line
	6450 2200 6800 2200
Wire Wire Line
	6450 2300 6800 2300
Wire Wire Line
	6450 2400 6800 2400
Wire Wire Line
	6450 2500 6800 2500
Wire Wire Line
	6450 2600 6800 2600
Wire Wire Line
	6450 2700 6800 2700
Wire Wire Line
	6450 2800 6800 2800
Wire Wire Line
	6450 2900 6800 2900
Wire Wire Line
	6450 3800 6800 3800
Wire Wire Line
	6450 3900 6800 3900
Wire Wire Line
	6450 4000 6800 4000
Wire Wire Line
	6450 4100 6800 4100
Wire Wire Line
	6450 4200 6800 4200
Wire Wire Line
	6450 4300 6800 4300
Wire Wire Line
	6450 4400 6800 4400
Wire Wire Line
	6450 4500 6800 4500
Wire Wire Line
	6450 4600 6800 4600
Wire Wire Line
	6450 4700 6800 4700
Wire Wire Line
	6450 4800 6800 4800
Wire Wire Line
	6450 4900 6800 4900
Wire Wire Line
	6450 5000 6800 5000
Wire Wire Line
	6450 5100 6800 5100
Wire Wire Line
	6450 5200 6800 5200
Wire Wire Line
	6450 5300 6800 5300
Wire Wire Line
	6450 5400 6800 5400
Wire Wire Line
	6450 5500 6800 5500
Wire Wire Line
	6450 5600 6800 5600
Wire Wire Line
	6450 5700 6800 5700
Wire Wire Line
	7150 3200 7200 3200
Wire Wire Line
	7150 6000 7200 6000
Wire Wire Line
	7200 3200 7250 3200
Wire Wire Line
	7200 6000 7250 6000
Wire Wire Line
	7350 800  7200 800 
Wire Wire Line
	7350 3600 7200 3600
Wire Wire Line
	7600 1000 8000 1000
Wire Wire Line
	7600 1100 8000 1100
Wire Wire Line
	7600 1200 8000 1200
Wire Wire Line
	7600 1300 8000 1300
Wire Wire Line
	7600 1400 8000 1400
Wire Wire Line
	7600 1500 8000 1500
Wire Wire Line
	7600 1600 8000 1600
Wire Wire Line
	7600 1700 8000 1700
Wire Wire Line
	7600 1800 8000 1800
Wire Wire Line
	7600 1900 8000 1900
Wire Wire Line
	7600 2000 8000 2000
Wire Wire Line
	7600 2100 8000 2100
Wire Wire Line
	7600 2200 8000 2200
Wire Wire Line
	7600 2300 8000 2300
Wire Wire Line
	7600 2400 8000 2400
Wire Wire Line
	7600 2500 8000 2500
Wire Wire Line
	7600 2750 8050 2750
Wire Wire Line
	7600 3800 8000 3800
Wire Wire Line
	7600 3900 8000 3900
Wire Wire Line
	7600 4000 8000 4000
Wire Wire Line
	7600 4100 8000 4100
Wire Wire Line
	7600 4200 8000 4200
Wire Wire Line
	7600 4300 8000 4300
Wire Wire Line
	7600 4400 8000 4400
Wire Wire Line
	7600 4500 8000 4500
Wire Wire Line
	7600 4600 8000 4600
Wire Wire Line
	7600 4700 8000 4700
Wire Wire Line
	7600 4800 8000 4800
Wire Wire Line
	7600 4900 8000 4900
Wire Wire Line
	7600 5000 8000 5000
Wire Wire Line
	7600 5100 8000 5100
Wire Wire Line
	7600 5200 8000 5200
Wire Wire Line
	7600 5300 8000 5300
Wire Wire Line
	7600 5550 8050 5550
Wire Wire Line
	7900 2850 7600 2850
Wire Wire Line
	7900 5650 7600 5650
Wire Wire Line
	8200 1000 8600 1000
Wire Wire Line
	8200 1100 8600 1100
Wire Wire Line
	8200 1200 8600 1200
Wire Wire Line
	8200 1300 8600 1300
Wire Wire Line
	8200 1400 8600 1400
Wire Wire Line
	8200 1500 8600 1500
Wire Wire Line
	8200 1600 8600 1600
Wire Wire Line
	8200 1700 8600 1700
Wire Wire Line
	8200 1800 8600 1800
Wire Wire Line
	8200 1900 8600 1900
Wire Wire Line
	8200 2000 8600 2000
Wire Wire Line
	8200 2100 8600 2100
Wire Wire Line
	8200 2200 8600 2200
Wire Wire Line
	8200 2300 8600 2300
Wire Wire Line
	8200 2400 8600 2400
Wire Wire Line
	8200 2500 8600 2500
Wire Wire Line
	8850 3800 9250 3800
Wire Wire Line
	8850 3900 9250 3900
Wire Wire Line
	8850 4000 9250 4000
Wire Wire Line
	8850 4100 9250 4100
Wire Wire Line
	8850 4200 9250 4200
Wire Wire Line
	8850 4300 9250 4300
Wire Wire Line
	8850 4400 9250 4400
Wire Wire Line
	8850 4500 9250 4500
Wire Wire Line
	8850 4600 9250 4600
Wire Wire Line
	8850 4700 9250 4700
Wire Wire Line
	8850 4800 9250 4800
Wire Wire Line
	8850 4900 9250 4900
Wire Wire Line
	8850 5000 9250 5000
Wire Wire Line
	8850 5100 9250 5100
Wire Wire Line
	8850 5200 9250 5200
Wire Wire Line
	8850 5300 9250 5300
Wire Wire Line
	9450 1000 9850 1000
Wire Wire Line
	9450 1100 9850 1100
Wire Wire Line
	9450 1200 9850 1200
Wire Wire Line
	9450 1300 9850 1300
Wire Wire Line
	9450 1400 9850 1400
Wire Wire Line
	9450 1500 9850 1500
Wire Wire Line
	9450 1600 9850 1600
Wire Wire Line
	9450 1700 9850 1700
Wire Wire Line
	9450 1800 9850 1800
Wire Wire Line
	9450 1900 9850 1900
Wire Wire Line
	9450 2000 9850 2000
Wire Wire Line
	9450 2100 9850 2100
Wire Wire Line
	9450 2200 9850 2200
Wire Wire Line
	9450 2300 9850 2300
Wire Wire Line
	9450 2400 9850 2400
Wire Wire Line
	9450 2500 9850 2500
Wire Wire Line
	9450 3800 9850 3800
Wire Wire Line
	9450 3900 9850 3900
Wire Wire Line
	9450 4000 9850 4000
Wire Wire Line
	9450 4100 9850 4100
Wire Wire Line
	9450 4200 9850 4200
Wire Wire Line
	9450 4300 9850 4300
Wire Wire Line
	9450 4400 9850 4400
Wire Wire Line
	9450 4500 9850 4500
Wire Wire Line
	9450 4600 9850 4600
Wire Wire Line
	9450 4700 9850 4700
Wire Wire Line
	9450 4800 9850 4800
Wire Wire Line
	9450 4900 9850 4900
Wire Wire Line
	9450 5000 9850 5000
Wire Wire Line
	9450 5100 9850 5100
Wire Wire Line
	9450 5200 9850 5200
Wire Wire Line
	9450 5300 9850 5300
Wire Wire Line
	9550 2850 9850 2850
Wire Wire Line
	9550 5650 9850 5650
Wire Wire Line
	9850 2750 9400 2750
Wire Wire Line
	9850 5550 9400 5550
Wire Wire Line
	10100 800  10250 800 
Wire Wire Line
	10100 3600 10250 3600
Wire Wire Line
	10250 3200 10200 3200
Wire Wire Line
	10250 6000 10200 6000
Wire Wire Line
	10300 3200 10250 3200
Wire Wire Line
	10300 6000 10250 6000
Wire Wire Line
	10650 3000 11050 3000
Wire Wire Line
	10650 3800 11000 3800
Wire Wire Line
	10650 3900 11000 3900
Wire Wire Line
	10650 4000 11000 4000
Wire Wire Line
	10650 4100 11000 4100
Wire Wire Line
	10650 4200 11000 4200
Wire Wire Line
	10650 4300 11000 4300
Wire Wire Line
	10650 4400 11000 4400
Wire Wire Line
	10650 4500 11000 4500
Wire Wire Line
	10650 4600 11000 4600
Wire Wire Line
	10650 4700 11000 4700
Wire Wire Line
	10650 4800 11000 4800
Wire Wire Line
	10650 4900 11000 4900
Wire Wire Line
	10650 5000 11000 5000
Wire Wire Line
	10650 5100 11000 5100
Wire Wire Line
	10650 5200 11000 5200
Wire Wire Line
	10650 5300 11000 5300
Wire Wire Line
	10650 5400 11000 5400
Wire Wire Line
	10650 5500 11000 5500
Wire Wire Line
	10650 5600 11000 5600
Wire Wire Line
	10650 5700 11000 5700
Wire Wire Line
	10650 5800 11050 5800
Wire Wire Line
	11000 1000 10650 1000
Wire Wire Line
	11000 1100 10650 1100
Wire Wire Line
	11000 1200 10650 1200
Wire Wire Line
	11000 1300 10650 1300
Wire Wire Line
	11000 1400 10650 1400
Wire Wire Line
	11000 1500 10650 1500
Wire Wire Line
	11000 1600 10650 1600
Wire Wire Line
	11000 1700 10650 1700
Wire Wire Line
	11000 1800 10650 1800
Wire Wire Line
	11000 1900 10650 1900
Wire Wire Line
	11000 2000 10650 2000
Wire Wire Line
	11000 2100 10650 2100
Wire Wire Line
	11000 2200 10650 2200
Wire Wire Line
	11000 2300 10650 2300
Wire Wire Line
	11000 2400 10650 2400
Wire Wire Line
	11000 2500 10650 2500
Wire Wire Line
	11000 2600 10650 2600
Wire Wire Line
	11000 2700 10650 2700
Wire Wire Line
	11000 2800 10650 2800
Wire Wire Line
	11000 2900 10650 2900
Wire Bus Line
	600  550  600  1000
Wire Bus Line
	600  550  5350 550 
Wire Bus Line
	600  1000 600  1200
Wire Bus Line
	600  1200 600  1300
Wire Bus Line
	600  1300 600  1500
Wire Bus Line
	600  1500 600  1700
Wire Bus Line
	600  1700 600  1900
Wire Bus Line
	600  1900 600  2100
Wire Bus Line
	600  2100 600  2300
Wire Bus Line
	600  2300 600  2400
Wire Bus Line
	600  2400 600  2600
Wire Bus Line
	600  2600 600  2800
Wire Bus Line
	600  2800 600  3800
Wire Bus Line
	600  3800 600  4000
Wire Bus Line
	600  4000 600  4200
Wire Bus Line
	600  4200 600  4400
Wire Bus Line
	600  4400 600  4600
Wire Bus Line
	600  4600 600  4800
Wire Bus Line
	600  4800 600  5000
Wire Bus Line
	600  5000 600  5100
Wire Bus Line
	600  5100 600  5300
Wire Bus Line
	600  5300 600  5500
Wire Bus Line
	600  5500 600  6200
Wire Bus Line
	600  6200 700  6200
Wire Bus Line
	2350 1100 2350 1300
Wire Bus Line
	2350 1300 2350 1500
Wire Bus Line
	2350 1500 2350 1600
Wire Bus Line
	2350 1600 2350 1800
Wire Bus Line
	2350 1800 2350 2000
Wire Bus Line
	2350 2000 2350 2200
Wire Bus Line
	2350 2200 2350 2400
Wire Bus Line
	2350 2400 2350 2500
Wire Bus Line
	2350 2500 2350 3900
Wire Bus Line
	2350 3900 2350 4100
Wire Bus Line
	2350 4100 2350 4300
Wire Bus Line
	2350 4300 2350 4400
Wire Bus Line
	2350 4400 2350 4600
Wire Bus Line
	2350 4600 2350 4800
Wire Bus Line
	2350 4800 2350 5000
Wire Bus Line
	2350 5000 2350 5100
Wire Bus Line
	2350 5100 2350 5300
Wire Bus Line
	2350 5300 2350 5550
Wire Bus Line
	2350 5550 2350 6200
Wire Bus Line
	2350 5550 3600 5550
Wire Bus Line
	2350 6200 2250 6200
Wire Bus Line
	3600 1100 3600 1300
Wire Bus Line
	3600 1300 3600 1500
Wire Bus Line
	3600 1500 3600 1600
Wire Bus Line
	3600 1600 3600 1800
Wire Bus Line
	3600 1800 3600 2000
Wire Bus Line
	3600 2000 3600 2200
Wire Bus Line
	3600 2200 3600 2400
Wire Bus Line
	3600 2400 3600 2600
Wire Bus Line
	3600 2600 3600 4000
Wire Bus Line
	3600 4000 3600 4200
Wire Bus Line
	3600 4200 3600 4300
Wire Bus Line
	3600 4300 3600 4500
Wire Bus Line
	3600 4500 3600 4700
Wire Bus Line
	3600 4700 3600 4800
Wire Bus Line
	3600 4800 3600 5000
Wire Bus Line
	3600 5000 3600 5200
Wire Bus Line
	3600 5200 3600 5400
Wire Bus Line
	3600 5400 3600 5550
Wire Bus Line
	4450 6900 4300 6900
Wire Bus Line
	4450 6900 4450 7100
Wire Bus Line
	5350 550  5350 1000
Wire Bus Line
	5350 1000 5350 1200
Wire Bus Line
	5350 1200 5350 1400
Wire Bus Line
	5350 1400 5350 1600
Wire Bus Line
	5350 1600 5350 1800
Wire Bus Line
	5350 1800 5350 1900
Wire Bus Line
	5350 1900 5350 2100
Wire Bus Line
	5350 2100 5350 2300
Wire Bus Line
	5350 2300 5350 2500
Wire Bus Line
	5350 2500 5350 2700
Wire Bus Line
	5350 2700 5350 3000
Wire Bus Line
	5350 3000 5350 3700
Wire Bus Line
	5350 3700 5350 3900
Wire Bus Line
	5350 3900 5350 4100
Wire Bus Line
	5350 4100 5350 4200
Wire Bus Line
	5350 4200 5350 4400
Wire Bus Line
	5350 4400 5350 4600
Wire Bus Line
	5350 4600 5350 4800
Wire Bus Line
	5350 4800 5350 5000
Wire Bus Line
	5350 5000 5350 5200
Wire Bus Line
	5350 5200 5350 5400
Wire Bus Line
	5350 5400 5350 5600
Wire Bus Line
	6350 550  6350 1000
Wire Bus Line
	6350 550  11100 550 
Wire Bus Line
	6350 1000 6350 1100
Wire Bus Line
	6350 1100 6350 1300
Wire Bus Line
	6350 1300 6350 1500
Wire Bus Line
	6350 1500 6350 1700
Wire Bus Line
	6350 1700 6350 1800
Wire Bus Line
	6350 1800 6350 2000
Wire Bus Line
	6350 2000 6350 2200
Wire Bus Line
	6350 2200 6350 2400
Wire Bus Line
	6350 2400 6350 2600
Wire Bus Line
	6350 2600 6350 2700
Wire Bus Line
	6350 2700 6350 3000
Wire Bus Line
	6350 3000 6350 3700
Wire Bus Line
	6350 3700 6350 3900
Wire Bus Line
	6350 3900 6350 4100
Wire Bus Line
	6350 4100 6350 4300
Wire Bus Line
	6350 4300 6350 4500
Wire Bus Line
	6350 4500 6350 4600
Wire Bus Line
	6350 4600 6350 4800
Wire Bus Line
	6350 4800 6350 5000
Wire Bus Line
	6350 5000 6350 5100
Wire Bus Line
	6350 5100 6350 5300
Wire Bus Line
	6350 5300 6350 5400
Wire Bus Line
	6350 5400 6350 5600
Wire Bus Line
	8100 1100 8100 1300
Wire Bus Line
	8100 1300 8100 1400
Wire Bus Line
	8100 1400 8100 1600
Wire Bus Line
	8100 1600 8100 1800
Wire Bus Line
	8100 1800 8100 2000
Wire Bus Line
	8100 2000 8100 2200
Wire Bus Line
	8100 2200 8100 2300
Wire Bus Line
	8100 2300 8100 2500
Wire Bus Line
	8100 2500 8100 2600
Wire Bus Line
	8100 2600 8100 4000
Wire Bus Line
	8100 4000 8100 4200
Wire Bus Line
	8100 4200 8100 4400
Wire Bus Line
	8100 4400 8100 4600
Wire Bus Line
	8100 4600 8100 4800
Wire Bus Line
	8100 4800 8100 5000
Wire Bus Line
	8100 5000 8100 5200
Wire Bus Line
	8100 5200 8100 5300
Wire Bus Line
	8100 5300 8100 5550
Wire Bus Line
	8100 5550 9350 5550
Wire Bus Line
	9350 1100 9350 1200
Wire Bus Line
	9350 1200 9350 1400
Wire Bus Line
	9350 1400 9350 1500
Wire Bus Line
	9350 1500 9350 1700
Wire Bus Line
	9350 1700 9350 1900
Wire Bus Line
	9350 1900 9350 2100
Wire Bus Line
	9350 2100 9350 2200
Wire Bus Line
	9350 2200 9350 2400
Wire Bus Line
	9350 2400 9350 2500
Wire Bus Line
	9350 2500 9350 3900
Wire Bus Line
	9350 3900 9350 4000
Wire Bus Line
	9350 4000 9350 4200
Wire Bus Line
	9350 4200 9350 4400
Wire Bus Line
	9350 4400 9350 4600
Wire Bus Line
	9350 4600 9350 4800
Wire Bus Line
	9350 4800 9350 5000
Wire Bus Line
	9350 5000 9350 5200
Wire Bus Line
	9350 5200 9350 5400
Wire Bus Line
	9350 5400 9350 5550
Wire Bus Line
	9350 5550 9350 6250
Wire Bus Line
	9350 6250 9450 6250
Wire Bus Line
	11100 550  11100 900 
Wire Bus Line
	11100 900  11100 1100
Wire Bus Line
	11100 1100 11100 1200
Wire Bus Line
	11100 1200 11100 1400
Wire Bus Line
	11100 1400 11100 1600
Wire Bus Line
	11100 1600 11100 1800
Wire Bus Line
	11100 1800 11100 2000
Wire Bus Line
	11100 2000 11100 2100
Wire Bus Line
	11100 2100 11100 2300
Wire Bus Line
	11100 2300 11100 2500
Wire Bus Line
	11100 2500 11100 2700
Wire Bus Line
	11100 2700 11100 3700
Wire Bus Line
	11100 3700 11100 3900
Wire Bus Line
	11100 3900 11100 4000
Wire Bus Line
	11100 4000 11100 4200
Wire Bus Line
	11100 4200 11100 4400
Wire Bus Line
	11100 4400 11100 4500
Wire Bus Line
	11100 4500 11100 4700
Wire Bus Line
	11100 4700 11100 4900
Wire Bus Line
	11100 4900 11100 5100
Wire Bus Line
	11100 5100 11100 5300
Wire Bus Line
	11100 5300 11100 5500
Wire Bus Line
	11100 5500 11100 6250
Wire Bus Line
	11100 6250 11000 6250
Wire Notes Line
	500  6400 3450 6400
Wire Notes Line
	500  7750 500  6400
Wire Notes Line
	3450 6400 3450 7750
Wire Notes Line
	3450 7750 500  7750
Text Notes 3400 6600 2    50   ~ 0
Only on R3/R4\nuseless because no PAL has use of pin 11
Text Notes 4050 7700 0    50   ~ 0
Routing error on R3/4: Q-A19 goes into I9 instead of Q-A22
Text Label 600  6050 0    50   ~ 0
A-A[2..23]
Text Label 650  3000 0    50   ~ 0
R13-A22
Text Label 650  5800 0    50   ~ 0
R14-A22
Text Label 750  1000 0    50   ~ 0
A-A2
Text Label 750  1100 0    50   ~ 0
A-A3
Text Label 750  1200 0    50   ~ 0
A-A4
Text Label 750  1300 0    50   ~ 0
A-A5
Text Label 750  1400 0    50   ~ 0
A-A6
Text Label 750  1500 0    50   ~ 0
A-A7
Text Label 750  1600 0    50   ~ 0
A-A8
Text Label 750  1700 0    50   ~ 0
A-A9
Text Label 750  1800 0    50   ~ 0
A-A10
Text Label 750  1900 0    50   ~ 0
A-A11
Text Label 750  2000 0    50   ~ 0
A-A12
Text Label 750  2100 0    50   ~ 0
A-A13
Text Label 750  2200 0    50   ~ 0
A-A14
Text Label 750  2300 0    50   ~ 0
A-A15
Text Label 750  2400 0    50   ~ 0
A-A16
Text Label 750  2500 0    50   ~ 0
A-A17
Text Label 750  2600 0    50   ~ 0
A-A18
Text Label 750  2700 0    50   ~ 0
A-A19
Text Label 750  2800 0    50   ~ 0
A-A20
Text Label 750  2900 0    50   ~ 0
A-A21
Text Label 750  3800 0    50   ~ 0
A-A2
Text Label 750  3900 0    50   ~ 0
A-A3
Text Label 750  4000 0    50   ~ 0
A-A4
Text Label 750  4100 0    50   ~ 0
A-A5
Text Label 750  4200 0    50   ~ 0
A-A6
Text Label 750  4300 0    50   ~ 0
A-A7
Text Label 750  4400 0    50   ~ 0
A-A8
Text Label 750  4500 0    50   ~ 0
A-A9
Text Label 750  4600 0    50   ~ 0
A-A10
Text Label 750  4700 0    50   ~ 0
A-A11
Text Label 750  4800 0    50   ~ 0
A-A12
Text Label 750  4900 0    50   ~ 0
A-A13
Text Label 750  5000 0    50   ~ 0
A-A14
Text Label 750  5100 0    50   ~ 0
A-A15
Text Label 750  5200 0    50   ~ 0
A-A16
Text Label 750  5300 0    50   ~ 0
A-A17
Text Label 750  5400 0    50   ~ 0
A-A18
Text Label 750  5500 0    50   ~ 0
A-A19
Text Label 750  5600 0    50   ~ 0
A-A20
Text Label 750  5700 0    50   ~ 0
A-A21
Text Label 1900 1000 0    50   ~ 0
A-D0
Text Label 1900 1100 0    50   ~ 0
A-D1
Text Label 1900 1200 0    50   ~ 0
A-D2
Text Label 1900 1300 0    50   ~ 0
A-D3
Text Label 1900 1400 0    50   ~ 0
A-D4
Text Label 1900 1500 0    50   ~ 0
A-D5
Text Label 1900 1600 0    50   ~ 0
A-D6
Text Label 1900 1700 0    50   ~ 0
A-D7
Text Label 1900 1800 0    50   ~ 0
A-D8
Text Label 1900 1900 0    50   ~ 0
A-D9
Text Label 1900 2000 0    50   ~ 0
A-D10
Text Label 1900 2100 0    50   ~ 0
A-D11
Text Label 1900 2200 0    50   ~ 0
A-D12
Text Label 1900 2300 0    50   ~ 0
A-D13
Text Label 1900 2400 0    50   ~ 0
A-D14
Text Label 1900 2500 0    50   ~ 0
A-D15
Text Label 1900 3800 0    50   ~ 0
A-D0
Text Label 1900 3900 0    50   ~ 0
A-D1
Text Label 1900 4000 0    50   ~ 0
A-D2
Text Label 1900 4100 0    50   ~ 0
A-D3
Text Label 1900 4200 0    50   ~ 0
A-D4
Text Label 1900 4300 0    50   ~ 0
A-D5
Text Label 1900 4400 0    50   ~ 0
A-D6
Text Label 1900 4500 0    50   ~ 0
A-D7
Text Label 1900 4600 0    50   ~ 0
A-D8
Text Label 1900 4700 0    50   ~ 0
A-D9
Text Label 1900 4800 0    50   ~ 0
A-D10
Text Label 1900 4900 0    50   ~ 0
A-D11
Text Label 1900 5000 0    50   ~ 0
A-D12
Text Label 1900 5100 0    50   ~ 0
A-D13
Text Label 1900 5200 0    50   ~ 0
A-D14
Text Label 1900 5300 0    50   ~ 0
A-D15
Text Label 1950 2850 0    50   ~ 0
~OE
Text Label 1950 5650 0    50   ~ 0
~OE
Text Label 2300 2750 2    50   ~ 0
~AX-ENABLE
Text Label 2300 5550 2    50   ~ 0
~AY-ENABLE
Text Label 2350 6050 2    50   ~ 0
A-D[0..31]
Text Label 2500 1000 0    50   ~ 0
A-D0
Text Label 2500 1100 0    50   ~ 0
A-D1
Text Label 2500 1200 0    50   ~ 0
A-D2
Text Label 2500 1300 0    50   ~ 0
A-D3
Text Label 2500 1400 0    50   ~ 0
A-D4
Text Label 2500 1500 0    50   ~ 0
A-D5
Text Label 2500 1600 0    50   ~ 0
A-D6
Text Label 2500 1700 0    50   ~ 0
A-D7
Text Label 2500 1800 0    50   ~ 0
A-D8
Text Label 2500 1900 0    50   ~ 0
A-D9
Text Label 2500 2000 0    50   ~ 0
A-D10
Text Label 2500 2100 0    50   ~ 0
A-D11
Text Label 2500 2200 0    50   ~ 0
A-D12
Text Label 2500 2300 0    50   ~ 0
A-D13
Text Label 2500 2400 0    50   ~ 0
A-D14
Text Label 2500 2500 0    50   ~ 0
A-D15
Text Label 3150 3800 0    50   ~ 0
A-D16
Text Label 3150 3900 0    50   ~ 0
A-D17
Text Label 3150 4000 0    50   ~ 0
A-D18
Text Label 3150 4100 0    50   ~ 0
A-D19
Text Label 3150 4200 0    50   ~ 0
A-D20
Text Label 3150 4300 0    50   ~ 0
A-D21
Text Label 3150 4400 0    50   ~ 0
A-D22
Text Label 3150 4500 0    50   ~ 0
A-D23
Text Label 3150 4600 0    50   ~ 0
A-D24
Text Label 3150 4700 0    50   ~ 0
A-D25
Text Label 3150 4800 0    50   ~ 0
A-D26
Text Label 3150 4900 0    50   ~ 0
A-D27
Text Label 3150 5000 0    50   ~ 0
A-D28
Text Label 3150 5100 0    50   ~ 0
A-D29
Text Label 3150 5200 0    50   ~ 0
A-D30
Text Label 3150 5300 0    50   ~ 0
A-D31
Text Label 3650 2750 0    50   ~ 0
~AX-ENABLE
Text Label 3650 5550 0    50   ~ 0
~AY-ENABLE
Text Label 3750 1000 0    50   ~ 0
A-D16
Text Label 3750 1100 0    50   ~ 0
A-D17
Text Label 3750 1200 0    50   ~ 0
A-D18
Text Label 3750 1300 0    50   ~ 0
A-D19
Text Label 3750 1400 0    50   ~ 0
A-D20
Text Label 3750 1500 0    50   ~ 0
A-D21
Text Label 3750 1600 0    50   ~ 0
A-D22
Text Label 3750 1700 0    50   ~ 0
A-D23
Text Label 3750 1800 0    50   ~ 0
A-D24
Text Label 3750 1900 0    50   ~ 0
A-D25
Text Label 3750 2000 0    50   ~ 0
A-D26
Text Label 3750 2100 0    50   ~ 0
A-D27
Text Label 3750 2200 0    50   ~ 0
A-D28
Text Label 3750 2300 0    50   ~ 0
A-D29
Text Label 3750 2400 0    50   ~ 0
A-D30
Text Label 3750 2500 0    50   ~ 0
A-D31
Text Label 3750 3800 0    50   ~ 0
A-D16
Text Label 3750 3900 0    50   ~ 0
A-D17
Text Label 3750 4000 0    50   ~ 0
A-D18
Text Label 3750 4100 0    50   ~ 0
A-D19
Text Label 3750 4200 0    50   ~ 0
A-D20
Text Label 3750 4300 0    50   ~ 0
A-D21
Text Label 3750 4400 0    50   ~ 0
A-D22
Text Label 3750 4500 0    50   ~ 0
A-D23
Text Label 3750 4600 0    50   ~ 0
A-D24
Text Label 3750 4700 0    50   ~ 0
A-D25
Text Label 3750 4800 0    50   ~ 0
A-D26
Text Label 3750 4900 0    50   ~ 0
A-D27
Text Label 3750 5000 0    50   ~ 0
A-D28
Text Label 3750 5100 0    50   ~ 0
A-D29
Text Label 3750 5200 0    50   ~ 0
A-D30
Text Label 3750 5300 0    50   ~ 0
A-D31
Text Label 4000 2850 2    50   ~ 0
~OE
Text Label 4000 5650 2    50   ~ 0
~OE
Text Label 4450 7100 2    50   ~ 0
Q-A[0..22]
Text Label 4600 6400 0    50   ~ 0
A-A23
Text Label 4600 6500 0    50   ~ 0
A-A22
Text Label 4600 6600 0    50   ~ 0
A-A21
Text Label 4600 6700 0    50   ~ 0
B-A23
Text Label 4600 6800 0    50   ~ 0
B-A22
Text Label 4600 6900 0    50   ~ 0
B-A21
Text Label 4600 7000 0    50   ~ 0
Q-A21
Text Label 4600 7100 0    50   ~ 0
Q-A20
Text Label 4600 7200 0    50   ~ 0
Q-A22
Text Label 4950 3800 0    50   ~ 0
A-A2
Text Label 4950 3900 0    50   ~ 0
A-A3
Text Label 4950 4000 0    50   ~ 0
A-A4
Text Label 4950 4100 0    50   ~ 0
A-A5
Text Label 4950 4200 0    50   ~ 0
A-A6
Text Label 4950 4300 0    50   ~ 0
A-A7
Text Label 4950 4400 0    50   ~ 0
A-A8
Text Label 4950 4500 0    50   ~ 0
A-A9
Text Label 4950 4600 0    50   ~ 0
A-A10
Text Label 4950 4700 0    50   ~ 0
A-A11
Text Label 4950 4800 0    50   ~ 0
A-A12
Text Label 4950 4900 0    50   ~ 0
A-A13
Text Label 4950 5000 0    50   ~ 0
A-A14
Text Label 4950 5100 0    50   ~ 0
A-A15
Text Label 4950 5200 0    50   ~ 0
A-A16
Text Label 4950 5300 0    50   ~ 0
A-A17
Text Label 4950 5400 0    50   ~ 0
A-A18
Text Label 4950 5500 0    50   ~ 0
A-A19
Text Label 4950 5600 0    50   ~ 0
A-A20
Text Label 4950 5700 0    50   ~ 0
A-A21
Text Label 5200 1000 2    50   ~ 0
A-A2
Text Label 5200 1100 2    50   ~ 0
A-A3
Text Label 5200 1200 2    50   ~ 0
A-A4
Text Label 5200 1300 2    50   ~ 0
A-A5
Text Label 5200 1400 2    50   ~ 0
A-A6
Text Label 5200 1500 2    50   ~ 0
A-A7
Text Label 5200 1600 2    50   ~ 0
A-A8
Text Label 5200 1700 2    50   ~ 0
A-A9
Text Label 5200 1800 2    50   ~ 0
A-A10
Text Label 5200 1900 2    50   ~ 0
A-A11
Text Label 5200 2000 2    50   ~ 0
A-A12
Text Label 5200 2100 2    50   ~ 0
A-A13
Text Label 5200 2200 2    50   ~ 0
A-A14
Text Label 5200 2300 2    50   ~ 0
A-A15
Text Label 5200 2400 2    50   ~ 0
A-A16
Text Label 5200 2500 2    50   ~ 0
A-A17
Text Label 5200 2600 2    50   ~ 0
A-A18
Text Label 5200 2700 2    50   ~ 0
A-A19
Text Label 5200 2800 2    50   ~ 0
A-A20
Text Label 5200 2900 2    50   ~ 0
A-A21
Text Label 5300 3000 2    50   ~ 0
R15-A22
Text Label 5300 5800 2    50   ~ 0
R16-A22
Text Label 5450 2850 0    50   ~ 0
A-A22
Text Label 5450 3600 0    50   ~ 0
R17-A22
Text Label 5450 4000 0    50   ~ 0
R18-A22
Text Label 5450 4400 0    50   ~ 0
R19-A22
Text Label 5450 4800 0    50   ~ 0
R20-A22
Text Label 5500 5700 0    50   ~ 0
A-A23
Text Label 6150 7100 2    50   ~ 0
~OE
Text Label 6200 5700 2    50   ~ 0
B-A23
Text Label 6250 1200 2    50   ~ 0
R13-A22
Text Label 6250 1600 2    50   ~ 0
R14-A22
Text Label 6250 2000 2    50   ~ 0
R15-A22
Text Label 6250 2400 2    50   ~ 0
R16-A22
Text Label 6250 3200 2    50   ~ 0
B-A22
Text Label 6350 6400 2    50   ~ 0
~AY-ENABLE
Text Label 6350 6500 2    50   ~ 0
~AX-ENABLE
Text Label 6350 6600 2    50   ~ 0
~BY-ENABLE
Text Label 6350 6700 2    50   ~ 0
~BX-ENABLE
Text Label 6350 6800 2    50   ~ 0
~QROM-E11
Text Label 6350 6900 2    50   ~ 0
~QROM-E12
Text Label 6400 3000 0    50   ~ 0
R17-A22
Text Label 6400 5800 0    50   ~ 0
R18-A22
Text Label 6500 1000 0    50   ~ 0
B-A2
Text Label 6500 1100 0    50   ~ 0
B-A3
Text Label 6500 1200 0    50   ~ 0
B-A4
Text Label 6500 1300 0    50   ~ 0
B-A5
Text Label 6500 1400 0    50   ~ 0
B-A6
Text Label 6500 1500 0    50   ~ 0
B-A7
Text Label 6500 1600 0    50   ~ 0
B-A8
Text Label 6500 1700 0    50   ~ 0
B-A9
Text Label 6500 1800 0    50   ~ 0
B-A10
Text Label 6500 1900 0    50   ~ 0
B-A11
Text Label 6500 2000 0    50   ~ 0
B-A12
Text Label 6500 2100 0    50   ~ 0
B-A13
Text Label 6500 2200 0    50   ~ 0
B-A14
Text Label 6500 2300 0    50   ~ 0
B-A15
Text Label 6500 2400 0    50   ~ 0
B-A16
Text Label 6500 2500 0    50   ~ 0
B-A17
Text Label 6500 2600 0    50   ~ 0
B-A18
Text Label 6500 2700 0    50   ~ 0
B-A19
Text Label 6500 2800 0    50   ~ 0
B-A20
Text Label 6500 2900 0    50   ~ 0
B-A21
Text Label 6500 3800 0    50   ~ 0
B-A2
Text Label 6500 3900 0    50   ~ 0
B-A3
Text Label 6500 4000 0    50   ~ 0
B-A4
Text Label 6500 4100 0    50   ~ 0
B-A5
Text Label 6500 4200 0    50   ~ 0
B-A6
Text Label 6500 4300 0    50   ~ 0
B-A7
Text Label 6500 4400 0    50   ~ 0
B-A8
Text Label 6500 4500 0    50   ~ 0
B-A9
Text Label 6500 4600 0    50   ~ 0
B-A10
Text Label 6500 4700 0    50   ~ 0
B-A11
Text Label 6500 4800 0    50   ~ 0
B-A12
Text Label 6500 4900 0    50   ~ 0
B-A13
Text Label 6500 5000 0    50   ~ 0
B-A14
Text Label 6500 5100 0    50   ~ 0
B-A15
Text Label 6500 5200 0    50   ~ 0
B-A16
Text Label 6500 5300 0    50   ~ 0
B-A17
Text Label 6500 5400 0    50   ~ 0
B-A18
Text Label 6500 5500 0    50   ~ 0
B-A19
Text Label 6500 5600 0    50   ~ 0
B-A20
Text Label 6500 5700 0    50   ~ 0
B-A21
Text Label 7650 1000 0    50   ~ 0
B-D0
Text Label 7650 1100 0    50   ~ 0
B-D1
Text Label 7650 1200 0    50   ~ 0
B-D2
Text Label 7650 1300 0    50   ~ 0
B-D3
Text Label 7650 1400 0    50   ~ 0
B-D4
Text Label 7650 1500 0    50   ~ 0
B-D5
Text Label 7650 1600 0    50   ~ 0
B-D6
Text Label 7650 1700 0    50   ~ 0
B-D7
Text Label 7650 1800 0    50   ~ 0
B-D8
Text Label 7650 1900 0    50   ~ 0
B-D9
Text Label 7650 2000 0    50   ~ 0
B-D10
Text Label 7650 2100 0    50   ~ 0
B-D11
Text Label 7650 2200 0    50   ~ 0
B-D12
Text Label 7650 2300 0    50   ~ 0
B-D13
Text Label 7650 2400 0    50   ~ 0
B-D14
Text Label 7650 2500 0    50   ~ 0
B-D15
Text Label 7650 3800 0    50   ~ 0
B-D0
Text Label 7650 3900 0    50   ~ 0
B-D1
Text Label 7650 4000 0    50   ~ 0
B-D2
Text Label 7650 4100 0    50   ~ 0
B-D3
Text Label 7650 4200 0    50   ~ 0
B-D4
Text Label 7650 4300 0    50   ~ 0
B-D5
Text Label 7650 4400 0    50   ~ 0
B-D6
Text Label 7650 4500 0    50   ~ 0
B-D7
Text Label 7650 4600 0    50   ~ 0
B-D8
Text Label 7650 4700 0    50   ~ 0
B-D9
Text Label 7650 4800 0    50   ~ 0
B-D10
Text Label 7650 4900 0    50   ~ 0
B-D11
Text Label 7650 5000 0    50   ~ 0
B-D12
Text Label 7650 5100 0    50   ~ 0
B-D13
Text Label 7650 5200 0    50   ~ 0
B-D14
Text Label 7650 5300 0    50   ~ 0
B-D15
Text Label 7700 2850 0    50   ~ 0
~OE
Text Label 7700 5650 0    50   ~ 0
~OE
Text Label 8050 2750 2    50   ~ 0
~BX-ENABLE
Text Label 8050 5550 2    50   ~ 0
~BY-ENABLE
Text Label 8250 1000 0    50   ~ 0
B-D0
Text Label 8250 1100 0    50   ~ 0
B-D1
Text Label 8250 1200 0    50   ~ 0
B-D2
Text Label 8250 1300 0    50   ~ 0
B-D3
Text Label 8250 1400 0    50   ~ 0
B-D4
Text Label 8250 1500 0    50   ~ 0
B-D5
Text Label 8250 1600 0    50   ~ 0
B-D6
Text Label 8250 1700 0    50   ~ 0
B-D7
Text Label 8250 1800 0    50   ~ 0
B-D8
Text Label 8250 1900 0    50   ~ 0
B-D9
Text Label 8250 2000 0    50   ~ 0
B-D10
Text Label 8250 2100 0    50   ~ 0
B-D11
Text Label 8250 2200 0    50   ~ 0
B-D12
Text Label 8250 2300 0    50   ~ 0
B-D13
Text Label 8250 2400 0    50   ~ 0
B-D14
Text Label 8250 2500 0    50   ~ 0
B-D15
Text Label 8900 3800 0    50   ~ 0
B-D16
Text Label 8900 3900 0    50   ~ 0
B-D17
Text Label 8900 4000 0    50   ~ 0
B-D18
Text Label 8900 4100 0    50   ~ 0
B-D19
Text Label 8900 4200 0    50   ~ 0
B-D20
Text Label 8900 4300 0    50   ~ 0
B-D21
Text Label 8900 4400 0    50   ~ 0
B-D22
Text Label 8900 4500 0    50   ~ 0
B-D23
Text Label 8900 4600 0    50   ~ 0
B-D24
Text Label 8900 4700 0    50   ~ 0
B-D25
Text Label 8900 4800 0    50   ~ 0
B-D26
Text Label 8900 4900 0    50   ~ 0
B-D27
Text Label 8900 5000 0    50   ~ 0
B-D28
Text Label 8900 5100 0    50   ~ 0
B-D29
Text Label 8900 5200 0    50   ~ 0
B-D30
Text Label 8900 5300 0    50   ~ 0
B-D31
Text Label 9350 6100 0    50   ~ 0
B-D[0..31]
Text Label 9400 2750 0    50   ~ 0
~BX-ENABLE
Text Label 9400 5550 0    50   ~ 0
~BY-ENABLE
Text Label 9500 1000 0    50   ~ 0
B-D16
Text Label 9500 1100 0    50   ~ 0
B-D17
Text Label 9500 1200 0    50   ~ 0
B-D18
Text Label 9500 1300 0    50   ~ 0
B-D19
Text Label 9500 1400 0    50   ~ 0
B-D20
Text Label 9500 1500 0    50   ~ 0
B-D21
Text Label 9500 1600 0    50   ~ 0
B-D22
Text Label 9500 1700 0    50   ~ 0
B-D23
Text Label 9500 1800 0    50   ~ 0
B-D24
Text Label 9500 1900 0    50   ~ 0
B-D25
Text Label 9500 2000 0    50   ~ 0
B-D26
Text Label 9500 2100 0    50   ~ 0
B-D27
Text Label 9500 2200 0    50   ~ 0
B-D28
Text Label 9500 2300 0    50   ~ 0
B-D29
Text Label 9500 2400 0    50   ~ 0
B-D30
Text Label 9500 2500 0    50   ~ 0
B-D31
Text Label 9500 3800 0    50   ~ 0
B-D16
Text Label 9500 3900 0    50   ~ 0
B-D17
Text Label 9500 4000 0    50   ~ 0
B-D18
Text Label 9500 4100 0    50   ~ 0
B-D19
Text Label 9500 4200 0    50   ~ 0
B-D20
Text Label 9500 4300 0    50   ~ 0
B-D21
Text Label 9500 4400 0    50   ~ 0
B-D22
Text Label 9500 4500 0    50   ~ 0
B-D23
Text Label 9500 4600 0    50   ~ 0
B-D24
Text Label 9500 4700 0    50   ~ 0
B-D25
Text Label 9500 4800 0    50   ~ 0
B-D26
Text Label 9500 4900 0    50   ~ 0
B-D27
Text Label 9500 5000 0    50   ~ 0
B-D28
Text Label 9500 5100 0    50   ~ 0
B-D29
Text Label 9500 5200 0    50   ~ 0
B-D30
Text Label 9500 5300 0    50   ~ 0
B-D31
Text Label 9750 2850 2    50   ~ 0
~OE
Text Label 9750 5650 2    50   ~ 0
~OE
Text Label 10700 3800 0    50   ~ 0
B-A2
Text Label 10700 3900 0    50   ~ 0
B-A3
Text Label 10700 4000 0    50   ~ 0
B-A4
Text Label 10700 4100 0    50   ~ 0
B-A5
Text Label 10700 4200 0    50   ~ 0
B-A6
Text Label 10700 4300 0    50   ~ 0
B-A7
Text Label 10700 4400 0    50   ~ 0
B-A8
Text Label 10700 4500 0    50   ~ 0
B-A9
Text Label 10700 4600 0    50   ~ 0
B-A10
Text Label 10700 4700 0    50   ~ 0
B-A11
Text Label 10700 4800 0    50   ~ 0
B-A12
Text Label 10700 4900 0    50   ~ 0
B-A13
Text Label 10700 5000 0    50   ~ 0
B-A14
Text Label 10700 5100 0    50   ~ 0
B-A15
Text Label 10700 5200 0    50   ~ 0
B-A16
Text Label 10700 5300 0    50   ~ 0
B-A17
Text Label 10700 5400 0    50   ~ 0
B-A18
Text Label 10700 5500 0    50   ~ 0
B-A19
Text Label 10700 5600 0    50   ~ 0
B-A20
Text Label 10700 5700 0    50   ~ 0
B-A21
Text Label 10950 1000 2    50   ~ 0
B-A2
Text Label 10950 1100 2    50   ~ 0
B-A3
Text Label 10950 1200 2    50   ~ 0
B-A4
Text Label 10950 1300 2    50   ~ 0
B-A5
Text Label 10950 1400 2    50   ~ 0
B-A6
Text Label 10950 1500 2    50   ~ 0
B-A7
Text Label 10950 1600 2    50   ~ 0
B-A8
Text Label 10950 1700 2    50   ~ 0
B-A9
Text Label 10950 1800 2    50   ~ 0
B-A10
Text Label 10950 1900 2    50   ~ 0
B-A11
Text Label 10950 2000 2    50   ~ 0
B-A12
Text Label 10950 2100 2    50   ~ 0
B-A13
Text Label 10950 2200 2    50   ~ 0
B-A14
Text Label 10950 2300 2    50   ~ 0
B-A15
Text Label 10950 2400 2    50   ~ 0
B-A16
Text Label 10950 2500 2    50   ~ 0
B-A17
Text Label 10950 2600 2    50   ~ 0
B-A18
Text Label 10950 2700 2    50   ~ 0
B-A19
Text Label 10950 2800 2    50   ~ 0
B-A20
Text Label 10950 2900 2    50   ~ 0
B-A21
Text Label 11050 3000 2    50   ~ 0
R19-A22
Text Label 11050 5800 2    50   ~ 0
R20-A22
Text Label 11100 6100 2    50   ~ 0
B-A[2..23]
Text HLabel 700  6200 2    50   Input ~ 0
A-ADDR[2..23]
Text HLabel 1950 7400 0    50   Input ~ 0
CLK8M
Text HLabel 2250 6200 0    50   Output ~ 0
A-DATA[0..31]
Text HLabel 2500 6950 0    50   Input ~ 0
CLK2M
Text HLabel 4300 6900 0    50   Input ~ 0
QS-ADDR[0..22]
Text HLabel 6450 6800 2    50   Output ~ 0
~QROM-E11
Text HLabel 6450 6900 2    50   Output ~ 0
~QROM-E12
Text HLabel 6450 7000 2    50   Input ~ 0
CLK2M
Text HLabel 6450 7100 2    50   Output ~ 0
~OE
Text HLabel 9450 6250 2    50   Output ~ 0
B-DATA[0..31]
Text HLabel 11000 6250 0    50   Input ~ 0
B-ADDR[2..23]
$Comp
L power:VCC #PWR0204
U 1 1 60DA79C9
P 1100 6650
F 0 "#PWR0204" H 1100 6500 50  0001 C CNN
F 1 "VCC" H 1117 6823 50  0000 C CNN
F 2 "" H 1100 6650 50  0001 C CNN
F 3 "" H 1100 6650 50  0001 C CNN
	1    1100 6650
	1    0    0    -1  
$EndComp
$Comp
L power:VCC #PWR0184
U 1 1 5E0F06D1
P 1450 800
F 0 "#PWR0184" H 1450 650 50  0001 C CNN
F 1 "VCC" H 1467 973 50  0000 C CNN
F 2 "" H 1450 800 50  0001 C CNN
F 3 "" H 1450 800 50  0001 C CNN
	1    1450 800 
	1    0    0    -1  
$EndComp
$Comp
L power:VCC #PWR0187
U 1 1 5E0F1098
P 1450 3600
F 0 "#PWR0187" H 1450 3450 50  0001 C CNN
F 1 "VCC" H 1467 3773 50  0000 C CNN
F 2 "" H 1450 3600 50  0001 C CNN
F 3 "" H 1450 3600 50  0001 C CNN
	1    1450 3600
	1    0    0    -1  
$EndComp
$Comp
L power:VCC #PWR0205
U 1 1 60FA3F3A
P 2650 7700
F 0 "#PWR0205" H 2650 7550 50  0001 C CNN
F 1 "VCC" H 2667 7873 50  0000 C CNN
F 2 "" H 2650 7700 50  0001 C CNN
F 3 "" H 2650 7700 50  0001 C CNN
	1    2650 7700
	1    0    0    -1  
$EndComp
$Comp
L power:VCC #PWR0198
U 1 1 5E2916B3
P 2700 3800
F 0 "#PWR0198" H 2700 3650 50  0001 C CNN
F 1 "VCC" H 2650 3750 50  0000 C CNN
F 2 "" H 2700 3800 50  0001 C CNN
F 3 "" H 2700 3800 50  0001 C CNN
	1    2700 3800
	1    0    0    -1  
$EndComp
$Comp
L power:VCC #PWR0199
U 1 1 5E2916D0
P 2700 4600
F 0 "#PWR0199" H 2700 4450 50  0001 C CNN
F 1 "VCC" H 2650 4550 50  0000 C CNN
F 2 "" H 2700 4600 50  0001 C CNN
F 3 "" H 2700 4600 50  0001 C CNN
	1    2700 4600
	1    0    0    -1  
$EndComp
$Comp
L power:VCC #PWR0203
U 1 1 60DFA9C1
P 3000 7100
F 0 "#PWR0203" H 3000 6950 50  0001 C CNN
F 1 "VCC" H 3017 7273 50  0000 C CNN
F 2 "" H 3000 7100 50  0001 C CNN
F 3 "" H 3000 7100 50  0001 C CNN
	1    3000 7100
	1    0    0    -1  
$EndComp
$Comp
L power:VCC #PWR0189
U 1 1 5E248B69
P 3250 1000
F 0 "#PWR0189" H 3250 850 50  0001 C CNN
F 1 "VCC" H 3200 950 50  0000 C CNN
F 2 "" H 3250 1000 50  0001 C CNN
F 3 "" H 3250 1000 50  0001 C CNN
	1    3250 1000
	-1   0    0    -1  
$EndComp
$Comp
L power:VCC #PWR0190
U 1 1 5E26DDE9
P 3250 1800
F 0 "#PWR0190" H 3250 1650 50  0001 C CNN
F 1 "VCC" H 3200 1750 50  0000 C CNN
F 2 "" H 3250 1800 50  0001 C CNN
F 3 "" H 3250 1800 50  0001 C CNN
	1    3250 1800
	-1   0    0    -1  
$EndComp
$Comp
L power:VCC #PWR0192
U 1 1 5E29155B
P 4500 800
F 0 "#PWR0192" H 4500 650 50  0001 C CNN
F 1 "VCC" H 4517 973 50  0000 C CNN
F 2 "" H 4500 800 50  0001 C CNN
F 3 "" H 4500 800 50  0001 C CNN
	1    4500 800 
	-1   0    0    -1  
$EndComp
$Comp
L power:VCC #PWR0195
U 1 1 5E29157F
P 4500 3600
F 0 "#PWR0195" H 4500 3450 50  0001 C CNN
F 1 "VCC" H 4517 3773 50  0000 C CNN
F 2 "" H 4500 3600 50  0001 C CNN
F 3 "" H 4500 3600 50  0001 C CNN
	1    4500 3600
	-1   0    0    -1  
$EndComp
$Comp
L power:VCC #PWR0201
U 1 1 607631C7
P 5400 6200
F 0 "#PWR0201" H 5400 6050 50  0001 C CNN
F 1 "VCC" H 5417 6373 50  0000 C CNN
F 2 "" H 5400 6200 50  0001 C CNN
F 3 "" H 5400 6200 50  0001 C CNN
	1    5400 6200
	1    0    0    -1  
$EndComp
$Comp
L power:VCC #PWR0197
U 1 1 5E29168C
P 5550 950
F 0 "#PWR0197" H 5550 800 50  0001 C CNN
F 1 "VCC" V 5550 1150 50  0000 C CNN
F 2 "" H 5550 950 50  0001 C CNN
F 3 "" H 5550 950 50  0001 C CNN
	1    5550 950 
	1    0    0    -1  
$EndComp
$Comp
L power:VCC #PWR0207
U 1 1 610AAA8B
P 7200 800
F 0 "#PWR0207" H 7200 650 50  0001 C CNN
F 1 "VCC" H 7217 973 50  0000 C CNN
F 2 "" H 7200 800 50  0001 C CNN
F 3 "" H 7200 800 50  0001 C CNN
	1    7200 800 
	1    0    0    -1  
$EndComp
$Comp
L power:VCC #PWR0210
U 1 1 610AAAAF
P 7200 3600
F 0 "#PWR0210" H 7200 3450 50  0001 C CNN
F 1 "VCC" H 7217 3773 50  0000 C CNN
F 2 "" H 7200 3600 50  0001 C CNN
F 3 "" H 7200 3600 50  0001 C CNN
	1    7200 3600
	1    0    0    -1  
$EndComp
$Comp
L power:VCC #PWR0220
U 1 1 610AAC70
P 8450 3800
F 0 "#PWR0220" H 8450 3650 50  0001 C CNN
F 1 "VCC" H 8400 3750 50  0000 C CNN
F 2 "" H 8450 3800 50  0001 C CNN
F 3 "" H 8450 3800 50  0001 C CNN
	1    8450 3800
	1    0    0    -1  
$EndComp
$Comp
L power:VCC #PWR0221
U 1 1 610AAC8D
P 8450 4600
F 0 "#PWR0221" H 8450 4450 50  0001 C CNN
F 1 "VCC" H 8400 4550 50  0000 C CNN
F 2 "" H 8450 4600 50  0001 C CNN
F 3 "" H 8450 4600 50  0001 C CNN
	1    8450 4600
	1    0    0    -1  
$EndComp
$Comp
L power:VCC #PWR0212
U 1 1 610AAB63
P 9000 1000
F 0 "#PWR0212" H 9000 850 50  0001 C CNN
F 1 "VCC" H 8950 950 50  0000 C CNN
F 2 "" H 9000 1000 50  0001 C CNN
F 3 "" H 9000 1000 50  0001 C CNN
	1    9000 1000
	-1   0    0    -1  
$EndComp
$Comp
L power:VCC #PWR0213
U 1 1 610AAB80
P 9000 1800
F 0 "#PWR0213" H 9000 1650 50  0001 C CNN
F 1 "VCC" H 8950 1750 50  0000 C CNN
F 2 "" H 9000 1800 50  0001 C CNN
F 3 "" H 9000 1800 50  0001 C CNN
	1    9000 1800
	-1   0    0    -1  
$EndComp
$Comp
L power:VCC #PWR0215
U 1 1 610AAB9B
P 10250 800
F 0 "#PWR0215" H 10250 650 50  0001 C CNN
F 1 "VCC" H 10267 973 50  0000 C CNN
F 2 "" H 10250 800 50  0001 C CNN
F 3 "" H 10250 800 50  0001 C CNN
	1    10250 800 
	-1   0    0    -1  
$EndComp
$Comp
L power:VCC #PWR0218
U 1 1 610AABBF
P 10250 3600
F 0 "#PWR0218" H 10250 3450 50  0001 C CNN
F 1 "VCC" H 10267 3773 50  0000 C CNN
F 2 "" H 10250 3600 50  0001 C CNN
F 3 "" H 10250 3600 50  0001 C CNN
	1    10250 3600
	-1   0    0    -1  
$EndComp
$Comp
L power:GND #PWR?
U 1 1 60DA7992
P 1100 7650
AR Path="/5D957A6E/60DA7992" Ref="#PWR?"  Part="1" 
AR Path="/5E05893C/60DA7992" Ref="#PWR0202"  Part="1" 
F 0 "#PWR0202" H 1100 7400 50  0001 C CNN
F 1 "GND" H 1105 7477 50  0001 C CNN
F 2 "" H 1100 7650 50  0001 C CNN
F 3 "" H 1100 7650 50  0001 C CNN
	1    1100 7650
	1    0    0    -1  
$EndComp
$Comp
L power:GND #PWR?
U 1 1 5E0F06F8
P 1450 3200
AR Path="/5D957A6E/5E0F06F8" Ref="#PWR?"  Part="1" 
AR Path="/5E05893C/5E0F06F8" Ref="#PWR0185"  Part="1" 
F 0 "#PWR0185" H 1450 2950 50  0001 C CNN
F 1 "GND" H 1455 3027 50  0001 C CNN
F 2 "" H 1450 3200 50  0001 C CNN
F 3 "" H 1450 3200 50  0001 C CNN
	1    1450 3200
	1    0    0    -1  
$EndComp
$Comp
L power:GND #PWR?
U 1 1 5E0F109F
P 1450 6000
AR Path="/5D957A6E/5E0F109F" Ref="#PWR?"  Part="1" 
AR Path="/5E05893C/5E0F109F" Ref="#PWR0188"  Part="1" 
F 0 "#PWR0188" H 1450 5750 50  0001 C CNN
F 1 "GND" H 1455 5827 50  0001 C CNN
F 2 "" H 1450 6000 50  0001 C CNN
F 3 "" H 1450 6000 50  0001 C CNN
	1    1450 6000
	1    0    0    -1  
$EndComp
$Comp
L power:GND #PWR?
U 1 1 61719E4E
P 1500 6650
AR Path="/5D957A6E/61719E4E" Ref="#PWR?"  Part="1" 
AR Path="/5E05893C/61719E4E" Ref="#PWR0222"  Part="1" 
F 0 "#PWR0222" H 1500 6400 50  0001 C CNN
F 1 "GND" H 1505 6477 50  0001 C CNN
F 2 "" H 1500 6650 50  0001 C CNN
F 3 "" H 1500 6650 50  0001 C CNN
	1    1500 6650
	1    0    0    -1  
$EndComp
$Comp
L power:GND #PWR?
U 1 1 5E0F06A6
P 1800 800
AR Path="/5D957A6E/5E0F06A6" Ref="#PWR?"  Part="1" 
AR Path="/5E05893C/5E0F06A6" Ref="#PWR0183"  Part="1" 
F 0 "#PWR0183" H 1800 550 50  0001 C CNN
F 1 "GND" H 1805 627 50  0001 C CNN
F 2 "" H 1800 800 50  0001 C CNN
F 3 "" H 1800 800 50  0001 C CNN
	1    1800 800 
	1    0    0    -1  
$EndComp
$Comp
L power:GND #PWR?
U 1 1 5E0F1091
P 1800 3600
AR Path="/5D957A6E/5E0F1091" Ref="#PWR?"  Part="1" 
AR Path="/5E05893C/5E0F1091" Ref="#PWR0186"  Part="1" 
F 0 "#PWR0186" H 1800 3350 50  0001 C CNN
F 1 "GND" H 1805 3427 50  0001 C CNN
F 2 "" H 1800 3600 50  0001 C CNN
F 3 "" H 1800 3600 50  0001 C CNN
	1    1800 3600
	1    0    0    -1  
$EndComp
$Comp
L power:GND #PWR?
U 1 1 5E291554
P 4150 800
AR Path="/5D957A6E/5E291554" Ref="#PWR?"  Part="1" 
AR Path="/5E05893C/5E291554" Ref="#PWR0191"  Part="1" 
F 0 "#PWR0191" H 4150 550 50  0001 C CNN
F 1 "GND" H 4155 627 50  0001 C CNN
F 2 "" H 4150 800 50  0001 C CNN
F 3 "" H 4150 800 50  0001 C CNN
	1    4150 800 
	-1   0    0    -1  
$EndComp
$Comp
L power:GND #PWR?
U 1 1 5E291578
P 4150 3600
AR Path="/5D957A6E/5E291578" Ref="#PWR?"  Part="1" 
AR Path="/5E05893C/5E291578" Ref="#PWR0194"  Part="1" 
F 0 "#PWR0194" H 4150 3350 50  0001 C CNN
F 1 "GND" H 4155 3427 50  0001 C CNN
F 2 "" H 4150 3600 50  0001 C CNN
F 3 "" H 4150 3600 50  0001 C CNN
	1    4150 3600
	-1   0    0    -1  
$EndComp
$Comp
L power:GND #PWR?
U 1 1 5E291562
P 4500 3200
AR Path="/5D957A6E/5E291562" Ref="#PWR?"  Part="1" 
AR Path="/5E05893C/5E291562" Ref="#PWR0193"  Part="1" 
F 0 "#PWR0193" H 4500 2950 50  0001 C CNN
F 1 "GND" H 4505 3027 50  0001 C CNN
F 2 "" H 4500 3200 50  0001 C CNN
F 3 "" H 4500 3200 50  0001 C CNN
	1    4500 3200
	-1   0    0    -1  
$EndComp
$Comp
L power:GND #PWR?
U 1 1 5E291586
P 4500 6000
AR Path="/5D957A6E/5E291586" Ref="#PWR?"  Part="1" 
AR Path="/5E05893C/5E291586" Ref="#PWR0196"  Part="1" 
F 0 "#PWR0196" H 4500 5750 50  0001 C CNN
F 1 "GND" H 4505 5827 50  0001 C CNN
F 2 "" H 4500 6000 50  0001 C CNN
F 3 "" H 4500 6000 50  0001 C CNN
	1    4500 6000
	-1   0    0    -1  
$EndComp
$Comp
L power:GND #PWR?
U 1 1 6076319A
P 5400 7500
AR Path="/5D957A6E/6076319A" Ref="#PWR?"  Part="1" 
AR Path="/5E05893C/6076319A" Ref="#PWR0200"  Part="1" 
F 0 "#PWR0200" H 5400 7250 50  0001 C CNN
F 1 "GND" H 5405 7327 50  0001 C CNN
F 2 "" H 5400 7500 50  0001 C CNN
F 3 "" H 5400 7500 50  0001 C CNN
	1    5400 7500
	-1   0    0    -1  
$EndComp
$Comp
L power:GND #PWR?
U 1 1 610AAA92
P 7200 3200
AR Path="/5D957A6E/610AAA92" Ref="#PWR?"  Part="1" 
AR Path="/5E05893C/610AAA92" Ref="#PWR0208"  Part="1" 
F 0 "#PWR0208" H 7200 2950 50  0001 C CNN
F 1 "GND" H 7205 3027 50  0001 C CNN
F 2 "" H 7200 3200 50  0001 C CNN
F 3 "" H 7200 3200 50  0001 C CNN
	1    7200 3200
	1    0    0    -1  
$EndComp
$Comp
L power:GND #PWR?
U 1 1 610AAAB6
P 7200 6000
AR Path="/5D957A6E/610AAAB6" Ref="#PWR?"  Part="1" 
AR Path="/5E05893C/610AAAB6" Ref="#PWR0211"  Part="1" 
F 0 "#PWR0211" H 7200 5750 50  0001 C CNN
F 1 "GND" H 7205 5827 50  0001 C CNN
F 2 "" H 7200 6000 50  0001 C CNN
F 3 "" H 7200 6000 50  0001 C CNN
	1    7200 6000
	1    0    0    -1  
$EndComp
$Comp
L power:GND #PWR?
U 1 1 610AAA84
P 7550 800
AR Path="/5D957A6E/610AAA84" Ref="#PWR?"  Part="1" 
AR Path="/5E05893C/610AAA84" Ref="#PWR0206"  Part="1" 
F 0 "#PWR0206" H 7550 550 50  0001 C CNN
F 1 "GND" H 7555 627 50  0001 C CNN
F 2 "" H 7550 800 50  0001 C CNN
F 3 "" H 7550 800 50  0001 C CNN
	1    7550 800 
	1    0    0    -1  
$EndComp
$Comp
L power:GND #PWR?
U 1 1 610AAAA8
P 7550 3600
AR Path="/5D957A6E/610AAAA8" Ref="#PWR?"  Part="1" 
AR Path="/5E05893C/610AAAA8" Ref="#PWR0209"  Part="1" 
F 0 "#PWR0209" H 7550 3350 50  0001 C CNN
F 1 "GND" H 7555 3427 50  0001 C CNN
F 2 "" H 7550 3600 50  0001 C CNN
F 3 "" H 7550 3600 50  0001 C CNN
	1    7550 3600
	1    0    0    -1  
$EndComp
$Comp
L power:GND #PWR?
U 1 1 610AAB94
P 9900 800
AR Path="/5D957A6E/610AAB94" Ref="#PWR?"  Part="1" 
AR Path="/5E05893C/610AAB94" Ref="#PWR0214"  Part="1" 
F 0 "#PWR0214" H 9900 550 50  0001 C CNN
F 1 "GND" H 9905 627 50  0001 C CNN
F 2 "" H 9900 800 50  0001 C CNN
F 3 "" H 9900 800 50  0001 C CNN
	1    9900 800 
	-1   0    0    -1  
$EndComp
$Comp
L power:GND #PWR?
U 1 1 610AABB8
P 9900 3600
AR Path="/5D957A6E/610AABB8" Ref="#PWR?"  Part="1" 
AR Path="/5E05893C/610AABB8" Ref="#PWR0217"  Part="1" 
F 0 "#PWR0217" H 9900 3350 50  0001 C CNN
F 1 "GND" H 9905 3427 50  0001 C CNN
F 2 "" H 9900 3600 50  0001 C CNN
F 3 "" H 9900 3600 50  0001 C CNN
	1    9900 3600
	-1   0    0    -1  
$EndComp
$Comp
L power:GND #PWR?
U 1 1 610AABA2
P 10250 3200
AR Path="/5D957A6E/610AABA2" Ref="#PWR?"  Part="1" 
AR Path="/5E05893C/610AABA2" Ref="#PWR0216"  Part="1" 
F 0 "#PWR0216" H 10250 2950 50  0001 C CNN
F 1 "GND" H 10255 3027 50  0001 C CNN
F 2 "" H 10250 3200 50  0001 C CNN
F 3 "" H 10250 3200 50  0001 C CNN
	1    10250 3200
	-1   0    0    -1  
$EndComp
$Comp
L power:GND #PWR?
U 1 1 610AABC6
P 10250 6000
AR Path="/5D957A6E/610AABC6" Ref="#PWR?"  Part="1" 
AR Path="/5E05893C/610AABC6" Ref="#PWR0219"  Part="1" 
F 0 "#PWR0219" H 10250 5750 50  0001 C CNN
F 1 "GND" H 10255 5827 50  0001 C CNN
F 2 "" H 10250 6000 50  0001 C CNN
F 3 "" H 10250 6000 50  0001 C CNN
	1    10250 6000
	-1   0    0    -1  
$EndComp
$Comp
L Device:C_Small CX?
U 1 1 61719DF9
P 1400 6650
AR Path="/5D957A6E/61719DF9" Ref="CX?"  Part="1" 
AR Path="/5E05893C/61719DF9" Ref="CX15"  Part="1" 
F 0 "CX15" V 1171 6650 50  0001 C CNN
F 1 "0.1u" V 1262 6650 50  0000 C TNN
F 2 "" H 1400 6650 50  0001 C CNN
F 3 "~" H 1400 6650 50  0001 C CNN
	1    1400 6650
	0    1    1    0   
$EndComp
$Comp
L Device:C_Small CX?
U 1 1 5E0F06A0
P 1700 800
AR Path="/5D957A6E/5E0F06A0" Ref="CX?"  Part="1" 
AR Path="/5E05893C/5E0F06A0" Ref="CX16"  Part="1" 
F 0 "CX16" V 1471 800 50  0001 C CNN
F 1 "0.1u" V 1562 800 50  0000 C TNN
F 2 "" H 1700 800 50  0001 C CNN
F 3 "~" H 1700 800 50  0001 C CNN
	1    1700 800 
	0    1    1    0   
$EndComp
$Comp
L Device:C_Small CX?
U 1 1 5E0F108B
P 1700 3600
AR Path="/5D957A6E/5E0F108B" Ref="CX?"  Part="1" 
AR Path="/5E05893C/5E0F108B" Ref="CX17"  Part="1" 
F 0 "CX17" V 1471 3600 50  0001 C CNN
F 1 "0.1u" V 1562 3600 50  0000 C TNN
F 2 "" H 1700 3600 50  0001 C CNN
F 3 "~" H 1700 3600 50  0001 C CNN
	1    1700 3600
	0    1    1    0   
$EndComp
$Comp
L Device:C_Small CX?
U 1 1 5E29154E
P 4250 800
AR Path="/5D957A6E/5E29154E" Ref="CX?"  Part="1" 
AR Path="/5E05893C/5E29154E" Ref="CX18"  Part="1" 
F 0 "CX18" V 4021 800 50  0001 C CNN
F 1 "0.1u" V 4112 800 50  0000 C TNN
F 2 "" H 4250 800 50  0001 C CNN
F 3 "~" H 4250 800 50  0001 C CNN
	1    4250 800 
	0    -1   1    0   
$EndComp
$Comp
L Device:C_Small CX?
U 1 1 5E291572
P 4250 3600
AR Path="/5D957A6E/5E291572" Ref="CX?"  Part="1" 
AR Path="/5E05893C/5E291572" Ref="CX19"  Part="1" 
F 0 "CX19" V 4021 3600 50  0001 C CNN
F 1 "0.1u" V 4112 3600 50  0000 C TNN
F 2 "" H 4250 3600 50  0001 C CNN
F 3 "~" H 4250 3600 50  0001 C CNN
	1    4250 3600
	0    -1   1    0   
$EndComp
$Comp
L Device:C_Small CX?
U 1 1 610AAA7E
P 7450 800
AR Path="/5D957A6E/610AAA7E" Ref="CX?"  Part="1" 
AR Path="/5E05893C/610AAA7E" Ref="CX20"  Part="1" 
F 0 "CX20" V 7221 800 50  0001 C CNN
F 1 "0.1u" V 7312 800 50  0000 C TNN
F 2 "" H 7450 800 50  0001 C CNN
F 3 "~" H 7450 800 50  0001 C CNN
	1    7450 800 
	0    1    1    0   
$EndComp
$Comp
L Device:C_Small CX?
U 1 1 610AAAA2
P 7450 3600
AR Path="/5D957A6E/610AAAA2" Ref="CX?"  Part="1" 
AR Path="/5E05893C/610AAAA2" Ref="CX21"  Part="1" 
F 0 "CX21" V 7221 3600 50  0001 C CNN
F 1 "0.1u" V 7312 3600 50  0000 C TNN
F 2 "" H 7450 3600 50  0001 C CNN
F 3 "~" H 7450 3600 50  0001 C CNN
	1    7450 3600
	0    1    1    0   
$EndComp
$Comp
L Device:C_Small CX?
U 1 1 610AAB8E
P 10000 800
AR Path="/5D957A6E/610AAB8E" Ref="CX?"  Part="1" 
AR Path="/5E05893C/610AAB8E" Ref="CX22"  Part="1" 
F 0 "CX22" V 9771 800 50  0001 C CNN
F 1 "0.1u" V 9862 800 50  0000 C TNN
F 2 "" H 10000 800 50  0001 C CNN
F 3 "~" H 10000 800 50  0001 C CNN
	1    10000 800 
	0    -1   1    0   
$EndComp
$Comp
L Device:C_Small CX?
U 1 1 610AABB2
P 10000 3600
AR Path="/5D957A6E/610AABB2" Ref="CX?"  Part="1" 
AR Path="/5E05893C/610AABB2" Ref="CX23"  Part="1" 
F 0 "CX23" V 9771 3600 50  0001 C CNN
F 1 "0.1u" V 9862 3600 50  0000 C TNN
F 2 "" H 10000 3600 50  0001 C CNN
F 3 "~" H 10000 3600 50  0001 C CNN
	1    10000 3600
	0    -1   1    0   
$EndComp
$Comp
L Jumper:SolderJumper_2_Bridged JP14
U 1 1 5E19525F
P 5750 1100
F 0 "JP14" H 5750 1000 50  0000 C CNN
F 1 "SolderJumper_2_Bridged" H 5750 1214 50  0001 C CNN
F 2 "" H 5750 1100 50  0001 C CNN
F 3 "~" H 5750 1100 50  0001 C CNN
	1    5750 1100
	1    0    0    -1  
$EndComp
$Comp
L Jumper:SolderJumper_2_Open JP15
U 1 1 5E1952FD
P 5750 1300
F 0 "JP15" H 5750 1200 50  0000 C CNN
F 1 "SolderJumper_2_Open" H 5750 1414 50  0001 C CNN
F 2 "" H 5750 1300 50  0001 C CNN
F 3 "~" H 5750 1300 50  0001 C CNN
	1    5750 1300
	1    0    0    -1  
$EndComp
$Comp
L Jumper:SolderJumper_2_Bridged JP16
U 1 1 5E1E62F9
P 5750 1500
F 0 "JP16" H 5750 1400 50  0000 C CNN
F 1 "SolderJumper_2_Bridged" H 5750 1614 50  0001 C CNN
F 2 "" H 5750 1500 50  0001 C CNN
F 3 "~" H 5750 1500 50  0001 C CNN
	1    5750 1500
	1    0    0    -1  
$EndComp
$Comp
L Jumper:SolderJumper_2_Open JP17
U 1 1 5E1E6300
P 5750 1700
F 0 "JP17" H 5750 1600 50  0000 C CNN
F 1 "SolderJumper_2_Open" H 5750 1814 50  0001 C CNN
F 2 "" H 5750 1700 50  0001 C CNN
F 3 "~" H 5750 1700 50  0001 C CNN
	1    5750 1700
	1    0    0    -1  
$EndComp
$Comp
L Jumper:SolderJumper_2_Bridged JP18
U 1 1 5E8759CD
P 5750 1900
F 0 "JP18" H 5750 1800 50  0000 C CNN
F 1 "SolderJumper_2_Bridged" H 5750 2014 50  0001 C CNN
F 2 "" H 5750 1900 50  0001 C CNN
F 3 "~" H 5750 1900 50  0001 C CNN
	1    5750 1900
	1    0    0    -1  
$EndComp
$Comp
L Jumper:SolderJumper_2_Open JP19
U 1 1 5E8759D4
P 5750 2100
F 0 "JP19" H 5750 2000 50  0000 C CNN
F 1 "SolderJumper_2_Open" H 5750 2214 50  0001 C CNN
F 2 "" H 5750 2100 50  0001 C CNN
F 3 "~" H 5750 2100 50  0001 C CNN
	1    5750 2100
	1    0    0    -1  
$EndComp
$Comp
L Jumper:SolderJumper_2_Bridged JP20
U 1 1 5E8759DB
P 5750 2300
F 0 "JP20" H 5750 2200 50  0000 C CNN
F 1 "SolderJumper_2_Bridged" H 5750 2414 50  0001 C CNN
F 2 "" H 5750 2300 50  0001 C CNN
F 3 "~" H 5750 2300 50  0001 C CNN
	1    5750 2300
	1    0    0    -1  
$EndComp
$Comp
L Jumper:SolderJumper_2_Open JP21
U 1 1 5E8759E2
P 5750 2500
F 0 "JP21" H 5750 2400 50  0000 C CNN
F 1 "SolderJumper_2_Open" H 5750 2614 50  0001 C CNN
F 2 "" H 5750 2500 50  0001 C CNN
F 3 "~" H 5750 2500 50  0001 C CNN
	1    5750 2500
	1    0    0    -1  
$EndComp
$Comp
L Jumper:SolderJumper_2_Bridged JP22
U 1 1 61159568
P 5950 3500
F 0 "JP22" H 5950 3400 50  0000 C CNN
F 1 "SolderJumper_2_Bridged" H 5950 3614 50  0001 C CNN
F 2 "" H 5950 3500 50  0001 C CNN
F 3 "~" H 5950 3500 50  0001 C CNN
	1    5950 3500
	-1   0    0    -1  
$EndComp
$Comp
L Jumper:SolderJumper_2_Open JP23
U 1 1 6115956F
P 5950 3700
F 0 "JP23" H 5950 3600 50  0000 C CNN
F 1 "SolderJumper_2_Open" H 5950 3814 50  0001 C CNN
F 2 "" H 5950 3700 50  0001 C CNN
F 3 "~" H 5950 3700 50  0001 C CNN
	1    5950 3700
	-1   0    0    -1  
$EndComp
$Comp
L Jumper:SolderJumper_2_Bridged JP24
U 1 1 61159577
P 5950 3900
F 0 "JP24" H 5950 3800 50  0000 C CNN
F 1 "SolderJumper_2_Bridged" H 5950 4014 50  0001 C CNN
F 2 "" H 5950 3900 50  0001 C CNN
F 3 "~" H 5950 3900 50  0001 C CNN
	1    5950 3900
	-1   0    0    -1  
$EndComp
$Comp
L Jumper:SolderJumper_2_Open JP25
U 1 1 6115957E
P 5950 4100
F 0 "JP25" H 5950 4000 50  0000 C CNN
F 1 "SolderJumper_2_Open" H 5950 4214 50  0001 C CNN
F 2 "" H 5950 4100 50  0001 C CNN
F 3 "~" H 5950 4100 50  0001 C CNN
	1    5950 4100
	-1   0    0    -1  
$EndComp
$Comp
L Jumper:SolderJumper_2_Bridged JP26
U 1 1 6115958D
P 5950 4300
F 0 "JP26" H 5950 4200 50  0000 C CNN
F 1 "SolderJumper_2_Bridged" H 5950 4414 50  0001 C CNN
F 2 "" H 5950 4300 50  0001 C CNN
F 3 "~" H 5950 4300 50  0001 C CNN
	1    5950 4300
	-1   0    0    -1  
$EndComp
$Comp
L Jumper:SolderJumper_2_Open JP27
U 1 1 61159594
P 5950 4500
F 0 "JP27" H 5950 4400 50  0000 C CNN
F 1 "SolderJumper_2_Open" H 5950 4614 50  0001 C CNN
F 2 "" H 5950 4500 50  0001 C CNN
F 3 "~" H 5950 4500 50  0001 C CNN
	1    5950 4500
	-1   0    0    -1  
$EndComp
$Comp
L Jumper:SolderJumper_2_Bridged JP28
U 1 1 6115959B
P 5950 4700
F 0 "JP28" H 5950 4600 50  0000 C CNN
F 1 "SolderJumper_2_Bridged" H 5950 4814 50  0001 C CNN
F 2 "" H 5950 4700 50  0001 C CNN
F 3 "~" H 5950 4700 50  0001 C CNN
	1    5950 4700
	-1   0    0    -1  
$EndComp
$Comp
L Jumper:SolderJumper_2_Open JP29
U 1 1 611595A2
P 5950 4900
F 0 "JP29" H 5950 4800 50  0000 C CNN
F 1 "SolderJumper_2_Open" H 5950 5014 50  0001 C CNN
F 2 "" H 5950 4900 50  0001 C CNN
F 3 "~" H 5950 4900 50  0001 C CNN
	1    5950 4900
	-1   0    0    -1  
$EndComp
$Comp
L 74xx:74LS04 UK10
U 1 1 60CD2B92
P 2250 7400
F 0 "UK10" H 2250 7717 50  0000 C CNN
F 1 "74LS04" H 2250 7626 50  0000 C CNN
F 2 "" H 2250 7400 50  0001 C CNN
F 3 "http://www.ti.com/lit/gpn/sn74LS04" H 2250 7400 50  0001 C CNN
	1    2250 7400
	1    0    0    -1  
$EndComp
$Comp
L 74xx:74LS74 UJ10
U 3 1 60D71203
P 1300 7150
F 0 "UJ10" H 1400 7500 50  0000 L CNN
F 1 "74LS74" H 1350 6800 50  0000 L CNN
F 2 "" H 1300 7150 50  0001 C CNN
F 3 "74xx/74hc_hct74.pdf" H 1300 7150 50  0001 C CNN
	3    1300 7150
	1    0    0    -1  
$EndComp
$Comp
L Device:R_Network08 RA28
U 1 1 5E29166D
P 2900 4200
F 0 "RA28" H 3050 4400 50  0000 C CNN
F 1 "4.7k" H 2800 4400 50  0000 C CNN
F 2 "Resistor_THT:R_Array_SIP9" V 3375 4200 50  0001 C CNN
F 3 "http://www.vishay.com/docs/31509/csc.pdf" H 2900 4200 50  0001 C CNN
	1    2900 4200
	0    -1   1    0   
$EndComp
$Comp
L Device:R_Network08 RA29
U 1 1 5E2916C9
P 2900 5000
F 0 "RA29" H 3100 5200 50  0000 C CNN
F 1 "4.7k" H 2800 5200 50  0000 C CNN
F 2 "Resistor_THT:R_Array_SIP9" V 3375 5000 50  0001 C CNN
F 3 "http://www.vishay.com/docs/31509/csc.pdf" H 2900 5000 50  0001 C CNN
	1    2900 5000
	0    -1   1    0   
$EndComp
$Comp
L Device:R_Network08 RA26
U 1 1 5E15251D
P 3050 1400
F 0 "RA26" H 3200 1600 50  0000 C CNN
F 1 "4.7k" H 2950 1600 50  0000 C CNN
F 2 "Resistor_THT:R_Array_SIP9" V 3525 1400 50  0001 C CNN
F 3 "http://www.vishay.com/docs/31509/csc.pdf" H 3050 1400 50  0001 C CNN
	1    3050 1400
	0    1    1    0   
$EndComp
$Comp
L Device:R_Network08 RA27
U 1 1 5E26DDE2
P 3050 2200
F 0 "RA27" H 3250 2400 50  0000 C CNN
F 1 "4.7k" H 2950 2400 50  0000 C CNN
F 2 "Resistor_THT:R_Array_SIP9" V 3525 2200 50  0001 C CNN
F 3 "http://www.vishay.com/docs/31509/csc.pdf" H 3050 2200 50  0001 C CNN
	1    3050 2200
	0    1    1    0   
$EndComp
$Comp
L Device:R_Network08 RA36
U 1 1 610AAC66
P 8650 4200
F 0 "RA36" H 8800 4400 50  0000 C CNN
F 1 "4.7k" H 8550 4400 50  0000 C CNN
F 2 "Resistor_THT:R_Array_SIP9" V 9125 4200 50  0001 C CNN
F 3 "http://www.vishay.com/docs/31509/csc.pdf" H 8650 4200 50  0001 C CNN
	1    8650 4200
	0    -1   1    0   
$EndComp
$Comp
L Device:R_Network08 RA37
U 1 1 610AAC86
P 8650 5000
F 0 "RA37" H 8850 5200 50  0000 C CNN
F 1 "4.7k" H 8550 5200 50  0000 C CNN
F 2 "Resistor_THT:R_Array_SIP9" V 9125 5000 50  0001 C CNN
F 3 "http://www.vishay.com/docs/31509/csc.pdf" H 8650 5000 50  0001 C CNN
	1    8650 5000
	0    -1   1    0   
$EndComp
$Comp
L Device:R_Network08 RA34
U 1 1 610AAB59
P 8800 1400
F 0 "RA34" H 8950 1600 50  0000 C CNN
F 1 "4.7k" H 8700 1600 50  0000 C CNN
F 2 "Resistor_THT:R_Array_SIP9" V 9275 1400 50  0001 C CNN
F 3 "http://www.vishay.com/docs/31509/csc.pdf" H 8800 1400 50  0001 C CNN
	1    8800 1400
	0    1    1    0   
$EndComp
$Comp
L Device:R_Network08 RA35
U 1 1 610AAB79
P 8800 2200
F 0 "RA35" H 9000 2400 50  0000 C CNN
F 1 "4.7k" H 8700 2400 50  0000 C CNN
F 2 "Resistor_THT:R_Array_SIP9" V 9275 2200 50  0001 C CNN
F 3 "http://www.vishay.com/docs/31509/csc.pdf" H 8800 2200 50  0001 C CNN
	1    8800 2200
	0    1    1    0   
$EndComp
$Comp
L 74xx:74LS74 UJ10
U 1 1 60D2190A
P 3000 7400
F 0 "UJ10" H 3200 7700 50  0000 C CNN
F 1 "74LS74" H 3200 7150 50  0000 C CNN
F 2 "" H 3000 7400 50  0001 C CNN
F 3 "74xx/74hc_hct74.pdf" H 3000 7400 50  0001 C CNN
	1    3000 7400
	1    0    0    -1  
$EndComp
$Comp
L 74xx:74LS04 UK10
U 7 1 60CED056
P 850 7150
F 0 "UK10" H 900 7500 50  0000 L CNN
F 1 "74LS04" H 500 6800 50  0000 L CNN
F 2 "" H 850 7150 50  0001 C CNN
F 3 "http://www.ti.com/lit/gpn/sn74LS04" H 850 7150 50  0001 C CNN
	7    850  7150
	1    0    0    -1  
$EndComp
$Comp
L Logic_Programmable:PAL16L8 UJ9
U 1 1 5FDA2E59
P 5400 6900
F 0 "UJ9" H 5150 7500 50  0000 C CNN
F 1 "PAL16L8" H 5600 6400 50  0000 C CNN
F 2 "" H 5400 6900 50  0001 C CNN
F 3 "" H 5400 6900 50  0001 C CNN
	1    5400 6900
	1    0    0    -1  
$EndComp
$Comp
L CPS2-Custom:27C322 UJ1-ROM13
U 1 1 5E05CC49
P 1450 2000
F 0 "UJ1-ROM13" H 1100 3150 50  0000 C CNN
F 1 "27C322" H 1700 850 50  0000 C CNN
F 2 "Package_DIP:DIP-42_W15.24mm_Socket" H 1450 2000 50  0001 C CNN
F 3 "http://ww1.microchip.com/downloads/en/DeviceDoc/doc0015.pdf" H 1450 2100 50  0001 C CNN
	1    1450 2000
	1    0    0    -1  
$EndComp
$Comp
L CPS2-Custom:27C322 UJ2-ROM14
U 1 1 5E0F1083
P 1450 4800
F 0 "UJ2-ROM14" H 1100 5950 50  0000 C CNN
F 1 "27C322" H 1700 3650 50  0000 C CNN
F 2 "Package_DIP:DIP-42_W15.24mm_Socket" H 1450 4800 50  0001 C CNN
F 3 "http://ww1.microchip.com/downloads/en/DeviceDoc/doc0015.pdf" H 1450 4900 50  0001 C CNN
	1    1450 4800
	1    0    0    -1  
$EndComp
$Comp
L CPS2-Custom:27C322 UJ3-ROM15
U 1 1 5E291546
P 4500 2000
F 0 "UJ3-ROM15" H 4250 3150 50  0000 C CNN
F 1 "27C322" H 4800 850 50  0000 C CNN
F 2 "Package_DIP:DIP-42_W15.24mm_Socket" H 4500 2000 50  0001 C CNN
F 3 "http://ww1.microchip.com/downloads/en/DeviceDoc/doc0015.pdf" H 4500 2100 50  0001 C CNN
	1    4500 2000
	-1   0    0    -1  
$EndComp
$Comp
L CPS2-Custom:27C322 UJ4-ROM16
U 1 1 5E29156A
P 4500 4800
F 0 "UJ4-ROM16" H 4250 5950 50  0000 C CNN
F 1 "27C322" H 4800 3650 50  0000 C CNN
F 2 "Package_DIP:DIP-42_W15.24mm_Socket" H 4500 4800 50  0001 C CNN
F 3 "http://ww1.microchip.com/downloads/en/DeviceDoc/doc0015.pdf" H 4500 4900 50  0001 C CNN
	1    4500 4800
	-1   0    0    -1  
$EndComp
$Comp
L CPS2-Custom:27C322 UM1-ROM17
U 1 1 610AAA76
P 7200 2000
F 0 "UM1-ROM17" H 6850 3150 50  0000 C CNN
F 1 "27C322" H 7450 850 50  0000 C CNN
F 2 "Package_DIP:DIP-42_W15.24mm_Socket" H 7200 2000 50  0001 C CNN
F 3 "http://ww1.microchip.com/downloads/en/DeviceDoc/doc0015.pdf" H 7200 2100 50  0001 C CNN
	1    7200 2000
	1    0    0    -1  
$EndComp
$Comp
L CPS2-Custom:27C322 UM2-ROM18
U 1 1 610AAA9A
P 7200 4800
F 0 "UM2-ROM18" H 6850 5950 50  0000 C CNN
F 1 "27C322" H 7450 3650 50  0000 C CNN
F 2 "Package_DIP:DIP-42_W15.24mm_Socket" H 7200 4800 50  0001 C CNN
F 3 "http://ww1.microchip.com/downloads/en/DeviceDoc/doc0015.pdf" H 7200 4900 50  0001 C CNN
	1    7200 4800
	1    0    0    -1  
$EndComp
$Comp
L CPS2-Custom:27C322 UM3-ROM19
U 1 1 610AAB86
P 10250 2000
F 0 "UM3-ROM19" H 9950 3150 50  0000 C CNN
F 1 "27C322" H 10550 850 50  0000 C CNN
F 2 "Package_DIP:DIP-42_W15.24mm_Socket" H 10250 2000 50  0001 C CNN
F 3 "http://ww1.microchip.com/downloads/en/DeviceDoc/doc0015.pdf" H 10250 2100 50  0001 C CNN
	1    10250 2000
	-1   0    0    -1  
$EndComp
$Comp
L CPS2-Custom:27C322 UM4-ROM20
U 1 1 610AABAA
P 10250 4800
F 0 "UM4-ROM20" H 9950 5950 50  0000 C CNN
F 1 "27C322" H 10550 3650 50  0000 C CNN
F 2 "Package_DIP:DIP-42_W15.24mm_Socket" H 10250 4800 50  0001 C CNN
F 3 "http://ww1.microchip.com/downloads/en/DeviceDoc/doc0015.pdf" H 10250 4900 50  0001 C CNN
	1    10250 4800
	-1   0    0    -1  
$EndComp
$EndSCHEMATC
