EESchema Schematic File Version 5
EELAYER 33 0
EELAYER END
$Descr A4 11693 8268
encoding utf-8
Sheet 7 17
Title ""
Date "2019-10-17"
Rev ""
Comp ""
Comment1 ""
Comment2 "Licence: CC-BY"
Comment3 "Author: Loic *WydD* Petit"
Comment4 "Project: CPS2 Reverse Engineering: 93646B"
Comment5 ""
Comment6 ""
Comment7 ""
Comment8 ""
Comment9 ""
$EndDescr
Connection ~ 4450 1650
Connection ~ 7200 1650
Connection ~ 7350 5550
Connection ~ 4350 5550
Connection ~ 3650 1650
Connection ~ 7250 5550
Connection ~ 4550 5550
Connection ~ 4450 5550
Connection ~ 4250 5550
Connection ~ 4150 5550
Connection ~ 8000 2300
Connection ~ 7450 5550
Connection ~ 4350 1650
Connection ~ 3400 1950
Entry Wire Line
	3050 2400 3150 2500
Entry Wire Line
	3050 2500 3150 2600
Entry Wire Line
	3050 2600 3150 2700
Entry Wire Line
	3050 2700 3150 2800
Entry Wire Line
	3050 2800 3150 2900
Entry Wire Line
	3050 2900 3150 3000
Entry Wire Line
	3050 3000 3150 3100
Entry Wire Line
	3050 3100 3150 3200
Entry Wire Line
	3050 3200 3150 3300
Entry Wire Line
	3050 3300 3150 3400
Entry Wire Line
	3050 3400 3150 3500
Entry Wire Line
	3050 3500 3150 3600
Entry Wire Line
	3050 3600 3150 3700
Entry Wire Line
	3050 3700 3150 3800
Entry Wire Line
	3050 3800 3150 3900
Entry Wire Line
	3050 3900 3150 4000
Entry Wire Line
	3050 4000 3150 4100
Entry Wire Line
	3050 4100 3150 4200
Entry Wire Line
	3050 4200 3150 4300
Entry Wire Line
	3050 4300 3150 4400
Entry Wire Line
	3050 4400 3150 4500
Entry Wire Line
	3050 4500 3150 4600
Entry Wire Line
	4900 1100 4800 1200
Entry Wire Line
	5000 1100 4900 1200
Entry Wire Line
	5050 6250 4950 6150
Entry Wire Line
	5100 1100 5000 1200
Entry Wire Line
	5150 6250 5050 6150
Entry Wire Line
	5200 1100 5100 1200
Entry Wire Line
	5250 6250 5150 6150
Entry Wire Line
	5300 1100 5200 1200
Entry Wire Line
	5350 6250 5250 6150
Entry Wire Line
	5400 1100 5300 1200
Entry Wire Line
	5450 6250 5350 6150
Entry Wire Line
	5500 1100 5400 1200
Entry Wire Line
	5550 6250 5450 6150
Entry Wire Line
	5600 1100 5500 1200
Entry Wire Line
	5650 6250 5550 6150
Entry Wire Line
	5700 1100 5600 1200
Entry Wire Line
	5750 6250 5650 6150
Entry Wire Line
	5800 1100 5700 1200
Entry Wire Line
	5850 6250 5750 6150
Entry Wire Line
	5900 1100 5800 1200
Entry Wire Line
	5950 6250 5850 6150
Entry Wire Line
	6000 1100 5900 1200
Entry Wire Line
	6050 6250 5950 6150
Entry Wire Line
	6100 1100 6000 1200
Entry Wire Line
	6150 6250 6050 6150
Entry Wire Line
	6200 1100 6100 1200
Entry Wire Line
	6250 6250 6150 6150
Entry Wire Line
	6300 1100 6200 1200
Entry Wire Line
	6350 6250 6250 6150
Entry Wire Line
	6400 1100 6300 1200
Entry Wire Line
	6450 6250 6350 6150
Entry Wire Line
	6500 1100 6400 1200
Entry Wire Line
	6550 6250 6450 6150
Entry Wire Line
	6600 1100 6500 1200
Entry Wire Line
	6650 6250 6550 6150
Entry Wire Line
	6700 1100 6600 1200
Entry Wire Line
	6750 6250 6650 6150
Entry Wire Line
	6800 1100 6700 1200
Entry Wire Line
	6850 6250 6750 6150
Entry Wire Line
	6900 1100 6800 1200
Entry Wire Line
	6950 6250 6850 6150
Entry Wire Line
	7000 1100 6900 1200
Entry Wire Line
	8550 2400 8450 2500
Entry Wire Line
	8550 2500 8450 2600
Entry Wire Line
	8550 2600 8450 2700
Entry Wire Line
	8550 2700 8450 2800
Entry Wire Line
	8550 2800 8450 2900
Entry Wire Line
	8550 2900 8450 3000
Entry Wire Line
	8550 3000 8450 3100
Entry Wire Line
	8550 3100 8450 3200
Entry Wire Line
	8550 3200 8450 3300
Entry Wire Line
	8550 3300 8450 3400
Entry Wire Line
	8550 3400 8450 3500
Entry Wire Line
	8550 3500 8450 3600
Entry Wire Line
	8550 3600 8450 3700
Entry Wire Line
	8550 3700 8450 3800
Entry Wire Line
	8550 3800 8450 3900
Entry Wire Line
	8550 3900 8450 4000
Entry Wire Line
	8550 4000 8450 4100
Entry Wire Line
	8550 4100 8450 4200
Entry Wire Line
	8550 4200 8450 4300
Entry Wire Line
	8550 4300 8450 4400
Entry Wire Line
	8550 4400 8450 4500
Entry Wire Line
	8550 4500 8450 4600
Wire Wire Line
	3150 2500 3700 2500
Wire Wire Line
	3150 2600 3700 2600
Wire Wire Line
	3150 2700 3700 2700
Wire Wire Line
	3150 2800 3700 2800
Wire Wire Line
	3150 2900 3700 2900
Wire Wire Line
	3150 3000 3700 3000
Wire Wire Line
	3150 3100 3700 3100
Wire Wire Line
	3150 3200 3700 3200
Wire Wire Line
	3150 3300 3700 3300
Wire Wire Line
	3150 3400 3700 3400
Wire Wire Line
	3150 3500 3700 3500
Wire Wire Line
	3150 3600 3700 3600
Wire Wire Line
	3150 3700 3700 3700
Wire Wire Line
	3150 3800 3700 3800
Wire Wire Line
	3150 3900 3700 3900
Wire Wire Line
	3150 4000 3700 4000
Wire Wire Line
	3150 4100 3700 4100
Wire Wire Line
	3150 4200 3700 4200
Wire Wire Line
	3150 4300 3700 4300
Wire Wire Line
	3150 4400 3700 4400
Wire Wire Line
	3150 4500 3700 4500
Wire Wire Line
	3150 4600 3700 4600
Wire Wire Line
	3650 1650 3400 1650
Wire Wire Line
	3650 1650 4350 1650
Wire Wire Line
	3650 1700 3650 1650
Wire Wire Line
	3650 1900 3650 1950
Wire Wire Line
	3650 1950 3400 1950
Wire Wire Line
	4050 5550 4150 5550
Wire Wire Line
	4150 5550 4250 5550
Wire Wire Line
	4250 5550 4350 5550
Wire Wire Line
	4350 1650 4450 1650
Wire Wire Line
	4350 5550 4350 5650
Wire Wire Line
	4350 5550 4450 5550
Wire Wire Line
	4450 1550 4450 1650
Wire Wire Line
	4450 1650 4550 1650
Wire Wire Line
	4450 5550 4550 5550
Wire Wire Line
	4550 5550 4650 5550
Wire Wire Line
	4800 1650 4800 1200
Wire Wire Line
	4900 1650 4900 1200
Wire Wire Line
	4950 5550 4950 6150
Wire Wire Line
	5000 1650 5000 1200
Wire Wire Line
	5050 5550 5050 6150
Wire Wire Line
	5100 1650 5100 1200
Wire Wire Line
	5150 5550 5150 6150
Wire Wire Line
	5200 1650 5200 1200
Wire Wire Line
	5250 5550 5250 6150
Wire Wire Line
	5300 1650 5300 1200
Wire Wire Line
	5350 5550 5350 6150
Wire Wire Line
	5400 1650 5400 1200
Wire Wire Line
	5450 5550 5450 6150
Wire Wire Line
	5500 1650 5500 1200
Wire Wire Line
	5550 5550 5550 6150
Wire Wire Line
	5600 1650 5600 1200
Wire Wire Line
	5650 5550 5650 6150
Wire Wire Line
	5700 1650 5700 1200
Wire Wire Line
	5750 5550 5750 6150
Wire Wire Line
	5800 1650 5800 1200
Wire Wire Line
	5850 5550 5850 6150
Wire Wire Line
	5900 1650 5900 1200
Wire Wire Line
	5950 5550 5950 6150
Wire Wire Line
	6000 1650 6000 1200
Wire Wire Line
	6050 5550 6050 6150
Wire Wire Line
	6100 1650 6100 1200
Wire Wire Line
	6150 5550 6150 6150
Wire Wire Line
	6200 1650 6200 1200
Wire Wire Line
	6250 5550 6250 6150
Wire Wire Line
	6300 1650 6300 1200
Wire Wire Line
	6350 5550 6350 6150
Wire Wire Line
	6400 1650 6400 1200
Wire Wire Line
	6450 5550 6450 6150
Wire Wire Line
	6500 1650 6500 1200
Wire Wire Line
	6550 5550 6550 6150
Wire Wire Line
	6600 1650 6600 1200
Wire Wire Line
	6650 5550 6650 6150
Wire Wire Line
	6700 1650 6700 1200
Wire Wire Line
	6750 5550 6750 6150
Wire Wire Line
	6800 1650 6800 1200
Wire Wire Line
	6850 5550 6850 6150
Wire Wire Line
	6900 1650 6900 1200
Wire Wire Line
	7100 1650 7200 1650
Wire Wire Line
	7150 5550 7250 5550
Wire Wire Line
	7200 1550 7200 1650
Wire Wire Line
	7200 1650 7300 1650
Wire Wire Line
	7250 5550 7350 5550
Wire Wire Line
	7350 5550 7350 5650
Wire Wire Line
	7350 5550 7450 5550
Wire Wire Line
	7450 5550 7550 5550
Wire Wire Line
	8000 2200 8000 2300
Wire Wire Line
	8000 2500 8450 2500
Wire Wire Line
	8000 2600 8450 2600
Wire Wire Line
	8000 2700 8450 2700
Wire Wire Line
	8000 2800 8450 2800
Wire Wire Line
	8000 2900 8450 2900
Wire Wire Line
	8000 3000 8450 3000
Wire Wire Line
	8000 3100 8450 3100
Wire Wire Line
	8000 3200 8450 3200
Wire Wire Line
	8000 3300 8450 3300
Wire Wire Line
	8000 3400 8450 3400
Wire Wire Line
	8000 3500 8450 3500
Wire Wire Line
	8000 3600 8450 3600
Wire Wire Line
	8000 3700 8450 3700
Wire Wire Line
	8000 3800 8450 3800
Wire Wire Line
	8000 3900 8450 3900
Wire Wire Line
	8000 4000 8450 4000
Wire Wire Line
	8000 4100 8450 4100
Wire Wire Line
	8000 4200 8450 4200
Wire Wire Line
	8000 4300 8450 4300
Wire Wire Line
	8000 4400 8450 4400
Wire Wire Line
	8000 4500 8450 4500
Wire Wire Line
	8000 4600 8450 4600
Wire Wire Line
	8000 4800 8150 4800
Wire Wire Line
	8000 4900 8150 4900
Wire Wire Line
	8000 5000 8150 5000
Wire Wire Line
	8000 5150 8150 5150
Wire Wire Line
	8200 2100 8000 2100
Wire Wire Line
	8200 2300 8000 2300
Wire Bus Line
	3050 2100 2800 2100
Wire Bus Line
	3050 2100 3050 2400
Wire Bus Line
	3050 2400 3050 2600
Wire Bus Line
	3050 2600 3050 2800
Wire Bus Line
	3050 2800 3050 2900
Wire Bus Line
	3050 2900 3050 3100
Wire Bus Line
	3050 3100 3050 3300
Wire Bus Line
	3050 3300 3050 3500
Wire Bus Line
	3050 3500 3050 3700
Wire Bus Line
	3050 3700 3050 3900
Wire Bus Line
	3050 3900 3050 4100
Wire Bus Line
	3050 4100 3050 4300
Wire Bus Line
	3050 4300 3050 4500
Wire Bus Line
	4900 1100 5100 1100
Wire Bus Line
	5050 6250 5250 6250
Wire Bus Line
	5100 1100 5200 1100
Wire Bus Line
	5200 1100 5400 1100
Wire Bus Line
	5250 6250 5450 6250
Wire Bus Line
	5400 1100 5600 1100
Wire Bus Line
	5450 6250 5550 6250
Wire Bus Line
	5550 6250 5750 6250
Wire Bus Line
	5600 1100 5800 1100
Wire Bus Line
	5750 6250 5950 6250
Wire Bus Line
	5800 1100 6000 1100
Wire Bus Line
	5950 6250 6150 6250
Wire Bus Line
	6000 1100 6200 1100
Wire Bus Line
	6150 6250 6350 6250
Wire Bus Line
	6200 1100 6400 1100
Wire Bus Line
	6350 6250 6550 6250
Wire Bus Line
	6400 1100 6600 1100
Wire Bus Line
	6550 6250 6650 6250
Wire Bus Line
	6600 1100 6800 1100
Wire Bus Line
	6650 6250 6850 6250
Wire Bus Line
	6800 1100 7000 1100
Wire Bus Line
	6850 6250 7450 6250
Wire Bus Line
	7000 1100 7300 1100
Wire Bus Line
	8550 2100 8550 2500
Wire Bus Line
	8550 2100 8800 2100
Wire Bus Line
	8550 2500 8550 2700
Wire Bus Line
	8550 2700 8550 2900
Wire Bus Line
	8550 2900 8550 3100
Wire Bus Line
	8550 3100 8550 3300
Wire Bus Line
	8550 3300 8550 3500
Wire Bus Line
	8550 3500 8550 3700
Wire Bus Line
	8550 3700 8550 3800
Wire Bus Line
	8550 3800 8550 4000
Wire Bus Line
	8550 4000 8550 4200
Wire Bus Line
	8550 4200 8550 4300
Wire Bus Line
	8550 4300 8550 4500
Text Label 3200 2500 0    50   ~ 0
GFX-BUS0
Text Label 3200 2600 0    50   ~ 0
GFX-BUS1
Text Label 3200 2700 0    50   ~ 0
GFX-BUS2
Text Label 3200 2800 0    50   ~ 0
GFX-BUS3
Text Label 3200 2900 0    50   ~ 0
GFX-BUS4
Text Label 3200 3000 0    50   ~ 0
GFX-BUS5
Text Label 3200 3100 0    50   ~ 0
GFX-BUS6
Text Label 3200 3200 0    50   ~ 0
GFX-BUS7
Text Label 3200 3300 0    50   ~ 0
GFX-BUS8
Text Label 3200 3400 0    50   ~ 0
GFX-BUS9
Text Label 3200 3500 0    50   ~ 0
GFX-BUS10
Text Label 3200 3600 0    50   ~ 0
GFX-BUS11
Text Label 3200 3700 0    50   ~ 0
GFX-BUS12
Text Label 3200 3800 0    50   ~ 0
GFX-BUS13
Text Label 3200 3900 0    50   ~ 0
GFX-BUS14
Text Label 3200 4000 0    50   ~ 0
GFX-BUS15
Text Label 3200 4100 0    50   ~ 0
GFX-BUS16
Text Label 3200 4200 0    50   ~ 0
GFX-BUS17
Text Label 3200 4300 0    50   ~ 0
GFX-BUS18
Text Label 3200 4400 0    50   ~ 0
GFX-BUS19
Text Label 3200 4500 0    50   ~ 0
GFX-BUS20
Text Label 3200 4600 0    50   ~ 0
GFX-BUS21
Text Label 4800 1600 1    50   ~ 0
GFX-A2
Text Label 4900 1600 1    50   ~ 0
GFX-A3
Text Label 4950 6100 1    50   ~ 0
CN2-ADDR0
Text Label 5000 1600 1    50   ~ 0
GFX-A4
Text Label 5050 6100 1    50   ~ 0
CN2-ADDR1
Text Label 5100 1600 1    50   ~ 0
GFX-A5
Text Label 5150 6100 1    50   ~ 0
CN2-ADDR2
Text Label 5200 1600 1    50   ~ 0
GFX-A6
Text Label 5250 6100 1    50   ~ 0
CN2-ADDR3
Text Label 5300 1600 1    50   ~ 0
GFX-A7
Text Label 5350 6100 1    50   ~ 0
CN2-ADDR4
Text Label 5400 1600 1    50   ~ 0
GFX-A8
Text Label 5450 6100 1    50   ~ 0
CN2-ADDR5
Text Label 5500 1600 1    50   ~ 0
GFX-A9
Text Label 5550 6100 1    50   ~ 0
CN2-ADDR6
Text Label 5600 1600 1    50   ~ 0
GFX-A10
Text Label 5650 6100 1    50   ~ 0
CN2-ADDR7
Text Label 5700 1600 1    50   ~ 0
GFX-A11
Text Label 5750 6100 1    50   ~ 0
CN2-ADDR8
Text Label 5800 1600 1    50   ~ 0
GFX-A12
Text Label 5850 6100 1    50   ~ 0
CN2-ADDR9
Text Label 5900 1600 1    50   ~ 0
GFX-A13
Text Label 5950 6100 1    50   ~ 0
CN2-ADDR10
Text Label 6000 1600 1    50   ~ 0
GFX-A14
Text Label 6050 6100 1    50   ~ 0
CN2-ADDR11
Text Label 6100 1600 1    50   ~ 0
GFX-A15
Text Label 6150 6100 1    50   ~ 0
CN2-ADDR12
Text Label 6200 1600 1    50   ~ 0
GFX-A16
Text Label 6250 6100 1    50   ~ 0
CN2-ADDR13
Text Label 6300 1600 1    50   ~ 0
GFX-A17
Text Label 6350 6100 1    50   ~ 0
CN2-ADDR14
Text Label 6400 1600 1    50   ~ 0
GFX-A18
Text Label 6450 6100 1    50   ~ 0
CN2-ADDR15
Text Label 6500 1600 1    50   ~ 0
GFX-A19
Text Label 6550 6100 1    50   ~ 0
CN2-ADDR16
Text Label 6600 1600 1    50   ~ 0
GFX-A20
Text Label 6650 6100 1    50   ~ 0
CN2-ADDR17
Text Label 6700 1600 1    50   ~ 0
GFX-A21
Text Label 6750 6100 1    50   ~ 0
CN2-ADDR18
Text Label 6800 1600 1    50   ~ 0
GFX-A22
Text Label 6850 6100 1    50   ~ 0
CN2-ADDR19
Text Label 6900 1600 1    50   ~ 0
GFX-A23
Text Label 8050 2500 0    50   ~ 0
GFX-B2
Text Label 8050 2600 0    50   ~ 0
GFX-B3
Text Label 8050 2700 0    50   ~ 0
GFX-B4
Text Label 8050 2800 0    50   ~ 0
GFX-B5
Text Label 8050 2900 0    50   ~ 0
GFX-B6
Text Label 8050 3000 0    50   ~ 0
GFX-B7
Text Label 8050 3100 0    50   ~ 0
GFX-B8
Text Label 8050 3200 0    50   ~ 0
GFX-B9
Text Label 8050 3300 0    50   ~ 0
GFX-B10
Text Label 8050 3400 0    50   ~ 0
GFX-B11
Text Label 8050 3500 0    50   ~ 0
GFX-B12
Text Label 8050 3600 0    50   ~ 0
GFX-B13
Text Label 8050 3700 0    50   ~ 0
GFX-B14
Text Label 8050 3800 0    50   ~ 0
GFX-B15
Text Label 8050 3900 0    50   ~ 0
GFX-B16
Text Label 8050 4000 0    50   ~ 0
GFX-B17
Text Label 8050 4100 0    50   ~ 0
GFX-B18
Text Label 8050 4200 0    50   ~ 0
GFX-B19
Text Label 8050 4300 0    50   ~ 0
GFX-B20
Text Label 8050 4400 0    50   ~ 0
GFX-B21
Text Label 8050 4500 0    50   ~ 0
GFX-B22
Text Label 8050 4600 0    50   ~ 0
GFX-B23
Text HLabel 2800 2100 0    50   BiDi ~ 0
GFX-BUS[0..21]
Text HLabel 7300 1100 2    50   Output ~ 0
GFX-A[2..23]
Text HLabel 7450 6250 2    50   BiDi ~ 0
CN2-ADDR[0..19]
Text HLabel 8150 4800 2    50   Input ~ 0
GFX-ADDR-ENABLE
Text HLabel 8150 4900 2    50   Input ~ 0
ENABLE3
Text HLabel 8150 5000 2    50   Input ~ 0
ENABLE
Text HLabel 8150 5150 2    50   Input ~ 0
CLK2M
Text HLabel 8800 2100 2    50   Output ~ 0
GFX-B[2..23]
$Comp
L power:VDD #PWR0224
U 1 1 62C505BF
P 4450 1550
F 0 "#PWR0224" H 4450 1400 50  0001 C CNN
F 1 "VDD" H 4467 1723 50  0000 C CNN
F 2 "" H 4450 1550 50  0001 C CNN
F 3 "" H 4450 1550 50  0001 C CNN
	1    4450 1550
	1    0    0    -1  
$EndComp
$Comp
L power:VDD #PWR0225
U 1 1 62C5183B
P 7200 1550
F 0 "#PWR0225" H 7200 1400 50  0001 C CNN
F 1 "VDD" H 7217 1723 50  0000 C CNN
F 2 "" H 7200 1550 50  0001 C CNN
F 3 "" H 7200 1550 50  0001 C CNN
	1    7200 1550
	1    0    0    -1  
$EndComp
$Comp
L power:VCC #PWR0228
U 1 1 62C59D75
P 8200 2100
F 0 "#PWR0228" H 8200 1950 50  0001 C CNN
F 1 "VCC" H 8217 2273 50  0000 C CNN
F 2 "" H 8200 2100 50  0001 C CNN
F 3 "" H 8200 2100 50  0001 C CNN
	1    8200 2100
	1    0    0    -1  
$EndComp
$Comp
L power:GND #PWR015
U 1 1 5E12E0AF
P 3400 1950
F 0 "#PWR015" H 3400 1700 50  0001 C CNN
F 1 "GND" H 3405 1777 50  0001 C CNN
F 2 "" H 3400 1950 50  0001 C CNN
F 3 "" H 3400 1950 50  0001 C CNN
	1    3400 1950
	1    0    0    -1  
$EndComp
$Comp
L power:GND #PWR0226
U 1 1 62C5403F
P 4350 5650
F 0 "#PWR0226" H 4350 5400 50  0001 C CNN
F 1 "GND" H 4355 5477 50  0001 C CNN
F 2 "" H 4350 5650 50  0001 C CNN
F 3 "" H 4350 5650 50  0001 C CNN
	1    4350 5650
	1    0    0    -1  
$EndComp
$Comp
L power:GND #PWR0223
U 1 1 62C4562F
P 7350 5650
F 0 "#PWR0223" H 7350 5400 50  0001 C CNN
F 1 "GND" H 7355 5477 50  0001 C CNN
F 2 "" H 7350 5650 50  0001 C CNN
F 3 "" H 7350 5650 50  0001 C CNN
	1    7350 5650
	1    0    0    -1  
$EndComp
$Comp
L power:GND #PWR0227
U 1 1 62C571AC
P 8200 2300
F 0 "#PWR0227" H 8200 2050 50  0001 C CNN
F 1 "GND" H 8205 2127 50  0001 C CNN
F 2 "" H 8200 2300 50  0001 C CNN
F 3 "" H 8200 2300 50  0001 C CNN
	1    8200 2300
	1    0    0    -1  
$EndComp
$Comp
L Device:C_Small CX?
U 1 1 5E10D6FD
P 3650 1800
AR Path="/5E35B989/5E10D6FD" Ref="CX?"  Part="1" 
AR Path="/5DC1E7F0/5E10D6FD" Ref="CX?"  Part="1" 
AR Path="/62D0139C/5E10D6FD" Ref="CX?"  Part="1" 
AR Path="/62C44E7C/5E10D6FD" Ref="CX24"  Part="1" 
F 0 "CX24" H 3742 1846 50  0001 L CNN
F 1 "0.1u" H 3450 1700 50  0000 L CNN
F 2 "" H 3650 1800 50  0001 C CNN
F 3 "~" H 3650 1800 50  0001 C CNN
	1    3650 1800
	-1   0    0    -1  
$EndComp
$Comp
L Device:C EXC?
U 1 1 5E10D703
P 3400 1800
AR Path="/5E35B989/5E10D703" Ref="EXC?"  Part="1" 
AR Path="/5DC1E7F0/5E10D703" Ref="EXC?"  Part="1" 
AR Path="/62D0139C/5E10D703" Ref="EXC?"  Part="1" 
AR Path="/62C44E7C/5E10D703" Ref="EXC5"  Part="1" 
F 0 "EXC5" H 3400 1900 50  0000 L CNN
F 1 "1u" H 3400 1700 50  0000 L CNN
F 2 "" H 3438 1650 50  0001 C CNN
F 3 "~" H 3400 1800 50  0001 C CNN
	1    3400 1800
	1    0    0    -1  
$EndComp
$Comp
L CPS2-Custom:DL-1927 U-CGA-M7
U 1 1 62C44EC1
P 5850 3550
F 0 "U-CGA-M7" H 5850 3850 200 0000 C CNN
F 1 "DL-1927" H 5850 3550 200 0000 C CNN
F 2 "" V 6400 4650 50  0001 C CNN
F 3 "" V 6400 4650 50  0001 C CNN
	1    5850 3550
	1    0    0    -1  
$EndComp
$EndSCHEMATC
