EESchema Schematic File Version 5
EELAYER 33 0
EELAYER END
$Descr A4 11693 8268
encoding utf-8
Sheet 4 17
Title ""
Date "2019-10-17"
Rev ""
Comp ""
Comment1 ""
Comment2 "Licence: CC-BY"
Comment3 "Author: Loic *WydD* Petit"
Comment4 "Project: CPS2 Reverse Engineering: 93646B"
Comment5 ""
Comment6 ""
Comment7 ""
Comment8 ""
Comment9 ""
$EndDescr
Connection ~ 9950 800 
Connection ~ 9950 2400
Connection ~ 10450 2100
Connection ~ 9950 4450
Connection ~ 10450 4150
Connection ~ 6150 5950
Connection ~ 6000 900 
Connection ~ 4600 900 
Connection ~ 5600 900 
Connection ~ 5500 900 
Connection ~ 5400 900 
Connection ~ 5300 900 
Connection ~ 5200 900 
Connection ~ 5100 900 
Connection ~ 5000 900 
Connection ~ 4900 900 
Connection ~ 4800 900 
Connection ~ 4700 900 
Connection ~ 4500 900 
Connection ~ 4400 900 
Connection ~ 4300 900 
Connection ~ 4200 900 
Connection ~ 4100 900 
Connection ~ 4000 900 
Connection ~ 3900 900 
Connection ~ 3800 900 
Connection ~ 3700 900 
Connection ~ 3600 900 
Connection ~ 3150 900 
Connection ~ 3050 900 
Connection ~ 2950 900 
Connection ~ 2850 900 
Connection ~ 2750 900 
Connection ~ 2550 900 
Connection ~ 2450 900 
Connection ~ 2350 900 
Connection ~ 2250 900 
Connection ~ 2650 900 
Connection ~ 3700 800 
Connection ~ 3150 800 
Connection ~ 10600 5350
NoConn ~ 7050 5150
NoConn ~ 7050 5250
NoConn ~ 7050 5350
NoConn ~ 7050 5450
NoConn ~ 7050 5550
Entry Wire Line
	650  1200 750  1300
Entry Wire Line
	650  1300 750  1400
Entry Wire Line
	650  1400 750  1500
Entry Wire Line
	650  1500 750  1600
Entry Wire Line
	650  1600 750  1700
Entry Wire Line
	650  1700 750  1800
Entry Wire Line
	650  1800 750  1900
Entry Wire Line
	650  1900 750  2000
Entry Wire Line
	650  2000 750  2100
Entry Wire Line
	650  2100 750  2200
Entry Wire Line
	650  2200 750  2300
Entry Wire Line
	650  2300 750  2400
Entry Wire Line
	650  2400 750  2500
Entry Wire Line
	650  2500 750  2600
Entry Wire Line
	650  2600 750  2700
Entry Wire Line
	650  2700 750  2800
Entry Wire Line
	650  2800 750  2900
Entry Wire Line
	650  2900 750  3000
Entry Wire Line
	650  3000 750  3100
Entry Wire Line
	650  3100 750  3200
Entry Wire Line
	650  3200 750  3300
Entry Wire Line
	650  3300 750  3400
Entry Wire Line
	650  3400 750  3500
Entry Wire Line
	650  3800 750  3700
Entry Wire Line
	650  3900 750  3800
Entry Wire Line
	650  4000 750  3900
Entry Wire Line
	650  4100 750  4000
Entry Wire Line
	650  4200 750  4100
Entry Wire Line
	650  4300 750  4200
Entry Wire Line
	650  4400 750  4300
Entry Wire Line
	650  4500 750  4400
Entry Wire Line
	650  4600 750  4500
Entry Wire Line
	650  4700 750  4600
Entry Wire Line
	650  4800 750  4700
Entry Wire Line
	650  4900 750  4800
Entry Wire Line
	650  5000 750  4900
Entry Wire Line
	650  5100 750  5000
Entry Wire Line
	650  5200 750  5100
Entry Wire Line
	650  5300 750  5200
Entry Wire Line
	2200 6100 2300 6000
Entry Wire Line
	2300 6100 2400 6000
Entry Wire Line
	2400 6100 2500 6000
Entry Wire Line
	2500 6100 2600 6000
Entry Wire Line
	3050 5950 2950 5850
Entry Wire Line
	3150 5950 3050 5850
Entry Wire Line
	3250 5950 3150 5850
Entry Wire Line
	3350 5950 3250 5850
Entry Wire Line
	3450 5950 3350 5850
Entry Wire Line
	3550 1450 3650 1550
Entry Wire Line
	3550 1550 3650 1650
Entry Wire Line
	3550 1650 3650 1750
Entry Wire Line
	3550 1750 3650 1850
Entry Wire Line
	3550 1850 3650 1950
Entry Wire Line
	3550 1950 3650 2050
Entry Wire Line
	3550 2050 3650 2150
Entry Wire Line
	3550 2150 3650 2250
Entry Wire Line
	3550 2250 3650 2350
Entry Wire Line
	3550 2350 3650 2450
Entry Wire Line
	3550 2450 3650 2550
Entry Wire Line
	3550 2550 3650 2650
Entry Wire Line
	3550 2650 3650 2750
Entry Wire Line
	3550 2750 3650 2850
Entry Wire Line
	3550 2850 3650 2950
Entry Wire Line
	3550 2950 3650 3050
Entry Wire Line
	3550 3050 3650 3150
Entry Wire Line
	3550 3150 3650 3250
Entry Wire Line
	3550 3250 3650 3350
Entry Wire Line
	3550 3350 3650 3450
Entry Wire Line
	3550 3450 3650 3550
Entry Wire Line
	3550 3550 3650 3650
Entry Wire Line
	3550 3650 3650 3750
Entry Wire Line
	3550 3750 3650 3850
Entry Wire Line
	3550 5950 3450 5850
Entry Wire Line
	3650 5950 3550 5850
Entry Wire Line
	3750 5950 3650 5850
Entry Wire Line
	3850 5950 3750 5850
Entry Wire Line
	4350 3250 4450 3150
Entry Wire Line
	4350 3350 4450 3250
Entry Wire Line
	4350 3450 4450 3350
Entry Wire Line
	4350 3550 4450 3450
Entry Wire Line
	4350 3650 4450 3550
Entry Wire Line
	4350 3750 4450 3650
Entry Wire Line
	4350 3850 4450 3750
Entry Wire Line
	4350 3950 4450 3850
Entry Wire Line
	4350 4050 4450 3950
Entry Wire Line
	4350 4150 4450 4050
Entry Wire Line
	4350 4250 4450 4150
Entry Wire Line
	4350 4350 4450 4250
Entry Wire Line
	4350 4450 4450 4350
Entry Wire Line
	4350 4550 4450 4450
Entry Wire Line
	4350 4650 4450 4550
Entry Wire Line
	4350 4750 4450 4650
Entry Wire Line
	4600 1450 4500 1350
Entry Wire Line
	4600 1550 4500 1450
Entry Wire Line
	4600 1650 4500 1550
Entry Wire Line
	4600 1750 4500 1650
Entry Wire Line
	4600 1850 4500 1750
Entry Wire Line
	4600 1950 4500 1850
Entry Wire Line
	4600 2050 4500 1950
Entry Wire Line
	4600 2150 4500 2050
Entry Wire Line
	4600 2250 4500 2150
Entry Wire Line
	4600 2350 4500 2250
Entry Wire Line
	4600 2450 4500 2350
Entry Wire Line
	4600 2550 4500 2450
Entry Wire Line
	4600 2650 4500 2550
Entry Wire Line
	4600 2750 4500 2650
Entry Wire Line
	4600 2850 4500 2750
Entry Wire Line
	4600 2950 4500 2850
Entry Wire Line
	7400 1250 7300 1350
Entry Wire Line
	7400 1350 7300 1450
Entry Wire Line
	7400 1450 7300 1550
Entry Wire Line
	7400 1550 7300 1650
Entry Wire Line
	7400 1650 7300 1750
Entry Wire Line
	7400 1750 7300 1850
Entry Wire Line
	7400 1850 7300 1950
Entry Wire Line
	7400 1950 7300 2050
Entry Wire Line
	7400 2050 7300 2150
Entry Wire Line
	7400 2150 7300 2250
Entry Wire Line
	7400 2250 7300 2350
Entry Wire Line
	7400 2350 7300 2450
Entry Wire Line
	7400 2450 7300 2550
Entry Wire Line
	7400 2550 7300 2650
Entry Wire Line
	7400 2650 7300 2750
Entry Wire Line
	7400 2750 7300 2850
Entry Wire Line
	7400 2850 7300 2950
Entry Wire Line
	7400 2950 7300 3050
Entry Wire Line
	7400 3050 7300 3150
Entry Wire Line
	7400 3150 7300 3250
Entry Wire Line
	7400 3250 7300 3350
Entry Wire Line
	7400 3350 7300 3450
Entry Wire Line
	7400 3450 7300 3550
Entry Wire Line
	7400 3550 7300 3650
Entry Wire Line
	7400 3650 7300 3750
Entry Wire Line
	7400 3750 7300 3850
Entry Wire Line
	7400 3850 7300 3950
Entry Wire Line
	7400 3950 7300 4050
Entry Wire Line
	7400 4050 7300 4150
Entry Wire Line
	7400 4150 7300 4250
Entry Wire Line
	7400 4250 7300 4350
Entry Wire Line
	7400 4350 7300 4450
Entry Wire Line
	8700 1000 8800 1100
Entry Wire Line
	8700 1100 8800 1200
Entry Wire Line
	8700 1200 8800 1300
Entry Wire Line
	8700 1300 8800 1400
Entry Wire Line
	8700 1400 8800 1500
Entry Wire Line
	8700 1500 8800 1600
Entry Wire Line
	8700 1600 8800 1700
Entry Wire Line
	8700 1700 8800 1800
Entry Wire Line
	8700 3050 8800 3150
Entry Wire Line
	8700 3150 8800 3250
Entry Wire Line
	8700 3250 8800 3350
Entry Wire Line
	8700 3350 8800 3450
Entry Wire Line
	8700 3450 8800 3550
Entry Wire Line
	8700 3550 8800 3650
Entry Wire Line
	8700 3650 8800 3750
Entry Wire Line
	8700 3750 8800 3850
Entry Wire Line
	11000 1100 11100 1200
Entry Wire Line
	11000 1200 11100 1300
Entry Wire Line
	11000 1300 11100 1400
Entry Wire Line
	11000 1400 11100 1500
Entry Wire Line
	11000 1500 11100 1600
Entry Wire Line
	11000 1600 11100 1700
Entry Wire Line
	11000 1700 11100 1800
Entry Wire Line
	11000 1800 11100 1900
Entry Wire Line
	11000 3150 11100 3250
Entry Wire Line
	11000 3250 11100 3350
Entry Wire Line
	11000 3350 11100 3450
Entry Wire Line
	11000 3450 11100 3550
Entry Wire Line
	11000 3550 11100 3650
Entry Wire Line
	11000 3650 11100 3750
Entry Wire Line
	11000 3750 11100 3850
Entry Wire Line
	11000 3850 11100 3950
Wire Wire Line
	750  1300 1350 1300
Wire Wire Line
	750  1400 1350 1400
Wire Wire Line
	750  1500 1350 1500
Wire Wire Line
	750  1600 1350 1600
Wire Wire Line
	750  1700 1350 1700
Wire Wire Line
	750  1800 1350 1800
Wire Wire Line
	750  1900 1350 1900
Wire Wire Line
	750  2000 1350 2000
Wire Wire Line
	750  2100 1350 2100
Wire Wire Line
	750  2200 1350 2200
Wire Wire Line
	750  2300 1350 2300
Wire Wire Line
	750  2400 1350 2400
Wire Wire Line
	750  2500 1350 2500
Wire Wire Line
	750  2600 1350 2600
Wire Wire Line
	750  2700 1350 2700
Wire Wire Line
	750  2800 1350 2800
Wire Wire Line
	750  2900 1350 2900
Wire Wire Line
	750  3000 1350 3000
Wire Wire Line
	750  3100 1350 3100
Wire Wire Line
	750  3200 1350 3200
Wire Wire Line
	750  3300 1350 3300
Wire Wire Line
	750  3400 1350 3400
Wire Wire Line
	750  3500 1350 3500
Wire Wire Line
	750  3700 1350 3700
Wire Wire Line
	750  3800 1350 3800
Wire Wire Line
	750  3900 1350 3900
Wire Wire Line
	750  4000 1350 4000
Wire Wire Line
	750  4100 1350 4100
Wire Wire Line
	750  4200 1350 4200
Wire Wire Line
	750  4300 1350 4300
Wire Wire Line
	750  4400 1350 4400
Wire Wire Line
	750  4500 1350 4500
Wire Wire Line
	750  4600 1350 4600
Wire Wire Line
	750  4700 1350 4700
Wire Wire Line
	750  4800 1350 4800
Wire Wire Line
	750  4900 1350 4900
Wire Wire Line
	750  5000 1350 5000
Wire Wire Line
	750  5100 1350 5100
Wire Wire Line
	750  5200 1350 5200
Wire Wire Line
	750  6200 1300 6200
Wire Wire Line
	750  6300 1300 6300
Wire Wire Line
	750  6400 1300 6400
Wire Wire Line
	750  6500 1300 6500
Wire Wire Line
	750  6600 1300 6600
Wire Wire Line
	750  6700 1300 6700
Wire Wire Line
	750  6800 1300 6800
Wire Wire Line
	750  6900 1300 6900
Wire Wire Line
	750  7000 1300 7000
Wire Wire Line
	750  7100 1300 7100
Wire Wire Line
	750  7200 1300 7200
Wire Wire Line
	750  7300 1300 7300
Wire Wire Line
	750  7400 1300 7400
Wire Wire Line
	750  7500 1300 7500
Wire Wire Line
	750  7600 1300 7600
Wire Wire Line
	750  7700 1300 7700
Wire Wire Line
	2150 900  2250 900 
Wire Wire Line
	2250 900  2350 900 
Wire Wire Line
	2300 5550 2300 6000
Wire Wire Line
	2350 900  2450 900 
Wire Wire Line
	2400 5550 2400 6000
Wire Wire Line
	2400 6200 2950 6200
Wire Wire Line
	2400 6300 2950 6300
Wire Wire Line
	2400 6400 2950 6400
Wire Wire Line
	2400 6500 2950 6500
Wire Wire Line
	2400 6600 2950 6600
Wire Wire Line
	2400 6700 2950 6700
Wire Wire Line
	2400 6800 2950 6800
Wire Wire Line
	2400 6900 2950 6900
Wire Wire Line
	2400 7000 2950 7000
Wire Wire Line
	2400 7100 2950 7100
Wire Wire Line
	2400 7200 2950 7200
Wire Wire Line
	2400 7300 2950 7300
Wire Wire Line
	2400 7400 2950 7400
Wire Wire Line
	2400 7500 2950 7500
Wire Wire Line
	2400 7600 2950 7600
Wire Wire Line
	2400 7700 2950 7700
Wire Wire Line
	2450 900  2550 900 
Wire Wire Line
	2500 5550 2500 6000
Wire Wire Line
	2550 900  2650 900 
Wire Wire Line
	2600 5550 2600 6000
Wire Wire Line
	2650 800  2650 900 
Wire Wire Line
	2650 900  2750 900 
Wire Wire Line
	2750 900  2850 900 
Wire Wire Line
	2850 900  2950 900 
Wire Wire Line
	2950 900  3050 900 
Wire Wire Line
	2950 5850 2950 5550
Wire Wire Line
	3050 900  3150 900 
Wire Wire Line
	3050 5850 3050 5550
Wire Wire Line
	3100 1450 3550 1450
Wire Wire Line
	3100 1550 3550 1550
Wire Wire Line
	3100 1650 3550 1650
Wire Wire Line
	3100 1750 3550 1750
Wire Wire Line
	3100 1850 3550 1850
Wire Wire Line
	3100 1950 3550 1950
Wire Wire Line
	3100 2050 3550 2050
Wire Wire Line
	3100 2150 3550 2150
Wire Wire Line
	3100 2250 3550 2250
Wire Wire Line
	3100 2350 3550 2350
Wire Wire Line
	3100 2450 3550 2450
Wire Wire Line
	3100 2550 3550 2550
Wire Wire Line
	3100 2650 3550 2650
Wire Wire Line
	3100 2750 3550 2750
Wire Wire Line
	3100 2850 3550 2850
Wire Wire Line
	3100 2950 3550 2950
Wire Wire Line
	3100 3050 3550 3050
Wire Wire Line
	3100 3150 3550 3150
Wire Wire Line
	3100 3250 3550 3250
Wire Wire Line
	3100 3350 3550 3350
Wire Wire Line
	3100 3450 3550 3450
Wire Wire Line
	3100 3550 3550 3550
Wire Wire Line
	3100 3650 3550 3650
Wire Wire Line
	3100 3750 3550 3750
Wire Wire Line
	3150 600  3150 800 
Wire Wire Line
	3150 600  3250 600 
Wire Wire Line
	3150 800  3150 900 
Wire Wire Line
	3150 900  3250 900 
Wire Wire Line
	3150 5850 3150 5550
Wire Wire Line
	3250 5850 3250 5550
Wire Wire Line
	3300 800  3150 800 
Wire Wire Line
	3350 5850 3350 5550
Wire Wire Line
	3450 5850 3450 5550
Wire Wire Line
	3500 800  3700 800 
Wire Wire Line
	3500 900  3600 900 
Wire Wire Line
	3550 600  3700 600 
Wire Wire Line
	3550 5850 3550 5550
Wire Wire Line
	3600 900  3700 900 
Wire Wire Line
	3650 5850 3650 5550
Wire Wire Line
	3700 600  3700 800 
Wire Wire Line
	3700 800  3700 900 
Wire Wire Line
	3700 900  3800 900 
Wire Wire Line
	3750 5850 3750 5550
Wire Wire Line
	3800 900  3900 900 
Wire Wire Line
	3900 900  4000 900 
Wire Wire Line
	3950 5650 3950 5550
Wire Wire Line
	4000 900  4100 900 
Wire Wire Line
	4050 5650 4050 5550
Wire Wire Line
	4100 900  4200 900 
Wire Wire Line
	4200 900  4300 900 
Wire Wire Line
	4250 5650 4250 5550
Wire Wire Line
	4300 900  4400 900 
Wire Wire Line
	4350 5650 4350 5550
Wire Wire Line
	4400 900  4500 900 
Wire Wire Line
	4450 3150 5000 3150
Wire Wire Line
	4450 3250 5000 3250
Wire Wire Line
	4450 3350 5000 3350
Wire Wire Line
	4450 3450 5000 3450
Wire Wire Line
	4450 3550 5000 3550
Wire Wire Line
	4450 3650 5000 3650
Wire Wire Line
	4450 3750 5000 3750
Wire Wire Line
	4450 3850 5000 3850
Wire Wire Line
	4450 3950 5000 3950
Wire Wire Line
	4450 4050 5000 4050
Wire Wire Line
	4450 4150 5000 4150
Wire Wire Line
	4450 4250 5000 4250
Wire Wire Line
	4450 4350 5000 4350
Wire Wire Line
	4450 4450 5000 4450
Wire Wire Line
	4450 4550 5000 4550
Wire Wire Line
	4450 4650 5000 4650
Wire Wire Line
	4450 5650 4450 5550
Wire Wire Line
	4500 900  4600 900 
Wire Wire Line
	4600 800  4600 900 
Wire Wire Line
	4600 900  4700 900 
Wire Wire Line
	4600 1450 5000 1450
Wire Wire Line
	4600 1550 5000 1550
Wire Wire Line
	4600 1650 5000 1650
Wire Wire Line
	4600 1750 5000 1750
Wire Wire Line
	4600 1850 5000 1850
Wire Wire Line
	4600 1950 5000 1950
Wire Wire Line
	4600 2050 5000 2050
Wire Wire Line
	4600 2150 5000 2150
Wire Wire Line
	4600 2250 5000 2250
Wire Wire Line
	4600 2350 5000 2350
Wire Wire Line
	4600 2450 5000 2450
Wire Wire Line
	4600 2550 5000 2550
Wire Wire Line
	4600 2650 5000 2650
Wire Wire Line
	4600 2750 5000 2750
Wire Wire Line
	4600 2850 5000 2850
Wire Wire Line
	4600 2950 5000 2950
Wire Wire Line
	4700 900  4800 900 
Wire Wire Line
	4800 900  4900 900 
Wire Wire Line
	4900 900  5000 900 
Wire Wire Line
	5000 900  5100 900 
Wire Wire Line
	5100 900  5200 900 
Wire Wire Line
	5200 900  5300 900 
Wire Wire Line
	5300 900  5400 900 
Wire Wire Line
	5400 900  5500 900 
Wire Wire Line
	5500 900  5600 900 
Wire Wire Line
	5600 900  5700 900 
Wire Wire Line
	5950 900  6000 900 
Wire Wire Line
	6000 800  6000 900 
Wire Wire Line
	6000 900  6050 900 
Wire Wire Line
	6250 5650 6250 5550
Wire Wire Line
	6250 5850 6250 5950
Wire Wire Line
	6250 5950 6150 5950
Wire Wire Line
	6350 5550 6350 5650
Wire Wire Line
	6350 5650 7050 5650
Wire Wire Line
	6450 5550 6850 5550
Wire Wire Line
	6650 5750 7050 5750
Wire Wire Line
	6650 5850 7050 5850
Wire Wire Line
	6750 1350 7300 1350
Wire Wire Line
	6750 1450 7300 1450
Wire Wire Line
	6750 1550 7300 1550
Wire Wire Line
	6750 1650 7300 1650
Wire Wire Line
	6750 1750 7300 1750
Wire Wire Line
	6750 1850 7300 1850
Wire Wire Line
	6750 1950 7300 1950
Wire Wire Line
	6750 2050 7300 2050
Wire Wire Line
	6750 2150 7300 2150
Wire Wire Line
	6750 2250 7300 2250
Wire Wire Line
	6750 2350 7300 2350
Wire Wire Line
	6750 2450 7300 2450
Wire Wire Line
	6750 2550 7300 2550
Wire Wire Line
	6750 2650 7300 2650
Wire Wire Line
	6750 2750 7300 2750
Wire Wire Line
	6750 2850 7300 2850
Wire Wire Line
	6750 2950 7300 2950
Wire Wire Line
	6750 3050 7300 3050
Wire Wire Line
	6750 3150 7300 3150
Wire Wire Line
	6750 3250 7300 3250
Wire Wire Line
	6750 3350 7300 3350
Wire Wire Line
	6750 3450 7300 3450
Wire Wire Line
	6750 3550 7300 3550
Wire Wire Line
	6750 3650 7300 3650
Wire Wire Line
	6750 3750 7300 3750
Wire Wire Line
	6750 3850 7300 3850
Wire Wire Line
	6750 3950 7300 3950
Wire Wire Line
	6750 4050 7300 4050
Wire Wire Line
	6750 4150 7300 4150
Wire Wire Line
	6750 4250 7300 4250
Wire Wire Line
	6750 4350 7300 4350
Wire Wire Line
	6750 4450 7300 4450
Wire Wire Line
	6750 4600 6900 4600
Wire Wire Line
	6750 4700 6900 4700
Wire Wire Line
	6750 4850 6900 4850
Wire Wire Line
	6750 5000 6900 5000
Wire Wire Line
	8450 4700 8850 4700
Wire Wire Line
	8450 4800 8850 4800
Wire Wire Line
	8450 4900 8850 4900
Wire Wire Line
	8450 5000 8850 5000
Wire Wire Line
	8450 5100 8850 5100
Wire Wire Line
	8450 5200 8850 5200
Wire Wire Line
	8450 5300 8850 5300
Wire Wire Line
	8450 5400 8850 5400
Wire Wire Line
	8450 5500 8850 5500
Wire Wire Line
	8450 5600 8850 5600
Wire Wire Line
	8450 5700 8850 5700
Wire Wire Line
	8450 5800 8850 5800
Wire Wire Line
	8450 5900 8850 5900
Wire Wire Line
	8450 6000 8850 6000
Wire Wire Line
	8450 6100 8850 6100
Wire Wire Line
	8450 6200 8850 6200
Wire Wire Line
	8800 1100 9450 1100
Wire Wire Line
	8800 1200 9450 1200
Wire Wire Line
	8800 1300 9450 1300
Wire Wire Line
	8800 1400 9450 1400
Wire Wire Line
	8800 1500 9450 1500
Wire Wire Line
	8800 1600 9450 1600
Wire Wire Line
	8800 1700 9450 1700
Wire Wire Line
	8800 1800 9450 1800
Wire Wire Line
	8800 3150 9450 3150
Wire Wire Line
	8800 3250 9450 3250
Wire Wire Line
	8800 3350 9450 3350
Wire Wire Line
	8800 3450 9450 3450
Wire Wire Line
	8800 3550 9450 3550
Wire Wire Line
	8800 3650 9450 3650
Wire Wire Line
	8800 3750 9450 3750
Wire Wire Line
	8800 3850 9450 3850
Wire Wire Line
	9600 800  9950 800 
Wire Wire Line
	9600 2850 9950 2850
Wire Wire Line
	9800 5350 10300 5350
Wire Wire Line
	9800 5500 10200 5500
Wire Wire Line
	9800 5600 10200 5600
Wire Wire Line
	9800 5700 10200 5700
Wire Wire Line
	9800 5800 10200 5800
Wire Wire Line
	9800 5900 10200 5900
Wire Wire Line
	9800 6000 10200 6000
Wire Wire Line
	9800 6100 10200 6100
Wire Wire Line
	9800 6200 10200 6200
Wire Wire Line
	9950 2400 10450 2400
Wire Wire Line
	9950 4450 10450 4450
Wire Wire Line
	10250 800  9950 800 
Wire Wire Line
	10450 1100 11000 1100
Wire Wire Line
	10450 1200 11000 1200
Wire Wire Line
	10450 1300 11000 1300
Wire Wire Line
	10450 1400 11000 1400
Wire Wire Line
	10450 1500 11000 1500
Wire Wire Line
	10450 1600 11000 1600
Wire Wire Line
	10450 1700 11000 1700
Wire Wire Line
	10450 1800 11000 1800
Wire Wire Line
	10450 2100 10450 2000
Wire Wire Line
	10450 2400 10450 2100
Wire Wire Line
	10450 3150 11000 3150
Wire Wire Line
	10450 3250 11000 3250
Wire Wire Line
	10450 3350 11000 3350
Wire Wire Line
	10450 3450 11000 3450
Wire Wire Line
	10450 3550 11000 3550
Wire Wire Line
	10450 3650 11000 3650
Wire Wire Line
	10450 3750 11000 3750
Wire Wire Line
	10450 3850 11000 3850
Wire Wire Line
	10450 4150 10450 4050
Wire Wire Line
	10450 4450 10450 4150
Wire Wire Line
	10500 5350 10600 5350
Wire Wire Line
	10600 5350 10600 5500
Wire Bus Line
	650  1100 650  1300
Wire Bus Line
	650  1300 650  1500
Wire Bus Line
	650  1500 650  1700
Wire Bus Line
	650  1700 650  1900
Wire Bus Line
	650  1900 650  2100
Wire Bus Line
	650  2100 650  2300
Wire Bus Line
	650  2300 650  2500
Wire Bus Line
	650  2500 650  2700
Wire Bus Line
	650  2700 650  2900
Wire Bus Line
	650  2900 650  3100
Wire Bus Line
	650  3100 650  3300
Wire Bus Line
	650  3300 650  3400
Wire Bus Line
	650  3800 650  4000
Wire Bus Line
	650  4000 650  4200
Wire Bus Line
	650  4200 650  4400
Wire Bus Line
	650  4400 650  4600
Wire Bus Line
	650  4600 650  4800
Wire Bus Line
	650  4800 650  5000
Wire Bus Line
	650  5000 650  5200
Wire Bus Line
	650  5200 650  5450
Wire Bus Line
	700  1100 650  1100
Wire Bus Line
	2000 5950 1900 5950
Wire Bus Line
	2000 6100 2000 5950
Wire Bus Line
	2000 6100 2300 6100
Wire Bus Line
	2300 6100 2500 6100
Wire Bus Line
	3050 5950 3250 5950
Wire Bus Line
	3250 5950 3450 5950
Wire Bus Line
	3450 5950 3650 5950
Wire Bus Line
	3600 4750 4350 4750
Wire Bus Line
	3650 1550 3650 1750
Wire Bus Line
	3650 1750 3650 1950
Wire Bus Line
	3650 1950 3650 2150
Wire Bus Line
	3650 2150 3650 2350
Wire Bus Line
	3650 2350 3650 2550
Wire Bus Line
	3650 2550 3650 2750
Wire Bus Line
	3650 2750 3650 2950
Wire Bus Line
	3650 2950 3650 3150
Wire Bus Line
	3650 3150 3650 3250
Wire Bus Line
	3650 3250 3650 3450
Wire Bus Line
	3650 3450 3650 3650
Wire Bus Line
	3650 3650 3650 3750
Wire Bus Line
	3650 3750 3650 4100
Wire Bus Line
	3650 4100 3600 4100
Wire Bus Line
	3650 5950 3850 5950
Wire Bus Line
	3850 5950 3850 6150
Wire Bus Line
	4350 3250 4350 3450
Wire Bus Line
	4350 3450 4350 3650
Wire Bus Line
	4350 3650 4350 3850
Wire Bus Line
	4350 3850 4350 4050
Wire Bus Line
	4350 4050 4350 4250
Wire Bus Line
	4350 4250 4350 4350
Wire Bus Line
	4350 4350 4350 4550
Wire Bus Line
	4350 4550 4350 4750
Wire Bus Line
	4500 1350 4400 1350
Wire Bus Line
	4500 1350 4500 1550
Wire Bus Line
	4500 1550 4500 1750
Wire Bus Line
	4500 1750 4500 1950
Wire Bus Line
	4500 1950 4500 2150
Wire Bus Line
	4500 2150 4500 2350
Wire Bus Line
	4500 2350 4500 2450
Wire Bus Line
	4500 2450 4500 2650
Wire Bus Line
	4500 2650 4500 2850
Wire Bus Line
	7400 1150 7400 1350
Wire Bus Line
	7400 1150 7600 1150
Wire Bus Line
	7400 1350 7400 1550
Wire Bus Line
	7400 1550 7400 1650
Wire Bus Line
	7400 1650 7400 1850
Wire Bus Line
	7400 1850 7400 2050
Wire Bus Line
	7400 2050 7400 2250
Wire Bus Line
	7400 2250 7400 2350
Wire Bus Line
	7400 2350 7400 2550
Wire Bus Line
	7400 2550 7400 2750
Wire Bus Line
	7400 2750 7400 2850
Wire Bus Line
	7400 2850 7400 3050
Wire Bus Line
	7400 3050 7400 3250
Wire Bus Line
	7400 3250 7400 3450
Wire Bus Line
	7400 3450 7400 3650
Wire Bus Line
	7400 3650 7400 3850
Wire Bus Line
	7400 3850 7400 4050
Wire Bus Line
	7400 4050 7400 4150
Wire Bus Line
	7400 4150 7400 4350
Wire Bus Line
	7950 800  8700 800 
Wire Bus Line
	8700 800  8700 1000
Wire Bus Line
	8700 1000 8700 1200
Wire Bus Line
	8700 1200 8700 1400
Wire Bus Line
	8700 1400 8700 1600
Wire Bus Line
	8700 1600 8700 3050
Wire Bus Line
	8700 3050 8700 3250
Wire Bus Line
	8700 3250 8700 3450
Wire Bus Line
	8700 3450 8700 3550
Wire Bus Line
	8700 3550 8700 3750
Wire Bus Line
	11100 1200 11100 1300
Wire Bus Line
	11100 1300 11100 1500
Wire Bus Line
	11100 1500 11100 1700
Wire Bus Line
	11100 1700 11100 1900
Wire Bus Line
	11100 1900 11100 3350
Wire Bus Line
	11100 3350 11100 3550
Wire Bus Line
	11100 3550 11100 3750
Wire Bus Line
	11100 3750 11100 3950
Wire Bus Line
	11100 3950 11100 4600
Wire Bus Line
	11100 4600 10950 4600
Text Label 800  1300 0    50   ~ 0
CPU-ADDR1
Text Label 800  1400 0    50   ~ 0
CPU-ADDR2
Text Label 800  1500 0    50   ~ 0
CPU-ADDR3
Text Label 800  1600 0    50   ~ 0
CPU-ADDR4
Text Label 800  1700 0    50   ~ 0
CPU-ADDR5
Text Label 800  1800 0    50   ~ 0
CPU-ADDR6
Text Label 800  1900 0    50   ~ 0
CPU-ADDR7
Text Label 800  2000 0    50   ~ 0
CPU-ADDR8
Text Label 800  2100 0    50   ~ 0
CPU-ADDR9
Text Label 800  2200 0    50   ~ 0
CPU-ADDR10
Text Label 800  2300 0    50   ~ 0
CPU-ADDR11
Text Label 800  2400 0    50   ~ 0
CPU-ADDR12
Text Label 800  2500 0    50   ~ 0
CPU-ADDR13
Text Label 800  2600 0    50   ~ 0
CPU-ADDR14
Text Label 800  2700 0    50   ~ 0
CPU-ADDR15
Text Label 800  2800 0    50   ~ 0
CPU-ADDR16
Text Label 800  2900 0    50   ~ 0
CPU-ADDR17
Text Label 800  3000 0    50   ~ 0
CPU-ADDR18
Text Label 800  3100 0    50   ~ 0
CPU-ADDR19
Text Label 800  3200 0    50   ~ 0
CPU-ADDR20
Text Label 800  3300 0    50   ~ 0
CPU-ADDR21
Text Label 800  3400 0    50   ~ 0
CPU-ADDR22
Text Label 800  3500 0    50   ~ 0
CPU-ADDR23
Text Label 800  3700 0    50   ~ 0
CPU-DATA0
Text Label 800  3800 0    50   ~ 0
CPU-DATA1
Text Label 800  3900 0    50   ~ 0
CPU-DATA2
Text Label 800  4000 0    50   ~ 0
CPU-DATA3
Text Label 800  4100 0    50   ~ 0
CPU-DATA4
Text Label 800  4200 0    50   ~ 0
CPU-DATA5
Text Label 800  4300 0    50   ~ 0
CPU-DATA6
Text Label 800  4400 0    50   ~ 0
CPU-DATA7
Text Label 800  4500 0    50   ~ 0
CPU-DATA8
Text Label 800  4600 0    50   ~ 0
CPU-DATA9
Text Label 800  4700 0    50   ~ 0
CPU-DATA10
Text Label 800  4800 0    50   ~ 0
CPU-DATA11
Text Label 800  4900 0    50   ~ 0
CPU-DATA12
Text Label 800  5000 0    50   ~ 0
CPU-DATA13
Text Label 800  5100 0    50   ~ 0
CPU-DATA14
Text Label 800  5200 0    50   ~ 0
CPU-DATA15
Text Label 800  6200 0    50   ~ 0
GFX-BUS0
Text Label 800  6300 0    50   ~ 0
GFX-BUS1
Text Label 800  6400 0    50   ~ 0
GFX-BUS2
Text Label 800  6500 0    50   ~ 0
GFX-BUS3
Text Label 800  6600 0    50   ~ 0
GFX-BUS4
Text Label 800  6700 0    50   ~ 0
GFX-BUS5
Text Label 800  6800 0    50   ~ 0
GFX-BUS6
Text Label 800  6900 0    50   ~ 0
GFX-BUS7
Text Label 800  7000 0    50   ~ 0
GFX-BUS8
Text Label 800  7100 0    50   ~ 0
GFX-BUS9
Text Label 800  7200 0    50   ~ 0
GFX-BUS10
Text Label 800  7300 0    50   ~ 0
GFX-BUS11
Text Label 800  7400 0    50   ~ 0
GFX-BUS12
Text Label 800  7500 0    50   ~ 0
GFX-BUS13
Text Label 800  7600 0    50   ~ 0
GFX-BUS14
Text Label 800  7700 0    50   ~ 0
GFX-BUS15
Text Label 2300 5950 1    50   ~ 0
SECURITY2
Text Label 2400 5950 1    50   ~ 0
SECURITY3
Text Label 2450 6200 0    50   ~ 0
GFX-BUS16
Text Label 2450 6300 0    50   ~ 0
GFX-BUS17
Text Label 2450 6400 0    50   ~ 0
GFX-BUS18
Text Label 2450 6500 0    50   ~ 0
GFX-BUS19
Text Label 2450 6600 0    50   ~ 0
GFX-BUS20
Text Label 2450 6700 0    50   ~ 0
GFX-BUS21
Text Label 2450 6800 0    50   ~ 0
GFX-BUS22
Text Label 2450 6900 0    50   ~ 0
GFX-BUS23
Text Label 2450 7000 0    50   ~ 0
GFX-BUS24
Text Label 2450 7100 0    50   ~ 0
GFX-BUS25
Text Label 2450 7200 0    50   ~ 0
GFX-BUS26
Text Label 2450 7300 0    50   ~ 0
GFX-BUS27
Text Label 2450 7400 0    50   ~ 0
GFX-BUS28
Text Label 2450 7500 0    50   ~ 0
GFX-BUS29
Text Label 2450 7600 0    50   ~ 0
GFX-BUS30
Text Label 2450 7700 0    50   ~ 0
GFX-BUS31
Text Label 2500 5950 1    50   ~ 0
SECURITY4
Text Label 2600 5950 1    50   ~ 0
SECURITY5
Text Label 2950 5800 1    50   ~ 0
CIF26
Text Label 3050 5800 1    50   ~ 0
CIF27
Text Label 3150 1450 0    50   ~ 0
CIF-A0
Text Label 3150 1550 0    50   ~ 0
CIF-A1
Text Label 3150 1650 0    50   ~ 0
CIF-A2
Text Label 3150 1750 0    50   ~ 0
CIF-A3
Text Label 3150 1850 0    50   ~ 0
CIF-A4
Text Label 3150 1950 0    50   ~ 0
CIF-A5
Text Label 3150 2050 0    50   ~ 0
CIF-A6
Text Label 3150 2150 0    50   ~ 0
CIF-A7
Text Label 3150 2250 0    50   ~ 0
CIF-A8
Text Label 3150 2350 0    50   ~ 0
CIF-A9
Text Label 3150 2450 0    50   ~ 0
CIF-A10
Text Label 3150 2550 0    50   ~ 0
CIF-A11
Text Label 3150 2650 0    50   ~ 0
CIF-A12
Text Label 3150 2750 0    50   ~ 0
CIF-A13
Text Label 3150 2850 0    50   ~ 0
CIF-A14
Text Label 3150 2950 0    50   ~ 0
CIF-A15
Text Label 3150 3050 0    50   ~ 0
CIF-A16
Text Label 3150 3150 0    50   ~ 0
CIF-A17
Text Label 3150 3250 0    50   ~ 0
CIF-A18
Text Label 3150 3350 0    50   ~ 0
CIF-A19
Text Label 3150 3450 0    50   ~ 0
CIF-A20
Text Label 3150 3550 0    50   ~ 0
CIF-A21
Text Label 3150 3650 0    50   ~ 0
CIF-A22
Text Label 3150 3750 0    50   ~ 0
CIF-A23
Text Label 3150 5800 1    50   ~ 0
CIF28
Text Label 3250 5800 1    50   ~ 0
CIF29
Text Label 3350 5800 1    50   ~ 0
CIF31
Text Label 3450 5800 1    50   ~ 0
CIF32
Text Label 3550 5800 1    50   ~ 0
CIF33
Text Label 3600 4750 0    50   ~ 0
GFX-OUT-A[0..15]
Text Label 3650 3950 2    50   ~ 0
CIF-A[0..23]
Text Label 3650 5800 1    50   ~ 0
CIF34
Text Label 3750 5800 1    50   ~ 0
CIF35
Text Label 4450 3150 0    50   ~ 0
GFX-OUT-A0
Text Label 4450 3250 0    50   ~ 0
GFX-OUT-A1
Text Label 4450 3350 0    50   ~ 0
GFX-OUT-A2
Text Label 4450 3450 0    50   ~ 0
GFX-OUT-A3
Text Label 4450 3550 0    50   ~ 0
GFX-OUT-A4
Text Label 4450 3650 0    50   ~ 0
GFX-OUT-A5
Text Label 4450 3750 0    50   ~ 0
GFX-OUT-A6
Text Label 4450 3850 0    50   ~ 0
GFX-OUT-A7
Text Label 4450 3950 0    50   ~ 0
GFX-OUT-A8
Text Label 4450 4050 0    50   ~ 0
GFX-OUT-A9
Text Label 4450 4150 0    50   ~ 0
GFX-OUT-A10
Text Label 4450 4250 0    50   ~ 0
GFX-OUT-A11
Text Label 4450 4350 0    50   ~ 0
GFX-OUT-A12
Text Label 4450 4450 0    50   ~ 0
GFX-OUT-A13
Text Label 4450 4550 0    50   ~ 0
GFX-OUT-A14
Text Label 4450 4650 0    50   ~ 0
GFX-OUT-A15
Text Label 4500 2400 2    50   ~ 0
CIF-D[0..15]
Text Label 4650 1450 0    50   ~ 0
CIF-D0
Text Label 4650 1550 0    50   ~ 0
CIF-D1
Text Label 4650 1650 0    50   ~ 0
CIF-D2
Text Label 4650 1750 0    50   ~ 0
CIF-D3
Text Label 4650 1850 0    50   ~ 0
CIF-D4
Text Label 4650 1950 0    50   ~ 0
CIF-D5
Text Label 4650 2050 0    50   ~ 0
CIF-D6
Text Label 4650 2150 0    50   ~ 0
CIF-D7
Text Label 4650 2250 0    50   ~ 0
CIF-D8
Text Label 4650 2350 0    50   ~ 0
CIF-D9
Text Label 4650 2450 0    50   ~ 0
CIF-D10
Text Label 4650 2550 0    50   ~ 0
CIF-D11
Text Label 4650 2650 0    50   ~ 0
CIF-D12
Text Label 4650 2750 0    50   ~ 0
CIF-D13
Text Label 4650 2850 0    50   ~ 0
CIF-D14
Text Label 4650 2950 0    50   ~ 0
CIF-D15
Text Label 6500 5550 0    50   ~ 0
SPA102
Text Label 6650 5750 0    50   ~ 0
SECURITY5
Text Label 6750 5850 0    50   ~ 0
CIF26
Text Label 6800 1350 0    50   ~ 0
GFX-BUS31
Text Label 6800 1450 0    50   ~ 0
GFX-BUS30
Text Label 6800 1550 0    50   ~ 0
GFX-BUS29
Text Label 6800 1650 0    50   ~ 0
GFX-BUS28
Text Label 6800 1750 0    50   ~ 0
GFX-BUS27
Text Label 6800 1850 0    50   ~ 0
GFX-BUS26
Text Label 6800 1950 0    50   ~ 0
GFX-BUS25
Text Label 6800 2050 0    50   ~ 0
GFX-BUS24
Text Label 6800 2150 0    50   ~ 0
GFX-BUS23
Text Label 6800 2250 0    50   ~ 0
GFX-BUS22
Text Label 6800 2350 0    50   ~ 0
GFX-BUS21
Text Label 6800 2450 0    50   ~ 0
GFX-BUS20
Text Label 6800 2550 0    50   ~ 0
GFX-BUS19
Text Label 6800 2650 0    50   ~ 0
GFX-BUS18
Text Label 6800 2750 0    50   ~ 0
GFX-BUS17
Text Label 6800 2850 0    50   ~ 0
GFX-BUS16
Text Label 6800 2950 0    50   ~ 0
GFX-BUS15
Text Label 6800 3050 0    50   ~ 0
GFX-BUS14
Text Label 6800 3150 0    50   ~ 0
GFX-BUS13
Text Label 6800 3250 0    50   ~ 0
GFX-BUS12
Text Label 6800 3350 0    50   ~ 0
GFX-BUS11
Text Label 6800 3450 0    50   ~ 0
GFX-BUS10
Text Label 6800 3550 0    50   ~ 0
GFX-BUS9
Text Label 6800 3650 0    50   ~ 0
GFX-BUS8
Text Label 6800 3750 0    50   ~ 0
GFX-BUS7
Text Label 6800 3850 0    50   ~ 0
GFX-BUS6
Text Label 6800 3950 0    50   ~ 0
GFX-BUS5
Text Label 6800 4050 0    50   ~ 0
GFX-BUS4
Text Label 6800 4150 0    50   ~ 0
GFX-BUS3
Text Label 6800 4250 0    50   ~ 0
GFX-BUS2
Text Label 6800 4350 0    50   ~ 0
GFX-BUS1
Text Label 6800 4450 0    50   ~ 0
GFX-BUS0
Text Label 8000 800  0    50   ~ 0
GFX-OUT-A[0..15]
Text Label 8500 4700 0    50   ~ 0
CIF-A8
Text Label 8500 4800 0    50   ~ 0
CIF-A9
Text Label 8500 4900 0    50   ~ 0
CIF-A10
Text Label 8500 5000 0    50   ~ 0
CIF-A11
Text Label 8500 5100 0    50   ~ 0
CIF-A12
Text Label 8500 5200 0    50   ~ 0
CIF-A13
Text Label 8500 5300 0    50   ~ 0
CIF-A14
Text Label 8500 5400 0    50   ~ 0
CIF-A15
Text Label 8500 5500 0    50   ~ 0
CIF-A16
Text Label 8500 5600 0    50   ~ 0
CIF-A17
Text Label 8500 5700 0    50   ~ 0
CIF-A18
Text Label 8500 5800 0    50   ~ 0
CIF-A19
Text Label 8500 5900 0    50   ~ 0
CIF-A20
Text Label 8500 6000 0    50   ~ 0
CIF-A21
Text Label 8500 6100 0    50   ~ 0
CIF-A22
Text Label 8500 6200 0    50   ~ 0
CIF-A23
Text Label 8850 1100 0    50   ~ 0
GFX-OUT-A0
Text Label 8850 1200 0    50   ~ 0
GFX-OUT-A2
Text Label 8850 1300 0    50   ~ 0
GFX-OUT-A4
Text Label 8850 1400 0    50   ~ 0
GFX-OUT-A6
Text Label 8850 1500 0    50   ~ 0
GFX-OUT-A1
Text Label 8850 1600 0    50   ~ 0
GFX-OUT-A3
Text Label 8850 1700 0    50   ~ 0
GFX-OUT-A5
Text Label 8850 1800 0    50   ~ 0
GFX-OUT-A7
Text Label 8850 3150 0    50   ~ 0
GFX-OUT-A8
Text Label 8850 3250 0    50   ~ 0
GFX-OUT-A9
Text Label 8850 3350 0    50   ~ 0
GFX-OUT-A10
Text Label 8850 3450 0    50   ~ 0
GFX-OUT-A11
Text Label 8850 3550 0    50   ~ 0
GFX-OUT-A12
Text Label 8850 3650 0    50   ~ 0
GFX-OUT-A13
Text Label 8850 3750 0    50   ~ 0
GFX-OUT-A14
Text Label 8850 3850 0    50   ~ 0
GFX-OUT-A15
Text Label 9850 5350 0    50   ~ 0
CIF-A0
Text Label 9850 5500 0    50   ~ 0
CIF-A1
Text Label 9850 5600 0    50   ~ 0
CIF-A2
Text Label 9850 5700 0    50   ~ 0
CIF-A3
Text Label 9850 5800 0    50   ~ 0
CIF-A4
Text Label 9850 5900 0    50   ~ 0
CIF-A5
Text Label 9850 6000 0    50   ~ 0
CIF-A6
Text Label 9850 6100 0    50   ~ 0
CIF-A7
Text Label 9850 6200 0    50   ~ 0
SPA102
Text Label 10500 1100 0    50   ~ 0
GFX-OUT0
Text Label 10500 1200 0    50   ~ 0
GFX-OUT2
Text Label 10500 1300 0    50   ~ 0
GFX-OUT4
Text Label 10500 1400 0    50   ~ 0
GFX-OUT6
Text Label 10500 1500 0    50   ~ 0
GFX-OUT1
Text Label 10500 1600 0    50   ~ 0
GFX-OUT3
Text Label 10500 1700 0    50   ~ 0
GFX-OUT5
Text Label 10500 1800 0    50   ~ 0
GFX-OUT7
Text Label 10500 3150 0    50   ~ 0
GFX-OUT8
Text Label 10500 3250 0    50   ~ 0
GFX-OUT9
Text Label 10500 3350 0    50   ~ 0
GFX-OUT10
Text Label 10500 3450 0    50   ~ 0
GFX-OUT11
Text Label 10500 3550 0    50   ~ 0
GFX-OUT12
Text Label 10500 3650 0    50   ~ 0
GFX-OUT13
Text Label 10500 3750 0    50   ~ 0
GFX-OUT14
Text Label 10500 3850 0    50   ~ 0
GFX-OUT15
Text HLabel 650  5450 3    50   Input ~ 0
CPU-DATA[0..15]
Text HLabel 700  1100 2    50   Output ~ 0
CPU-ADDR[1..23]
Text HLabel 1900 5950 0    50   Input ~ 0
SECURITY[2..5]
Text HLabel 3600 4100 0    50   BiDi ~ 0
CIF-BUS-A[0..23]
Text HLabel 3850 6150 3    50   Input ~ 0
CIF[26..35]
Text HLabel 3950 5650 3    50   BiDi ~ 0
CIF133
Text HLabel 4050 5650 3    50   BiDi ~ 0
CIF22
Text HLabel 4250 5650 3    50   BiDi ~ 0
UK-MAIN1
Text HLabel 4350 5650 3    50   BiDi ~ 0
UK-MIF154
Text HLabel 4400 1350 0    50   BiDi ~ 0
CIF-BUS-D[0..15]
Text HLabel 4450 5650 3    50   BiDi ~ 0
UK-MAIN2
Text HLabel 6900 4600 2    50   Output ~ 0
GFX-DATA-ENABLE
Text HLabel 6900 4700 2    50   Output ~ 0
GFX-ADDR-ENABLE
Text HLabel 6900 4850 2    50   Input ~ 0
CLK
Text HLabel 6900 5000 2    50   Input ~ 0
ENABLE
Text HLabel 7600 1150 2    50   BiDi ~ 0
GFX-BUS[0..31]
Text HLabel 10950 4600 0    50   Output ~ 0
GFX-OUT[0..15]
$Comp
L power:VDD #PWR?
U 1 1 5E594D07
P 1700 6200
AR Path="/5DC1E7F0/5E594D07" Ref="#PWR?"  Part="1" 
AR Path="/5D9F70E5/5E594D07" Ref="#PWR0292"  Part="1" 
F 0 "#PWR0292" H 1700 6050 50  0001 C CNN
F 1 "VDD" H 1800 6200 50  0000 C BNN
F 2 "" H 1700 6200 50  0001 C CNN
F 3 "" H 1700 6200 50  0001 C CNN
	1    1700 6200
	1    0    0    -1  
$EndComp
$Comp
L power:VDD #PWR?
U 1 1 5E504A5F
P 1700 7000
AR Path="/5DC1E7F0/5E504A5F" Ref="#PWR?"  Part="1" 
AR Path="/5D9F70E5/5E504A5F" Ref="#PWR0291"  Part="1" 
F 0 "#PWR0291" H 1700 6850 50  0001 C CNN
F 1 "VDD" H 1600 7000 50  0000 C BNN
F 2 "" H 1700 7000 50  0001 C CNN
F 3 "" H 1700 7000 50  0001 C CNN
	1    1700 7000
	-1   0    0    -1  
$EndComp
$Comp
L power:VDD #PWR?
U 1 1 5D9FF3D7
P 2650 800
AR Path="/5DC1E7F0/5D9FF3D7" Ref="#PWR?"  Part="1" 
AR Path="/5D9F70E5/5D9FF3D7" Ref="#PWR0279"  Part="1" 
F 0 "#PWR0279" H 2650 650 50  0001 C CNN
F 1 "VDD" H 2667 973 50  0000 C CNN
F 2 "" H 2650 800 50  0001 C CNN
F 3 "" H 2650 800 50  0001 C CNN
	1    2650 800 
	-1   0    0    -1  
$EndComp
$Comp
L power:VDD #PWR?
U 1 1 5E5BE12E
P 3350 6200
AR Path="/5DC1E7F0/5E5BE12E" Ref="#PWR?"  Part="1" 
AR Path="/5D9F70E5/5E5BE12E" Ref="#PWR0294"  Part="1" 
F 0 "#PWR0294" H 3350 6050 50  0001 C CNN
F 1 "VDD" H 3450 6200 50  0000 C BNN
F 2 "" H 3350 6200 50  0001 C CNN
F 3 "" H 3350 6200 50  0001 C CNN
	1    3350 6200
	1    0    0    -1  
$EndComp
$Comp
L power:VDD #PWR?
U 1 1 5E5BE128
P 3350 7000
AR Path="/5DC1E7F0/5E5BE128" Ref="#PWR?"  Part="1" 
AR Path="/5D9F70E5/5E5BE128" Ref="#PWR0293"  Part="1" 
F 0 "#PWR0293" H 3350 6850 50  0001 C CNN
F 1 "VDD" H 3450 7000 50  0000 C BNN
F 2 "" H 3350 7000 50  0001 C CNN
F 3 "" H 3350 7000 50  0001 C CNN
	1    3350 7000
	1    0    0    -1  
$EndComp
$Comp
L power:VCC #PWR0287
U 1 1 5E193F32
P 5350 5950
F 0 "#PWR0287" H 5350 5800 50  0001 C CNN
F 1 "VCC" H 5367 6123 50  0000 C CNN
F 2 "" H 5350 5950 50  0001 C CNN
F 3 "" H 5350 5950 50  0001 C CNN
	1    5350 5950
	-1   0    0    1   
$EndComp
$Comp
L power:VCC #PWR0281
U 1 1 5DA06ACB
P 6000 800
F 0 "#PWR0281" H 6000 650 50  0001 C CNN
F 1 "VCC" H 6017 973 50  0000 C CNN
F 2 "" H 6000 800 50  0001 C CNN
F 3 "" H 6000 800 50  0001 C CNN
	1    6000 800 
	1    0    0    -1  
$EndComp
$Comp
L power:VCC #PWR0288
U 1 1 5E1DD96D
P 6150 5950
F 0 "#PWR0288" H 6150 5800 50  0001 C CNN
F 1 "VCC" H 6167 6123 50  0000 C CNN
F 2 "" H 6150 5950 50  0001 C CNN
F 3 "" H 6150 5950 50  0001 C CNN
	1    6150 5950
	-1   0    0    1   
$EndComp
$Comp
L power:VCC #PWR0295
U 1 1 5E6D2C48
P 7450 5150
F 0 "#PWR0295" H 7450 5000 50  0001 C CNN
F 1 "VCC" H 7467 5323 50  0000 C CNN
F 2 "" H 7450 5150 50  0001 C CNN
F 3 "" H 7450 5150 50  0001 C CNN
	1    7450 5150
	-1   0    0    -1  
$EndComp
$Comp
L power:VCC #PWR0290
U 1 1 5E3DDAC2
P 9250 4700
F 0 "#PWR0290" H 9250 4550 50  0001 C CNN
F 1 "VCC" H 9267 4873 50  0000 C CNN
F 2 "" H 9250 4700 50  0001 C CNN
F 3 "" H 9250 4700 50  0001 C CNN
	1    9250 4700
	-1   0    0    -1  
$EndComp
$Comp
L power:VCC #PWR0289
U 1 1 5E3AF7AE
P 9250 5500
F 0 "#PWR0289" H 9250 5350 50  0001 C CNN
F 1 "VCC" H 9150 5550 50  0000 C CNN
F 2 "" H 9250 5500 50  0001 C CNN
F 3 "" H 9250 5500 50  0001 C CNN
	1    9250 5500
	-1   0    0    -1  
$EndComp
$Comp
L power:VCC #PWR?
U 1 1 5DAFC386
P 9600 800
AR Path="/635BEEB0/5DAFC386" Ref="#PWR?"  Part="1" 
AR Path="/5DAFC386" Ref="#PWR?"  Part="1" 
AR Path="/5DC1E7F0/5DAFC386" Ref="#PWR?"  Part="1" 
AR Path="/5D9F70E5/5DAFC386" Ref="#PWR0283"  Part="1" 
F 0 "#PWR0283" H 9600 650 50  0001 C CNN
F 1 "VCC" V 9618 928 50  0000 L CNN
F 2 "" H 9600 800 50  0001 C CNN
F 3 "" H 9600 800 50  0001 C CNN
	1    9600 800 
	0    -1   -1   0   
$EndComp
$Comp
L power:VCC #PWR?
U 1 1 5DB67C94
P 9600 2850
AR Path="/635BEEB0/5DB67C94" Ref="#PWR?"  Part="1" 
AR Path="/5DB67C94" Ref="#PWR?"  Part="1" 
AR Path="/5DC1E7F0/5DB67C94" Ref="#PWR?"  Part="1" 
AR Path="/5D9F70E5/5DB67C94" Ref="#PWR0286"  Part="1" 
F 0 "#PWR0286" H 9600 2700 50  0001 C CNN
F 1 "VCC" V 9618 2978 50  0000 L CNN
F 2 "" H 9600 2850 50  0001 C CNN
F 3 "" H 9600 2850 50  0001 C CNN
	1    9600 2850
	0    -1   -1   0   
$EndComp
$Comp
L power:VCC #PWR0296
U 1 1 5E7228FA
P 10600 5350
F 0 "#PWR0296" H 10600 5200 50  0001 C CNN
F 1 "VCC" H 10617 5523 50  0000 C CNN
F 2 "" H 10600 5350 50  0001 C CNN
F 3 "" H 10600 5350 50  0001 C CNN
	1    10600 5350
	1    0    0    -1  
$EndComp
$Comp
L power:GND #PWR0280
U 1 1 5DA02B27
P 4600 800
F 0 "#PWR0280" H 4600 550 50  0001 C CNN
F 1 "GND" H 4605 627 50  0000 C CNN
F 2 "" H 4600 800 50  0001 C CNN
F 3 "" H 4600 800 50  0001 C CNN
	1    4600 800 
	-1   0    0    1   
$EndComp
$Comp
L power:GND #PWR?
U 1 1 5DAFC380
P 9950 2400
AR Path="/635BEEB0/5DAFC380" Ref="#PWR?"  Part="1" 
AR Path="/5DAFC380" Ref="#PWR?"  Part="1" 
AR Path="/5DC1E7F0/5DAFC380" Ref="#PWR?"  Part="1" 
AR Path="/5D9F70E5/5DAFC380" Ref="#PWR0282"  Part="1" 
F 0 "#PWR0282" H 9950 2150 50  0001 C CNN
F 1 "GND" H 9955 2227 50  0001 C CNN
F 2 "" H 9950 2400 50  0001 C CNN
F 3 "" H 9950 2400 50  0001 C CNN
	1    9950 2400
	-1   0    0    -1  
$EndComp
$Comp
L power:GND #PWR?
U 1 1 5DB67C8E
P 9950 4450
AR Path="/635BEEB0/5DB67C8E" Ref="#PWR?"  Part="1" 
AR Path="/5DB67C8E" Ref="#PWR?"  Part="1" 
AR Path="/5DC1E7F0/5DB67C8E" Ref="#PWR?"  Part="1" 
AR Path="/5D9F70E5/5DB67C8E" Ref="#PWR0285"  Part="1" 
F 0 "#PWR0285" H 9950 4200 50  0001 C CNN
F 1 "GND" H 9955 4277 50  0001 C CNN
F 2 "" H 9950 4450 50  0001 C CNN
F 3 "" H 9950 4450 50  0001 C CNN
	1    9950 4450
	-1   0    0    -1  
$EndComp
$Comp
L power:GND #PWR?
U 1 1 5DAFC39F
P 10450 800
AR Path="/635BEEB0/5DAFC39F" Ref="#PWR?"  Part="1" 
AR Path="/5DAFC39F" Ref="#PWR?"  Part="1" 
AR Path="/5DC1E7F0/5DAFC39F" Ref="#PWR?"  Part="1" 
AR Path="/5D9F70E5/5DAFC39F" Ref="#PWR0284"  Part="1" 
F 0 "#PWR0284" H 10450 550 50  0001 C CNN
F 1 "GND" H 10455 627 50  0001 C CNN
F 2 "" H 10450 800 50  0001 C CNN
F 3 "" H 10450 800 50  0001 C CNN
	1    10450 800 
	-1   0    0    -1  
$EndComp
$Comp
L Device:R_Small R10
U 1 1 5E1EC55E
P 6250 5750
F 0 "R10" H 6309 5796 50  0000 L CNN
F 1 "4.7k" H 6309 5705 50  0000 L CNN
F 2 "" H 6250 5750 50  0001 C CNN
F 3 "~" H 6250 5750 50  0001 C CNN
	1    6250 5750
	1    0    0    -1  
$EndComp
$Comp
L Device:R_Small R9
U 1 1 5E96397E
P 10400 5350
F 0 "R9" V 10200 5350 50  0000 C CNN
F 1 "4.7k" V 10300 5350 50  0000 C CNN
F 2 "" H 10400 5350 50  0001 C CNN
F 3 "~" H 10400 5350 50  0001 C CNN
	1    10400 5350
	0    1    1    0   
$EndComp
$Comp
L Device:C_Small CX?
U 1 1 5DE8AD63
P 3400 800
AR Path="/5E35B989/5DE8AD63" Ref="CX?"  Part="1" 
AR Path="/5DC1E7F0/5DE8AD63" Ref="CX?"  Part="1" 
AR Path="/5D9F70E5/5DE8AD63" Ref="CX35"  Part="1" 
F 0 "CX35" H 3492 846 50  0001 L CNN
F 1 "0.1u" V 3350 600 50  0000 L CNN
F 2 "" H 3400 800 50  0001 C CNN
F 3 "~" H 3400 800 50  0001 C CNN
	1    3400 800 
	0    1    -1   0   
$EndComp
$Comp
L Device:C_Small C?
U 1 1 5DAFC399
P 10350 800
AR Path="/635BEEB0/5DAFC399" Ref="C?"  Part="1" 
AR Path="/5DAFC399" Ref="C?"  Part="1" 
AR Path="/5DC1E7F0/5DAFC399" Ref="C?"  Part="1" 
AR Path="/5D9F70E5/5DAFC399" Ref="CX36"  Part="1" 
F 0 "CX36" V 10121 800 50  0001 C CNN
F 1 "0.1u" V 10213 800 50  0000 C TNN
F 2 "" H 10350 800 50  0001 C CNN
F 3 "~" H 10350 800 50  0001 C CNN
	1    10350 800 
	0    -1   1    0   
$EndComp
$Comp
L Device:C EXC?
U 1 1 5DE8AD69
P 3400 600
AR Path="/5E35B989/5DE8AD69" Ref="EXC?"  Part="1" 
AR Path="/5DC1E7F0/5DE8AD69" Ref="EXC?"  Part="1" 
AR Path="/5D9F70E5/5DE8AD69" Ref="EXC2"  Part="1" 
F 0 "EXC2" V 3450 650 50  0000 L CNN
F 1 "1u" V 3450 450 50  0000 L CNN
F 2 "" H 3438 450 50  0001 C CNN
F 3 "~" H 3400 600 50  0001 C CNN
	1    3400 600 
	0    1    1    0   
$EndComp
$Comp
L Device:R_Network08 RA30
U 1 1 5E43CD69
P 1500 6600
F 0 "RA30" H 1650 6800 50  0000 R CNN
F 1 "4.7k" H 1350 6800 50  0000 R CNN
F 2 "Resistor_THT:R_Array_SIP9" V 1975 6600 50  0001 C CNN
F 3 "http://www.vishay.com/docs/31509/csc.pdf" H 1500 6600 50  0001 C CNN
	1    1500 6600
	0    1    1    0   
$EndComp
$Comp
L Device:R_Network08 RA31
U 1 1 5E43CD5C
P 1500 7400
F 0 "RA31" H 1800 7600 50  0000 R CNN
F 1 "4.7k" H 1550 7600 50  0000 R CNN
F 2 "Resistor_THT:R_Array_SIP9" V 1975 7400 50  0001 C CNN
F 3 "http://www.vishay.com/docs/31509/csc.pdf" H 1500 7400 50  0001 C CNN
	1    1500 7400
	0    1    1    0   
$EndComp
$Comp
L Device:R_Network08 RA32
U 1 1 5E5BE101
P 3150 6600
F 0 "RA32" H 3300 6800 50  0000 R CNN
F 1 "4.7k" H 3000 6800 50  0000 R CNN
F 2 "Resistor_THT:R_Array_SIP9" V 3625 6600 50  0001 C CNN
F 3 "http://www.vishay.com/docs/31509/csc.pdf" H 3150 6600 50  0001 C CNN
	1    3150 6600
	0    1    1    0   
$EndComp
$Comp
L Device:R_Network08 RA33
U 1 1 5E5BE0FA
P 3150 7400
F 0 "RA33" H 3450 7600 50  0000 R CNN
F 1 "4.7k" H 3200 7600 50  0000 R CNN
F 2 "Resistor_THT:R_Array_SIP9" V 3625 7400 50  0001 C CNN
F 3 "http://www.vishay.com/docs/31509/csc.pdf" H 3150 7400 50  0001 C CNN
	1    3150 7400
	0    1    1    0   
$EndComp
$Comp
L Device:R_Network08 RA13
U 1 1 5E1837FF
P 4950 5750
F 0 "RA13" H 5250 5950 50  0000 R CNN
F 1 "4.7k" H 5000 5950 50  0000 R CNN
F 2 "Resistor_THT:R_Array_SIP9" V 5425 5750 50  0001 C CNN
F 3 "http://www.vishay.com/docs/31509/csc.pdf" H 4950 5750 50  0001 C CNN
	1    4950 5750
	-1   0    0    1   
$EndComp
$Comp
L Device:R_Network08 RA14
U 1 1 5E1838BD
P 5750 5750
F 0 "RA14" H 6050 5950 50  0000 R CNN
F 1 "4.7k" H 5750 5950 50  0000 R CNN
F 2 "Resistor_THT:R_Array_SIP9" V 6225 5750 50  0001 C CNN
F 3 "http://www.vishay.com/docs/31509/csc.pdf" H 5750 5750 50  0001 C CNN
	1    5750 5750
	-1   0    0    1   
$EndComp
$Comp
L Device:R_Network08 RA6
U 1 1 5E6D2C41
P 7250 5550
F 0 "RA6" H 7550 5750 50  0000 R CNN
F 1 "4.7k" H 7300 5750 50  0000 R CNN
F 2 "Resistor_THT:R_Array_SIP9" V 7725 5550 50  0001 C CNN
F 3 "http://www.vishay.com/docs/31509/csc.pdf" H 7250 5550 50  0001 C CNN
	1    7250 5550
	0    1    1    0   
$EndComp
$Comp
L Device:R_Network08 RA8
U 1 1 5E3DDABB
P 9050 5100
F 0 "RA8" H 9200 5300 50  0000 R CNN
F 1 "4.7k" H 8900 5300 50  0000 R CNN
F 2 "Resistor_THT:R_Array_SIP9" V 9525 5100 50  0001 C CNN
F 3 "http://www.vishay.com/docs/31509/csc.pdf" H 9050 5100 50  0001 C CNN
	1    9050 5100
	0    1    1    0   
$EndComp
$Comp
L Device:R_Network08 RA11
U 1 1 5E3AF7A7
P 9050 5900
F 0 "RA11" H 9350 6100 50  0000 R CNN
F 1 "4.7k" H 9100 6100 50  0000 R CNN
F 2 "Resistor_THT:R_Array_SIP9" V 9525 5900 50  0001 C CNN
F 3 "http://www.vishay.com/docs/31509/csc.pdf" H 9050 5900 50  0001 C CNN
	1    9050 5900
	0    1    1    0   
$EndComp
$Comp
L Device:R_Network08 RA7
U 1 1 5E7228F3
P 10400 5900
F 0 "RA7" H 10700 6100 50  0000 R CNN
F 1 "4.7k" H 10450 6100 50  0000 R CNN
F 2 "Resistor_THT:R_Array_SIP9" V 10875 5900 50  0001 C CNN
F 3 "http://www.vishay.com/docs/31509/csc.pdf" H 10400 5900 50  0001 C CNN
	1    10400 5900
	0    1    1    0   
$EndComp
$Comp
L 74xx:74LS245 U10F?
U 1 1 5DAFC3B3
P 9950 1600
AR Path="/635BEEB0/5DAFC3B3" Ref="U10F?"  Part="1" 
AR Path="/5DAFC3B3" Ref="U10F?"  Part="1" 
AR Path="/5DC1E7F0/5DAFC3B3" Ref="U10F?"  Part="1" 
AR Path="/5D9F70E5/5DAFC3B3" Ref="UL10"  Part="1" 
F 0 "UL10" H 9950 2578 50  0000 C CNN
F 1 "74LS245" H 9950 2487 50  0000 C CNN
F 2 "" H 9950 1600 50  0001 C CNN
F 3 "http://www.ti.com/lit/gpn/sn74LS245" H 9950 1600 50  0001 C CNN
	1    9950 1600
	-1   0    0    -1  
$EndComp
$Comp
L 74xx:74LS245 U10L?
U 1 1 5DB67CAC
P 9950 3650
AR Path="/635BEEB0/5DB67CAC" Ref="U10L?"  Part="1" 
AR Path="/5DB67CAC" Ref="U10L?"  Part="1" 
AR Path="/5DC1E7F0/5DB67CAC" Ref="U10L?"  Part="1" 
AR Path="/5D9F70E5/5DB67CAC" Ref="UM10"  Part="1" 
F 0 "UM10" H 9950 4628 50  0000 C CNN
F 1 "74LS245" H 9950 4537 50  0000 C CNN
F 2 "" H 9950 3650 50  0001 C CNN
F 3 "http://www.ti.com/lit/gpn/sn74LS245" H 9950 3650 50  0001 C CNN
	1    9950 3650
	-1   0    0    -1  
$EndComp
$Comp
L CPS2-Custom:DL-1525 U-SPA-E4
U 1 1 5D9F7133
P 4050 3300
F 0 "U-SPA-E4" H 6950 5700 200 0000 C CNN
F 1 "DL-1525" H 1500 1050 200 0000 C CNN
F 2 "" H 4100 4600 50  0001 C CNN
F 3 "" H 4100 4600 50  0001 C CNN
	1    4050 3300
	1    0    0    -1  
$EndComp
$EndSCHEMATC
