EESchema Schematic File Version 5
EELAYER 33 0
EELAYER END
$Descr A4 11693 8268
encoding utf-8
Sheet 17 17
Title ""
Date "2019-10-17"
Rev ""
Comp ""
Comment1 ""
Comment2 "Licence: CC-BY"
Comment3 "Author: Loic *WydD* Petit"
Comment4 "Project: CPS2 Reverse Engineering: 93646B"
Comment5 ""
Comment6 ""
Comment7 ""
Comment8 ""
Comment9 ""
$EndDescr
Connection ~ 4550 4300
Connection ~ 6350 4300
Connection ~ 3700 3500
Connection ~ 3700 6050
Connection ~ 6350 3000
Connection ~ 3000 2300
Connection ~ 5450 1850
Connection ~ 5450 4400
NoConn ~ 2500 2600
NoConn ~ 2500 2700
NoConn ~ 2500 2800
NoConn ~ 2500 2900
NoConn ~ 2500 3000
NoConn ~ 2500 3100
NoConn ~ 2500 3200
NoConn ~ 3500 2600
NoConn ~ 3500 2700
NoConn ~ 3500 2800
NoConn ~ 3500 2900
NoConn ~ 3500 3000
NoConn ~ 3500 3100
NoConn ~ 3500 3200
NoConn ~ 3500 3600
Entry Wire Line
	4450 3300 4550 3400
Entry Wire Line
	4550 4500 4650 4600
Entry Wire Line
	4550 4600 4650 4700
Entry Wire Line
	4550 4700 4650 4800
Entry Wire Line
	4550 4800 4650 4900
Entry Wire Line
	4550 4900 4650 5000
Entry Wire Line
	4550 5000 4650 5100
Entry Wire Line
	4550 5100 4650 5200
Entry Wire Line
	4550 5200 4650 5300
Entry Wire Line
	4550 5300 4650 5400
Entry Wire Line
	4550 5400 4650 5500
Entry Wire Line
	4550 5500 4650 5600
Entry Wire Line
	4550 5600 4650 5700
Entry Wire Line
	4650 2050 4550 2150
Entry Wire Line
	4650 2150 4550 2250
Entry Wire Line
	4650 2250 4550 2350
Entry Wire Line
	4650 2350 4550 2450
Entry Wire Line
	4650 2450 4550 2550
Entry Wire Line
	4650 2550 4550 2650
Entry Wire Line
	4650 2650 4550 2750
Entry Wire Line
	4650 2750 4550 2850
Entry Wire Line
	4650 2850 4550 2950
Entry Wire Line
	4650 2950 4550 3050
Entry Wire Line
	4650 3050 4550 3150
Entry Wire Line
	4650 3150 4550 3250
Entry Wire Line
	6250 2050 6350 2150
Entry Wire Line
	6250 2150 6350 2250
Entry Wire Line
	6250 2250 6350 2350
Entry Wire Line
	6250 2350 6350 2450
Entry Wire Line
	6250 2450 6350 2550
Entry Wire Line
	6250 2550 6350 2650
Entry Wire Line
	6250 2650 6350 2750
Entry Wire Line
	6250 2750 6350 2850
Entry Wire Line
	6250 4600 6350 4500
Entry Wire Line
	6250 4700 6350 4600
Entry Wire Line
	6250 4800 6350 4700
Entry Wire Line
	6250 4900 6350 4800
Entry Wire Line
	6250 5000 6350 4900
Entry Wire Line
	6250 5100 6350 5000
Entry Wire Line
	6250 5200 6350 5100
Entry Wire Line
	6250 5300 6350 5200
Entry Wire Line
	7950 3300 7850 3200
Entry Wire Line
	7950 3400 7850 3300
Entry Wire Line
	7950 3500 7850 3400
Entry Wire Line
	7950 3600 7850 3500
Entry Wire Line
	7950 3700 7850 3600
Entry Wire Line
	7950 3800 7850 3700
Entry Wire Line
	7950 3900 7850 3800
Entry Wire Line
	7950 4000 7850 3900
Entry Wire Line
	7950 4100 7850 4000
Entry Wire Line
	7950 4200 7850 4100
Entry Wire Line
	7950 4300 7850 4200
Entry Wire Line
	7950 4400 7850 4300
Entry Wire Line
	7950 4500 7850 4400
Entry Wire Line
	7950 4600 7850 4500
Entry Wire Line
	7950 4700 7850 4600
Entry Wire Line
	7950 4800 7850 4700
Wire Wire Line
	2100 3300 2500 3300
Wire Wire Line
	3150 2300 3000 2300
Wire Wire Line
	3500 3300 4450 3300
Wire Wire Line
	3500 3500 3700 3500
Wire Wire Line
	3600 6050 3700 6050
Wire Wire Line
	3700 3500 3700 6050
Wire Wire Line
	3700 3500 5050 3500
Wire Wire Line
	3700 6050 5050 6050
Wire Wire Line
	4650 2050 5050 2050
Wire Wire Line
	4650 2150 5050 2150
Wire Wire Line
	4650 2250 5050 2250
Wire Wire Line
	4650 2350 5050 2350
Wire Wire Line
	4650 2450 5050 2450
Wire Wire Line
	4650 2550 5050 2550
Wire Wire Line
	4650 2650 5050 2650
Wire Wire Line
	4650 2750 5050 2750
Wire Wire Line
	4650 2850 5050 2850
Wire Wire Line
	4650 2950 5050 2950
Wire Wire Line
	4650 3050 5050 3050
Wire Wire Line
	4650 3150 5050 3150
Wire Wire Line
	4650 3250 5050 3250
Wire Wire Line
	4650 4600 5050 4600
Wire Wire Line
	4650 4700 5050 4700
Wire Wire Line
	4650 4800 5050 4800
Wire Wire Line
	4650 4900 5050 4900
Wire Wire Line
	4650 5000 5050 5000
Wire Wire Line
	4650 5100 5050 5100
Wire Wire Line
	4650 5200 5050 5200
Wire Wire Line
	4650 5300 5050 5300
Wire Wire Line
	4650 5400 5050 5400
Wire Wire Line
	4650 5500 5050 5500
Wire Wire Line
	4650 5600 5050 5600
Wire Wire Line
	4650 5700 5050 5700
Wire Wire Line
	4650 5800 5050 5800
Wire Wire Line
	4900 3400 5050 3400
Wire Wire Line
	4900 5950 5050 5950
Wire Wire Line
	5600 1850 5450 1850
Wire Wire Line
	5600 4400 5450 4400
Wire Wire Line
	5850 2050 6250 2050
Wire Wire Line
	5850 2150 6250 2150
Wire Wire Line
	5850 2250 6250 2250
Wire Wire Line
	5850 2350 6250 2350
Wire Wire Line
	5850 2450 6250 2450
Wire Wire Line
	5850 2550 6250 2550
Wire Wire Line
	5850 2650 6250 2650
Wire Wire Line
	5850 2750 6250 2750
Wire Wire Line
	5850 4600 6250 4600
Wire Wire Line
	5850 4700 6250 4700
Wire Wire Line
	5850 4800 6250 4800
Wire Wire Line
	5850 4900 6250 4900
Wire Wire Line
	5850 5000 6250 5000
Wire Wire Line
	5850 5100 6250 5100
Wire Wire Line
	5850 5200 6250 5200
Wire Wire Line
	5850 5300 6250 5300
Wire Wire Line
	8350 3300 7950 3300
Wire Wire Line
	8350 3400 7950 3400
Wire Wire Line
	8350 3500 7950 3500
Wire Wire Line
	8350 3600 7950 3600
Wire Wire Line
	8350 3700 7950 3700
Wire Wire Line
	8350 3800 7950 3800
Wire Wire Line
	8350 3900 7950 3900
Wire Wire Line
	8350 4000 7950 4000
Wire Wire Line
	8350 4100 7950 4100
Wire Wire Line
	8350 4200 7950 4200
Wire Wire Line
	8350 4300 7950 4300
Wire Wire Line
	8350 4400 7950 4400
Wire Wire Line
	8350 4500 7950 4500
Wire Wire Line
	8350 4600 7950 4600
Wire Wire Line
	8350 4700 7950 4700
Wire Wire Line
	8350 4800 7950 4800
Wire Bus Line
	4550 2150 4550 2350
Wire Bus Line
	4550 2350 4550 2550
Wire Bus Line
	4550 2550 4550 2750
Wire Bus Line
	4550 2750 4550 2950
Wire Bus Line
	4550 2950 4550 3150
Wire Bus Line
	4550 3150 4550 3400
Wire Bus Line
	4550 3400 4550 4300
Wire Bus Line
	4550 4300 4400 4300
Wire Bus Line
	4550 4300 4550 4600
Wire Bus Line
	4550 4600 4550 4800
Wire Bus Line
	4550 4800 4550 5000
Wire Bus Line
	4550 5000 4550 5100
Wire Bus Line
	4550 5100 4550 5300
Wire Bus Line
	4550 5300 4550 5500
Wire Bus Line
	4550 5500 4550 5600
Wire Bus Line
	6350 2150 6350 2350
Wire Bus Line
	6350 2350 6350 2550
Wire Bus Line
	6350 2550 6350 2650
Wire Bus Line
	6350 2650 6350 2850
Wire Bus Line
	6350 2850 6350 3000
Wire Bus Line
	6350 3000 6350 4300
Wire Bus Line
	6350 4300 6350 4600
Wire Bus Line
	6350 4300 6500 4300
Wire Bus Line
	6350 4600 6350 4700
Wire Bus Line
	6350 4700 6350 4900
Wire Bus Line
	6350 4900 6350 5100
Wire Bus Line
	6350 5100 6350 5200
Wire Bus Line
	7850 3000 6350 3000
Wire Bus Line
	7850 3000 7850 3300
Wire Bus Line
	7850 3300 7850 3400
Wire Bus Line
	7850 3400 7850 3600
Wire Bus Line
	7850 3600 7850 3800
Wire Bus Line
	7850 3800 7850 4000
Wire Bus Line
	7850 4000 7850 4200
Wire Bus Line
	7850 4200 7850 4400
Wire Bus Line
	7850 4400 7850 4500
Wire Bus Line
	7850 4500 7850 4700
Text Label 2150 3300 0    50   ~ 0
A12
Text Label 3600 3300 0    50   ~ 0
ADDR12
Text Label 4700 2050 0    50   ~ 0
ADDR0
Text Label 4700 2150 0    50   ~ 0
ADDR1
Text Label 4700 2250 0    50   ~ 0
ADDR2
Text Label 4700 2350 0    50   ~ 0
ADDR3
Text Label 4700 2450 0    50   ~ 0
ADDR4
Text Label 4700 2550 0    50   ~ 0
ADDR5
Text Label 4700 2650 0    50   ~ 0
ADDR6
Text Label 4700 2750 0    50   ~ 0
ADDR7
Text Label 4700 2850 0    50   ~ 0
ADDR8
Text Label 4700 2950 0    50   ~ 0
ADDR9
Text Label 4700 3050 0    50   ~ 0
ADDR10
Text Label 4700 3150 0    50   ~ 0
ADDR11
Text Label 4700 3250 0    50   ~ 0
A12
Text Label 4700 4600 0    50   ~ 0
ADDR0
Text Label 4700 4700 0    50   ~ 0
ADDR1
Text Label 4700 4800 0    50   ~ 0
ADDR2
Text Label 4700 4900 0    50   ~ 0
ADDR3
Text Label 4700 5000 0    50   ~ 0
ADDR4
Text Label 4700 5100 0    50   ~ 0
ADDR5
Text Label 4700 5200 0    50   ~ 0
ADDR6
Text Label 4700 5300 0    50   ~ 0
ADDR7
Text Label 4700 5400 0    50   ~ 0
ADDR8
Text Label 4700 5500 0    50   ~ 0
ADDR9
Text Label 4700 5600 0    50   ~ 0
ADDR10
Text Label 4700 5700 0    50   ~ 0
ADDR11
Text Label 4700 5800 0    50   ~ 0
A12
Text Label 5900 2050 0    50   ~ 0
DATA0
Text Label 5900 2150 0    50   ~ 0
DATA1
Text Label 5900 2250 0    50   ~ 0
DATA2
Text Label 5900 2350 0    50   ~ 0
DATA3
Text Label 5900 2450 0    50   ~ 0
DATA4
Text Label 5900 2550 0    50   ~ 0
DATA5
Text Label 5900 2650 0    50   ~ 0
DATA6
Text Label 5900 2750 0    50   ~ 0
DATA7
Text Label 5900 4600 0    50   ~ 0
DATA8
Text Label 5900 4700 0    50   ~ 0
DATA9
Text Label 5900 4800 0    50   ~ 0
DATA10
Text Label 5900 4900 0    50   ~ 0
DATA11
Text Label 5900 5000 0    50   ~ 0
DATA12
Text Label 5900 5100 0    50   ~ 0
DATA13
Text Label 5900 5200 0    50   ~ 0
DATA14
Text Label 5900 5300 0    50   ~ 0
DATA15
Text Label 8300 3300 2    50   ~ 0
DATA0
Text Label 8300 3400 2    50   ~ 0
DATA1
Text Label 8300 3500 2    50   ~ 0
DATA2
Text Label 8300 3600 2    50   ~ 0
DATA3
Text Label 8300 3700 2    50   ~ 0
DATA4
Text Label 8300 3800 2    50   ~ 0
DATA5
Text Label 8300 3900 2    50   ~ 0
DATA6
Text Label 8300 4000 2    50   ~ 0
DATA7
Text Label 8300 4100 2    50   ~ 0
DATA8
Text Label 8300 4200 2    50   ~ 0
DATA9
Text Label 8300 4300 2    50   ~ 0
DATA10
Text Label 8300 4400 2    50   ~ 0
DATA11
Text Label 8300 4500 2    50   ~ 0
DATA12
Text Label 8300 4600 2    50   ~ 0
DATA13
Text Label 8300 4700 2    50   ~ 0
DATA14
Text Label 8300 4800 2    50   ~ 0
DATA15
Text HLabel 3600 6050 0    50   Input ~ 0
~SRAM-E
Text HLabel 4400 4300 0    50   Input ~ 0
ADDR[0..12]
Text HLabel 5050 3600 0    50   Input ~ 0
~SRAM-OE
Text HLabel 5050 3700 0    50   Input ~ 0
~SRAM-WH
Text HLabel 5050 6150 0    50   Input ~ 0
~SRAM-OE
Text HLabel 5050 6250 0    50   Input ~ 0
~SRAM-WL
Text HLabel 6500 4300 2    50   BiDi ~ 0
DATA[0..15]
$Comp
L power:VCC #PWR?
U 1 1 5E3A1EEA
P 3000 2300
AR Path="/5DC1E7F0/5E3A1EEA" Ref="#PWR?"  Part="1" 
AR Path="/5E37B0FC/5E3A1EEA" Ref="#PWR0305"  Part="1" 
F 0 "#PWR0305" H 3000 2150 50  0001 C CNN
F 1 "VCC" H 3017 2473 50  0000 C CNN
F 2 "" H 3000 2300 50  0001 C CNN
F 3 "" H 3000 2300 50  0001 C CNN
	1    3000 2300
	1    0    0    -1  
$EndComp
$Comp
L power:VCC #PWR?
U 1 1 5E399A7E
P 4900 3400
AR Path="/5DC1E7F0/5E399A7E" Ref="#PWR?"  Part="1" 
AR Path="/5E37B0FC/5E399A7E" Ref="#PWR0301"  Part="1" 
F 0 "#PWR0301" H 4900 3250 50  0001 C CNN
F 1 "VCC" H 5050 3450 50  0000 C CNN
F 2 "" H 4900 3400 50  0001 C CNN
F 3 "" H 4900 3400 50  0001 C CNN
	1    4900 3400
	-1   0    0    -1  
$EndComp
$Comp
L power:VCC #PWR?
U 1 1 5E39A5A4
P 4900 5950
AR Path="/5DC1E7F0/5E39A5A4" Ref="#PWR?"  Part="1" 
AR Path="/5E37B0FC/5E39A5A4" Ref="#PWR0302"  Part="1" 
F 0 "#PWR0302" H 4900 5800 50  0001 C CNN
F 1 "VCC" H 5050 6000 50  0000 C CNN
F 2 "" H 4900 5950 50  0001 C CNN
F 3 "" H 4900 5950 50  0001 C CNN
	1    4900 5950
	-1   0    0    -1  
$EndComp
$Comp
L power:VCC #PWR?
U 1 1 5E3963A9
P 5450 1850
AR Path="/5DC1E7F0/5E3963A9" Ref="#PWR?"  Part="1" 
AR Path="/5E37B0FC/5E3963A9" Ref="#PWR0297"  Part="1" 
F 0 "#PWR0297" H 5450 1700 50  0001 C CNN
F 1 "VCC" H 5467 2023 50  0000 C CNN
F 2 "" H 5450 1850 50  0001 C CNN
F 3 "" H 5450 1850 50  0001 C CNN
	1    5450 1850
	-1   0    0    -1  
$EndComp
$Comp
L power:VCC #PWR?
U 1 1 5E3968FB
P 5450 4400
AR Path="/5DC1E7F0/5E3968FB" Ref="#PWR?"  Part="1" 
AR Path="/5E37B0FC/5E3968FB" Ref="#PWR0298"  Part="1" 
F 0 "#PWR0298" H 5450 4250 50  0001 C CNN
F 1 "VCC" H 5467 4573 50  0000 C CNN
F 2 "" H 5450 4400 50  0001 C CNN
F 3 "" H 5450 4400 50  0001 C CNN
	1    5450 4400
	-1   0    0    -1  
$EndComp
$Comp
L power:VCC #PWR?
U 1 1 5E52A677
P 8750 3300
AR Path="/5D9F70E5/5E52A677" Ref="#PWR?"  Part="1" 
AR Path="/5E37B0FC/5E52A677" Ref="#PWR0307"  Part="1" 
F 0 "#PWR0307" H 8750 3150 50  0001 C CNN
F 1 "VCC" H 8767 3473 50  0000 C CNN
F 2 "" H 8750 3300 50  0001 C CNN
F 3 "" H 8750 3300 50  0001 C CNN
	1    8750 3300
	0    1    1    0   
$EndComp
$Comp
L power:VCC #PWR?
U 1 1 5E52A66A
P 8750 4100
AR Path="/5D9F70E5/5E52A66A" Ref="#PWR?"  Part="1" 
AR Path="/5E37B0FC/5E52A66A" Ref="#PWR0306"  Part="1" 
F 0 "#PWR0306" H 8750 3950 50  0001 C CNN
F 1 "VCC" H 8767 4273 50  0000 C CNN
F 2 "" H 8750 4100 50  0001 C CNN
F 3 "" H 8750 4100 50  0001 C CNN
	1    8750 4100
	0    1    1    0   
$EndComp
$Comp
L power:GND #PWR?
U 1 1 5E39DCC0
P 3000 3900
AR Path="/6492EFBF/5E39DCC0" Ref="#PWR?"  Part="1" 
AR Path="/5E39DCC0" Ref="#PWR?"  Part="1" 
AR Path="/5DC1E7F0/5E39DCC0" Ref="#PWR?"  Part="1" 
AR Path="/5E37B0FC/5E39DCC0" Ref="#PWR0304"  Part="1" 
F 0 "#PWR0304" H 3000 3650 50  0001 C CNN
F 1 "GND" H 3005 3727 50  0001 C CNN
F 2 "" H 3000 3900 50  0001 C CNN
F 3 "" H 3000 3900 50  0001 C CNN
	1    3000 3900
	1    0    0    -1  
$EndComp
$Comp
L power:GND #PWR?
U 1 1 5DD30008
P 3350 2300
AR Path="/5D957A6E/5DD30008" Ref="#PWR?"  Part="1" 
AR Path="/5E37B0FC/5DD30008" Ref="#PWR021"  Part="1" 
F 0 "#PWR021" H 3350 2050 50  0001 C CNN
F 1 "GND" H 3355 2127 50  0001 C CNN
F 2 "" H 3350 2300 50  0001 C CNN
F 3 "" H 3350 2300 50  0001 C CNN
	1    3350 2300
	1    0    0    -1  
$EndComp
$Comp
L power:GND #PWR?
U 1 1 5E396E4D
P 5450 3900
AR Path="/6492EFBF/5E396E4D" Ref="#PWR?"  Part="1" 
AR Path="/5E396E4D" Ref="#PWR?"  Part="1" 
AR Path="/5DC1E7F0/5E396E4D" Ref="#PWR?"  Part="1" 
AR Path="/5E37B0FC/5E396E4D" Ref="#PWR0299"  Part="1" 
F 0 "#PWR0299" H 5450 3650 50  0001 C CNN
F 1 "GND" H 5455 3727 50  0001 C CNN
F 2 "" H 5450 3900 50  0001 C CNN
F 3 "" H 5450 3900 50  0001 C CNN
	1    5450 3900
	1    0    0    -1  
$EndComp
$Comp
L power:GND #PWR?
U 1 1 5E3973A6
P 5450 6450
AR Path="/6492EFBF/5E3973A6" Ref="#PWR?"  Part="1" 
AR Path="/5E3973A6" Ref="#PWR?"  Part="1" 
AR Path="/5DC1E7F0/5E3973A6" Ref="#PWR?"  Part="1" 
AR Path="/5E37B0FC/5E3973A6" Ref="#PWR0300"  Part="1" 
F 0 "#PWR0300" H 5450 6200 50  0001 C CNN
F 1 "GND" H 5455 6277 50  0001 C CNN
F 2 "" H 5450 6450 50  0001 C CNN
F 3 "" H 5450 6450 50  0001 C CNN
	1    5450 6450
	1    0    0    -1  
$EndComp
$Comp
L power:GND #PWR?
U 1 1 5DD3549C
P 5800 1850
AR Path="/5D957A6E/5DD3549C" Ref="#PWR?"  Part="1" 
AR Path="/5E37B0FC/5DD3549C" Ref="#PWR022"  Part="1" 
F 0 "#PWR022" H 5800 1600 50  0001 C CNN
F 1 "GND" H 5805 1677 50  0001 C CNN
F 2 "" H 5800 1850 50  0001 C CNN
F 3 "" H 5800 1850 50  0001 C CNN
	1    5800 1850
	1    0    0    -1  
$EndComp
$Comp
L power:GND #PWR?
U 1 1 5DD3D733
P 5800 4400
AR Path="/5D957A6E/5DD3D733" Ref="#PWR?"  Part="1" 
AR Path="/5E37B0FC/5DD3D733" Ref="#PWR023"  Part="1" 
F 0 "#PWR023" H 5800 4150 50  0001 C CNN
F 1 "GND" H 5805 4227 50  0001 C CNN
F 2 "" H 5800 4400 50  0001 C CNN
F 3 "" H 5800 4400 50  0001 C CNN
	1    5800 4400
	1    0    0    -1  
$EndComp
$Comp
L Device:C_Small CX?
U 1 1 5DD30002
P 3250 2300
AR Path="/5D957A6E/5DD30002" Ref="CX?"  Part="1" 
AR Path="/5E37B0FC/5DD30002" Ref="CX37"  Part="1" 
F 0 "CX37" V 3021 2300 50  0001 C CNN
F 1 "0.1u" V 3112 2300 50  0000 C TNN
F 2 "" H 3250 2300 50  0001 C CNN
F 3 "~" H 3250 2300 50  0001 C CNN
	1    3250 2300
	0    1    1    0   
$EndComp
$Comp
L Device:C_Small CX?
U 1 1 5DD35496
P 5700 1850
AR Path="/5D957A6E/5DD35496" Ref="CX?"  Part="1" 
AR Path="/5E37B0FC/5DD35496" Ref="CX38"  Part="1" 
F 0 "CX38" V 5471 1850 50  0001 C CNN
F 1 "0.1u" V 5562 1850 50  0000 C TNN
F 2 "" H 5700 1850 50  0001 C CNN
F 3 "~" H 5700 1850 50  0001 C CNN
	1    5700 1850
	0    1    1    0   
$EndComp
$Comp
L Device:C_Small CX?
U 1 1 5DD3D72D
P 5700 4400
AR Path="/5D957A6E/5DD3D72D" Ref="CX?"  Part="1" 
AR Path="/5E37B0FC/5DD3D72D" Ref="CX39"  Part="1" 
F 0 "CX39" V 5471 4400 50  0001 C CNN
F 1 "0.1u" V 5562 4400 50  0000 C TNN
F 2 "" H 5700 4400 50  0001 C CNN
F 3 "~" H 5700 4400 50  0001 C CNN
	1    5700 4400
	0    1    1    0   
$EndComp
$Comp
L Device:R_Network08 RA?
U 1 1 5E52A670
P 8550 3700
AR Path="/5D9F70E5/5E52A670" Ref="RA?"  Part="1" 
AR Path="/5E37B0FC/5E52A670" Ref="RA1"  Part="1" 
F 0 "RA1" H 8850 3900 50  0000 R CNN
F 1 "4.7k" H 8600 3900 50  0000 R CNN
F 2 "Resistor_THT:R_Array_SIP9" V 9025 3700 50  0001 C CNN
F 3 "http://www.vishay.com/docs/31509/csc.pdf" H 8550 3700 50  0001 C CNN
	1    8550 3700
	0    1    1    0   
$EndComp
$Comp
L Device:R_Network08 RA?
U 1 1 5E52A663
P 8550 4500
AR Path="/5D9F70E5/5E52A663" Ref="RA?"  Part="1" 
AR Path="/5E37B0FC/5E52A663" Ref="RA2"  Part="1" 
F 0 "RA2" H 8850 4700 50  0000 R CNN
F 1 "4.7k" H 8600 4700 50  0000 R CNN
F 2 "Resistor_THT:R_Array_SIP9" V 9025 4500 50  0001 C CNN
F 3 "http://www.vishay.com/docs/31509/csc.pdf" H 8550 4500 50  0001 C CNN
	1    8550 4500
	0    1    1    0   
$EndComp
$Comp
L 74xx:74LS373 UA5
U 1 1 5E39B245
P 3000 3100
F 0 "UA5" H 3250 3750 50  0000 C CNN
F 1 "74LS373" H 2800 2450 50  0000 C CNN
F 2 "" H 3000 3100 50  0001 C CNN
F 3 "http://www.ti.com/lit/gpn/sn74LS373" H 3000 3100 50  0001 C CNN
	1    3000 3100
	-1   0    0    -1  
$EndComp
$Comp
L CPS2-Custom:HM6264 UA4
U 1 1 5E380B10
P 5450 2850
F 0 "UA4" H 5200 3800 50  0000 C CNN
F 1 "HM6264" H 5650 1850 50  0000 C CNN
F 2 "Package_SO:SOIC-28W_7.5x17.9mm_P1.27mm" H 5550 2850 50  0001 C CNN
F 3 "http://ww1.microchip.com/downloads/en/DeviceDoc/doc0015.pdf" H 5450 2750 50  0001 C CNN
	1    5450 2850
	1    0    0    -1  
$EndComp
$Comp
L CPS2-Custom:HM6264 UA3
U 1 1 5E380C0C
P 5450 5400
F 0 "UA3" H 5200 6350 50  0000 C CNN
F 1 "HM6264" H 5650 4400 50  0000 C CNN
F 2 "Package_SO:SOIC-28W_7.5x17.9mm_P1.27mm" H 5550 5400 50  0001 C CNN
F 3 "http://ww1.microchip.com/downloads/en/DeviceDoc/doc0015.pdf" H 5450 5300 50  0001 C CNN
	1    5450 5400
	1    0    0    -1  
$EndComp
$EndSCHEMATC
