EESchema Schematic File Version 5
EELAYER 33 0
EELAYER END
$Descr A4 11693 8268
encoding utf-8
Sheet 6 20
Title ""
Date "2020-04-12"
Rev ""
Comp ""
Comment1 ""
Comment2 "Licence: CC-BY"
Comment3 "Author: Loic *WydD* Petit"
Comment4 "Project: CPS2 Reverse Engineering: DL-1827"
Comment5 ""
Comment6 ""
Comment7 ""
Comment8 ""
Comment9 ""
$EndDescr
Connection ~ 3750 5850
Connection ~ 4150 1050
Connection ~ 5400 1850
Connection ~ 2700 2750
Connection ~ 2300 3750
Connection ~ 3700 2750
Connection ~ 2300 4150
Connection ~ 3100 4850
Connection ~ 8750 3900
Connection ~ 8650 3300
Connection ~ 8050 3600
Connection ~ 7350 5550
Connection ~ 7350 1600
Connection ~ 2300 4850
Connection ~ 8050 3050
Connection ~ 8050 4150
Connection ~ 3600 4250
Connection ~ 5550 2750
Connection ~ 6050 2750
Connection ~ 7350 2750
Connection ~ 7350 2050
Connection ~ 1550 1100
Connection ~ 5900 5150
Connection ~ 6050 4200
Connection ~ 7350 5000
NoConn ~ 4000 5500
NoConn ~ 4900 1200
NoConn ~ 5750 5150
NoConn ~ 7250 4650
Wire Wire Line
	950  7000 1400 7000
Wire Wire Line
	950  7550 1400 7550
Wire Wire Line
	1450 750  1650 750 
Wire Wire Line
	1450 1000 1650 1000
Wire Wire Line
	1450 1100 1550 1100
Wire Wire Line
	1550 850  1550 1100
Wire Wire Line
	1550 1100 1650 1100
Wire Wire Line
	1600 2750 1600 3050
Wire Wire Line
	1600 2750 2700 2750
Wire Wire Line
	1650 850  1550 850 
Wire Wire Line
	1850 4250 2400 4250
Wire Wire Line
	2000 7000 2450 7000
Wire Wire Line
	2000 7550 2450 7550
Wire Wire Line
	2150 3100 2300 3100
Wire Wire Line
	2200 800  2800 800 
Wire Wire Line
	2200 1050 2550 1050
Wire Wire Line
	2200 1250 2550 1250
Wire Wire Line
	2300 3100 2300 3750
Wire Wire Line
	2300 3750 2300 4150
Wire Wire Line
	2300 3750 3650 3750
Wire Wire Line
	2300 4150 2300 4850
Wire Wire Line
	2300 4150 2400 4150
Wire Wire Line
	2300 4850 2400 4850
Wire Wire Line
	2300 5350 2300 4850
Wire Wire Line
	2500 5350 2300 5350
Wire Wire Line
	2700 2750 3700 2750
Wire Wire Line
	2700 3500 2700 2750
Wire Wire Line
	2800 800  2800 850 
Wire Wire Line
	2900 3500 2700 3500
Wire Wire Line
	2950 4300 2950 4450
Wire Wire Line
	3000 4850 3100 4850
Wire Wire Line
	3050 1050 4150 1050
Wire Wire Line
	3100 4850 3100 5850
Wire Wire Line
	3100 4850 5500 4850
Wire Wire Line
	3100 5850 3750 5850
Wire Wire Line
	3200 1200 3050 1200
Wire Wire Line
	3200 1800 3200 1200
Wire Wire Line
	3200 1800 4850 1800
Wire Wire Line
	3200 5550 3500 5550
Wire Wire Line
	3500 3500 3600 3500
Wire Wire Line
	3500 4250 3600 4250
Wire Wire Line
	3600 3500 3600 3650
Wire Wire Line
	3600 3650 3650 3650
Wire Wire Line
	3600 3850 3650 3850
Wire Wire Line
	3600 4250 3600 3850
Wire Wire Line
	3600 4250 4800 4250
Wire Wire Line
	3700 800  3700 2750
Wire Wire Line
	3700 800  4650 800 
Wire Wire Line
	3700 2750 5550 2750
Wire Wire Line
	3750 5750 3750 5850
Wire Wire Line
	3750 5850 4650 5850
Wire Wire Line
	4000 5350 4400 5350
Wire Wire Line
	4050 1250 4400 1250
Wire Wire Line
	4100 4100 4200 4100
Wire Wire Line
	4100 5550 4400 5550
Wire Wire Line
	4150 700  4150 1050
Wire Wire Line
	4150 700  5200 700 
Wire Wire Line
	4150 1050 4400 1050
Wire Wire Line
	4200 3850 4200 4100
Wire Wire Line
	4650 800  4650 850 
Wire Wire Line
	4650 5750 4650 5850
Wire Wire Line
	4750 3800 4800 3800
Wire Wire Line
	4800 2450 4800 3800
Wire Wire Line
	4800 2450 4850 2450
Wire Wire Line
	4850 1900 4850 2050
Wire Wire Line
	4850 2050 5400 2200
Wire Wire Line
	4850 2200 5400 2050
Wire Wire Line
	4850 2350 4850 2200
Wire Wire Line
	4850 5000 5050 5000
Wire Wire Line
	4900 1050 5200 1050
Wire Wire Line
	4900 5350 5250 5350
Wire Wire Line
	4900 5500 5050 5500
Wire Wire Line
	5050 5000 5050 5150
Wire Wire Line
	5050 5150 5250 5150
Wire Wire Line
	5050 5500 5050 5850
Wire Wire Line
	5050 5850 7350 5850
Wire Wire Line
	5200 700  5200 950 
Wire Wire Line
	5400 1850 5400 2050
Wire Wire Line
	5400 1850 5550 1850
Wire Wire Line
	5400 2400 5400 2200
Wire Wire Line
	5500 4850 5500 4950
Wire Wire Line
	5550 1850 5550 2750
Wire Wire Line
	5550 2750 6050 2750
Wire Wire Line
	5750 5300 5900 5300
Wire Wire Line
	5900 4450 2950 4450
Wire Wire Line
	5900 4450 5900 5150
Wire Wire Line
	5900 5150 5900 5300
Wire Wire Line
	5900 5150 8450 5150
Wire Wire Line
	6050 2750 6050 4200
Wire Wire Line
	6050 2750 7350 2750
Wire Wire Line
	6050 4200 6050 4500
Wire Wire Line
	6050 4200 6150 4200
Wire Wire Line
	6050 4500 6750 4500
Wire Wire Line
	6450 4700 6750 4700
Wire Wire Line
	6750 4200 7000 4200
Wire Wire Line
	7000 4200 7000 4300
Wire Wire Line
	7200 5550 7350 5550
Wire Wire Line
	7250 4500 8450 4500
Wire Wire Line
	7350 1050 7350 1600
Wire Wire Line
	7350 1050 8000 1050
Wire Wire Line
	7350 1600 7350 2050
Wire Wire Line
	7350 1600 8000 1600
Wire Wire Line
	7350 2050 7350 2750
Wire Wire Line
	7350 2050 7500 2050
Wire Wire Line
	7350 2750 7350 3550
Wire Wire Line
	7350 3650 7350 5000
Wire Wire Line
	7350 3650 7400 3650
Wire Wire Line
	7350 5000 7350 5550
Wire Wire Line
	7350 5000 7500 5000
Wire Wire Line
	7350 5550 7550 5550
Wire Wire Line
	7350 5650 7350 5850
Wire Wire Line
	7400 3550 7350 3550
Wire Wire Line
	7550 5650 7350 5650
Wire Wire Line
	7900 3050 8050 3050
Wire Wire Line
	7900 4150 8050 4150
Wire Wire Line
	7950 3600 8050 3600
Wire Wire Line
	8050 2300 8050 3050
Wire Wire Line
	8050 3050 8050 3250
Wire Wire Line
	8050 3350 8050 3600
Wire Wire Line
	8050 3600 8050 3850
Wire Wire Line
	8050 3950 8050 4150
Wire Wire Line
	8050 4150 8050 4350
Wire Wire Line
	8050 4350 8850 4350
Wire Wire Line
	8100 5250 8450 5250
Wire Wire Line
	8100 5600 8100 5250
Wire Wire Line
	8450 4500 8450 4650
Wire Wire Line
	8600 1050 10150 1050
Wire Wire Line
	8600 1600 10150 1600
Wire Wire Line
	8600 3300 8650 3300
Wire Wire Line
	8600 3900 8750 3900
Wire Wire Line
	8650 2750 8650 3300
Wire Wire Line
	8650 2750 8800 2750
Wire Wire Line
	8650 3300 10150 3300
Wire Wire Line
	8750 2300 8050 2300
Wire Wire Line
	8750 3900 8750 2850
Wire Wire Line
	8750 3900 10150 3900
Wire Wire Line
	8800 2850 8750 2850
Wire Wire Line
	9000 4700 9000 4900
Wire Wire Line
	9000 5000 9000 5200
Wire Wire Line
	9350 2300 10150 2300
Wire Wire Line
	9450 4350 10150 4350
Wire Wire Line
	9550 4950 10150 4950
Wire Wire Line
	10150 2800 9350 2800
Text Notes 7600 3200 2    50   ~ 0
P76
Text Notes 7600 4300 2    50   ~ 0
P77
Text Notes 10050 2200 2    50   ~ 0
NC
Text Notes 10050 2700 2    50   ~ 0
~BUS-W
Text Notes 10050 4250 2    50   ~ 0
NC
Text Notes 10100 950  2    50   ~ 0
~BUS-BGACK
Text Notes 10100 1500 2    50   ~ 0
CONTROL5: ~BUS-E
Text Notes 10100 3200 2    50   ~ 0
~BUS-LDSW
Text Notes 10100 3800 2    50   ~ 0
~BUS-UDSW
Text Notes 10100 4850 2    50   ~ 0
~BUS-OE
Text Label 1050 7000 0    50   ~ 0
CLK4M
Text Label 1050 7550 0    50   ~ 0
CLK16M
Text Label 2100 7000 0    50   ~ 0
~CLK4M
Text Label 2100 7550 0    50   ~ 0
~CLK16M
Text Label 2500 1250 2    50   ~ 0
~CLK4M
Text Label 3200 5550 0    50   ~ 0
CLK16M
Text Label 4100 5550 0    50   ~ 0
~CLK16M
Text Label 4350 1250 2    50   ~ 0
CLK16M
Text Label 6700 4700 2    50   ~ 0
~CLK4M
Text Label 9450 1050 0    50   ~ 0
CONTROL-BUS44
Text Label 9450 1600 0    50   ~ 0
CONTROL-BUS43
Text Label 9450 2300 0    50   ~ 0
CONTROL-BUS21
Text Label 9450 2800 0    50   ~ 0
CONTROL-BUS39
Text Label 9450 3300 0    50   ~ 0
CONTROL-BUS37
Text Label 9450 3900 0    50   ~ 0
CONTROL-BUS36
Text Label 9450 4350 0    50   ~ 0
CONTROL-BUS45
Text Label 9550 4950 0    50   ~ 0
CONTROL-BUS38
Text HLabel 950  7000 0    50   Input ~ 0
CLK4M
Text HLabel 950  7550 0    50   Input ~ 0
CLK16M
Text HLabel 1300 4200 0    50   Input ~ 0
~Z80-BUS
Text HLabel 1300 4300 0    50   Input ~ 0
~CPSA-E
Text HLabel 1450 750  0    50   Input ~ 0
~CPSA-RESET
Text HLabel 1450 1000 0    50   Input ~ 0
~CPSA-BR
Text HLabel 1450 1100 0    50   Input ~ 0
~CPSA-E
Text HLabel 1600 3150 0    50   Input ~ 0
CPU-AS
Text HLabel 2500 5350 2    50   Output ~ 0
~BUS-AS
Text HLabel 4100 4100 0    50   Input ~ 0
~CPU-BG
Text HLabel 4800 4250 2    50   Output ~ 0
~CPU-DTACK
Text HLabel 4850 5000 0    50   Input ~ 0
~BUS-RANGE
Text HLabel 5750 1000 2    50   Output ~ 0
~CPU-BR
Text HLabel 6600 5550 0    50   Input ~ 0
CPU-R~W
Text HLabel 7500 2050 2    50   Output ~ 0
~CPU-BGACK
Text HLabel 7500 5000 2    50   Output ~ 0
BUS-DIR
Text HLabel 7900 3050 0    50   Input ~ 0
~CPU-LDSW
Text HLabel 7900 4150 0    50   Input ~ 0
~CPU-UDSW
Text HLabel 7900 4700 0    50   Input ~ 0
~REFRESH
Text HLabel 7900 4800 0    50   Input ~ 0
~CPSA-E
Text HLabel 10150 1050 2    50   Output ~ 0
~BUS-BGACK
Text HLabel 10150 1600 2    50   Output ~ 0
~BUS-E
Text HLabel 10150 2300 2    50   Output ~ 0
~DEBUG-LDSW
Text HLabel 10150 2800 2    50   Output ~ 0
~BUS-W
Text HLabel 10150 3300 2    50   Output ~ 0
~BUS-LDSW
Text HLabel 10150 3900 2    50   Output ~ 0
~BUS-UDSW
Text HLabel 10150 4350 2    50   Output ~ 0
~DEBUG-UDSW
Text HLabel 10150 4950 2    50   Output ~ 0
~BUS-R
$Comp
L power:VCC #PWR0111
U 1 1 5E8EC984
P 3500 5350
F 0 "#PWR0111" H 3500 5200 50  0001 C CNN
F 1 "VCC" H 3514 5177 50  0001 C CNN
F 2 "" H 3500 5350 50  0001 C CNN
F 3 "" H 3500 5350 50  0001 C CNN
	1    3500 5350
	1    0    0    -1  
$EndComp
$Comp
L CG24-cells:R2P U22R40
U 1 1 5EFC756D
P 1550 4250
F 0 "U22R40" H 1575 3983 50  0000 C CNN
F 1 "R2P" H 1575 4074 50  0000 C CNN
F 2 "" H 1550 4250 50  0001 C CNN
F 3 "" H 1550 4250 50  0001 C CNN
	1    1550 4250
	1    0    0    1   
$EndComp
$Comp
L CG24-cells:N2N U36R143
U 1 1 5E8A958E
P 1850 3100
F 0 "U36R143" H 1875 3367 50  0000 C CNN
F 1 "N2N" H 1875 3276 50  0000 C CNN
F 2 "" H 1850 3100 50  0001 C CNN
F 3 "" H 1850 3100 50  0001 C CNN
	1    1850 3100
	1    0    0    -1  
$EndComp
$Comp
L CG24-cells:R2P U12R60
U 1 1 5EF1325B
P 1900 800
F 0 "U12R60" H 1925 533 50  0000 C CNN
F 1 "R2P" H 1925 624 50  0000 C CNN
F 2 "" H 1900 800 50  0001 C CNN
F 3 "" H 1900 800 50  0001 C CNN
	1    1900 800 
	1    0    0    1   
$EndComp
$Comp
L CG24-cells:R2P U18R50
U 1 1 5EF122AE
P 1900 1050
F 0 "U18R50" H 1925 783 50  0000 C CNN
F 1 "R2P" H 1925 874 50  0000 C CNN
F 2 "" H 1900 1050 50  0001 C CNN
F 3 "" H 1900 1050 50  0001 C CNN
	1    1900 1050
	1    0    0    -1  
$EndComp
$Comp
L CG24-cells:R2N U25R131
U 1 1 5E881391
P 2650 4200
F 0 "U25R131" H 2675 4467 50  0000 C CNN
F 1 "R2N" H 2675 4376 50  0000 C CNN
F 2 "" H 2650 4200 50  0001 C CNN
F 3 "" H 2650 4200 50  0001 C CNN
	1    2650 4200
	1    0    0    -1  
$EndComp
$Comp
L CG24-cells:R2N U25R130
U 1 1 5E8895E0
P 3200 4250
F 0 "U25R130" H 3225 4517 50  0000 C CNN
F 1 "R2N" H 3225 4426 50  0000 C CNN
F 2 "" H 3200 4250 50  0001 C CNN
F 3 "" H 3200 4250 50  0001 C CNN
	1    3200 4250
	1    0    0    -1  
$EndComp
$Comp
L CG24-cells:R2P U24R130
U 1 1 5F3D3E20
P 4450 3800
F 0 "U24R130" H 4475 4067 50  0000 C CNN
F 1 "R2P" H 4475 3976 50  0000 C CNN
F 2 "" H 4450 3800 50  0001 C CNN
F 3 "" H 4450 3800 50  0001 C CNN
	1    4450 3800
	1    0    0    -1  
$EndComp
$Comp
L CG24-cells:N2N U18R133
U 1 1 5EAE1280
P 5100 1850
F 0 "U18R133" H 5125 2117 50  0000 C CNN
F 1 "N2N" H 5125 2026 50  0000 C CNN
F 2 "" H 5100 1850 50  0001 C CNN
F 3 "" H 5100 1850 50  0001 C CNN
	1    5100 1850
	1    0    0    -1  
$EndComp
$Comp
L CG24-cells:N2N U20R133
U 1 1 5F0C4F7B
P 5100 2400
F 0 "U20R133" H 5125 2667 50  0000 C CNN
F 1 "N2N" H 5125 2576 50  0000 C CNN
F 2 "" H 5100 2400 50  0001 C CNN
F 3 "" H 5100 2400 50  0001 C CNN
	1    5100 2400
	1    0    0    1   
$EndComp
$Comp
L CG24-cells:R2P U10R60
U 1 1 5E8EED41
P 5450 1000
F 0 "U10R60" H 5475 734 50  0000 C CNN
F 1 "R2P" H 5475 825 50  0000 C CNN
F 2 "" H 5450 1000 50  0001 C CNN
F 3 "" H 5450 1000 50  0001 C CNN
	1    5450 1000
	1    0    0    1   
$EndComp
$Comp
L CG24-cells:N2N U19R174
U 1 1 5E91F048
P 7650 3600
F 0 "U19R174" H 7675 3334 50  0000 C CNN
F 1 "N2N" H 7675 3425 50  0000 C CNN
F 2 "" H 7650 3600 50  0001 C CNN
F 3 "" H 7650 3600 50  0001 C CNN
	1    7650 3600
	1    0    0    1   
$EndComp
$Comp
L CG24-cells:R2P U34R142
U 1 1 5E89A431
P 7800 5600
F 0 "U34R142" H 7825 5867 50  0000 C CNN
F 1 "R2P" H 7825 5776 50  0000 C CNN
F 2 "" H 7800 5600 50  0001 C CNN
F 3 "" H 7800 5600 50  0001 C CNN
	1    7800 5600
	1    0    0    -1  
$EndComp
$Comp
L CG24-cells:R2P U14R40
U 1 1 5EF793DC
P 8150 4750
F 0 "U14R40" H 8175 4483 50  0000 C CNN
F 1 "R2P" H 8175 4574 50  0000 C CNN
F 2 "" H 8150 4750 50  0001 C CNN
F 3 "" H 8150 4750 50  0001 C CNN
	1    8150 4750
	1    0    0    -1  
$EndComp
$Comp
L CG24-cells:R2P U12R173
U 1 1 5E6F1A14
P 8300 3300
F 0 "U12R173" H 8325 3567 50  0000 C CNN
F 1 "R2P" H 8325 3476 50  0000 C CNN
F 2 "" H 8300 3300 50  0001 C CNN
F 3 "" H 8300 3300 50  0001 C CNN
	1    8300 3300
	1    0    0    -1  
$EndComp
$Comp
L CG24-cells:R2P U12R180
U 1 1 5E6F5906
P 8300 3900
F 0 "U12R180" H 8325 4167 50  0000 C CNN
F 1 "R2P" H 8325 4076 50  0000 C CNN
F 2 "" H 8300 3900 50  0001 C CNN
F 3 "" H 8300 3900 50  0001 C CNN
	1    8300 3900
	1    0    0    -1  
$EndComp
$Comp
L CG24-cells:R2P U14R50
U 1 1 5F0E61B3
P 8700 4700
F 0 "U14R50" H 8725 4967 50  0000 C CNN
F 1 "R2P" H 8725 4876 50  0000 C CNN
F 2 "" H 8700 4700 50  0001 C CNN
F 3 "" H 8700 4700 50  0001 C CNN
	1    8700 4700
	1    0    0    -1  
$EndComp
$Comp
L CG24-cells:R2P U34R50
U 1 1 5F129309
P 8700 5200
F 0 "U34R50" H 8725 5467 50  0000 C CNN
F 1 "R2P" H 8725 5376 50  0000 C CNN
F 2 "" H 8700 5200 50  0001 C CNN
F 3 "" H 8700 5200 50  0001 C CNN
	1    8700 5200
	1    0    0    -1  
$EndComp
$Comp
L CG24-cells:R2P U4R173
U 1 1 5EE554F5
P 9050 2800
F 0 "U4R173" H 9075 3067 50  0000 C CNN
F 1 "R2P" H 9075 2976 50  0000 C CNN
F 2 "" H 9050 2800 50  0001 C CNN
F 3 "" H 9050 2800 50  0001 C CNN
	1    9050 2800
	1    0    0    -1  
$EndComp
$Comp
L CG24-cells:N2P U12R50
U 1 1 5F020A6D
P 9250 4950
F 0 "U12R50" H 9275 5217 50  0000 C CNN
F 1 "N2P" H 9275 5126 50  0000 C CNN
F 2 "" H 9250 4950 50  0001 C CNN
F 3 "" H 9250 4950 50  0001 C CNN
	1    9250 4950
	1    0    0    -1  
$EndComp
$Comp
L CG24-cells:N3N U24R132
U 1 1 5F53C49A
P 3900 3750
F 0 "U24R132" H 3925 4064 50  0000 C CNN
F 1 "N3N" H 3925 3973 50  0000 C CNN
F 2 "" H 3900 3750 50  0001 C CNN
F 3 "" H 3900 3750 50  0001 C CNN
	1    3900 3750
	1    0    0    -1  
$EndComp
$Comp
L CG24-cells:V1N U18R123
U 1 1 5E881241
P 1700 7000
F 0 "U18R123" H 1700 7317 50  0000 C CNN
F 1 "V1N" H 1700 7226 50  0000 C CNN
F 2 "" H 1700 6800 50  0001 C CNN
F 3 "" H 1700 6800 50  0001 C CNN
	1    1700 7000
	1    0    0    -1  
$EndComp
$Comp
L CG24-cells:V1N U26R24
U 1 1 5E91BCD9
P 1700 7550
F 0 "U26R24" H 1700 7867 50  0000 C CNN
F 1 "V1N" H 1700 7776 50  0000 C CNN
F 2 "" H 1700 7350 50  0001 C CNN
F 3 "" H 1700 7350 50  0001 C CNN
	1    1700 7550
	1    0    0    -1  
$EndComp
$Comp
L CG24-cells:V1N U28R133
U 1 1 5F35385A
P 2700 4850
F 0 "U28R133" H 2700 5167 50  0000 C CNN
F 1 "V1N" H 2700 5076 50  0000 C CNN
F 2 "" H 2700 4650 50  0001 C CNN
F 3 "" H 2700 4650 50  0001 C CNN
	1    2700 4850
	1    0    0    1   
$EndComp
$Comp
L CG24-cells:BD6 U22R124
U 1 1 5EE70A3B
P 3200 3500
F 0 "U22R124" H 3200 3817 50  0000 C CNN
F 1 "BD6" H 3200 3726 50  0000 C CNN
F 2 "" H 3200 3500 50  0001 C CNN
F 3 "" H 3200 3500 50  0001 C CNN
	1    3200 3500
	1    0    0    -1  
$EndComp
$Comp
L CG24-cells:V1N U17R120
U 1 1 5EF70770
P 6450 4200
F 0 "U17R120" H 6450 4517 50  0000 C CNN
F 1 "V1N" H 6450 4426 50  0000 C CNN
F 2 "" H 6450 4000 50  0001 C CNN
F 3 "" H 6450 4000 50  0001 C CNN
	1    6450 4200
	1    0    0    -1  
$EndComp
$Comp
L CG24-cells:V1N U34R174
U 1 1 5E98714D
P 6900 5550
AR Path="/5E919108/5E98714D" Ref="U34R174"  Part="1" 
AR Path="/5E90DB79/5E98714D" Ref="U34R174"  Part="1" 
AR Path="/5E87023F/5E98714D" Ref="U34R174"  Part="1" 
F 0 "U34R174" H 6900 5234 50  0000 C CNN
F 1 "V1N" H 6900 5325 50  0000 C CNN
F 2 "" H 6900 5350 50  0001 C CNN
F 3 "" H 6900 5350 50  0001 C CNN
	1    6900 5550
	1    0    0    1   
$EndComp
$Comp
L CG24-cells:B1N U6R179
U 1 1 5E94E948
P 8300 1050
F 0 "U6R179" H 8300 1367 50  0000 C CNN
F 1 "B1N" H 8300 1276 50  0000 C CNN
F 2 "" H 8300 1050 50  0001 C CNN
F 3 "" H 8300 1050 50  0001 C CNN
	1    8300 1050
	1    0    0    -1  
$EndComp
$Comp
L CG24-cells:V1N U8R179
U 1 1 5E94D480
P 8300 1600
F 0 "U8R179" H 8300 1917 50  0000 C CNN
F 1 "V1N" H 8300 1826 50  0000 C CNN
F 2 "" H 8300 1400 50  0001 C CNN
F 3 "" H 8300 1400 50  0001 C CNN
	1    8300 1600
	1    0    0    -1  
$EndComp
$Comp
L CG24-cells:B1N U4R154
U 1 1 5E6EAB3F
P 9050 2300
F 0 "U4R154" H 9050 1983 50  0000 C CNN
F 1 "B1N" H 9050 2074 50  0000 C CNN
F 2 "" H 9050 2300 50  0001 C CNN
F 3 "" H 9050 2300 50  0001 C CNN
	1    9050 2300
	1    0    0    1   
$EndComp
$Comp
L CG24-cells:B1N U11R183
U 1 1 5EB83341
P 9150 4350
F 0 "U11R183" H 9150 4034 50  0000 C CNN
F 1 "B1N" H 9150 4125 50  0000 C CNN
F 2 "" H 9150 4350 50  0001 C CNN
F 3 "" H 9150 4350 50  0001 C CNN
	1    9150 4350
	1    0    0    1   
$EndComp
$Comp
L CG24-cells:FDN U18R58
U 1 1 5E8F3D96
P 2800 1150
F 0 "U18R58" H 2800 873 50  0000 C CNN
F 1 "FDN" H 2950 1414 50  0000 C CNN
F 2 "" H 2800 1150 50  0001 C CNN
F 3 "" H 2800 1150 50  0001 C CNN
	1    2800 1150
	1    0    0    -1  
$EndComp
$Comp
L CG24-cells:FDO U26R31
U 1 1 5F462B63
P 3750 5450
F 0 "U26R31" H 3750 5700 50  0000 C CNN
F 1 "FDO" H 3850 5200 50  0000 C CNN
F 2 "" H 3750 5450 50  0001 C CNN
F 3 "" H 3750 5450 50  0001 C CNN
	1    3750 5450
	1    0    0    -1  
$EndComp
$Comp
L CG24-cells:FDN U26R27
U 1 1 5E8ECC89
P 4650 1150
F 0 "U26R27" H 4650 873 50  0000 C CNN
F 1 "FDN" H 4800 1414 50  0000 C CNN
F 2 "" H 4650 1150 50  0001 C CNN
F 3 "" H 4650 1150 50  0001 C CNN
	1    4650 1150
	1    0    0    -1  
$EndComp
$Comp
L CG24-cells:FDO U28R38
U 1 1 5F34F5A9
P 4650 5450
F 0 "U28R38" H 4650 5700 50  0000 C CNN
F 1 "FDO" H 4750 5200 50  0000 C CNN
F 2 "" H 4650 5450 50  0001 C CNN
F 3 "" H 4650 5450 50  0001 C CNN
	1    4650 5450
	1    0    0    -1  
$EndComp
$Comp
L CG24-cells:FDN U22R89
U 1 1 5E9E9EFB
P 5500 5250
F 0 "U22R89" H 5500 4973 50  0000 C CNN
F 1 "FDN" H 5650 5514 50  0000 C CNN
F 2 "" H 5500 5250 50  0001 C CNN
F 3 "" H 5500 5250 50  0001 C CNN
	1    5500 5250
	1    0    0    -1  
$EndComp
$Comp
L CG24-cells:FDN U16R120
U 1 1 5E95A660
P 7000 4600
F 0 "U16R120" H 7000 4323 50  0000 C CNN
F 1 "FDN" H 7150 4864 50  0000 C CNN
F 2 "" H 7000 4600 50  0001 C CNN
F 3 "" H 7000 4600 50  0001 C CNN
	1    7000 4600
	1    0    0    -1  
$EndComp
$EndSCHEMATC
