EESchema Schematic File Version 5
EELAYER 33 0
EELAYER END
$Descr A4 11693 8268
encoding utf-8
Sheet 15 20
Title ""
Date "2020-04-12"
Rev ""
Comp ""
Comment1 ""
Comment2 "Licence: CC-BY"
Comment3 "Author: Loic *WydD* Petit"
Comment4 "Project: CPS2 Reverse Engineering: DL-1827"
Comment5 ""
Comment6 ""
Comment7 ""
Comment8 ""
Comment9 ""
$EndDescr
Connection ~ 3850 2150
Connection ~ 4550 4700
Connection ~ 4450 4600
Connection ~ 4550 5200
Connection ~ 4450 5100
Connection ~ 3850 2900
Connection ~ 4450 4100
Connection ~ 4550 5700
Connection ~ 3800 5700
Connection ~ 7750 4100
Connection ~ 7650 5200
Connection ~ 6750 4500
Connection ~ 6750 2900
Connection ~ 6750 3500
Wire Wire Line
	3700 5700 3800 5700
Wire Wire Line
	3800 5700 3800 6150
Wire Wire Line
	3800 5700 3850 5700
Wire Wire Line
	3800 6150 4450 6150
Wire Wire Line
	3850 2150 3850 2900
Wire Wire Line
	3850 2900 3850 4100
Wire Wire Line
	4450 3500 4450 4100
Wire Wire Line
	4450 3500 6750 3500
Wire Wire Line
	4450 4100 4450 4600
Wire Wire Line
	4450 4600 4450 5100
Wire Wire Line
	4450 4600 4650 4600
Wire Wire Line
	4450 5100 4450 5600
Wire Wire Line
	4450 5600 4650 5600
Wire Wire Line
	4450 5700 4550 5700
Wire Wire Line
	4550 4200 4550 4700
Wire Wire Line
	4550 4200 4650 4200
Wire Wire Line
	4550 4700 4550 5200
Wire Wire Line
	4550 5200 4550 5700
Wire Wire Line
	4550 5700 4550 5900
Wire Wire Line
	4550 5700 4650 5700
Wire Wire Line
	4550 5900 7650 5900
Wire Wire Line
	4650 4100 4450 4100
Wire Wire Line
	4650 4700 4550 4700
Wire Wire Line
	4650 5100 4450 5100
Wire Wire Line
	4650 5200 4550 5200
Wire Wire Line
	6750 2150 6750 2900
Wire Wire Line
	6750 2900 6750 3500
Wire Wire Line
	6750 3500 6750 4500
Wire Wire Line
	6750 4500 6750 5300
Wire Wire Line
	7350 4500 8400 4500
Wire Wire Line
	7350 5300 8400 5300
Wire Wire Line
	7550 3750 7750 3750
Wire Wire Line
	7650 4400 7650 5200
Wire Wire Line
	7650 4400 8400 4400
Wire Wire Line
	7650 5200 7650 5900
Wire Wire Line
	7650 5200 8400 5200
Wire Wire Line
	7750 4100 7750 3750
Wire Wire Line
	7750 4100 7750 4900
Wire Wire Line
	8350 4100 8950 4100
Wire Wire Line
	8350 4900 8950 4900
Wire Wire Line
	8950 4100 8950 4350
Wire Wire Line
	8950 4900 8950 5150
Text HLabel 2500 5700 0    50   Input ~ 0
DEBUG
Text HLabel 2650 2150 0    50   Input ~ 0
~RESET
Text HLabel 4450 2150 2    50   Output ~ 0
IN-ENABLE1
Text HLabel 4450 2900 2    50   Output ~ 0
IN-ENABLE2
Text HLabel 4450 6150 2    50   Output ~ 0
~OUT-DEBUG
Text HLabel 5200 4150 2    50   Output ~ 0
OUT-ENABLE1
Text HLabel 5200 4650 2    50   Output ~ 0
OUT-ENABLE2
Text HLabel 5200 5150 2    50   Output ~ 0
OUT-ENABLE3
Text HLabel 5200 5650 2    50   Output ~ 0
OUT-ENABLE4
Text HLabel 7550 3750 0    50   Input ~ 0
OBJRAM-W~R
Text HLabel 7950 2150 2    50   Output ~ 0
~CPU-BGERR
Text HLabel 7950 2900 2    50   Output ~ 0
~CPU-IPL0
Text HLabel 9500 4400 2    50   Output ~ 0
OUT-SRAM
Text HLabel 9500 5200 2    50   Output ~ 0
OUT-OBJRAM
$Comp
L CG24-cells:R2P U12R142
U 1 1 5E71152C
P 4900 4150
F 0 "U12R142" H 4925 3883 50  0000 C CNN
F 1 "R2P" H 4925 3974 50  0000 C CNN
F 2 "" H 4900 4150 50  0001 C CNN
F 3 "" H 4900 4150 50  0001 C CNN
	1    4900 4150
	1    0    0    1   
$EndComp
$Comp
L CG24-cells:R2P U8R163
U 1 1 5E73566D
P 4900 4650
F 0 "U8R163" H 4925 4383 50  0000 C CNN
F 1 "R2P" H 4925 4474 50  0000 C CNN
F 2 "" H 4900 4650 50  0001 C CNN
F 3 "" H 4900 4650 50  0001 C CNN
	1    4900 4650
	1    0    0    1   
$EndComp
$Comp
L CG24-cells:R2P U14R142
U 1 1 5E72E15C
P 4900 5150
F 0 "U14R142" H 4925 4883 50  0000 C CNN
F 1 "R2P" H 4925 4974 50  0000 C CNN
F 2 "" H 4900 5150 50  0001 C CNN
F 3 "" H 4900 5150 50  0001 C CNN
	1    4900 5150
	1    0    0    1   
$EndComp
$Comp
L CG24-cells:R2P U8R142
U 1 1 5E70F225
P 4900 5650
F 0 "U8R142" H 4925 5383 50  0000 C CNN
F 1 "R2P" H 4925 5474 50  0000 C CNN
F 2 "" H 4900 5650 50  0001 C CNN
F 3 "" H 4900 5650 50  0001 C CNN
	1    4900 5650
	1    0    0    1   
$EndComp
$Comp
L CG24-cells:R2P U14R163
U 1 1 5E741EB3
P 8650 4450
F 0 "U14R163" H 8675 4183 50  0000 C CNN
F 1 "R2P" H 8675 4274 50  0000 C CNN
F 2 "" H 8650 4450 50  0001 C CNN
F 3 "" H 8650 4450 50  0001 C CNN
	1    8650 4450
	1    0    0    1   
$EndComp
$Comp
L CG24-cells:R2P U8R152
U 1 1 5FDACEFB
P 8650 5250
F 0 "U8R152" H 8675 5517 50  0000 C CNN
F 1 "R2P" H 8675 5426 50  0000 C CNN
F 2 "" H 8650 5250 50  0001 C CNN
F 3 "" H 8650 5250 50  0001 C CNN
	1    8650 5250
	1    0    0    -1  
$EndComp
$Comp
L CG24-cells:R2N U32R164
U 1 1 5E74504B
P 9200 4400
F 0 "U32R164" H 9225 4133 50  0000 C CNN
F 1 "R2N" H 9225 4224 50  0000 C CNN
F 2 "" H 9200 4400 50  0001 C CNN
F 3 "" H 9200 4400 50  0001 C CNN
	1    9200 4400
	1    0    0    1   
$EndComp
$Comp
L CG24-cells:R2N U9R154
U 1 1 5FDABE39
P 9200 5200
F 0 "U9R154" H 9225 4933 50  0000 C CNN
F 1 "R2N" H 9225 5024 50  0000 C CNN
F 2 "" H 9200 5200 50  0001 C CNN
F 3 "" H 9200 5200 50  0001 C CNN
	1    9200 5200
	1    0    0    1   
$EndComp
$Comp
L CG24-cells:I2S U2R94
U 1 1 5E6E8CCF
P 2800 5700
F 0 "U2R94" H 2800 6017 50  0000 C CNN
F 1 "I2S" H 2800 5926 50  0000 C CNN
F 2 "" H 2800 5700 50  0001 C CNN
F 3 "" H 2800 5700 50  0001 C CNN
	1    2800 5700
	1    0    0    -1  
$EndComp
$Comp
L CG24-cells:I2R U8R22
U 1 1 5E6FFDB4
P 2950 2150
F 0 "U8R22" H 2950 1833 50  0000 C CNN
F 1 "I2R" H 2950 1924 50  0000 C CNN
F 2 "" H 2950 2150 50  0001 C CNN
F 3 "" H 2950 2150 50  0001 C CNN
	1    2950 2150
	1    0    0    1   
$EndComp
$Comp
L CG24-cells:V1N U5R102
U 1 1 5E6E97D8
P 3400 5700
F 0 "U5R102" H 3400 6017 50  0000 C CNN
F 1 "V1N" H 3400 5926 50  0000 C CNN
F 2 "" H 3400 5500 50  0001 C CNN
F 3 "" H 3400 5500 50  0001 C CNN
	1    3400 5700
	1    0    0    -1  
$EndComp
$Comp
L CG24-cells:V1N U12R133
U 1 1 5E6FE9FB
P 3550 2150
F 0 "U12R133" H 3550 2467 50  0000 C CNN
F 1 "V1N" H 3550 2376 50  0000 C CNN
F 2 "" H 3550 1950 50  0001 C CNN
F 3 "" H 3550 1950 50  0001 C CNN
	1    3550 2150
	1    0    0    -1  
$EndComp
$Comp
L CG24-cells:V2B U12R154
U 1 1 5E6FBF5A
P 4150 2150
F 0 "U12R154" H 4150 1833 50  0000 C CNN
F 1 "V2B" H 4150 1924 50  0000 C CNN
F 2 "" H 4150 1950 50  0001 C CNN
F 3 "" H 4150 1950 50  0001 C CNN
	1    4150 2150
	1    0    0    1   
$EndComp
$Comp
L CG24-cells:V2B U14R154
U 1 1 5E73E784
P 4150 2900
F 0 "U14R154" H 4150 2583 50  0000 C CNN
F 1 "V2B" H 4150 2674 50  0000 C CNN
F 2 "" H 4150 2700 50  0001 C CNN
F 3 "" H 4150 2700 50  0001 C CNN
	1    4150 2900
	1    0    0    1   
$EndComp
$Comp
L CG24-cells:V2B U13R154
U 1 1 5E72FA07
P 4150 4100
F 0 "U13R154" H 4150 3783 50  0000 C CNN
F 1 "V2B" H 4150 3874 50  0000 C CNN
F 2 "" H 4150 3900 50  0001 C CNN
F 3 "" H 4150 3900 50  0001 C CNN
	1    4150 4100
	1    0    0    1   
$EndComp
$Comp
L CG24-cells:V2B U16R143
U 1 1 60490C41
P 4150 5700
F 0 "U16R143" H 4150 6017 50  0000 C CNN
F 1 "V2B" H 4150 5926 50  0000 C CNN
F 2 "" H 4150 5500 50  0001 C CNN
F 3 "" H 4150 5500 50  0001 C CNN
	1    4150 5700
	1    0    0    -1  
$EndComp
$Comp
L CG24-cells:B1N U2R143
U 1 1 5EAC2219
P 7050 2150
F 0 "U2R143" H 7050 1833 50  0000 C CNN
F 1 "B1N" H 7050 1924 50  0000 C CNN
F 2 "" H 7050 2150 50  0001 C CNN
F 3 "" H 7050 2150 50  0001 C CNN
	1    7050 2150
	1    0    0    1   
$EndComp
$Comp
L CG24-cells:B1N U2R154
U 1 1 5E6EB468
P 7050 2900
F 0 "U2R154" H 7050 2583 50  0000 C CNN
F 1 "B1N" H 7050 2674 50  0000 C CNN
F 2 "" H 7050 2900 50  0001 C CNN
F 3 "" H 7050 2900 50  0001 C CNN
	1    7050 2900
	1    0    0    1   
$EndComp
$Comp
L CG24-cells:V1N U12R164
U 1 1 5E7346DD
P 7050 4500
F 0 "U12R164" H 7050 4817 50  0000 C CNN
F 1 "V1N" H 7050 4726 50  0000 C CNN
F 2 "" H 7050 4300 50  0001 C CNN
F 3 "" H 7050 4300 50  0001 C CNN
	1    7050 4500
	1    0    0    -1  
$EndComp
$Comp
L CG24-cells:V1N U9R153
U 1 1 5E73B040
P 7050 5300
F 0 "U9R153" H 7050 5617 50  0000 C CNN
F 1 "V1N" H 7050 5526 50  0000 C CNN
F 2 "" H 7050 5100 50  0001 C CNN
F 3 "" H 7050 5100 50  0001 C CNN
	1    7050 5300
	1    0    0    -1  
$EndComp
$Comp
L CG24-cells:O1B U2R138
U 1 1 5EB9983D
P 7650 2150
F 0 "U2R138" H 7650 2467 50  0000 C CNN
F 1 "O1B" H 7650 2376 50  0000 C CNN
F 2 "" H 7650 1950 50  0001 C CNN
F 3 "" H 7650 1950 50  0001 C CNN
	1    7650 2150
	1    0    0    -1  
$EndComp
$Comp
L CG24-cells:O1B U2R159
U 1 1 5E80A1CE
P 7650 2900
F 0 "U2R159" H 7650 3217 50  0000 C CNN
F 1 "O1B" H 7650 3126 50  0000 C CNN
F 2 "" H 7650 2700 50  0001 C CNN
F 3 "" H 7650 2700 50  0001 C CNN
	1    7650 2900
	1    0    0    -1  
$EndComp
$Comp
L CG24-cells:V1N U32R154
U 1 1 5E747C02
P 8050 4100
F 0 "U32R154" H 8050 4417 50  0000 C CNN
F 1 "V1N" H 8050 4326 50  0000 C CNN
F 2 "" H 8050 3900 50  0001 C CNN
F 3 "" H 8050 3900 50  0001 C CNN
	1    8050 4100
	1    0    0    -1  
$EndComp
$Comp
L CG24-cells:B1N U18R154
U 1 1 60901F8C
P 8050 4900
F 0 "U18R154" H 8050 4583 50  0000 C CNN
F 1 "B1N" H 8050 4674 50  0000 C CNN
F 2 "" H 8050 4900 50  0001 C CNN
F 3 "" H 8050 4900 50  0001 C CNN
	1    8050 4900
	1    0    0    1   
$EndComp
$EndSCHEMATC
