EESchema Schematic File Version 5
EELAYER 33 0
EELAYER END
$Descr A4 11693 8268
encoding utf-8
Sheet 9 20
Title ""
Date "2020-04-12"
Rev ""
Comp ""
Comment1 ""
Comment2 "Licence: CC-BY"
Comment3 "Author: Loic *WydD* Petit"
Comment4 "Project: CPS2 Reverse Engineering: DL-1827"
Comment5 ""
Comment6 ""
Comment7 ""
Comment8 ""
Comment9 ""
$EndDescr
Connection ~ 6350 4250
Connection ~ 6350 3400
NoConn ~ 7500 3850
NoConn ~ 7500 4500
Wire Wire Line
	3750 4050 6400 4050
Wire Wire Line
	3750 4700 6400 4700
Wire Wire Line
	3900 3150 3750 3150
Wire Wire Line
	4500 3150 5300 3150
Wire Wire Line
	4850 3350 5400 3350
Wire Wire Line
	4850 3450 5400 3450
Wire Wire Line
	4850 3550 5400 3550
Wire Wire Line
	5300 3150 5300 3250
Wire Wire Line
	5300 3250 5400 3250
Wire Wire Line
	6000 3400 6350 3400
Wire Wire Line
	6350 3400 6350 4250
Wire Wire Line
	6350 3400 7700 3400
Wire Wire Line
	6350 4250 7250 4250
Wire Wire Line
	6350 4900 6350 4250
Wire Wire Line
	6350 4900 7250 4900
Wire Wire Line
	7500 4000 7700 4000
Wire Wire Line
	7500 4650 7700 4650
Text Label 5000 3350 0    50   ~ 0
FC0
Text Label 5000 3450 0    50   ~ 0
FC1
Text Label 5000 3550 0    50   ~ 0
FC2
Text Label 6000 3400 0    50   ~ 0
25R132
Text HLabel 3750 3150 0    50   Input ~ 0
~BGACK
Text HLabel 3750 4050 0    50   Input ~ 0
~VBLANK
Text HLabel 3750 4700 0    50   Input ~ 0
~CPSB-OBJUP
Text HLabel 4850 3350 0    50   Input ~ 0
FC0
Text HLabel 4850 3450 0    50   Input ~ 0
FC1
Text HLabel 4850 3550 0    50   Input ~ 0
FC2
Text HLabel 7700 3400 2    50   Output ~ 0
~VPA
Text HLabel 7700 4000 2    50   Output ~ 0
~IPL1
Text HLabel 7700 4650 2    50   Output ~ 0
~IPL2
$Comp
L power:VCC #PWR0110
U 1 1 5F4A9745
P 7000 3850
F 0 "#PWR0110" H 7000 3700 50  0001 C CNN
F 1 "VCC" H 7017 4023 50  0001 C CNN
F 2 "" H 7000 3850 50  0001 C CNN
F 3 "" H 7000 3850 50  0001 C CNN
	1    7000 3850
	-1   0    0    -1  
$EndComp
$Comp
L power:VCC #PWR0109
U 1 1 5E83603E
P 7000 4500
F 0 "#PWR0109" H 7000 4350 50  0001 C CNN
F 1 "VCC" H 7017 4673 50  0001 C CNN
F 2 "" H 7000 4500 50  0001 C CNN
F 3 "" H 7000 4500 50  0001 C CNN
	1    7000 4500
	-1   0    0    -1  
$EndComp
$Comp
L CG24-cells:V1N U25R129
U 1 1 5E7B7350
P 4200 3150
F 0 "U25R129" H 4200 3467 50  0000 C CNN
F 1 "V1N" H 4200 3376 50  0000 C CNN
F 2 "" H 4200 2950 50  0001 C CNN
F 3 "" H 4200 2950 50  0001 C CNN
	1    4200 3150
	1    0    0    -1  
$EndComp
$Comp
L CG24-cells:V1N U4R123
U 1 1 5E700090
P 6700 4050
F 0 "U4R123" H 6700 4367 50  0000 C CNN
F 1 "V1N" H 6700 4276 50  0000 C CNN
F 2 "" H 6700 3850 50  0001 C CNN
F 3 "" H 6700 3850 50  0001 C CNN
	1    6700 4050
	1    0    0    -1  
$EndComp
$Comp
L CG24-cells:V1N U8R123
U 1 1 5F141238
P 6700 4700
F 0 "U8R123" H 6700 5017 50  0000 C CNN
F 1 "V1N" H 6700 4926 50  0000 C CNN
F 2 "" H 6700 4500 50  0001 C CNN
F 3 "" H 6700 4500 50  0001 C CNN
	1    6700 4700
	1    0    0    -1  
$EndComp
$Comp
L CG24-cells:N4N U25R132
U 1 1 5E7B40CF
P 5700 3400
F 0 "U25R132" H 5700 3775 50  0000 C CNN
F 1 "N4N" H 5700 3684 50  0000 C CNN
F 2 "" H 5700 3150 50  0001 C CNN
F 3 "" H 5700 3150 50  0001 C CNN
	1    5700 3400
	1    0    0    1   
$EndComp
$Comp
L CG24-cells:FDO U4R130
U 1 1 5E766AD4
P 7250 3950
F 0 "U4R130" H 7250 4200 50  0000 C CNN
F 1 "FDO" H 7150 3700 50  0000 C CNN
F 2 "" H 7250 3950 50  0001 C CNN
F 3 "" H 7250 3950 50  0001 C CNN
	1    7250 3950
	1    0    0    -1  
$EndComp
$Comp
L CG24-cells:FDO U8R110
U 1 1 5F14123E
P 7250 4600
F 0 "U8R110" H 7250 4850 50  0000 C CNN
F 1 "FDO" H 7150 4350 50  0000 C CNN
F 2 "" H 7250 4600 50  0001 C CNN
F 3 "" H 7250 4600 50  0001 C CNN
	1    7250 4600
	1    0    0    -1  
$EndComp
$EndSCHEMATC
