EESchema Schematic File Version 5
EELAYER 33 0
EELAYER END
$Descr A4 11693 8268
encoding utf-8
Sheet 6 20
Title ""
Date "2020-04-12"
Rev ""
Comp ""
Comment1 ""
Comment2 "Licence: CC-BY"
Comment3 "Author: Loic *WydD* Petit"
Comment4 "Project: CPS2 Reverse Engineering: DL-1827"
Comment5 ""
Comment6 ""
Comment7 ""
Comment8 ""
Comment9 ""
$EndDescr
Connection ~ 4700 6350
Connection ~ 4700 5650
Connection ~ 4700 3500
Connection ~ 4700 2800
Connection ~ 4700 4900
Connection ~ 4700 4200
Connection ~ 4700 2100
Connection ~ 6250 3950
Wire Wire Line
	4250 6350 4700 6350
Wire Wire Line
	4700 1350 4700 2100
Wire Wire Line
	4700 1350 5950 1350
Wire Wire Line
	4700 2100 4700 2800
Wire Wire Line
	4700 2100 5950 2100
Wire Wire Line
	4700 2800 4700 3500
Wire Wire Line
	4700 2800 5950 2800
Wire Wire Line
	4700 3500 4700 4200
Wire Wire Line
	4700 3500 5950 3500
Wire Wire Line
	4700 4200 4700 4900
Wire Wire Line
	4700 4200 5950 4200
Wire Wire Line
	4700 4900 4700 5650
Wire Wire Line
	4700 4900 5950 4900
Wire Wire Line
	4700 5650 4700 6350
Wire Wire Line
	4700 5650 5950 5650
Wire Wire Line
	4700 6350 5950 6350
Wire Wire Line
	6250 3950 6250 4250
Wire Wire Line
	6250 4250 7000 4250
Wire Wire Line
	6250 5400 7000 5400
Wire Wire Line
	6250 6100 7000 6100
Wire Wire Line
	6850 1100 7000 1100
Wire Wire Line
	6850 1850 7000 1850
Wire Wire Line
	6850 2550 7000 2550
Wire Wire Line
	6850 3250 7000 3250
Wire Wire Line
	6850 3950 7000 3950
Wire Wire Line
	7000 4650 6250 4650
Text HLabel 3650 6350 0    50   Input ~ 0
ENABLE
Text HLabel 5650 1100 0    50   Input ~ 0
~_OBJRAM-WL
Text HLabel 5650 1850 0    50   Input ~ 0
~_OBJRAM-WH
Text HLabel 5650 2550 0    50   Input ~ 0
~_OBJRAM-OE
Text HLabel 5650 3250 0    50   Input ~ 0
~_OBJRAM-E
Text HLabel 5650 3950 0    50   Input ~ 0
~_CPU-AS
Text HLabel 5650 4650 0    50   Input ~ 0
~_CPU-LDSW
Text HLabel 5650 5400 0    50   Input ~ 0
~_CPU-BG
Text HLabel 5650 6100 0    50   Input ~ 0
_OBJRAM-ADDR12
Text HLabel 7000 1100 2    50   Output ~ 0
~OBJRAM-WL
Text HLabel 7000 1850 2    50   Output ~ 0
~OBJRAM-WH
Text HLabel 7000 2550 2    50   Output ~ 0
~OBJRAM-OE
Text HLabel 7000 3250 2    50   Output ~ 0
~OBJRAM-E
Text HLabel 7000 3950 2    50   Output ~ 0
CPU-AS
Text HLabel 7000 4250 2    50   Output ~ 0
~CPU-AS
Text HLabel 7000 4650 2    50   Output ~ 0
~CPU-LDSW
Text HLabel 7000 5400 2    50   Output ~ 0
~CPU-BG
Text HLabel 7000 6100 2    50   Output ~ 0
OBJRAM-ADDR12
$Comp
L CG24-cells:V1L U22R163
U 1 1 5E6FCF08
P 3950 6350
F 0 "U22R163" H 3950 6033 50  0000 C CNN
F 1 "V1L" H 3950 6124 50  0000 C CNN
F 2 "" H 3950 6150 50  0001 C CNN
F 3 "" H 3950 6150 50  0001 C CNN
	1    3950 6350
	1    0    0    1   
$EndComp
$Comp
L CG24-cells:B1N U21R180
U 1 1 5EC14A41
P 6550 1100
F 0 "U21R180" H 6550 1417 50  0000 C CNN
F 1 "B1N" H 6550 1326 50  0000 C CNN
F 2 "" H 6550 1100 50  0001 C CNN
F 3 "" H 6550 1100 50  0001 C CNN
	1    6550 1100
	1    0    0    -1  
$EndComp
$Comp
L CG24-cells:B1N U18R180
U 1 1 5EC29D3B
P 6550 1850
F 0 "U18R180" H 6550 2167 50  0000 C CNN
F 1 "B1N" H 6550 2076 50  0000 C CNN
F 2 "" H 6550 1850 50  0001 C CNN
F 3 "" H 6550 1850 50  0001 C CNN
	1    6550 1850
	1    0    0    -1  
$EndComp
$Comp
L CG24-cells:B1N U32R31
U 1 1 5E749DE9
P 6550 2550
F 0 "U32R31" H 6550 2233 50  0000 C CNN
F 1 "B1N" H 6550 2324 50  0000 C CNN
F 2 "" H 6550 2550 50  0001 C CNN
F 3 "" H 6550 2550 50  0001 C CNN
	1    6550 2550
	1    0    0    1   
$EndComp
$Comp
L CG24-cells:B1N U34R31
U 1 1 5E979B9D
P 6550 3250
F 0 "U34R31" H 6550 2933 50  0000 C CNN
F 1 "B1N" H 6550 3024 50  0000 C CNN
F 2 "" H 6550 3250 50  0001 C CNN
F 3 "" H 6550 3250 50  0001 C CNN
	1    6550 3250
	1    0    0    1   
$EndComp
$Comp
L CG24-cells:V1N U40R143
U 1 1 5E8C1C2E
P 6550 3950
F 0 "U40R143" H 6550 4267 50  0000 C CNN
F 1 "V1N" H 6550 4176 50  0000 C CNN
F 2 "" H 6550 3750 50  0001 C CNN
F 3 "" H 6550 3750 50  0001 C CNN
	1    6550 3950
	1    0    0    -1  
$EndComp
$Comp
L CG24-cells:B12 U30R24
U 1 1 5EC22C69
P 5950 1100
F 0 "U30R24" H 5950 1465 50  0000 C CNN
F 1 "B12" H 5950 1374 50  0000 C CNN
F 2 "" H 5950 1100 50  0001 C CNN
F 3 "" H 5950 1100 50  0001 C CNN
	1    5950 1100
	1    0    0    -1  
$EndComp
$Comp
L CG24-cells:B12 U32R22
U 1 1 5E828742
P 5950 1850
F 0 "U32R22" H 5950 2215 50  0000 C CNN
F 1 "B12" H 5950 2124 50  0000 C CNN
F 2 "" H 5950 1850 50  0001 C CNN
F 3 "" H 5950 1850 50  0001 C CNN
	1    5950 1850
	1    0    0    -1  
$EndComp
$Comp
L CG24-cells:B12 U30R22
U 1 1 60547A0A
P 5950 2550
F 0 "U30R22" H 5950 2915 50  0000 C CNN
F 1 "B12" H 5950 2824 50  0000 C CNN
F 2 "" H 5950 2550 50  0001 C CNN
F 3 "" H 5950 2550 50  0001 C CNN
	1    5950 2550
	1    0    0    -1  
$EndComp
$Comp
L CG24-cells:B12 U28R22
U 1 1 5E85BD6E
P 5950 3250
F 0 "U28R22" H 5950 3615 50  0000 C CNN
F 1 "B12" H 5950 3524 50  0000 C CNN
F 2 "" H 5950 3250 50  0001 C CNN
F 3 "" H 5950 3250 50  0001 C CNN
	1    5950 3250
	1    0    0    -1  
$EndComp
$Comp
L CG24-cells:B12 U40R180
U 1 1 5E8C6DB7
P 5950 3950
F 0 "U40R180" H 5950 4315 50  0000 C CNN
F 1 "B12" H 5950 4224 50  0000 C CNN
F 2 "" H 5950 3950 50  0001 C CNN
F 3 "" H 5950 3950 50  0001 C CNN
	1    5950 3950
	1    0    0    -1  
$EndComp
$Comp
L CG24-cells:B12 U38R181
U 1 1 5E6F4013
P 5950 4650
F 0 "U38R181" H 5950 5015 50  0000 C CNN
F 1 "B12" H 5950 4924 50  0000 C CNN
F 2 "" H 5950 4650 50  0001 C CNN
F 3 "" H 5950 4650 50  0001 C CNN
	1    5950 4650
	1    0    0    -1  
$EndComp
$Comp
L CG24-cells:B12 U42R183
U 1 1 5F3D4501
P 5950 5400
F 0 "U42R183" H 5950 5765 50  0000 C CNN
F 1 "B12" H 5950 5674 50  0000 C CNN
F 2 "" H 5950 5400 50  0001 C CNN
F 3 "" H 5950 5400 50  0001 C CNN
	1    5950 5400
	1    0    0    -1  
$EndComp
$Comp
L CG24-cells:B12 U42R?
U 1 1 5E82E373
P 5950 6100
AR Path="/5E82E373" Ref="U42R?"  Part="1" 
AR Path="/5F7DAEE5/5E82E373" Ref="U42R?"  Part="1" 
AR Path="/5E7F68AA/5E82E373" Ref="U16R183"  Part="1" 
AR Path="/5E9D3BEC/5E82E373" Ref="U16R183"  Part="1" 
F 0 "U16R183" H 5950 6465 50  0000 C CNN
F 1 "B12" H 5950 6374 50  0000 C CNN
F 2 "" H 5950 6100 50  0001 C CNN
F 3 "" H 5950 6100 50  0001 C CNN
	1    5950 6100
	1    0    0    -1  
$EndComp
$EndSCHEMATC
