EESchema Schematic File Version 5
EELAYER 33 0
EELAYER END
$Descr A4 11693 8268
encoding utf-8
Sheet 17 20
Title ""
Date "2020-04-12"
Rev ""
Comp ""
Comment1 ""
Comment2 "Licence: CC-BY"
Comment3 "Author: Loic *WydD* Petit"
Comment4 "Project: CPS2 Reverse Engineering: DL-1827"
Comment5 ""
Comment6 ""
Comment7 ""
Comment8 ""
Comment9 ""
$EndDescr
Entry Wire Line
	1950 1400 1850 1300
Entry Wire Line
	1950 1950 1850 1850
Entry Wire Line
	1950 2500 1850 2400
Entry Wire Line
	1950 3050 1850 2950
Entry Wire Line
	1950 3600 1850 3500
Entry Wire Line
	1950 4150 1850 4050
Entry Wire Line
	1950 4700 1850 4600
Entry Wire Line
	1950 5250 1850 5150
Entry Wire Line
	3400 1400 3500 1500
Entry Wire Line
	3400 1950 3500 2050
Entry Wire Line
	3400 2500 3500 2600
Entry Wire Line
	3400 3050 3500 3150
Entry Wire Line
	3400 3600 3500 3700
Entry Wire Line
	3400 4150 3500 4250
Entry Wire Line
	3400 4700 3500 4800
Entry Wire Line
	3400 5250 3500 5350
Entry Wire Line
	3600 1400 3500 1500
Entry Wire Line
	3600 1950 3500 2050
Entry Wire Line
	3600 2500 3500 2600
Entry Wire Line
	3600 3050 3500 3150
Entry Wire Line
	3600 3600 3500 3700
Entry Wire Line
	3600 4150 3500 4250
Entry Wire Line
	3600 4700 3500 4800
Entry Wire Line
	3600 5250 3500 5350
Entry Wire Line
	5050 1400 5150 1500
Entry Wire Line
	5050 1950 5150 2050
Entry Wire Line
	5050 2500 5150 2600
Entry Wire Line
	5050 3050 5150 3150
Entry Wire Line
	5050 3600 5150 3700
Entry Wire Line
	5050 4150 5150 4250
Entry Wire Line
	5050 4700 5150 4800
Entry Wire Line
	5050 5250 5150 5350
Entry Wire Line
	6650 1400 6550 1300
Entry Wire Line
	6650 1950 6550 1850
Entry Wire Line
	6650 2500 6550 2400
Entry Wire Line
	6650 3050 6550 2950
Entry Wire Line
	6650 3600 6550 3500
Entry Wire Line
	6650 4150 6550 4050
Entry Wire Line
	6650 4700 6550 4600
Entry Wire Line
	6650 5250 6550 5150
Entry Wire Line
	8100 1400 8200 1500
Entry Wire Line
	8100 1950 8200 2050
Entry Wire Line
	8100 2500 8200 2600
Entry Wire Line
	8100 3050 8200 3150
Entry Wire Line
	8100 3600 8200 3700
Entry Wire Line
	8100 4150 8200 4250
Entry Wire Line
	8100 4700 8200 4800
Entry Wire Line
	8100 5250 8200 5350
Entry Wire Line
	8300 1400 8200 1500
Entry Wire Line
	8300 1950 8200 2050
Entry Wire Line
	8300 2500 8200 2600
Entry Wire Line
	8300 3050 8200 3150
Entry Wire Line
	8300 3600 8200 3700
Entry Wire Line
	8300 4150 8200 4250
Entry Wire Line
	8300 4700 8200 4800
Entry Wire Line
	8300 5250 8200 5350
Entry Wire Line
	9750 1400 9850 1500
Entry Wire Line
	9750 1950 9850 2050
Entry Wire Line
	9750 2500 9850 2600
Entry Wire Line
	9750 3050 9850 3150
Entry Wire Line
	9750 3600 9850 3700
Entry Wire Line
	9750 4150 9850 4250
Entry Wire Line
	9750 4700 9850 4800
Entry Wire Line
	9750 5250 9850 5350
Wire Wire Line
	2400 1400 1950 1400
Wire Wire Line
	2400 1950 1950 1950
Wire Wire Line
	2400 2500 1950 2500
Wire Wire Line
	2400 3050 1950 3050
Wire Wire Line
	2400 3600 1950 3600
Wire Wire Line
	2400 4150 1950 4150
Wire Wire Line
	2400 4700 1950 4700
Wire Wire Line
	2400 5250 1950 5250
Wire Wire Line
	3000 1400 3400 1400
Wire Wire Line
	3000 1950 3400 1950
Wire Wire Line
	3000 2500 3400 2500
Wire Wire Line
	3000 3050 3400 3050
Wire Wire Line
	3000 3600 3400 3600
Wire Wire Line
	3000 4150 3400 4150
Wire Wire Line
	3000 4700 3400 4700
Wire Wire Line
	3000 5250 3400 5250
Wire Wire Line
	4000 1400 3600 1400
Wire Wire Line
	4000 1950 3600 1950
Wire Wire Line
	4000 2500 3600 2500
Wire Wire Line
	4000 3050 3600 3050
Wire Wire Line
	4000 3600 3600 3600
Wire Wire Line
	4000 4150 3600 4150
Wire Wire Line
	4000 4700 3600 4700
Wire Wire Line
	4000 5250 3600 5250
Wire Wire Line
	4600 1400 5050 1400
Wire Wire Line
	4600 1950 5050 1950
Wire Wire Line
	4600 2500 5050 2500
Wire Wire Line
	4600 3050 5050 3050
Wire Wire Line
	4600 3600 5050 3600
Wire Wire Line
	4600 4150 5050 4150
Wire Wire Line
	4600 4700 5050 4700
Wire Wire Line
	4600 5250 5050 5250
Wire Wire Line
	7100 1400 6650 1400
Wire Wire Line
	7100 1950 6650 1950
Wire Wire Line
	7100 2500 6650 2500
Wire Wire Line
	7100 3050 6650 3050
Wire Wire Line
	7100 3600 6650 3600
Wire Wire Line
	7100 4150 6650 4150
Wire Wire Line
	7100 4700 6650 4700
Wire Wire Line
	7100 5250 6650 5250
Wire Wire Line
	7700 1400 8100 1400
Wire Wire Line
	7700 1950 8100 1950
Wire Wire Line
	7700 2500 8100 2500
Wire Wire Line
	7700 3050 8100 3050
Wire Wire Line
	7700 3600 8100 3600
Wire Wire Line
	7700 4150 8100 4150
Wire Wire Line
	7700 4700 8100 4700
Wire Wire Line
	7700 5250 8100 5250
Wire Wire Line
	8700 1400 8300 1400
Wire Wire Line
	8700 1950 8300 1950
Wire Wire Line
	8700 2500 8300 2500
Wire Wire Line
	8700 3050 8300 3050
Wire Wire Line
	8700 3600 8300 3600
Wire Wire Line
	8700 4150 8300 4150
Wire Wire Line
	8700 4700 8300 4700
Wire Wire Line
	8700 5250 8300 5250
Wire Wire Line
	9300 1400 9750 1400
Wire Wire Line
	9300 1950 9750 1950
Wire Wire Line
	9300 2500 9750 2500
Wire Wire Line
	9300 3050 9750 3050
Wire Wire Line
	9300 3600 9750 3600
Wire Wire Line
	9300 4150 9750 4150
Wire Wire Line
	9300 4700 9750 4700
Wire Wire Line
	9300 5250 9750 5250
Wire Bus Line
	1850 850  1850 1850
Wire Bus Line
	1850 850  5150 850 
Wire Bus Line
	1850 1850 1850 2950
Wire Bus Line
	1850 2950 1850 4050
Wire Bus Line
	1850 4050 1850 5150
Wire Bus Line
	3500 1500 3500 2050
Wire Bus Line
	3500 2050 3500 3150
Wire Bus Line
	3500 3150 3500 3700
Wire Bus Line
	3500 3700 3500 4800
Wire Bus Line
	3500 4800 3500 5800
Wire Bus Line
	3500 5800 3150 5800
Wire Bus Line
	5150 850  5150 1500
Wire Bus Line
	5150 1500 5150 2600
Wire Bus Line
	5150 2600 5150 3700
Wire Bus Line
	5150 3700 5150 4800
Wire Bus Line
	5150 4800 5150 6000
Wire Bus Line
	5150 6000 3150 6000
Wire Bus Line
	6550 850  6550 1850
Wire Bus Line
	6550 850  9850 850 
Wire Bus Line
	6550 1850 6550 2950
Wire Bus Line
	6550 2950 6550 4050
Wire Bus Line
	6550 4050 6550 5150
Wire Bus Line
	8200 1500 8200 2600
Wire Bus Line
	8200 2600 8200 3700
Wire Bus Line
	8200 3700 8200 4800
Wire Bus Line
	8200 4800 8200 5800
Wire Bus Line
	8200 5800 7850 5800
Wire Bus Line
	9850 850  9850 2050
Wire Bus Line
	9850 2050 9850 3150
Wire Bus Line
	9850 3150 9850 4250
Wire Bus Line
	9850 4250 9850 5350
Wire Bus Line
	9850 5350 9850 6000
Wire Bus Line
	9850 6000 7850 6000
Text Label 2350 1400 2    50   ~ 0
OUT-A0
Text Label 2350 1950 2    50   ~ 0
OUT-A1
Text Label 2350 2500 2    50   ~ 0
OUT-A2
Text Label 2350 3050 2    50   ~ 0
OUT-A3
Text Label 2350 3600 2    50   ~ 0
OUT-A4
Text Label 2350 4150 2    50   ~ 0
OUT-A5
Text Label 2350 4700 2    50   ~ 0
OUT-A6
Text Label 2350 5250 2    50   ~ 0
OUT-A7
Text Label 3050 1400 0    50   ~ 0
IN-A0
Text Label 3050 1950 0    50   ~ 0
IN-A1
Text Label 3050 2500 0    50   ~ 0
IN-A2
Text Label 3050 3050 0    50   ~ 0
IN-A3
Text Label 3050 3600 0    50   ~ 0
IN-A4
Text Label 3050 4150 0    50   ~ 0
IN-A5
Text Label 3050 4700 0    50   ~ 0
IN-A6
Text Label 3050 5250 0    50   ~ 0
IN-A7
Text Label 3950 1400 2    50   ~ 0
IN-A8
Text Label 3950 1950 2    50   ~ 0
IN-A9
Text Label 3950 2500 2    50   ~ 0
IN-A10
Text Label 3950 3050 2    50   ~ 0
IN-A11
Text Label 3950 3600 2    50   ~ 0
IN-A12
Text Label 3950 4150 2    50   ~ 0
IN-A13
Text Label 3950 4700 2    50   ~ 0
IN-A14
Text Label 3950 5250 2    50   ~ 0
IN-A15
Text Label 4650 1400 0    50   ~ 0
OUT-A8
Text Label 4650 1950 0    50   ~ 0
OUT-A9
Text Label 4650 2500 0    50   ~ 0
OUT-A10
Text Label 4650 3050 0    50   ~ 0
OUT-A11
Text Label 4650 3600 0    50   ~ 0
OUT-A12
Text Label 4650 4150 0    50   ~ 0
OUT-A13
Text Label 4650 4700 0    50   ~ 0
OUT-A14
Text Label 4650 5250 0    50   ~ 0
OUT-A15
Text Label 7050 1400 2    50   ~ 0
OUT-B0
Text Label 7050 1950 2    50   ~ 0
OUT-B1
Text Label 7050 2500 2    50   ~ 0
OUT-B2
Text Label 7050 3050 2    50   ~ 0
OUT-B3
Text Label 7050 3600 2    50   ~ 0
OUT-B4
Text Label 7050 4150 2    50   ~ 0
OUT-B5
Text Label 7050 4700 2    50   ~ 0
OUT-B6
Text Label 7050 5250 2    50   ~ 0
OUT-B7
Text Label 7750 1400 0    50   ~ 0
IN-B0
Text Label 7750 1950 0    50   ~ 0
IN-B1
Text Label 7750 2500 0    50   ~ 0
IN-B2
Text Label 7750 3050 0    50   ~ 0
IN-B3
Text Label 7750 3600 0    50   ~ 0
IN-B4
Text Label 7750 4150 0    50   ~ 0
IN-B5
Text Label 7750 4700 0    50   ~ 0
IN-B6
Text Label 7750 5250 0    50   ~ 0
IN-B7
Text Label 8650 1400 2    50   ~ 0
IN-B8
Text Label 8650 1950 2    50   ~ 0
IN-B9
Text Label 8650 2500 2    50   ~ 0
IN-B10
Text Label 8650 3050 2    50   ~ 0
IN-B11
Text Label 8650 3600 2    50   ~ 0
IN-B12
Text Label 8650 4150 2    50   ~ 0
IN-B13
Text Label 8650 4700 2    50   ~ 0
IN-B14
Text Label 8650 5250 2    50   ~ 0
IN-B15
Text Label 9350 1400 0    50   ~ 0
OUT-B8
Text Label 9350 1950 0    50   ~ 0
OUT-B9
Text Label 9350 2500 0    50   ~ 0
OUT-B10
Text Label 9350 3050 0    50   ~ 0
OUT-B11
Text Label 9350 3600 0    50   ~ 0
OUT-B12
Text Label 9350 4150 0    50   ~ 0
OUT-B13
Text Label 9350 4700 0    50   ~ 0
OUT-B14
Text Label 9350 5250 0    50   ~ 0
OUT-B15
Text HLabel 3150 5800 0    50   Input ~ 0
IN-A[0..15]
Text HLabel 3150 6000 0    50   Output ~ 0
OUT-A[0..15]
Text HLabel 7850 5800 0    50   Input ~ 0
IN-B[0..15]
Text HLabel 7850 6000 0    50   Output ~ 0
OUT-B[0..15]
$Comp
L CG24-cells:B1N U39R?
U 1 1 5F1D7504
P 2700 1400
AR Path="/5F1D7504" Ref="U39R?"  Part="1" 
AR Path="/5F1C1FED/5F1D7504" Ref="U39R123"  Part="1" 
F 0 "U39R123" H 2700 1717 50  0000 C CNN
F 1 "B1N" H 2700 1626 50  0000 C CNN
F 2 "" H 2700 1400 50  0001 C CNN
F 3 "" H 2700 1400 50  0001 C CNN
	1    2700 1400
	-1   0    0    -1  
$EndComp
$Comp
L CG24-cells:B1N U40R?
U 1 1 5F1D753C
P 2700 1950
AR Path="/5F1D753C" Ref="U40R?"  Part="1" 
AR Path="/5F1C1FED/5F1D753C" Ref="U40R123"  Part="1" 
F 0 "U40R123" H 2700 2267 50  0000 C CNN
F 1 "B1N" H 2700 2176 50  0000 C CNN
F 2 "" H 2700 1950 50  0001 C CNN
F 3 "" H 2700 1950 50  0001 C CNN
	1    2700 1950
	-1   0    0    -1  
$EndComp
$Comp
L CG24-cells:B1N U41R?
U 1 1 5F1D7534
P 2700 2500
AR Path="/5F1D7534" Ref="U41R?"  Part="1" 
AR Path="/5F1C1FED/5F1D7534" Ref="U41R133"  Part="1" 
F 0 "U41R133" H 2700 2817 50  0000 C CNN
F 1 "B1N" H 2700 2726 50  0000 C CNN
F 2 "" H 2700 2500 50  0001 C CNN
F 3 "" H 2700 2500 50  0001 C CNN
	1    2700 2500
	-1   0    0    -1  
$EndComp
$Comp
L CG24-cells:B1N U40R?
U 1 1 5F1D752C
P 2700 3050
AR Path="/5F1D752C" Ref="U40R?"  Part="1" 
AR Path="/5F1C1FED/5F1D752C" Ref="U40R133"  Part="1" 
F 0 "U40R133" H 2700 3367 50  0000 C CNN
F 1 "B1N" H 2700 3276 50  0000 C CNN
F 2 "" H 2700 3050 50  0001 C CNN
F 3 "" H 2700 3050 50  0001 C CNN
	1    2700 3050
	-1   0    0    -1  
$EndComp
$Comp
L CG24-cells:B1N U24R?
U 1 1 5F1D7524
P 2700 3600
AR Path="/5F1D7524" Ref="U24R?"  Part="1" 
AR Path="/5F1C1FED/5F1D7524" Ref="U24R129"  Part="1" 
F 0 "U24R129" H 2700 3917 50  0000 C CNN
F 1 "B1N" H 2700 3826 50  0000 C CNN
F 2 "" H 2700 3600 50  0001 C CNN
F 3 "" H 2700 3600 50  0001 C CNN
	1    2700 3600
	-1   0    0    -1  
$EndComp
$Comp
L CG24-cells:B1N U28R?
U 1 1 5F1D751C
P 2700 4150
AR Path="/5F1D751C" Ref="U28R?"  Part="1" 
AR Path="/5F1C1FED/5F1D751C" Ref="U28R143"  Part="1" 
F 0 "U28R143" H 2700 4467 50  0000 C CNN
F 1 "B1N" H 2700 4376 50  0000 C CNN
F 2 "" H 2700 4150 50  0001 C CNN
F 3 "" H 2700 4150 50  0001 C CNN
	1    2700 4150
	-1   0    0    -1  
$EndComp
$Comp
L CG24-cells:B1N U19R?
U 1 1 5F1D7514
P 2700 4700
AR Path="/5F1D7514" Ref="U19R?"  Part="1" 
AR Path="/5F1C1FED/5F1D7514" Ref="U19R154"  Part="1" 
F 0 "U19R154" H 2700 5017 50  0000 C CNN
F 1 "B1N" H 2700 4926 50  0000 C CNN
F 2 "" H 2700 4700 50  0001 C CNN
F 3 "" H 2700 4700 50  0001 C CNN
	1    2700 4700
	-1   0    0    -1  
$EndComp
$Comp
L CG24-cells:B1N U20R?
U 1 1 5F1D750C
P 2700 5250
AR Path="/5F1D750C" Ref="U20R?"  Part="1" 
AR Path="/5F1C1FED/5F1D750C" Ref="U20R154"  Part="1" 
F 0 "U20R154" H 2700 5567 50  0000 C CNN
F 1 "B1N" H 2700 5476 50  0000 C CNN
F 2 "" H 2700 5250 50  0001 C CNN
F 3 "" H 2700 5250 50  0001 C CNN
	1    2700 5250
	-1   0    0    -1  
$EndComp
$Comp
L CG24-cells:B1N U39R?
U 1 1 5F1D8737
P 4300 1400
AR Path="/5F1D8737" Ref="U39R?"  Part="1" 
AR Path="/5F1C1FED/5F1D8737" Ref="U34R154"  Part="1" 
F 0 "U34R154" H 4300 1717 50  0000 C CNN
F 1 "B1N" H 4300 1626 50  0000 C CNN
F 2 "" H 4300 1400 50  0001 C CNN
F 3 "" H 4300 1400 50  0001 C CNN
	1    4300 1400
	1    0    0    -1  
$EndComp
$Comp
L CG24-cells:B1N U40R?
U 1 1 5F1D876F
P 4300 1950
AR Path="/5F1D876F" Ref="U40R?"  Part="1" 
AR Path="/5F1C1FED/5F1D876F" Ref="U36R154"  Part="1" 
F 0 "U36R154" H 4300 2267 50  0000 C CNN
F 1 "B1N" H 4300 2176 50  0000 C CNN
F 2 "" H 4300 1950 50  0001 C CNN
F 3 "" H 4300 1950 50  0001 C CNN
	1    4300 1950
	1    0    0    -1  
$EndComp
$Comp
L CG24-cells:B1N U41R?
U 1 1 5F1D8767
P 4300 2500
AR Path="/5F1D8767" Ref="U41R?"  Part="1" 
AR Path="/5F1C1FED/5F1D8767" Ref="U34R164"  Part="1" 
F 0 "U34R164" H 4300 2817 50  0000 C CNN
F 1 "B1N" H 4300 2726 50  0000 C CNN
F 2 "" H 4300 2500 50  0001 C CNN
F 3 "" H 4300 2500 50  0001 C CNN
	1    4300 2500
	1    0    0    -1  
$EndComp
$Comp
L CG24-cells:B1N U40R?
U 1 1 5F1D875F
P 4300 3050
AR Path="/5F1D875F" Ref="U40R?"  Part="1" 
AR Path="/5F1C1FED/5F1D875F" Ref="U29R154"  Part="1" 
F 0 "U29R154" H 4300 3367 50  0000 C CNN
F 1 "B1N" H 4300 3276 50  0000 C CNN
F 2 "" H 4300 3050 50  0001 C CNN
F 3 "" H 4300 3050 50  0001 C CNN
	1    4300 3050
	1    0    0    -1  
$EndComp
$Comp
L CG24-cells:B1N U24R?
U 1 1 5F1D8757
P 4300 3600
AR Path="/5F1D8757" Ref="U24R?"  Part="1" 
AR Path="/5F1C1FED/5F1D8757" Ref="U26R154"  Part="1" 
F 0 "U26R154" H 4300 3917 50  0000 C CNN
F 1 "B1N" H 4300 3826 50  0000 C CNN
F 2 "" H 4300 3600 50  0001 C CNN
F 3 "" H 4300 3600 50  0001 C CNN
	1    4300 3600
	1    0    0    -1  
$EndComp
$Comp
L CG24-cells:B1N U28R?
U 1 1 5F1D874F
P 4300 4150
AR Path="/5F1D874F" Ref="U28R?"  Part="1" 
AR Path="/5F1C1FED/5F1D874F" Ref="U28R154"  Part="1" 
F 0 "U28R154" H 4300 4467 50  0000 C CNN
F 1 "B1N" H 4300 4376 50  0000 C CNN
F 2 "" H 4300 4150 50  0001 C CNN
F 3 "" H 4300 4150 50  0001 C CNN
	1    4300 4150
	1    0    0    -1  
$EndComp
$Comp
L CG24-cells:B1N U19R?
U 1 1 5F1D8747
P 4300 4700
AR Path="/5F1D8747" Ref="U19R?"  Part="1" 
AR Path="/5F1C1FED/5F1D8747" Ref="U18R164"  Part="1" 
F 0 "U18R164" H 4300 5017 50  0000 C CNN
F 1 "B1N" H 4300 4926 50  0000 C CNN
F 2 "" H 4300 4700 50  0001 C CNN
F 3 "" H 4300 4700 50  0001 C CNN
	1    4300 4700
	1    0    0    -1  
$EndComp
$Comp
L CG24-cells:B1N U20R?
U 1 1 5F1D873F
P 4300 5250
AR Path="/5F1D873F" Ref="U20R?"  Part="1" 
AR Path="/5F1C1FED/5F1D873F" Ref="U20R174"  Part="1" 
F 0 "U20R174" H 4300 5567 50  0000 C CNN
F 1 "B1N" H 4300 5476 50  0000 C CNN
F 2 "" H 4300 5250 50  0001 C CNN
F 3 "" H 4300 5250 50  0001 C CNN
	1    4300 5250
	1    0    0    -1  
$EndComp
$Comp
L CG24-cells:B1N U39R?
U 1 1 5F2AE966
P 7400 1400
AR Path="/5F2AE966" Ref="U39R?"  Part="1" 
AR Path="/5F1C1FED/5F2AE966" Ref="U4R102"  Part="1" 
F 0 "U4R102" H 7400 1717 50  0000 C CNN
F 1 "B1N" H 7400 1626 50  0000 C CNN
F 2 "" H 7400 1400 50  0001 C CNN
F 3 "" H 7400 1400 50  0001 C CNN
	1    7400 1400
	-1   0    0    -1  
$EndComp
$Comp
L CG24-cells:B1N U40R?
U 1 1 5F2AE990
P 7400 1950
AR Path="/5F2AE990" Ref="U40R?"  Part="1" 
AR Path="/5F1C1FED/5F2AE990" Ref="U4R92"  Part="1" 
F 0 "U4R92" H 7400 2267 50  0000 C CNN
F 1 "B1N" H 7400 2176 50  0000 C CNN
F 2 "" H 7400 1950 50  0001 C CNN
F 3 "" H 7400 1950 50  0001 C CNN
	1    7400 1950
	-1   0    0    -1  
$EndComp
$Comp
L CG24-cells:B1N U41R?
U 1 1 5F2AE98A
P 7400 2500
AR Path="/5F2AE98A" Ref="U41R?"  Part="1" 
AR Path="/5F1C1FED/5F2AE98A" Ref="U12R82"  Part="1" 
F 0 "U12R82" H 7400 2817 50  0000 C CNN
F 1 "B1N" H 7400 2726 50  0000 C CNN
F 2 "" H 7400 2500 50  0001 C CNN
F 3 "" H 7400 2500 50  0001 C CNN
	1    7400 2500
	-1   0    0    -1  
$EndComp
$Comp
L CG24-cells:B1N U40R?
U 1 1 5F2AE984
P 7400 3050
AR Path="/5F2AE984" Ref="U40R?"  Part="1" 
AR Path="/5F1C1FED/5F2AE984" Ref="U13R72"  Part="1" 
F 0 "U13R72" H 7400 3367 50  0000 C CNN
F 1 "B1N" H 7400 3276 50  0000 C CNN
F 2 "" H 7400 3050 50  0001 C CNN
F 3 "" H 7400 3050 50  0001 C CNN
	1    7400 3050
	-1   0    0    -1  
$EndComp
$Comp
L CG24-cells:B1N U24R?
U 1 1 5F2AE97E
P 7400 3600
AR Path="/5F2AE97E" Ref="U24R?"  Part="1" 
AR Path="/5F1C1FED/5F2AE97E" Ref="U14R72"  Part="1" 
F 0 "U14R72" H 7400 3917 50  0000 C CNN
F 1 "B1N" H 7400 3826 50  0000 C CNN
F 2 "" H 7400 3600 50  0001 C CNN
F 3 "" H 7400 3600 50  0001 C CNN
	1    7400 3600
	-1   0    0    -1  
$EndComp
$Comp
L CG24-cells:B1N U28R?
U 1 1 5F2AE978
P 7400 4150
AR Path="/5F2AE978" Ref="U28R?"  Part="1" 
AR Path="/5F1C1FED/5F2AE978" Ref="U12R72"  Part="1" 
F 0 "U12R72" H 7400 4467 50  0000 C CNN
F 1 "B1N" H 7400 4376 50  0000 C CNN
F 2 "" H 7400 4150 50  0001 C CNN
F 3 "" H 7400 4150 50  0001 C CNN
	1    7400 4150
	-1   0    0    -1  
$EndComp
$Comp
L CG24-cells:B1N U19R?
U 1 1 5F2AE972
P 7400 4700
AR Path="/5F2AE972" Ref="U19R?"  Part="1" 
AR Path="/5F1C1FED/5F2AE972" Ref="U6R61"  Part="1" 
F 0 "U6R61" H 7400 5017 50  0000 C CNN
F 1 "B1N" H 7400 4926 50  0000 C CNN
F 2 "" H 7400 4700 50  0001 C CNN
F 3 "" H 7400 4700 50  0001 C CNN
	1    7400 4700
	-1   0    0    -1  
$EndComp
$Comp
L CG24-cells:B1N U20R?
U 1 1 5F2AE96C
P 7400 5250
AR Path="/5F2AE96C" Ref="U20R?"  Part="1" 
AR Path="/5F1C1FED/5F2AE96C" Ref="U6R51"  Part="1" 
F 0 "U6R51" H 7400 5567 50  0000 C CNN
F 1 "B1N" H 7400 5476 50  0000 C CNN
F 2 "" H 7400 5250 50  0001 C CNN
F 3 "" H 7400 5250 50  0001 C CNN
	1    7400 5250
	-1   0    0    -1  
$EndComp
$Comp
L CG24-cells:B1N U39R?
U 1 1 5F2AE996
P 9000 1400
AR Path="/5F2AE996" Ref="U39R?"  Part="1" 
AR Path="/5F1C1FED/5F2AE996" Ref="U8R61"  Part="1" 
F 0 "U8R61" H 9000 1717 50  0000 C CNN
F 1 "B1N" H 9000 1626 50  0000 C CNN
F 2 "" H 9000 1400 50  0001 C CNN
F 3 "" H 9000 1400 50  0001 C CNN
	1    9000 1400
	1    0    0    -1  
$EndComp
$Comp
L CG24-cells:B1N U40R?
U 1 1 5F2AE9C0
P 9000 1950
AR Path="/5F2AE9C0" Ref="U40R?"  Part="1" 
AR Path="/5F1C1FED/5F2AE9C0" Ref="U8R51"  Part="1" 
F 0 "U8R51" H 9000 2267 50  0000 C CNN
F 1 "B1N" H 9000 2176 50  0000 C CNN
F 2 "" H 9000 1950 50  0001 C CNN
F 3 "" H 9000 1950 50  0001 C CNN
	1    9000 1950
	1    0    0    -1  
$EndComp
$Comp
L CG24-cells:B1N U41R?
U 1 1 5F2AE9BA
P 9000 2500
AR Path="/5F2AE9BA" Ref="U41R?"  Part="1" 
AR Path="/5F1C1FED/5F2AE9BA" Ref="U6R41"  Part="1" 
F 0 "U6R41" H 9000 2817 50  0000 C CNN
F 1 "B1N" H 9000 2726 50  0000 C CNN
F 2 "" H 9000 2500 50  0001 C CNN
F 3 "" H 9000 2500 50  0001 C CNN
	1    9000 2500
	1    0    0    -1  
$EndComp
$Comp
L CG24-cells:B1N U40R?
U 1 1 5F2AE9B4
P 9000 3050
AR Path="/5F2AE9B4" Ref="U40R?"  Part="1" 
AR Path="/5F1C1FED/5F2AE9B4" Ref="U9R41"  Part="1" 
F 0 "U9R41" H 9000 3367 50  0000 C CNN
F 1 "B1N" H 9000 3276 50  0000 C CNN
F 2 "" H 9000 3050 50  0001 C CNN
F 3 "" H 9000 3050 50  0001 C CNN
	1    9000 3050
	1    0    0    -1  
$EndComp
$Comp
L CG24-cells:B1N U24R?
U 1 1 5F2AE9AE
P 9000 3600
AR Path="/5F2AE9AE" Ref="U24R?"  Part="1" 
AR Path="/5F1C1FED/5F2AE9AE" Ref="U10R41"  Part="1" 
F 0 "U10R41" H 9000 3917 50  0000 C CNN
F 1 "B1N" H 9000 3826 50  0000 C CNN
F 2 "" H 9000 3600 50  0001 C CNN
F 3 "" H 9000 3600 50  0001 C CNN
	1    9000 3600
	1    0    0    -1  
$EndComp
$Comp
L CG24-cells:B1N U28R?
U 1 1 5F2AE9A8
P 9000 4150
AR Path="/5F2AE9A8" Ref="U28R?"  Part="1" 
AR Path="/5F1C1FED/5F2AE9A8" Ref="U8R31"  Part="1" 
F 0 "U8R31" H 9000 4467 50  0000 C CNN
F 1 "B1N" H 9000 4376 50  0000 C CNN
F 2 "" H 9000 4150 50  0001 C CNN
F 3 "" H 9000 4150 50  0001 C CNN
	1    9000 4150
	1    0    0    -1  
$EndComp
$Comp
L CG24-cells:B1N U19R?
U 1 1 5F2AE9A2
P 9000 4700
AR Path="/5F2AE9A2" Ref="U19R?"  Part="1" 
AR Path="/5F1C1FED/5F2AE9A2" Ref="U10R31"  Part="1" 
F 0 "U10R31" H 9000 5017 50  0000 C CNN
F 1 "B1N" H 9000 4926 50  0000 C CNN
F 2 "" H 9000 4700 50  0001 C CNN
F 3 "" H 9000 4700 50  0001 C CNN
	1    9000 4700
	1    0    0    -1  
$EndComp
$Comp
L CG24-cells:B1N U20R?
U 1 1 5F2AE99C
P 9000 5250
AR Path="/5F2AE99C" Ref="U20R?"  Part="1" 
AR Path="/5F1C1FED/5F2AE99C" Ref="U8R41"  Part="1" 
F 0 "U8R41" H 9000 5567 50  0000 C CNN
F 1 "B1N" H 9000 5476 50  0000 C CNN
F 2 "" H 9000 5250 50  0001 C CNN
F 3 "" H 9000 5250 50  0001 C CNN
	1    9000 5250
	1    0    0    -1  
$EndComp
$EndSCHEMATC
