EESchema Schematic File Version 5
EELAYER 33 0
EELAYER END
$Descr A4 11693 8268
encoding utf-8
Sheet 2 20
Title ""
Date "2020-04-12"
Rev ""
Comp ""
Comment1 ""
Comment2 "Licence: CC-BY"
Comment3 "Author: Loic *WydD* Petit"
Comment4 "Project: CPS2 Reverse Engineering: DL-1827"
Comment5 ""
Comment6 ""
Comment7 ""
Comment8 ""
Comment9 ""
$EndDescr
Connection ~ 8400 1500
Connection ~ 9000 4300
Connection ~ 9000 5700
Connection ~ 9000 5000
Connection ~ 9000 1500
Connection ~ 9000 2900
Connection ~ 9000 2200
Connection ~ 3750 5700
Connection ~ 3750 5000
Connection ~ 3750 2900
Connection ~ 3750 2200
Connection ~ 3750 4300
Connection ~ 6650 5550
Connection ~ 6650 4850
Connection ~ 9500 4750
Connection ~ 9500 5450
Connection ~ 9500 6150
Connection ~ 9500 4050
Connection ~ 6650 2750
Connection ~ 9500 1250
Connection ~ 9500 1950
Connection ~ 9500 2650
Connection ~ 9500 3350
Connection ~ 1400 5550
Connection ~ 1400 4850
Connection ~ 1400 2750
Connection ~ 1400 2050
Connection ~ 4250 1250
Connection ~ 4250 1950
Connection ~ 4250 2650
Connection ~ 4250 3350
Connection ~ 4250 4050
Connection ~ 4250 4750
Connection ~ 4250 5450
Connection ~ 4250 6150
Connection ~ 3150 1500
Connection ~ 3750 1500
Connection ~ 3150 600 
Connection ~ 6050 6250
Connection ~ 6650 3450
Connection ~ 6650 6250
Connection ~ 800  6250
Connection ~ 1400 3450
Connection ~ 1400 6250
Connection ~ 5500 700 
Connection ~ 6150 6500
Connection ~ 6050 6600
Connection ~ 6650 2050
Connection ~ 3750 6700
Entry Wire Line
	1250 6950 1350 6850
Entry Wire Line
	1250 7050 1350 6950
Entry Wire Line
	1250 7150 1350 7050
Entry Wire Line
	1250 7250 1350 7150
Entry Wire Line
	1250 7350 1350 7250
Entry Wire Line
	1250 7450 1350 7350
Entry Wire Line
	1250 7550 1350 7450
Entry Wire Line
	1250 7650 1350 7550
Entry Wire Line
	1700 1100 1600 1200
Entry Wire Line
	1700 1800 1600 1900
Entry Wire Line
	1700 2500 1600 2600
Entry Wire Line
	1700 3200 1600 3300
Entry Wire Line
	1700 3900 1600 4000
Entry Wire Line
	1700 4600 1600 4700
Entry Wire Line
	1700 5300 1600 5400
Entry Wire Line
	1700 6000 1600 6100
Entry Wire Line
	2150 6850 2250 6750
Entry Wire Line
	2150 6950 2250 6850
Entry Wire Line
	2150 7050 2250 6950
Entry Wire Line
	2150 7150 2250 7050
Entry Wire Line
	2150 7250 2250 7150
Entry Wire Line
	2150 7350 2250 7250
Entry Wire Line
	2150 7450 2250 7350
Entry Wire Line
	2150 7550 2250 7450
Entry Wire Line
	2750 6950 2850 6850
Entry Wire Line
	2750 7050 2850 6950
Entry Wire Line
	2750 7150 2850 7050
Entry Wire Line
	2750 7250 2850 7150
Entry Wire Line
	2750 7350 2850 7250
Entry Wire Line
	2750 7450 2850 7350
Entry Wire Line
	2750 7550 2850 7450
Entry Wire Line
	2750 7650 2850 7550
Entry Wire Line
	3650 6850 3750 6750
Entry Wire Line
	3650 6950 3750 6850
Entry Wire Line
	3650 7050 3750 6950
Entry Wire Line
	3650 7150 3750 7050
Entry Wire Line
	3650 7250 3750 7150
Entry Wire Line
	3650 7350 3750 7250
Entry Wire Line
	3650 7450 3750 7350
Entry Wire Line
	3650 7550 3750 7450
Entry Wire Line
	5400 1250 5500 1150
Entry Wire Line
	5400 1950 5500 1850
Entry Wire Line
	5400 2650 5500 2550
Entry Wire Line
	5400 3350 5500 3250
Entry Wire Line
	5400 4050 5500 3950
Entry Wire Line
	5400 4750 5500 4650
Entry Wire Line
	5400 5450 5500 5350
Entry Wire Line
	5400 6150 5500 6050
Entry Wire Line
	6950 1100 6850 1200
Entry Wire Line
	6950 1800 6850 1900
Entry Wire Line
	6950 2500 6850 2600
Entry Wire Line
	6950 3200 6850 3300
Entry Wire Line
	6950 3900 6850 4000
Entry Wire Line
	6950 4600 6850 4700
Entry Wire Line
	6950 5300 6850 5400
Entry Wire Line
	6950 6000 6850 6100
Entry Wire Line
	10650 1250 10750 1150
Entry Wire Line
	10650 1950 10750 1850
Entry Wire Line
	10650 2650 10750 2550
Entry Wire Line
	10650 3350 10750 3250
Entry Wire Line
	10650 4050 10750 3950
Entry Wire Line
	10650 4750 10750 4650
Entry Wire Line
	10650 5450 10750 5350
Entry Wire Line
	10650 6150 10750 6050
Wire Wire Line
	800  3450 800  6250
Wire Wire Line
	800  6600 800  6250
Wire Wire Line
	800  6600 6050 6600
Wire Wire Line
	1350 6850 2150 6850
Wire Wire Line
	1350 6950 2150 6950
Wire Wire Line
	1350 7050 2150 7050
Wire Wire Line
	1350 7150 2150 7150
Wire Wire Line
	1350 7250 2150 7250
Wire Wire Line
	1350 7350 2150 7350
Wire Wire Line
	1350 7450 2150 7450
Wire Wire Line
	1350 7550 2150 7550
Wire Wire Line
	1400 1350 1400 2050
Wire Wire Line
	1400 1350 2550 1350
Wire Wire Line
	1400 2050 1400 2750
Wire Wire Line
	1400 2050 2550 2050
Wire Wire Line
	1400 2750 1400 3450
Wire Wire Line
	1400 2750 2550 2750
Wire Wire Line
	1400 3450 2550 3450
Wire Wire Line
	1400 4150 1400 4850
Wire Wire Line
	1400 4150 2550 4150
Wire Wire Line
	1400 4850 1400 5550
Wire Wire Line
	1400 4850 2550 4850
Wire Wire Line
	1400 5550 1400 6250
Wire Wire Line
	1400 5550 2550 5550
Wire Wire Line
	1400 6250 2550 6250
Wire Wire Line
	2100 600  3150 600 
Wire Wire Line
	2250 1100 1700 1100
Wire Wire Line
	2250 1800 1700 1800
Wire Wire Line
	2250 2500 1700 2500
Wire Wire Line
	2250 3200 1700 3200
Wire Wire Line
	2250 3900 1700 3900
Wire Wire Line
	2250 4600 1700 4600
Wire Wire Line
	2250 5300 1700 5300
Wire Wire Line
	2250 6000 1700 6000
Wire Wire Line
	2850 1100 4250 1100
Wire Wire Line
	2850 2500 4250 2500
Wire Wire Line
	2850 3900 4250 3900
Wire Wire Line
	2850 5300 4250 5300
Wire Wire Line
	2850 6850 3650 6850
Wire Wire Line
	2850 6950 3650 6950
Wire Wire Line
	2850 7050 3650 7050
Wire Wire Line
	2850 7150 3650 7150
Wire Wire Line
	2850 7250 3650 7250
Wire Wire Line
	2850 7350 3650 7350
Wire Wire Line
	2850 7450 3650 7450
Wire Wire Line
	2850 7550 3650 7550
Wire Wire Line
	3150 600  3150 1500
Wire Wire Line
	3150 600  8400 600 
Wire Wire Line
	3150 1500 3150 4300
Wire Wire Line
	3750 1500 3750 2200
Wire Wire Line
	3750 2200 3750 2900
Wire Wire Line
	3750 2200 4600 2200
Wire Wire Line
	3750 2900 3750 3600
Wire Wire Line
	3750 2900 4600 2900
Wire Wire Line
	3750 3600 4600 3600
Wire Wire Line
	3750 4300 3750 5000
Wire Wire Line
	3750 5000 3750 5700
Wire Wire Line
	3750 5000 4600 5000
Wire Wire Line
	3750 5700 3750 6400
Wire Wire Line
	3750 5700 4600 5700
Wire Wire Line
	3750 6400 4600 6400
Wire Wire Line
	4200 1250 4250 1250
Wire Wire Line
	4200 1950 4250 1950
Wire Wire Line
	4200 2650 4250 2650
Wire Wire Line
	4200 3350 4250 3350
Wire Wire Line
	4200 4050 4250 4050
Wire Wire Line
	4200 4750 4250 4750
Wire Wire Line
	4200 5450 4250 5450
Wire Wire Line
	4200 6150 4250 6150
Wire Wire Line
	4250 1100 4250 1250
Wire Wire Line
	4250 1250 4300 1250
Wire Wire Line
	4250 1800 2850 1800
Wire Wire Line
	4250 1800 4250 1950
Wire Wire Line
	4250 1950 4300 1950
Wire Wire Line
	4250 2500 4250 2650
Wire Wire Line
	4250 2650 4300 2650
Wire Wire Line
	4250 3200 2850 3200
Wire Wire Line
	4250 3200 4250 3350
Wire Wire Line
	4250 3350 4300 3350
Wire Wire Line
	4250 3900 4250 4050
Wire Wire Line
	4250 4050 4300 4050
Wire Wire Line
	4250 4600 2850 4600
Wire Wire Line
	4250 4600 4250 4750
Wire Wire Line
	4250 4750 4300 4750
Wire Wire Line
	4250 5300 4250 5450
Wire Wire Line
	4250 5450 4300 5450
Wire Wire Line
	4250 6000 2850 6000
Wire Wire Line
	4250 6000 4250 6150
Wire Wire Line
	4250 6150 4300 6150
Wire Wire Line
	4600 1500 3750 1500
Wire Wire Line
	4600 4300 3750 4300
Wire Wire Line
	4900 1250 5400 1250
Wire Wire Line
	4900 1950 5400 1950
Wire Wire Line
	4900 2650 5400 2650
Wire Wire Line
	4900 3350 5400 3350
Wire Wire Line
	4900 4050 5400 4050
Wire Wire Line
	4900 4750 5400 4750
Wire Wire Line
	4900 5450 5400 5450
Wire Wire Line
	4900 6150 5400 6150
Wire Wire Line
	5950 7400 6050 7400
Wire Wire Line
	6050 3450 6050 6250
Wire Wire Line
	6050 6250 6050 6600
Wire Wire Line
	6050 6600 6050 7400
Wire Wire Line
	6650 1350 6650 2050
Wire Wire Line
	6650 1350 7800 1350
Wire Wire Line
	6650 2050 6650 2750
Wire Wire Line
	6650 2050 7800 2050
Wire Wire Line
	6650 2750 6650 3450
Wire Wire Line
	6650 2750 7800 2750
Wire Wire Line
	6650 3450 7800 3450
Wire Wire Line
	6650 4150 6650 4850
Wire Wire Line
	6650 4150 7800 4150
Wire Wire Line
	6650 4850 6650 5550
Wire Wire Line
	6650 4850 7800 4850
Wire Wire Line
	6650 5550 6650 6250
Wire Wire Line
	6650 5550 7800 5550
Wire Wire Line
	6650 6250 7800 6250
Wire Wire Line
	7500 1100 6950 1100
Wire Wire Line
	7500 1800 6950 1800
Wire Wire Line
	7500 2500 6950 2500
Wire Wire Line
	7500 3200 6950 3200
Wire Wire Line
	7500 3900 6950 3900
Wire Wire Line
	7500 4600 6950 4600
Wire Wire Line
	7500 5300 6950 5300
Wire Wire Line
	7500 6000 6950 6000
Wire Wire Line
	8100 1100 9500 1100
Wire Wire Line
	8100 2500 9500 2500
Wire Wire Line
	8100 3900 9500 3900
Wire Wire Line
	8100 5300 9500 5300
Wire Wire Line
	8400 600  8400 1500
Wire Wire Line
	8400 4300 8400 1500
Wire Wire Line
	9000 1500 9000 2200
Wire Wire Line
	9000 2200 9000 2900
Wire Wire Line
	9000 2200 9850 2200
Wire Wire Line
	9000 2900 9000 3600
Wire Wire Line
	9000 2900 9850 2900
Wire Wire Line
	9000 3600 9850 3600
Wire Wire Line
	9000 4300 9000 5000
Wire Wire Line
	9000 5000 9000 5700
Wire Wire Line
	9000 5000 9850 5000
Wire Wire Line
	9000 5700 9000 6400
Wire Wire Line
	9000 5700 9850 5700
Wire Wire Line
	9000 6400 9850 6400
Wire Wire Line
	9450 1250 9500 1250
Wire Wire Line
	9450 1950 9500 1950
Wire Wire Line
	9450 2650 9500 2650
Wire Wire Line
	9450 3350 9500 3350
Wire Wire Line
	9450 4050 9500 4050
Wire Wire Line
	9450 4750 9500 4750
Wire Wire Line
	9450 5450 9500 5450
Wire Wire Line
	9450 6150 9500 6150
Wire Wire Line
	9500 1250 9500 1100
Wire Wire Line
	9500 1250 9550 1250
Wire Wire Line
	9500 1800 8100 1800
Wire Wire Line
	9500 1950 9500 1800
Wire Wire Line
	9500 1950 9550 1950
Wire Wire Line
	9500 2500 9500 2650
Wire Wire Line
	9500 2650 9550 2650
Wire Wire Line
	9500 3200 8100 3200
Wire Wire Line
	9500 3350 9500 3200
Wire Wire Line
	9500 3350 9550 3350
Wire Wire Line
	9500 3900 9500 4050
Wire Wire Line
	9500 4050 9550 4050
Wire Wire Line
	9500 4600 8100 4600
Wire Wire Line
	9500 4750 9500 4600
Wire Wire Line
	9500 4750 9550 4750
Wire Wire Line
	9500 5300 9500 5450
Wire Wire Line
	9500 5450 9550 5450
Wire Wire Line
	9500 6000 8100 6000
Wire Wire Line
	9500 6150 9500 6000
Wire Wire Line
	9500 6150 9550 6150
Wire Wire Line
	9850 1500 9000 1500
Wire Wire Line
	9850 4300 9000 4300
Wire Wire Line
	10150 1250 10650 1250
Wire Wire Line
	10150 1950 10650 1950
Wire Wire Line
	10150 2650 10650 2650
Wire Wire Line
	10150 3350 10650 3350
Wire Wire Line
	10150 4050 10650 4050
Wire Wire Line
	10150 4750 10650 4750
Wire Wire Line
	10150 5450 10650 5450
Wire Wire Line
	10150 6150 10650 6150
Wire Bus Line
	1000 7700 1250 7700
Wire Bus Line
	1250 6950 1250 7150
Wire Bus Line
	1250 7150 1250 7350
Wire Bus Line
	1250 7350 1250 7550
Wire Bus Line
	1250 7550 1250 7700
Wire Bus Line
	1600 1200 1600 1900
Wire Bus Line
	1600 1900 1600 3300
Wire Bus Line
	1600 3300 1600 4000
Wire Bus Line
	1600 4000 1600 5400
Wire Bus Line
	1600 5400 1600 6500
Wire Bus Line
	2250 6700 2250 6850
Wire Bus Line
	2250 6700 3750 6700
Wire Bus Line
	2250 6850 2250 6950
Wire Bus Line
	2250 6950 2250 7150
Wire Bus Line
	2250 7150 2250 7250
Wire Bus Line
	2250 7250 2250 7450
Wire Bus Line
	2550 7700 2750 7700
Wire Bus Line
	2750 6950 2750 7050
Wire Bus Line
	2750 7050 2750 7250
Wire Bus Line
	2750 7250 2750 7450
Wire Bus Line
	2750 7450 2750 7550
Wire Bus Line
	2750 7550 2750 7700
Wire Bus Line
	3750 6700 3750 6750
Wire Bus Line
	3750 6700 5500 6700
Wire Bus Line
	3750 6750 3750 6950
Wire Bus Line
	3750 6950 3750 7150
Wire Bus Line
	3750 7150 3750 7350
Wire Bus Line
	3750 7350 3750 7450
Wire Bus Line
	5500 700  2100 700 
Wire Bus Line
	5500 700  5500 1850
Wire Bus Line
	5500 700  10750 700 
Wire Bus Line
	5500 1850 5500 3250
Wire Bus Line
	5500 3250 5500 3950
Wire Bus Line
	5500 3950 5500 5350
Wire Bus Line
	5500 5350 5500 6700
Wire Bus Line
	6150 6500 1600 6500
Wire Bus Line
	6150 6500 6150 7500
Wire Bus Line
	6150 7500 5950 7500
Wire Bus Line
	6850 1200 6850 1900
Wire Bus Line
	6850 1900 6850 3300
Wire Bus Line
	6850 3300 6850 4700
Wire Bus Line
	6850 4700 6850 5400
Wire Bus Line
	6850 5400 6850 6500
Wire Bus Line
	6850 6500 6150 6500
Wire Bus Line
	10750 700  10750 1150
Wire Bus Line
	10750 1150 10750 2550
Wire Bus Line
	10750 2550 10750 3950
Wire Bus Line
	10750 3950 10750 4650
Wire Bus Line
	10750 4650 10750 6050
Text Label 1400 6850 0    50   ~ 0
DB0
Text Label 1400 6950 0    50   ~ 0
DB1
Text Label 1400 7050 0    50   ~ 0
DB2
Text Label 1400 7150 0    50   ~ 0
DB3
Text Label 1400 7250 0    50   ~ 0
DB4
Text Label 1400 7350 0    50   ~ 0
DB5
Text Label 1400 7450 0    50   ~ 0
DB6
Text Label 1400 7550 0    50   ~ 0
DB7
Text Label 2100 6850 2    50   ~ 0
DATA-IN8
Text Label 2100 6950 2    50   ~ 0
DATA-IN9
Text Label 2100 7050 2    50   ~ 0
DATA-IN10
Text Label 2100 7150 2    50   ~ 0
DATA-IN11
Text Label 2100 7250 2    50   ~ 0
DATA-IN12
Text Label 2100 7350 2    50   ~ 0
DATA-IN13
Text Label 2100 7450 2    50   ~ 0
DATA-IN14
Text Label 2100 7550 2    50   ~ 0
DATA-IN15
Text Label 2200 1100 2    50   ~ 0
DATA-OUT0
Text Label 2200 1800 2    50   ~ 0
DATA-OUT1
Text Label 2200 2500 2    50   ~ 0
DATA-OUT2
Text Label 2200 3200 2    50   ~ 0
DATA-OUT3
Text Label 2200 3900 2    50   ~ 0
DATA-OUT4
Text Label 2200 4600 2    50   ~ 0
DATA-OUT5
Text Label 2200 5300 2    50   ~ 0
DATA-OUT6
Text Label 2200 6000 2    50   ~ 0
DATA-OUT7
Text Label 2900 6850 0    50   ~ 0
DA0
Text Label 2900 6950 0    50   ~ 0
DA1
Text Label 2900 7050 0    50   ~ 0
DA2
Text Label 2900 7150 0    50   ~ 0
DA3
Text Label 2900 7250 0    50   ~ 0
DA4
Text Label 2900 7350 0    50   ~ 0
DA5
Text Label 2900 7450 0    50   ~ 0
DA6
Text Label 2900 7550 0    50   ~ 0
DA7
Text Label 3600 6850 2    50   ~ 0
DATA-IN0
Text Label 3600 6950 2    50   ~ 0
DATA-IN1
Text Label 3600 7050 2    50   ~ 0
DATA-IN2
Text Label 3600 7150 2    50   ~ 0
DATA-IN3
Text Label 3600 7250 2    50   ~ 0
DATA-IN4
Text Label 3600 7350 2    50   ~ 0
DATA-IN5
Text Label 3600 7450 2    50   ~ 0
DATA-IN6
Text Label 3600 7550 2    50   ~ 0
DATA-IN7
Text Label 4950 1250 0    50   ~ 0
DATA-IN0
Text Label 4950 1950 0    50   ~ 0
DATA-IN1
Text Label 4950 2650 0    50   ~ 0
DATA-IN2
Text Label 4950 3350 0    50   ~ 0
DATA-IN3
Text Label 4950 4050 0    50   ~ 0
DATA-IN4
Text Label 4950 4750 0    50   ~ 0
DATA-IN5
Text Label 4950 5450 0    50   ~ 0
DATA-IN6
Text Label 4950 6150 0    50   ~ 0
DATA-IN7
Text Label 7450 1100 2    50   ~ 0
DATA-OUT8
Text Label 7450 1800 2    50   ~ 0
DATA-OUT9
Text Label 7450 2500 2    50   ~ 0
DATA-OUT10
Text Label 7450 3200 2    50   ~ 0
DATA-OUT11
Text Label 7450 3900 2    50   ~ 0
DATA-OUT12
Text Label 7450 4600 2    50   ~ 0
DATA-OUT13
Text Label 7450 5300 2    50   ~ 0
DATA-OUT14
Text Label 7450 6000 2    50   ~ 0
DATA-OUT15
Text Label 10200 1250 0    50   ~ 0
DATA-IN8
Text Label 10200 1950 0    50   ~ 0
DATA-IN9
Text Label 10200 2650 0    50   ~ 0
DATA-IN10
Text Label 10200 3350 0    50   ~ 0
DATA-IN11
Text Label 10200 4050 0    50   ~ 0
DATA-IN12
Text Label 10200 4750 0    50   ~ 0
DATA-IN13
Text Label 10200 5450 0    50   ~ 0
DATA-IN14
Text Label 10200 6150 0    50   ~ 0
DATA-IN15
Text HLabel 1000 7700 0    50   Output ~ 0
DB[0..7]
Text HLabel 2100 600  0    50   Input ~ 0
IN-ENABLE
Text HLabel 2100 700  0    50   Output ~ 0
DATA-IN[0..15]
Text HLabel 2550 7700 0    50   Output ~ 0
DA[0..7]
Text HLabel 4200 1250 0    50   BiDi ~ 0
DATA0
Text HLabel 4200 1950 0    50   BiDi ~ 0
DATA1
Text HLabel 4200 2650 0    50   BiDi ~ 0
DATA2
Text HLabel 4200 3350 0    50   BiDi ~ 0
DATA3
Text HLabel 4200 4050 0    50   BiDi ~ 0
DATA4
Text HLabel 4200 4750 0    50   BiDi ~ 0
DATA5
Text HLabel 4200 5450 0    50   BiDi ~ 0
DATA6
Text HLabel 4200 6150 0    50   BiDi ~ 0
DATA7
Text HLabel 5950 7400 0    50   Input ~ 0
OUT-ENABLE
Text HLabel 5950 7500 0    50   Input ~ 0
DATA-OUT[0..15]
Text HLabel 9450 1250 0    50   BiDi ~ 0
DATA8
Text HLabel 9450 1950 0    50   BiDi ~ 0
DATA9
Text HLabel 9450 2650 0    50   BiDi ~ 0
DATA10
Text HLabel 9450 3350 0    50   BiDi ~ 0
DATA11
Text HLabel 9450 4050 0    50   BiDi ~ 0
DATA12
Text HLabel 9450 4750 0    50   BiDi ~ 0
DATA13
Text HLabel 9450 5450 0    50   BiDi ~ 0
DATA14
Text HLabel 9450 6150 0    50   BiDi ~ 0
DATA15
$Comp
L CG24-cells:V2B U42R?
U 1 1 5E7DFA93
P 1100 3450
AR Path="/5F7DAEE5/5E7DFA93" Ref="U42R?"  Part="1" 
AR Path="/5E7C51BB/5E7DFA93" Ref="U2R71"  Part="1" 
F 0 "U2R71" H 1100 3767 50  0000 C CNN
F 1 "V2B" H 1100 3676 50  0000 C CNN
F 2 "" H 1100 3250 50  0001 C CNN
F 3 "" H 1100 3250 50  0001 C CNN
	1    1100 3450
	1    0    0    -1  
$EndComp
$Comp
L CG24-cells:V2B U40R?
U 1 1 5E7DFA6C
P 1100 6250
AR Path="/5F7DAEE5/5E7DFA6C" Ref="U40R?"  Part="1" 
AR Path="/5E7C51BB/5E7DFA6C" Ref="U4R61"  Part="1" 
F 0 "U4R61" H 1100 6567 50  0000 C CNN
F 1 "V2B" H 1100 6476 50  0000 C CNN
F 2 "" H 1100 6050 50  0001 C CNN
F 3 "" H 1100 6050 50  0001 C CNN
	1    1100 6250
	1    0    0    -1  
$EndComp
$Comp
L CG24-cells:V2B U38R?
U 1 1 5E7DF9D9
P 3450 1500
AR Path="/5F7DAEE5/5E7DF9D9" Ref="U38R?"  Part="1" 
AR Path="/5E7C51BB/5E7DF9D9" Ref="U14R113"  Part="1" 
F 0 "U14R113" H 3450 1817 50  0000 C CNN
F 1 "V2B" H 3450 1726 50  0000 C CNN
F 2 "" H 3450 1300 50  0001 C CNN
F 3 "" H 3450 1300 50  0001 C CNN
	1    3450 1500
	1    0    0    -1  
$EndComp
$Comp
L CG24-cells:V2B U38R?
U 1 1 5E7DF9D2
P 3450 4300
AR Path="/5F7DAEE5/5E7DF9D2" Ref="U38R?"  Part="1" 
AR Path="/5E7C51BB/5E7DF9D2" Ref="U12R113"  Part="1" 
F 0 "U12R113" H 3450 4617 50  0000 C CNN
F 1 "V2B" H 3450 4526 50  0000 C CNN
F 2 "" H 3450 4100 50  0001 C CNN
F 3 "" H 3450 4100 50  0001 C CNN
	1    3450 4300
	1    0    0    -1  
$EndComp
$Comp
L CG24-cells:V2B U43R?
U 1 1 5E7DFA35
P 6350 3450
AR Path="/5F7DAEE5/5E7DFA35" Ref="U43R?"  Part="1" 
AR Path="/5E7C51BB/5E7DFA35" Ref="U2R50"  Part="1" 
F 0 "U2R50" H 6350 3767 50  0000 C CNN
F 1 "V2B" H 6350 3676 50  0000 C CNN
F 2 "" H 6350 3250 50  0001 C CNN
F 3 "" H 6350 3250 50  0001 C CNN
	1    6350 3450
	1    0    0    -1  
$EndComp
$Comp
L CG24-cells:V2B U43R?
U 1 1 5E7DF9F7
P 6350 6250
AR Path="/5F7DAEE5/5E7DF9F7" Ref="U43R?"  Part="1" 
AR Path="/5E7C51BB/5E7DF9F7" Ref="U5R37"  Part="1" 
F 0 "U5R37" H 6350 6567 50  0000 C CNN
F 1 "V2B" H 6350 6476 50  0000 C CNN
F 2 "" H 6350 6050 50  0001 C CNN
F 3 "" H 6350 6050 50  0001 C CNN
	1    6350 6250
	1    0    0    -1  
$EndComp
$Comp
L CG24-cells:V2B U38R?
U 1 1 5E7DF95C
P 8700 1500
AR Path="/5F7DAEE5/5E7DF95C" Ref="U38R?"  Part="1" 
AR Path="/5E7C51BB/5E7DF95C" Ref="U17R133"  Part="1" 
F 0 "U17R133" H 8700 1817 50  0000 C CNN
F 1 "V2B" H 8700 1726 50  0000 C CNN
F 2 "" H 8700 1300 50  0001 C CNN
F 3 "" H 8700 1300 50  0001 C CNN
	1    8700 1500
	1    0    0    -1  
$EndComp
$Comp
L CG24-cells:V2B U36R?
U 1 1 5E7DF937
P 8700 4300
AR Path="/5F7DAEE5/5E7DF937" Ref="U36R?"  Part="1" 
AR Path="/5E7C51BB/5E7DF937" Ref="U16R133"  Part="1" 
F 0 "U16R133" H 8700 4617 50  0000 C CNN
F 1 "V2B" H 8700 4526 50  0000 C CNN
F 2 "" H 8700 4100 50  0001 C CNN
F 3 "" H 8700 4100 50  0001 C CNN
	1    8700 4300
	1    0    0    -1  
$EndComp
$Comp
L CG24-cells:O4R U40R?
U 1 1 5E7DFA7B
P 2550 1100
AR Path="/5E7DFA7B" Ref="U40R?"  Part="1" 
AR Path="/5F7DAEE5/5E7DFA7B" Ref="U40R?"  Part="1" 
AR Path="/5E7C51BB/5E7DFA7B" Ref="U2R85"  Part="1" 
F 0 "U2R85" H 2550 1417 50  0000 C CNN
F 1 "O4R" H 2550 1326 50  0000 C CNN
F 2 "" H 2550 1100 50  0001 C CNN
F 3 "" H 2550 1100 50  0001 C CNN
	1    2550 1100
	1    0    0    -1  
$EndComp
$Comp
L CG24-cells:O4R U42R?
U 1 1 5E7DFA81
P 2550 1800
AR Path="/5E7DFA81" Ref="U42R?"  Part="1" 
AR Path="/5F7DAEE5/5E7DFA81" Ref="U42R?"  Part="1" 
AR Path="/5E7C51BB/5E7DFA81" Ref="U2R83"  Part="1" 
F 0 "U2R83" H 2550 2117 50  0000 C CNN
F 1 "O4R" H 2550 2026 50  0000 C CNN
F 2 "" H 2550 1800 50  0001 C CNN
F 3 "" H 2550 1800 50  0001 C CNN
	1    2550 1800
	1    0    0    -1  
$EndComp
$Comp
L CG24-cells:O4R U42R?
U 1 1 5E7DFA87
P 2550 2500
AR Path="/5E7DFA87" Ref="U42R?"  Part="1" 
AR Path="/5F7DAEE5/5E7DFA87" Ref="U42R?"  Part="1" 
AR Path="/5E7C51BB/5E7DFA87" Ref="U2R74"  Part="1" 
F 0 "U2R74" H 2550 2817 50  0000 C CNN
F 1 "O4R" H 2550 2726 50  0000 C CNN
F 2 "" H 2550 2500 50  0001 C CNN
F 3 "" H 2550 2500 50  0001 C CNN
	1    2550 2500
	1    0    0    -1  
$EndComp
$Comp
L CG24-cells:O4R U42R?
U 1 1 5E7DFA8D
P 2550 3200
AR Path="/5E7DFA8D" Ref="U42R?"  Part="1" 
AR Path="/5F7DAEE5/5E7DFA8D" Ref="U42R?"  Part="1" 
AR Path="/5E7C51BB/5E7DFA8D" Ref="U2R72"  Part="1" 
F 0 "U2R72" H 2550 3517 50  0000 C CNN
F 1 "O4R" H 2550 3426 50  0000 C CNN
F 2 "" H 2550 3200 50  0001 C CNN
F 3 "" H 2550 3200 50  0001 C CNN
	1    2550 3200
	1    0    0    -1  
$EndComp
$Comp
L CG24-cells:O4R U40R?
U 1 1 5E7DFA54
P 2550 3900
AR Path="/5E7DFA54" Ref="U40R?"  Part="1" 
AR Path="/5F7DAEE5/5E7DFA54" Ref="U40R?"  Part="1" 
AR Path="/5E7C51BB/5E7DFA54" Ref="U2R64"  Part="1" 
F 0 "U2R64" H 2550 4217 50  0000 C CNN
F 1 "O4R" H 2550 4126 50  0000 C CNN
F 2 "" H 2550 3900 50  0001 C CNN
F 3 "" H 2550 3900 50  0001 C CNN
	1    2550 3900
	1    0    0    -1  
$EndComp
$Comp
L CG24-cells:O4R U42R?
U 1 1 5E7DFA5A
P 2550 4600
AR Path="/5E7DFA5A" Ref="U42R?"  Part="1" 
AR Path="/5F7DAEE5/5E7DFA5A" Ref="U42R?"  Part="1" 
AR Path="/5E7C51BB/5E7DFA5A" Ref="U2R62"  Part="1" 
F 0 "U2R62" H 2550 4917 50  0000 C CNN
F 1 "O4R" H 2550 4826 50  0000 C CNN
F 2 "" H 2550 4600 50  0001 C CNN
F 3 "" H 2550 4600 50  0001 C CNN
	1    2550 4600
	1    0    0    -1  
$EndComp
$Comp
L CG24-cells:O4R U42R?
U 1 1 5E7DFA60
P 2550 5300
AR Path="/5E7DFA60" Ref="U42R?"  Part="1" 
AR Path="/5F7DAEE5/5E7DFA60" Ref="U42R?"  Part="1" 
AR Path="/5E7C51BB/5E7DFA60" Ref="U2R53"  Part="1" 
F 0 "U2R53" H 2550 5617 50  0000 C CNN
F 1 "O4R" H 2550 5526 50  0000 C CNN
F 2 "" H 2550 5300 50  0001 C CNN
F 3 "" H 2550 5300 50  0001 C CNN
	1    2550 5300
	1    0    0    -1  
$EndComp
$Comp
L CG24-cells:O4R U42R?
U 1 1 5E7DFA66
P 2550 6000
AR Path="/5E7DFA66" Ref="U42R?"  Part="1" 
AR Path="/5F7DAEE5/5E7DFA66" Ref="U42R?"  Part="1" 
AR Path="/5E7C51BB/5E7DFA66" Ref="U2R51"  Part="1" 
F 0 "U2R51" H 2550 6317 50  0000 C CNN
F 1 "O4R" H 2550 6226 50  0000 C CNN
F 2 "" H 2550 6000 50  0001 C CNN
F 3 "" H 2550 6000 50  0001 C CNN
	1    2550 6000
	1    0    0    -1  
$EndComp
$Comp
L CG24-cells:B12 U42R?
U 1 1 5E7DF9CA
P 4600 1250
AR Path="/5E7DF9CA" Ref="U42R?"  Part="1" 
AR Path="/5F7DAEE5/5E7DF9CA" Ref="U42R?"  Part="1" 
AR Path="/5E7C51BB/5E7DF9CA" Ref="U2R88"  Part="1" 
F 0 "U2R88" H 4600 1615 50  0000 C CNN
F 1 "B12" H 4600 1524 50  0000 C CNN
F 2 "" H 4600 1250 50  0001 C CNN
F 3 "" H 4600 1250 50  0001 C CNN
	1    4600 1250
	1    0    0    -1  
$EndComp
$Comp
L CG24-cells:B12 U42R?
U 1 1 5E7DF9C3
P 4600 1950
AR Path="/5E7DF9C3" Ref="U42R?"  Part="1" 
AR Path="/5F7DAEE5/5E7DF9C3" Ref="U42R?"  Part="1" 
AR Path="/5E7C51BB/5E7DF9C3" Ref="U2R81"  Part="1" 
F 0 "U2R81" H 4600 2315 50  0000 C CNN
F 1 "B12" H 4600 2224 50  0000 C CNN
F 2 "" H 4600 1950 50  0001 C CNN
F 3 "" H 4600 1950 50  0001 C CNN
	1    4600 1950
	1    0    0    -1  
$EndComp
$Comp
L CG24-cells:B12 U42R?
U 1 1 5E7DF9BD
P 4600 2650
AR Path="/5E7DF9BD" Ref="U42R?"  Part="1" 
AR Path="/5F7DAEE5/5E7DF9BD" Ref="U42R?"  Part="1" 
AR Path="/5E7C51BB/5E7DF9BD" Ref="U2R77"  Part="1" 
F 0 "U2R77" H 4600 3015 50  0000 C CNN
F 1 "B12" H 4600 2924 50  0000 C CNN
F 2 "" H 4600 2650 50  0001 C CNN
F 3 "" H 4600 2650 50  0001 C CNN
	1    4600 2650
	1    0    0    -1  
$EndComp
$Comp
L CG24-cells:B12 U42R?
U 1 1 5E7DF9B7
P 4600 3350
AR Path="/5E7DF9B7" Ref="U42R?"  Part="1" 
AR Path="/5F7DAEE5/5E7DF9B7" Ref="U42R?"  Part="1" 
AR Path="/5E7C51BB/5E7DF9B7" Ref="U2R79"  Part="1" 
F 0 "U2R79" H 4600 3715 50  0000 C CNN
F 1 "B12" H 4600 3624 50  0000 C CNN
F 2 "" H 4600 3350 50  0001 C CNN
F 3 "" H 4600 3350 50  0001 C CNN
	1    4600 3350
	1    0    0    -1  
$EndComp
$Comp
L CG24-cells:B12 U42R?
U 1 1 5E7DF9A5
P 4600 4050
AR Path="/5E7DF9A5" Ref="U42R?"  Part="1" 
AR Path="/5F7DAEE5/5E7DF9A5" Ref="U42R?"  Part="1" 
AR Path="/5E7C51BB/5E7DF9A5" Ref="U2R67"  Part="1" 
F 0 "U2R67" H 4600 4415 50  0000 C CNN
F 1 "B12" H 4600 4324 50  0000 C CNN
F 2 "" H 4600 4050 50  0001 C CNN
F 3 "" H 4600 4050 50  0001 C CNN
	1    4600 4050
	1    0    0    -1  
$EndComp
$Comp
L CG24-cells:B12 U42R?
U 1 1 5E7DF99E
P 4600 4750
AR Path="/5E7DF99E" Ref="U42R?"  Part="1" 
AR Path="/5F7DAEE5/5E7DF99E" Ref="U42R?"  Part="1" 
AR Path="/5E7C51BB/5E7DF99E" Ref="U2R60"  Part="1" 
F 0 "U2R60" H 4600 5115 50  0000 C CNN
F 1 "B12" H 4600 5024 50  0000 C CNN
F 2 "" H 4600 4750 50  0001 C CNN
F 3 "" H 4600 4750 50  0001 C CNN
	1    4600 4750
	1    0    0    -1  
$EndComp
$Comp
L CG24-cells:B12 U42R?
U 1 1 5E7DF998
P 4600 5450
AR Path="/5E7DF998" Ref="U42R?"  Part="1" 
AR Path="/5F7DAEE5/5E7DF998" Ref="U42R?"  Part="1" 
AR Path="/5E7C51BB/5E7DF998" Ref="U2R56"  Part="1" 
F 0 "U2R56" H 4600 5815 50  0000 C CNN
F 1 "B12" H 4600 5724 50  0000 C CNN
F 2 "" H 4600 5450 50  0001 C CNN
F 3 "" H 4600 5450 50  0001 C CNN
	1    4600 5450
	1    0    0    -1  
$EndComp
$Comp
L CG24-cells:B12 U42R?
U 1 1 5E7DF992
P 4600 6150
AR Path="/5E7DF992" Ref="U42R?"  Part="1" 
AR Path="/5F7DAEE5/5E7DF992" Ref="U42R?"  Part="1" 
AR Path="/5E7C51BB/5E7DF992" Ref="U2R58"  Part="1" 
F 0 "U2R58" H 4600 6515 50  0000 C CNN
F 1 "B12" H 4600 6424 50  0000 C CNN
F 2 "" H 4600 6150 50  0001 C CNN
F 3 "" H 4600 6150 50  0001 C CNN
	1    4600 6150
	1    0    0    -1  
$EndComp
$Comp
L CG24-cells:O4R U40R?
U 1 1 5E7DFA1D
P 7800 1100
AR Path="/5E7DFA1D" Ref="U40R?"  Part="1" 
AR Path="/5F7DAEE5/5E7DFA1D" Ref="U40R?"  Part="1" 
AR Path="/5E7C51BB/5E7DFA1D" Ref="U2R42"  Part="1" 
F 0 "U2R42" H 7800 1417 50  0000 C CNN
F 1 "O4R" H 7800 1326 50  0000 C CNN
F 2 "" H 7800 1100 50  0001 C CNN
F 3 "" H 7800 1100 50  0001 C CNN
	1    7800 1100
	1    0    0    -1  
$EndComp
$Comp
L CG24-cells:O4R U42R?
U 1 1 5E7DFA23
P 7800 1800
AR Path="/5E7DFA23" Ref="U42R?"  Part="1" 
AR Path="/5F7DAEE5/5E7DFA23" Ref="U42R?"  Part="1" 
AR Path="/5E7C51BB/5E7DFA23" Ref="U2R32"  Part="1" 
F 0 "U2R32" H 7800 2117 50  0000 C CNN
F 1 "O4R" H 7800 2026 50  0000 C CNN
F 2 "" H 7800 1800 50  0001 C CNN
F 3 "" H 7800 1800 50  0001 C CNN
	1    7800 1800
	1    0    0    -1  
$EndComp
$Comp
L CG24-cells:O4R U42R?
U 1 1 5E7DFA29
P 7800 2500
AR Path="/5E7DFA29" Ref="U42R?"  Part="1" 
AR Path="/5F7DAEE5/5E7DFA29" Ref="U42R?"  Part="1" 
AR Path="/5E7C51BB/5E7DFA29" Ref="U2R30"  Part="1" 
F 0 "U2R30" H 7800 2817 50  0000 C CNN
F 1 "O4R" H 7800 2726 50  0000 C CNN
F 2 "" H 7800 2500 50  0001 C CNN
F 3 "" H 7800 2500 50  0001 C CNN
	1    7800 2500
	1    0    0    -1  
$EndComp
$Comp
L CG24-cells:O4R U42R?
U 1 1 5E7DFA2F
P 7800 3200
AR Path="/5E7DFA2F" Ref="U42R?"  Part="1" 
AR Path="/5F7DAEE5/5E7DFA2F" Ref="U42R?"  Part="1" 
AR Path="/5E7C51BB/5E7DFA2F" Ref="U2R22"  Part="1" 
F 0 "U2R22" H 7800 3517 50  0000 C CNN
F 1 "O4R" H 7800 3426 50  0000 C CNN
F 2 "" H 7800 3200 50  0001 C CNN
F 3 "" H 7800 3200 50  0001 C CNN
	1    7800 3200
	1    0    0    -1  
$EndComp
$Comp
L CG24-cells:O4R U2R?
U 1 1 5E7DF9DF
P 7800 3900
AR Path="/5E7DF9DF" Ref="U2R?"  Part="1" 
AR Path="/5F7DAEE5/5E7DF9DF" Ref="U2R?"  Part="1" 
AR Path="/5E7C51BB/5E7DF9DF" Ref="U2R27"  Part="1" 
F 0 "U2R27" H 7800 4217 50  0000 C CNN
F 1 "O4R" H 7800 4126 50  0000 C CNN
F 2 "" H 7800 3900 50  0001 C CNN
F 3 "" H 7800 3900 50  0001 C CNN
	1    7800 3900
	1    0    0    -1  
$EndComp
$Comp
L CG24-cells:O4R U2R?
U 1 1 5E7DF9E5
P 7800 4600
AR Path="/5E7DF9E5" Ref="U2R?"  Part="1" 
AR Path="/5F7DAEE5/5E7DF9E5" Ref="U2R?"  Part="1" 
AR Path="/5E7C51BB/5E7DF9E5" Ref="U4R22"  Part="1" 
F 0 "U4R22" H 7800 4917 50  0000 C CNN
F 1 "O4R" H 7800 4826 50  0000 C CNN
F 2 "" H 7800 4600 50  0001 C CNN
F 3 "" H 7800 4600 50  0001 C CNN
	1    7800 4600
	1    0    0    -1  
$EndComp
$Comp
L CG24-cells:O4R U2R?
U 1 1 5E7DF9EB
P 7800 5300
AR Path="/5E7DF9EB" Ref="U2R?"  Part="1" 
AR Path="/5F7DAEE5/5E7DF9EB" Ref="U2R?"  Part="1" 
AR Path="/5E7C51BB/5E7DF9EB" Ref="U4R27"  Part="1" 
F 0 "U4R27" H 7800 5617 50  0000 C CNN
F 1 "O4R" H 7800 5526 50  0000 C CNN
F 2 "" H 7800 5300 50  0001 C CNN
F 3 "" H 7800 5300 50  0001 C CNN
	1    7800 5300
	1    0    0    -1  
$EndComp
$Comp
L CG24-cells:O4R U2R?
U 1 1 5E7DF9F1
P 7800 6000
AR Path="/5E7DF9F1" Ref="U2R?"  Part="1" 
AR Path="/5F7DAEE5/5E7DF9F1" Ref="U2R?"  Part="1" 
AR Path="/5E7C51BB/5E7DF9F1" Ref="U4R32"  Part="1" 
F 0 "U4R32" H 7800 6317 50  0000 C CNN
F 1 "O4R" H 7800 6226 50  0000 C CNN
F 2 "" H 7800 6000 50  0001 C CNN
F 3 "" H 7800 6000 50  0001 C CNN
	1    7800 6000
	1    0    0    -1  
$EndComp
$Comp
L CG24-cells:B12 U42R?
U 1 1 5E7DF981
P 9850 1250
AR Path="/5E7DF981" Ref="U42R?"  Part="1" 
AR Path="/5F7DAEE5/5E7DF981" Ref="U42R?"  Part="1" 
AR Path="/5E7C51BB/5E7DF981" Ref="U2R45"  Part="1" 
F 0 "U2R45" H 9850 1615 50  0000 C CNN
F 1 "B12" H 9850 1524 50  0000 C CNN
F 2 "" H 9850 1250 50  0001 C CNN
F 3 "" H 9850 1250 50  0001 C CNN
	1    9850 1250
	1    0    0    -1  
$EndComp
$Comp
L CG24-cells:B12 U42R?
U 1 1 5E7DF97A
P 9850 1950
AR Path="/5E7DF97A" Ref="U42R?"  Part="1" 
AR Path="/5F7DAEE5/5E7DF97A" Ref="U42R?"  Part="1" 
AR Path="/5E7C51BB/5E7DF97A" Ref="U2R35"  Part="1" 
F 0 "U2R35" H 9850 2315 50  0000 C CNN
F 1 "B12" H 9850 2224 50  0000 C CNN
F 2 "" H 9850 1950 50  0001 C CNN
F 3 "" H 9850 1950 50  0001 C CNN
	1    9850 1950
	1    0    0    -1  
$EndComp
$Comp
L CG24-cells:B12 U42R?
U 1 1 5E7DF974
P 9850 2650
AR Path="/5E7DF974" Ref="U42R?"  Part="1" 
AR Path="/5F7DAEE5/5E7DF974" Ref="U42R?"  Part="1" 
AR Path="/5E7C51BB/5E7DF974" Ref="U2R37"  Part="1" 
F 0 "U2R37" H 9850 3015 50  0000 C CNN
F 1 "B12" H 9850 2924 50  0000 C CNN
F 2 "" H 9850 2650 50  0001 C CNN
F 3 "" H 9850 2650 50  0001 C CNN
	1    9850 2650
	1    0    0    -1  
$EndComp
$Comp
L CG24-cells:B12 U42R?
U 1 1 5E7DF96E
P 9850 3350
AR Path="/5E7DF96E" Ref="U42R?"  Part="1" 
AR Path="/5F7DAEE5/5E7DF96E" Ref="U42R?"  Part="1" 
AR Path="/5E7C51BB/5E7DF96E" Ref="U2R25"  Part="1" 
F 0 "U2R25" H 9850 3715 50  0000 C CNN
F 1 "B12" H 9850 3624 50  0000 C CNN
F 2 "" H 9850 3350 50  0001 C CNN
F 3 "" H 9850 3350 50  0001 C CNN
	1    9850 3350
	1    0    0    -1  
$EndComp
$Comp
L CG24-cells:B12 U42R?
U 1 1 5E7DF955
P 9850 4050
AR Path="/5E7DF955" Ref="U42R?"  Part="1" 
AR Path="/5F7DAEE5/5E7DF955" Ref="U42R?"  Part="1" 
AR Path="/5E7C51BB/5E7DF955" Ref="U2R39"  Part="1" 
F 0 "U2R39" H 9850 4415 50  0000 C CNN
F 1 "B12" H 9850 4324 50  0000 C CNN
F 2 "" H 9850 4050 50  0001 C CNN
F 3 "" H 9850 4050 50  0001 C CNN
	1    9850 4050
	1    0    0    -1  
$EndComp
$Comp
L CG24-cells:B12 U42R?
U 1 1 5E7DF94E
P 9850 4750
AR Path="/5E7DF94E" Ref="U42R?"  Part="1" 
AR Path="/5F7DAEE5/5E7DF94E" Ref="U42R?"  Part="1" 
AR Path="/5E7C51BB/5E7DF94E" Ref="U4R25"  Part="1" 
F 0 "U4R25" H 9850 5115 50  0000 C CNN
F 1 "B12" H 9850 5024 50  0000 C CNN
F 2 "" H 9850 4750 50  0001 C CNN
F 3 "" H 9850 4750 50  0001 C CNN
	1    9850 4750
	1    0    0    -1  
$EndComp
$Comp
L CG24-cells:B12 U42R?
U 1 1 5E7DFA10
P 9850 5450
AR Path="/5E7DFA10" Ref="U42R?"  Part="1" 
AR Path="/5F7DAEE5/5E7DFA10" Ref="U42R?"  Part="1" 
AR Path="/5E7C51BB/5E7DFA10" Ref="U4R30"  Part="1" 
F 0 "U4R30" H 9850 5815 50  0000 C CNN
F 1 "B12" H 9850 5724 50  0000 C CNN
F 2 "" H 9850 5450 50  0001 C CNN
F 3 "" H 9850 5450 50  0001 C CNN
	1    9850 5450
	1    0    0    -1  
$EndComp
$Comp
L CG24-cells:B12 U42R?
U 1 1 5E7DF948
P 9850 6150
AR Path="/5E7DF948" Ref="U42R?"  Part="1" 
AR Path="/5F7DAEE5/5E7DF948" Ref="U42R?"  Part="1" 
AR Path="/5E7C51BB/5E7DF948" Ref="U4R35"  Part="1" 
F 0 "U4R35" H 9850 6515 50  0000 C CNN
F 1 "B12" H 9850 6424 50  0000 C CNN
F 2 "" H 9850 6150 50  0001 C CNN
F 3 "" H 9850 6150 50  0001 C CNN
	1    9850 6150
	1    0    0    -1  
$EndComp
$EndSCHEMATC
