EESchema Schematic File Version 5
EELAYER 33 0
EELAYER END
$Descr A4 11693 8268
encoding utf-8
Sheet 16 20
Title ""
Date "2020-04-12"
Rev ""
Comp ""
Comment1 ""
Comment2 "Licence: CC-BY"
Comment3 "Author: Loic *WydD* Petit"
Comment4 "Project: CPS2 Reverse Engineering: DL-1827"
Comment5 ""
Comment6 ""
Comment7 ""
Comment8 ""
Comment9 ""
$EndDescr
Connection ~ 3600 6350
Connection ~ 3600 2150
Connection ~ 3600 2850
Connection ~ 3600 4950
Connection ~ 3600 5650
Connection ~ 6900 2150
Connection ~ 6900 2850
Connection ~ 3600 3550
Connection ~ 3600 4250
Connection ~ 6900 3550
Connection ~ 6900 4250
Connection ~ 3800 700 
Connection ~ 4750 6350
Entry Wire Line
	3900 1200 3800 1100
Entry Wire Line
	3900 1900 3800 1800
Entry Wire Line
	3900 2600 3800 2500
Entry Wire Line
	3900 3300 3800 3200
Entry Wire Line
	3900 4000 3800 3900
Entry Wire Line
	3900 4700 3800 4600
Entry Wire Line
	3900 5400 3800 5300
Entry Wire Line
	3900 6100 3800 6000
Entry Wire Line
	7200 1200 7100 1100
Entry Wire Line
	7200 1900 7100 1800
Entry Wire Line
	7200 2600 7100 2500
Entry Wire Line
	7200 3300 7100 3200
Entry Wire Line
	7200 4000 7100 3900
Wire Wire Line
	3600 1450 3600 2150
Wire Wire Line
	3600 1450 4750 1450
Wire Wire Line
	3600 2150 3600 2850
Wire Wire Line
	3600 2150 4750 2150
Wire Wire Line
	3600 2850 3600 3550
Wire Wire Line
	3600 2850 4750 2850
Wire Wire Line
	3600 3550 3600 4250
Wire Wire Line
	3600 3550 4750 3550
Wire Wire Line
	3600 4250 3600 4950
Wire Wire Line
	3600 4250 4750 4250
Wire Wire Line
	3600 4950 3600 5650
Wire Wire Line
	3600 4950 4750 4950
Wire Wire Line
	3600 5650 3600 6350
Wire Wire Line
	3600 5650 4750 5650
Wire Wire Line
	3600 6350 4750 6350
Wire Wire Line
	4450 1200 3900 1200
Wire Wire Line
	4450 1900 3900 1900
Wire Wire Line
	4450 2600 3900 2600
Wire Wire Line
	4450 3300 3900 3300
Wire Wire Line
	4450 4000 3900 4000
Wire Wire Line
	4450 4700 3900 4700
Wire Wire Line
	4450 5400 3900 5400
Wire Wire Line
	4450 6100 3900 6100
Wire Wire Line
	6900 1450 6900 2150
Wire Wire Line
	6900 1450 8050 1450
Wire Wire Line
	6900 2150 6900 2850
Wire Wire Line
	6900 2150 8050 2150
Wire Wire Line
	6900 2850 6900 3550
Wire Wire Line
	6900 2850 8050 2850
Wire Wire Line
	6900 3550 6900 4250
Wire Wire Line
	6900 3550 8050 3550
Wire Wire Line
	6900 4250 6900 6350
Wire Wire Line
	6900 4250 8050 4250
Wire Wire Line
	6900 6350 4750 6350
Wire Wire Line
	7750 1200 7200 1200
Wire Wire Line
	7750 1900 7200 1900
Wire Wire Line
	7750 2600 7200 2600
Wire Wire Line
	7750 3300 7200 3300
Wire Wire Line
	7750 4000 7200 4000
Wire Bus Line
	3000 700  3800 700 
Wire Bus Line
	3800 700  3800 1800
Wire Bus Line
	3800 1800 3800 3200
Wire Bus Line
	3800 3200 3800 4600
Wire Bus Line
	3800 4600 3800 6000
Wire Bus Line
	7100 700  3800 700 
Wire Bus Line
	7100 700  7100 1100
Wire Bus Line
	7100 1100 7100 2500
Wire Bus Line
	7100 2500 7100 3900
Text Label 4400 1200 2    50   ~ 0
ADDR-OUT0
Text Label 4400 1900 2    50   ~ 0
ADDR-OUT1
Text Label 4400 2600 2    50   ~ 0
ADDR-OUT2
Text Label 4400 3300 2    50   ~ 0
ADDR-OUT3
Text Label 4400 4000 2    50   ~ 0
ADDR-OUT4
Text Label 4400 4700 2    50   ~ 0
ADDR-OUT5
Text Label 4400 5400 2    50   ~ 0
ADDR-OUT6
Text Label 4400 6100 2    50   ~ 0
ADDR-OUT7
Text Label 7700 1200 2    50   ~ 0
ADDR-OUT8
Text Label 7700 1900 2    50   ~ 0
ADDR-OUT9
Text Label 7700 2600 2    50   ~ 0
ADDR-OUT10
Text Label 7700 3300 2    50   ~ 0
ADDR-OUT11
Text Label 7700 4000 2    50   ~ 0
ADDR-OUT12
Text HLabel 3000 700  0    50   Input ~ 0
ADDR-OUT[0..12]
Text HLabel 3000 6350 0    50   Input ~ 0
ENABLE
Text HLabel 5050 1200 2    50   Output ~ 0
ADDR0
Text HLabel 5050 1900 2    50   Output ~ 0
ADDR1
Text HLabel 5050 2600 2    50   Output ~ 0
ADDR2
Text HLabel 5050 3300 2    50   Output ~ 0
ADDR3
Text HLabel 5050 4000 2    50   Output ~ 0
ADDR4
Text HLabel 5050 4700 2    50   Output ~ 0
ADDR5
Text HLabel 5050 5400 2    50   Output ~ 0
ADDR6
Text HLabel 5050 6100 2    50   Output ~ 0
ADDR7
Text HLabel 8350 1200 2    50   Output ~ 0
ADDR8
Text HLabel 8350 1900 2    50   Output ~ 0
ADDR9
Text HLabel 8350 2600 2    50   Output ~ 0
ADDR10
Text HLabel 8350 3300 2    50   Output ~ 0
ADDR11
Text HLabel 8350 4000 2    50   Output ~ 0
ADDR12
$Comp
L CG24-cells:V2B U40R?
U 1 1 5F277987
P 3300 6350
AR Path="/5F7DAEE5/5F277987" Ref="U40R?"  Part="1" 
AR Path="/5F26E386/5F277987" Ref="U40R41"  Part="1" 
F 0 "U40R41" H 3300 6667 50  0000 C CNN
F 1 "V2B" H 3300 6576 50  0000 C CNN
F 2 "" H 3300 6150 50  0001 C CNN
F 3 "" H 3300 6150 50  0001 C CNN
	1    3300 6350
	1    0    0    -1  
$EndComp
$Comp
L CG24-cells:O4R U40R?
U 1 1 5F277996
P 4750 1200
AR Path="/5F277996" Ref="U40R?"  Part="1" 
AR Path="/5F7DAEE5/5F277996" Ref="U40R?"  Part="1" 
AR Path="/5F26E386/5F277996" Ref="U40R30"  Part="1" 
F 0 "U40R30" H 4750 1517 50  0000 C CNN
F 1 "O4R" H 4750 1426 50  0000 C CNN
F 2 "" H 4750 1200 50  0001 C CNN
F 3 "" H 4750 1200 50  0001 C CNN
	1    4750 1200
	1    0    0    -1  
$EndComp
$Comp
L CG24-cells:O4R U42R?
U 1 1 5F27799C
P 4750 1900
AR Path="/5F27799C" Ref="U42R?"  Part="1" 
AR Path="/5F7DAEE5/5F27799C" Ref="U42R?"  Part="1" 
AR Path="/5F26E386/5F27799C" Ref="U40R25"  Part="1" 
F 0 "U40R25" H 4750 2217 50  0000 C CNN
F 1 "O4R" H 4750 2126 50  0000 C CNN
F 2 "" H 4750 1900 50  0001 C CNN
F 3 "" H 4750 1900 50  0001 C CNN
	1    4750 1900
	1    0    0    -1  
$EndComp
$Comp
L CG24-cells:O4R U42R?
U 1 1 5F2779A2
P 4750 2600
AR Path="/5F2779A2" Ref="U42R?"  Part="1" 
AR Path="/5F7DAEE5/5F2779A2" Ref="U42R?"  Part="1" 
AR Path="/5F26E386/5F2779A2" Ref="U40R22"  Part="1" 
F 0 "U40R22" H 4750 2917 50  0000 C CNN
F 1 "O4R" H 4750 2826 50  0000 C CNN
F 2 "" H 4750 2600 50  0001 C CNN
F 3 "" H 4750 2600 50  0001 C CNN
	1    4750 2600
	1    0    0    -1  
$EndComp
$Comp
L CG24-cells:O4R U42R?
U 1 1 5F2779A8
P 4750 3300
AR Path="/5F2779A8" Ref="U42R?"  Part="1" 
AR Path="/5F7DAEE5/5F2779A8" Ref="U42R?"  Part="1" 
AR Path="/5F26E386/5F2779A8" Ref="U42R38"  Part="1" 
F 0 "U42R38" H 4750 3617 50  0000 C CNN
F 1 "O4R" H 4750 3526 50  0000 C CNN
F 2 "" H 4750 3300 50  0001 C CNN
F 3 "" H 4750 3300 50  0001 C CNN
	1    4750 3300
	1    0    0    -1  
$EndComp
$Comp
L CG24-cells:O4R U40R?
U 1 1 5F27796F
P 4750 4000
AR Path="/5F27796F" Ref="U40R?"  Part="1" 
AR Path="/5F7DAEE5/5F27796F" Ref="U40R?"  Part="1" 
AR Path="/5F26E386/5F27796F" Ref="U42R35"  Part="1" 
F 0 "U42R35" H 4750 4317 50  0000 C CNN
F 1 "O4R" H 4750 4226 50  0000 C CNN
F 2 "" H 4750 4000 50  0001 C CNN
F 3 "" H 4750 4000 50  0001 C CNN
	1    4750 4000
	1    0    0    -1  
$EndComp
$Comp
L CG24-cells:O4R U42R?
U 1 1 5F277975
P 4750 4700
AR Path="/5F277975" Ref="U42R?"  Part="1" 
AR Path="/5F7DAEE5/5F277975" Ref="U42R?"  Part="1" 
AR Path="/5F26E386/5F277975" Ref="U42R25"  Part="1" 
F 0 "U42R25" H 4750 5017 50  0000 C CNN
F 1 "O4R" H 4750 4926 50  0000 C CNN
F 2 "" H 4750 4700 50  0001 C CNN
F 3 "" H 4750 4700 50  0001 C CNN
	1    4750 4700
	1    0    0    -1  
$EndComp
$Comp
L CG24-cells:O4R U42R?
U 1 1 5F27797B
P 4750 5400
AR Path="/5F27797B" Ref="U42R?"  Part="1" 
AR Path="/5F7DAEE5/5F27797B" Ref="U42R?"  Part="1" 
AR Path="/5F26E386/5F27797B" Ref="U42R22"  Part="1" 
F 0 "U42R22" H 4750 5717 50  0000 C CNN
F 1 "O4R" H 4750 5626 50  0000 C CNN
F 2 "" H 4750 5400 50  0001 C CNN
F 3 "" H 4750 5400 50  0001 C CNN
	1    4750 5400
	1    0    0    -1  
$EndComp
$Comp
L CG24-cells:O4R U42R?
U 1 1 5F277981
P 4750 6100
AR Path="/5F277981" Ref="U42R?"  Part="1" 
AR Path="/5F7DAEE5/5F277981" Ref="U42R?"  Part="1" 
AR Path="/5F26E386/5F277981" Ref="U42R30"  Part="1" 
F 0 "U42R30" H 4750 6417 50  0000 C CNN
F 1 "O4R" H 4750 6326 50  0000 C CNN
F 2 "" H 4750 6100 50  0001 C CNN
F 3 "" H 4750 6100 50  0001 C CNN
	1    4750 6100
	1    0    0    -1  
$EndComp
$Comp
L CG24-cells:O4R U42R?
U 1 1 5F2897A1
P 8050 1200
AR Path="/5F2897A1" Ref="U42R?"  Part="1" 
AR Path="/5F7DAEE5/5F2897A1" Ref="U42R?"  Part="1" 
AR Path="/5E7C51BB/5F2897A1" Ref="U42R?"  Part="1" 
AR Path="/5F26E386/5F2897A1" Ref="U42R32"  Part="1" 
F 0 "U42R32" H 8050 1517 50  0000 C CNN
F 1 "O4R" H 8050 1426 50  0000 C CNN
F 2 "" H 8050 1200 50  0001 C CNN
F 3 "" H 8050 1200 50  0001 C CNN
	1    8050 1200
	1    0    0    -1  
$EndComp
$Comp
L CG24-cells:O4R U42R?
U 1 1 5F2897A7
P 8050 1900
AR Path="/5F2897A7" Ref="U42R?"  Part="1" 
AR Path="/5F7DAEE5/5F2897A7" Ref="U42R?"  Part="1" 
AR Path="/5E7C51BB/5F2897A7" Ref="U42R?"  Part="1" 
AR Path="/5F26E386/5F2897A7" Ref="U42R41"  Part="1" 
F 0 "U42R41" H 8050 2217 50  0000 C CNN
F 1 "O4R" H 8050 2126 50  0000 C CNN
F 2 "" H 8050 1900 50  0001 C CNN
F 3 "" H 8050 1900 50  0001 C CNN
	1    8050 1900
	1    0    0    -1  
$EndComp
$Comp
L CG24-cells:O4R U42R?
U 1 1 5F2897AD
P 8050 2600
AR Path="/5F2897AD" Ref="U42R?"  Part="1" 
AR Path="/5F7DAEE5/5F2897AD" Ref="U42R?"  Part="1" 
AR Path="/5E7C51BB/5F2897AD" Ref="U42R?"  Part="1" 
AR Path="/5F26E386/5F2897AD" Ref="U42R43"  Part="1" 
F 0 "U42R43" H 8050 2917 50  0000 C CNN
F 1 "O4R" H 8050 2826 50  0000 C CNN
F 2 "" H 8050 2600 50  0001 C CNN
F 3 "" H 8050 2600 50  0001 C CNN
	1    8050 2600
	1    0    0    -1  
$EndComp
$Comp
L CG24-cells:O4R U2R?
U 1 1 5F289774
P 8050 3300
AR Path="/5F289774" Ref="U2R?"  Part="1" 
AR Path="/5F7DAEE5/5F289774" Ref="U2R?"  Part="1" 
AR Path="/5E7C51BB/5F289774" Ref="U2R?"  Part="1" 
AR Path="/5F26E386/5F289774" Ref="U42R53"  Part="1" 
F 0 "U42R53" H 8050 3617 50  0000 C CNN
F 1 "O4R" H 8050 3526 50  0000 C CNN
F 2 "" H 8050 3300 50  0001 C CNN
F 3 "" H 8050 3300 50  0001 C CNN
	1    8050 3300
	1    0    0    -1  
$EndComp
$Comp
L CG24-cells:O4R U2R?
U 1 1 5F28977A
P 8050 4000
AR Path="/5F28977A" Ref="U2R?"  Part="1" 
AR Path="/5F7DAEE5/5F28977A" Ref="U2R?"  Part="1" 
AR Path="/5E7C51BB/5F28977A" Ref="U2R?"  Part="1" 
AR Path="/5F26E386/5F28977A" Ref="U42R60"  Part="1" 
F 0 "U42R60" H 8050 4317 50  0000 C CNN
F 1 "O4R" H 8050 4226 50  0000 C CNN
F 2 "" H 8050 4000 50  0001 C CNN
F 3 "" H 8050 4000 50  0001 C CNN
	1    8050 4000
	1    0    0    -1  
$EndComp
$EndSCHEMATC
